{
    "com.h2database:h2": [
        {
            "id": "CVE-2022-45868"
        },
        {
            "severity": "high"
        },
        {
            "path": [
                "bonita-latest",
                "com.h2database:h2"
            ]
        },
        {
            "depth": 1
        }
    ],
    "org.springframework:spring-expression": [
        {
            "id": "CVE-2023-20863"
        },
        {
            "severity": "medium"
        },
        {
            "path": [
                "bonita-latest",
                "org.springframework:spring-expression"
            ]
        },
        {
            "depth": 1
        }
    ],
    "org.apache.commons:commons-text": [
        {
            "id": "CVE-2022-42889"
        },
        {
            "severity": "critical"
        },
        {
            "path": [
                "bonita-latest",
                "org.apache.commons:commons-text"
            ]
        },
        {
            "depth": 1
        }
    ],
    "org.postgresql:postgresql": [
        {
            "id": "CVE-2022-41946"
        },
        {
            "severity": "medium"
        },
        {
            "path": [
                "bonita-latest",
                "org.postgresql:postgresql"
            ]
        },
        {
            "depth": 1
        }
    ],
    "org.springframework.boot:spring-boot-autoconfigure": [
        {
            "id": "CVE-2023-20883"
        },
        {
            "severity": "high"
        },
        {
            "path": [
                "bonita-latest",
                "org.springframework.boot:spring-boot-autoconfigure"
            ]
        },
        {
            "depth": 1
        }
    ],
    "org.yaml:snakeyaml": [
        {
            "id": "CVE-2022-1471"
        },
        {
            "severity": "critical"
        },
        {
            "path": [
                "bonita-latest",
                "org.yaml:snakeyaml"
            ]
        },
        {
            "depth": 1
        }
    ],
    "org.apache.tomcat:tomcat-catalina": [
        {
            "id": "CVE-2023-28708"
        },
        {
            "severity": "medium"
        },
        {
            "path": [
                "bonita-latest",
                "org.apache.tomcat:tomcat-catalina"
            ]
        },
        {
            "depth": 1
        }
    ],
    "com.fasterxml.jackson.core:jackson-databind": [
        {
            "id": "CVE-2022-42004"
        },
        {
            "severity": "high"
        },
        {
            "path": [
                "bonita-latest",
                "com.fasterxml.jackson.core:jackson-databind"
            ]
        },
        {
            "depth": 1
        }
    ],
    "org.apache.tomcat:tomcat-coyote": [
        {
            "id": "CVE-2023-24998"
        },
        {
            "severity": "high"
        },
        {
            "path": [
                "bonita-latest",
                "org.apache.tomcat:tomcat-coyote"
            ]
        },
        {
            "depth": 1
        }
    ],
    "org.apache.tomcat.embed:tomcat-embed-core": [
        {
            "id": "CVE-2022-45143"
        },
        {
            "severity": "high"
        },
        {
            "path": [
                "bonita-latest",
                "org.apache.tomcat.embed:tomcat-embed-core"
            ]
        },
        {
            "depth": 1
        }
    ],
    "org.apache.tomcat:tomcat-tribes": [
        {
            "id": "CVE-2022-29885"
        },
        {
            "severity": "medium"
        },
        {
            "path": [
                "bonita-latest",
                "org.apache.tomcat:tomcat-tribes"
            ]
        },
        {
            "depth": 1
        }
    ],
    "org.springframework:spring-web": [
        {
            "id": "CVE-2016-1000027"
        },
        {
            "severity": "high"
        },
        {
            "path": [
                "bonita-latest",
                "org.springframework:spring-web"
            ]
        },
        {
            "depth": 1
        }
    ],
    "org.eclipse.jetty:jetty-http": [
        {
            "id": "CVE-2023-26048"
        },
        {
            "severity": "medium"
        },
        {
            "path": [
                "bonita-latest",
                "org.eclipse.jetty:jetty-http"
            ]
        },
        {
            "depth": 1
        }
    ],
    "org.eclipse.jetty:jetty-server": [
        {
            "id": "CVE-2023-26049"
        },
        {
            "severity": "medium"
        },
        {
            "path": [
                "bonita-latest",
                "org.eclipse.jetty:jetty-server"
            ]
        },
        {
            "depth": 1
        }
    ],
    "org.eclipse.jetty:jetty-util": [
        {
            "id": "CVE-2023-26048"
        },
        {
            "severity": "medium"
        },
        {
            "path": [
                "bonita-latest",
                "org.eclipse.jetty:jetty-util"
            ]
        },
        {
            "depth": 1
        }
    ],
    "com.fasterxml.woodstox:woodstox-core": [
        {
            "id": "CVE-2022-40152"
        },
        {
            "severity": "high"
        },
        {
            "path": [
                "bonita-latest",
                "com.fasterxml.woodstox:woodstox-core"
            ]
        },
        {
            "depth": 1
        }
    ],
    "commons-fileupload:commons-fileupload": [
        {
            "id": "CVE-2023-24998"
        },
        {
            "severity": "high"
        },
        {
            "path": [
                "bonita-latest",
                "commons-fileupload:commons-fileupload"
            ]
        },
        {
            "depth": 1
        }
    ],
    "com.thoughtworks.xstream:xstream": [
        {
            "id": "CVE-2022-41966"
        },
        {
            "severity": "high"
        },
        {
            "path": [
                "bonita-latest",
                "com.thoughtworks.xstream:xstream"
            ]
        },
        {
            "depth": 1
        }
    ],
    "org.codehaus.jettison:jettison": [
        {
            "id": "CVE-2023-1436"
        },
        {
            "severity": "high"
        },
        {
            "path": [
                "bonita-latest",
                "org.codehaus.jettison:jettison"
            ]
        },
        {
            "depth": 1
        }
    ]
}