{
    "com.fasterxml.jackson.dataformat:jackson-dataformat-cbor": [
        {
            "id": "CVE-2020-28491"
        },
        {
            "severity": "medium"
        },
        {
            "path": [
                "elasticsearch-7.17.8",
                "com.fasterxml.jackson.dataformat:jackson-dataformat-cbor"
            ]
        },
        {
            "depth": 1
        }
    ],
    "org.yaml:snakeyaml": [
        {
            "id": "CVE-2022-1471"
        },
        {
            "severity": "critical"
        },
        {
            "path": [
                "elasticsearch-7.17.8",
                "org.yaml:snakeyaml"
            ]
        },
        {
            "depth": 1
        }
    ],
    "org.bouncycastle:bc-fips": [
        {
            "id": "CVE-2022-45146"
        },
        {
            "severity": "medium"
        },
        {
            "path": [
                "elasticsearch-7.17.8",
                "org.bouncycastle:bc-fips"
            ]
        },
        {
            "depth": 1
        }
    ],
    "com.google.protobuf:protobuf-java": [
        {
            "id": "CVE-2022-3510"
        },
        {
            "severity": "high"
        },
        {
            "path": [
                "elasticsearch-7.17.8",
                "com.google.protobuf:protobuf-java"
            ]
        },
        {
            "depth": 1
        }
    ],
    "net.minidev:json-smart": [
        {
            "id": "CVE-2023-1370"
        },
        {
            "severity": "high"
        },
        {
            "path": [
                "elasticsearch-7.17.8",
                "net.minidev:json-smart"
            ]
        },
        {
            "depth": 1
        }
    ],
    "org.apache.santuario:xmlsec": [
        {
            "id": "CVE-2021-40690"
        },
        {
            "severity": "medium"
        },
        {
            "path": [
                "elasticsearch-7.17.8",
                "org.apache.santuario:xmlsec"
            ]
        },
        {
            "depth": 1
        }
    ],
    "com.google.guava:guava": [
        {
            "id": "CVE-2020-8908"
        },
        {
            "severity": "low"
        },
        {
            "path": [
                "elasticsearch-7.17.8",
                "com.google.guava:guava"
            ]
        },
        {
            "depth": 1
        }
    ],
    "org.apache.httpcomponents:httpclient": [
        {
            "id": "CVE-2020-13956"
        },
        {
            "severity": "medium"
        },
        {
            "path": [
                "elasticsearch-7.17.8",
                "org.apache.httpcomponents:httpclient"
            ]
        },
        {
            "depth": 1
        }
    ],
    "com.fasterxml.jackson.core:jackson-databind": [
        {
            "id": "CVE-2021-46877"
        },
        {
            "severity": "high"
        },
        {
            "path": [
                "elasticsearch-7.17.8",
                "com.fasterxml.jackson.core:jackson-databind"
            ]
        },
        {
            "depth": 1
        }
    ],
    "io.netty:netty-codec": [
        {
            "id": "CVE-2022-41915"
        },
        {
            "severity": "medium"
        },
        {
            "path": [
                "elasticsearch-7.17.8",
                "io.netty:netty-codec"
            ]
        },
        {
            "depth": 1
        }
    ],
    "io.netty:netty-codec-http": [
        {
            "id": "CVE-2021-43797"
        },
        {
            "severity": "medium"
        },
        {
            "path": [
                "elasticsearch-7.17.8",
                "io.netty:netty-codec-http"
            ]
        },
        {
            "depth": 1
        }
    ],
    "io.netty:netty-common": [
        {
            "id": "CVE-2022-24823"
        },
        {
            "severity": "low"
        },
        {
            "path": [
                "elasticsearch-7.17.8",
                "io.netty:netty-common"
            ]
        },
        {
            "depth": 1
        }
    ],
    "com.ibm.icu:icu4j": [
        {
            "id": "CVE-2018-18928"
        },
        {
            "severity": "high"
        },
        {
            "path": [
                "elasticsearch-7.17.8",
                "com.ibm.icu:icu4j"
            ]
        },
        {
            "depth": 1
        }
    ]
}