{
    "pip": [
        {
            "id": "CVE-2018-20225"
        },
        {
            "severity": "medium"
        },
        {
            "path": [
                "hylang-0-python3.7",
                "pip"
            ]
        },
        {
            "depth": 1
        }
    ],
    "setuptools": [
        {
            "id": "CVE-2022-40897"
        },
        {
            "severity": "medium"
        },
        {
            "path": [
                "hylang-0-python3.7",
                "setuptools"
            ]
        },
        {
            "depth": 1
        }
    ]
}