{
    "com.fasterxml.jackson.core:jackson-databind": [
        {
            "id": "CVE-2022-42004"
        },
        {
            "severity": "high"
        },
        {
            "path": [
                "nuxeo-FT",
                "com.fasterxml.jackson.core:jackson-databind"
            ]
        },
        {
            "depth": 1
        }
    ],
    "commons-beanutils:commons-beanutils": [
        {
            "id": "CVE-2019-10086"
        },
        {
            "severity": "high"
        },
        {
            "path": [
                "nuxeo-FT",
                "commons-beanutils:commons-beanutils"
            ]
        },
        {
            "depth": 1
        }
    ],
    "commons-io:commons-io": [
        {
            "id": "CVE-2021-29425"
        },
        {
            "severity": "medium"
        },
        {
            "path": [
                "nuxeo-FT",
                "commons-io:commons-io"
            ]
        },
        {
            "depth": 1
        }
    ],
    "org.apache.httpcomponents:httpclient": [
        {
            "id": "CVE-2020-13956"
        },
        {
            "severity": "medium"
        },
        {
            "path": [
                "nuxeo-FT",
                "org.apache.httpcomponents:httpclient"
            ]
        },
        {
            "depth": 1
        }
    ],
    "org.apache.logging.log4j:log4j-core": [
        {
            "id": "CVE-2021-45105"
        },
        {
            "severity": "medium"
        },
        {
            "path": [
                "nuxeo-FT",
                "org.apache.logging.log4j:log4j-core"
            ]
        },
        {
            "depth": 1
        }
    ],
    "org.codehaus.jettison:jettison": [
        {
            "id": "CVE-2023-1436"
        },
        {
            "severity": "high"
        },
        {
            "path": [
                "nuxeo-FT",
                "org.codehaus.jettison:jettison"
            ]
        },
        {
            "depth": 1
        }
    ],
    "org.json:json": [
        {
            "id": "CVE-2022-45688"
        },
        {
            "severity": "high"
        },
        {
            "path": [
                "nuxeo-FT",
                "org.json:json"
            ]
        },
        {
            "depth": 1
        }
    ],
    "org.apache.tomcat:tomcat-catalina": [
        {
            "id": "CVE-2023-28708"
        },
        {
            "severity": "medium"
        },
        {
            "path": [
                "nuxeo-FT",
                "org.apache.tomcat:tomcat-catalina"
            ]
        },
        {
            "depth": 1
        }
    ],
    "net.minidev:json-smart": [
        {
            "id": "CVE-2023-1370"
        },
        {
            "severity": "high"
        },
        {
            "path": [
                "nuxeo-FT",
                "net.minidev:json-smart"
            ]
        },
        {
            "depth": 1
        }
    ],
    "org.apache.tomcat:tomcat-coyote": [
        {
            "id": "CVE-2023-24998"
        },
        {
            "severity": "high"
        },
        {
            "path": [
                "nuxeo-FT",
                "org.apache.tomcat:tomcat-coyote"
            ]
        },
        {
            "depth": 1
        }
    ],
    "org.apache.tomcat:tomcat-websocket": [
        {
            "id": "CVE-2020-13935"
        },
        {
            "severity": "medium"
        },
        {
            "path": [
                "nuxeo-FT",
                "org.apache.tomcat:tomcat-websocket"
            ]
        },
        {
            "depth": 1
        }
    ],
    "com.ibm.icu:icu4j": [
        {
            "id": "CVE-2018-18928"
        },
        {
            "severity": "high"
        },
        {
            "path": [
                "nuxeo-FT",
                "com.ibm.icu:icu4j"
            ]
        },
        {
            "depth": 1
        }
    ],
    "io.netty:netty-codec-http": [
        {
            "id": "CVE-2021-43797"
        },
        {
            "severity": "medium"
        },
        {
            "path": [
                "nuxeo-FT",
                "io.netty:netty-codec-http"
            ]
        },
        {
            "depth": 1
        }
    ],
    "org.apache.kafka:kafka-clients": [
        {
            "id": "CVE-2023-25194"
        },
        {
            "severity": "high"
        },
        {
            "path": [
                "nuxeo-FT",
                "org.apache.kafka:kafka-clients"
            ]
        },
        {
            "depth": 1
        }
    ],
    "com.thoughtworks.xstream:xstream": [
        {
            "id": "CVE-2022-41966"
        },
        {
            "severity": "high"
        },
        {
            "path": [
                "nuxeo-FT",
                "com.thoughtworks.xstream:xstream"
            ]
        },
        {
            "depth": 1
        }
    ],
    "com.google.oauth-client:google-oauth-client": [
        {
            "id": "CVE-2021-22573"
        },
        {
            "severity": "low"
        },
        {
            "path": [
                "nuxeo-FT",
                "com.google.oauth-client:google-oauth-client"
            ]
        },
        {
            "depth": 1
        }
    ],
    "io.netty:netty-handler": [
        {
            "id": "CVE-2021-21290"
        },
        {
            "severity": "low"
        },
        {
            "path": [
                "nuxeo-FT",
                "io.netty:netty-handler"
            ]
        },
        {
            "depth": 1
        }
    ],
    "org.bouncycastle:bcprov-jdk15on": [
        {
            "id": "CVE-2020-26939"
        },
        {
            "severity": "medium"
        },
        {
            "path": [
                "nuxeo-FT",
                "org.bouncycastle:bcprov-jdk15on"
            ]
        },
        {
            "depth": 1
        }
    ],
    "io.netty:netty-common": [
        {
            "id": "CVE-2021-21290"
        },
        {
            "severity": "low"
        },
        {
            "path": [
                "nuxeo-FT",
                "io.netty:netty-common"
            ]
        },
        {
            "depth": 1
        }
    ],
    "com.rabbitmq:amqp-client": [
        {
            "id": "CVE-2018-11087"
        },
        {
            "severity": "medium"
        },
        {
            "path": [
                "nuxeo-FT",
                "com.rabbitmq:amqp-client"
            ]
        },
        {
            "depth": 1
        }
    ],
    "org.apache.commons:commons-compress": [
        {
            "id": "CVE-2021-36090"
        },
        {
            "severity": "medium"
        },
        {
            "path": [
                "nuxeo-FT",
                "org.apache.commons:commons-compress"
            ]
        },
        {
            "depth": 1
        }
    ],
    "org.yaml:snakeyaml": [
        {
            "id": "CVE-2022-41854"
        },
        {
            "severity": "medium"
        },
        {
            "path": [
                "nuxeo-FT",
                "org.yaml:snakeyaml"
            ]
        },
        {
            "depth": 1
        }
    ],
    "org.quartz-scheduler:quartz": [
        {
            "id": "CVE-2019-13990"
        },
        {
            "severity": "high"
        },
        {
            "path": [
                "nuxeo-FT",
                "org.quartz-scheduler:quartz"
            ]
        },
        {
            "depth": 1
        }
    ],
    "org.codehaus.plexus:plexus-utils": [
        {
            "id": "CVE-2017-1000487"
        },
        {
            "severity": "high"
        },
        {
            "path": [
                "nuxeo-FT",
                "org.codehaus.plexus:plexus-utils"
            ]
        },
        {
            "depth": 1
        }
    ],
    "org.hibernate:hibernate-core": [
        {
            "id": "CVE-2020-25638"
        },
        {
            "severity": "medium"
        },
        {
            "path": [
                "nuxeo-FT",
                "org.hibernate:hibernate-core"
            ]
        },
        {
            "depth": 1
        }
    ],
    "org.apache.pdfbox:pdfbox": [
        {
            "id": "CVE-2021-31812"
        },
        {
            "severity": "medium"
        },
        {
            "path": [
                "nuxeo-FT",
                "org.apache.pdfbox:pdfbox"
            ]
        },
        {
            "depth": 1
        }
    ],
    "org.jolokia:jolokia-core": [
        {
            "id": "CVE-2018-10899"
        },
        {
            "severity": "medium"
        },
        {
            "path": [
                "nuxeo-FT",
                "org.jolokia:jolokia-core"
            ]
        },
        {
            "depth": 1
        }
    ],
    "io.netty:netty-codec": [
        {
            "id": "CVE-2020-11612"
        },
        {
            "severity": "medium"
        },
        {
            "path": [
                "nuxeo-FT",
                "io.netty:netty-codec"
            ]
        },
        {
            "depth": 1
        }
    ],
    "javax.servlet:jstl": [
        {
            "id": "CVE-2015-0254"
        },
        {
            "severity": "high"
        },
        {
            "path": [
                "nuxeo-FT",
                "javax.servlet:jstl"
            ]
        },
        {
            "depth": 1
        }
    ],
    "org.apache.poi:poi-scratchpad": [
        {
            "id": "CVE-2022-26336"
        },
        {
            "severity": "medium"
        },
        {
            "path": [
                "nuxeo-FT",
                "org.apache.poi:poi-scratchpad"
            ]
        },
        {
            "depth": 1
        }
    ],
    "org.apache.ant:ant": [
        {
            "id": "CVE-2021-36374"
        },
        {
            "severity": "medium"
        },
        {
            "path": [
                "nuxeo-FT",
                "org.apache.ant:ant"
            ]
        },
        {
            "depth": 1
        }
    ],
    "org.dom4j:dom4j": [
        {
            "id": "CVE-2020-10683"
        },
        {
            "severity": "high"
        },
        {
            "path": [
                "nuxeo-FT",
                "org.dom4j:dom4j"
            ]
        },
        {
            "depth": 1
        }
    ],
    "com.google.guava:guava": [
        {
            "id": "CVE-2020-8908"
        },
        {
            "severity": "low"
        },
        {
            "path": [
                "nuxeo-FT",
                "com.google.guava:guava"
            ]
        },
        {
            "depth": 1
        }
    ],
    "org.apache.poi:poi-ooxml": [
        {
            "id": "CVE-2019-12415"
        },
        {
            "severity": "low"
        },
        {
            "path": [
                "nuxeo-FT",
                "org.apache.poi:poi-ooxml"
            ]
        },
        {
            "depth": 1
        }
    ],
    "org.codehaus.jackson:jackson-mapper-asl": [
        {
            "id": "CVE-2019-10172"
        },
        {
            "severity": "medium"
        },
        {
            "path": [
                "nuxeo-FT",
                "org.codehaus.jackson:jackson-mapper-asl"
            ]
        },
        {
            "depth": 1
        }
    ],
    "commons-fileupload:commons-fileupload": [
        {
            "id": "CVE-2023-24998"
        },
        {
            "severity": "high"
        },
        {
            "path": [
                "nuxeo-FT",
                "commons-fileupload:commons-fileupload"
            ]
        },
        {
            "depth": 1
        }
    ],
    "com.fasterxml.jackson.dataformat:jackson-dataformat-cbor": [
        {
            "id": "CVE-2020-28491"
        },
        {
            "severity": "medium"
        },
        {
            "path": [
                "nuxeo-FT",
                "com.fasterxml.jackson.dataformat:jackson-dataformat-cbor"
            ]
        },
        {
            "depth": 1
        }
    ],
    "org.elasticsearch:elasticsearch": [
        {
            "id": "CVE-2019-7614"
        },
        {
            "severity": "medium"
        },
        {
            "path": [
                "nuxeo-FT",
                "org.elasticsearch:elasticsearch"
            ]
        },
        {
            "depth": 1
        }
    ],
    "com.google.protobuf:protobuf-java": [
        {
            "id": "CVE-2022-3509"
        },
        {
            "severity": "high"
        },
        {
            "path": [
                "nuxeo-FT",
                "com.google.protobuf:protobuf-java"
            ]
        },
        {
            "depth": 1
        }
    ],
    "mysql:mysql-connector-java": [
        {
            "id": "CVE-2022-21363"
        },
        {
            "severity": "medium"
        },
        {
            "path": [
                "nuxeo-FT",
                "mysql:mysql-connector-java"
            ]
        },
        {
            "depth": 1
        }
    ],
    "org.postgresql:postgresql": [
        {
            "id": "CVE-2022-31197"
        },
        {
            "severity": "high"
        },
        {
            "path": [
                "nuxeo-FT",
                "org.postgresql:postgresql"
            ]
        },
        {
            "depth": 1
        }
    ],
    "org.mongodb:mongo-java-driver": [
        {
            "id": "CVE-2021-20328"
        },
        {
            "severity": "medium"
        },
        {
            "path": [
                "nuxeo-FT",
                "org.mongodb:mongo-java-driver"
            ]
        },
        {
            "depth": 1
        }
    ]
}