{
    "guzzlehttp/guzzle": [
        {
            "id": "CVE-2022-31091"
        },
        {
            "severity": "medium"
        },
        {
            "path": [
                "owncloud-9-apache",
                "usr/src/owncloud/updater/composer.lock",
                "guzzlehttp/guzzle"
            ]
        },
        {
            "depth": 2
        }
    ],
    "league/flysystem": [
        {
            "id": "CVE-2021-32708"
        },
        {
            "severity": "high"
        },
        {
            "path": [
                "owncloud-9-apache",
                "usr/src/owncloud/3rdparty/composer.lock",
                "league/flysystem"
            ]
        },
        {
            "depth": 2
        }
    ],
    "pear/archive_tar": [
        {
            "id": "CVE-2021-32610"
        },
        {
            "severity": "low"
        },
        {
            "path": [
                "owncloud-9-apache",
                "usr/src/owncloud/3rdparty/composer.lock",
                "pear/archive_tar"
            ]
        },
        {
            "depth": 2
        }
    ],
    "phpseclib/phpseclib": [
        {
            "id": "CVE-2023-27560"
        },
        {
            "severity": "high"
        },
        {
            "path": [
                "owncloud-9-apache",
                "usr/src/owncloud/3rdparty/composer.lock",
                "phpseclib/phpseclib"
            ]
        },
        {
            "depth": 2
        }
    ]
}