{
    "time": [
        {
            "id": "CVE-2023-28756"
        },
        {
            "severity": "medium"
        },
        {
            "path": [
                "redmine-5.0.4-bullseye",
                "time"
            ]
        },
        {
            "depth": 1
        }
    ],
    "uri": [
        {
            "id": "CVE-2023-28755"
        },
        {
            "severity": "medium"
        },
        {
            "path": [
                "redmine-5.0.4-bullseye",
                "uri"
            ]
        },
        {
            "depth": 1
        }
    ],
    "activerecord": [
        {
            "id": "CVE-2017-17917"
        },
        {
            "severity": "medium"
        },
        {
            "path": [
                "redmine-5.0.4-bullseye",
                "activerecord"
            ]
        },
        {
            "depth": 1
        }
    ],
    "actionpack": [
        {
            "id": "CVE-2023-22792"
        },
        {
            "severity": "high"
        },
        {
            "path": [
                "redmine-5.0.4-bullseye",
                "actionpack"
            ]
        },
        {
            "depth": 1
        }
    ],
    "rack": [
        {
            "id": "CVE-2023-27539"
        },
        {
            "severity": "high"
        },
        {
            "path": [
                "redmine-5.0.4-bullseye",
                "rack"
            ]
        },
        {
            "depth": 1
        }
    ]
}