{
    "github.com/containerd/containerd": [
        {
            "id": "CVE-2023-25173"
        },
        {
            "severity": "high"
        },
        {
            "path": [
                "arangodb",
                "usr/bin/arangodb",
                "github.com/containerd/containerd"
            ]
        },
        {
            "depth": 2
        }
    ],
    "github.com/opencontainers/runc": [
        {
            "id": "CVE-2023-28642"
        },
        {
            "severity": "high"
        },
        {
            "path": [
                "arangodb",
                "usr/bin/arangodb",
                "github.com/opencontainers/runc"
            ]
        },
        {
            "depth": 2
        }
    ],
    "ejs": [
        {
            "id": "CVE-2023-29827"
        },
        {
            "severity": "critical"
        },
        {
            "path": [
                "arangodb",
                "ejs"
            ]
        },
        {
            "depth": 1
        }
    ],
    "qs": [
        {
            "id": "CVE-2022-24999"
        },
        {
            "severity": "high"
        },
        {
            "path": [
                "arangodb",
                "qs"
            ]
        },
        {
            "depth": 1
        }
    ]
}