{
    "org.yaml:snakeyaml": [
        {
            "id": "CVE-2022-41854"
        },
        {
            "severity": "medium"
        },
        {
            "path": [
                "crate-5.1.0",
                "org.yaml:snakeyaml"
            ]
        },
        {
            "depth": 1
        }
    ],
    "com.fasterxml.jackson.core:jackson-databind": [
        {
            "id": "CVE-2022-42003"
        },
        {
            "severity": "high"
        },
        {
            "path": [
                "crate-5.1.0",
                "com.fasterxml.jackson.core:jackson-databind"
            ]
        },
        {
            "depth": 1
        }
    ],
    "io.netty:netty-codec": [
        {
            "id": "CVE-2022-41915"
        },
        {
            "severity": "medium"
        },
        {
            "path": [
                "crate-5.1.0",
                "io.netty:netty-codec"
            ]
        },
        {
            "depth": 1
        }
    ],
    "pip": [
        {
            "id": "CVE-2018-20225"
        },
        {
            "severity": "medium"
        },
        {
            "path": [
                "crate-5.1.0",
                "pip"
            ]
        },
        {
            "depth": 1
        }
    ]
}