{
    "github.com/moby/buildkit": [
        {
            "id": "CVE-2023-26054"
        },
        {
            "severity": "medium"
        },
        {
            "path": [
                "docker-cli",
                "usr/libexec/docker/cli-plugins/docker-buildx",
                "github.com/moby/buildkit"
            ]
        },
        {
            "depth": 2
        }
    ],
    "github.com/opencontainers/runc": [
        {
            "id": "CVE-2023-28642"
        },
        {
            "severity": "high"
        },
        {
            "path": [
                "docker-cli",
                "usr/libexec/docker/cli-plugins/docker-buildx",
                "github.com/opencontainers/runc"
            ]
        },
        {
            "depth": 2
        }
    ],
    "golang.org/x/net": [
        {
            "id": "CVE-2022-41723"
        },
        {
            "severity": "high"
        },
        {
            "path": [
                "docker-cli",
                "usr/libexec/docker/cli-plugins/docker-buildx",
                "golang.org/x/net"
            ]
        },
        {
            "depth": 2
        }
    ],
    "github.com/containerd/containerd": [
        {
            "id": "CVE-2023-25173"
        },
        {
            "severity": "high"
        },
        {
            "path": [
                "docker-cli",
                "usr/libexec/docker/cli-plugins/docker-buildx",
                "github.com/containerd/containerd"
            ]
        },
        {
            "depth": 2
        }
    ]
}