{
    "github.com/opencontainers/runc": [
        {
            "id": "CVE-2023-28642"
        },
        {
            "severity": "high"
        },
        {
            "path": [
                "ghost-5",
                "usr/local/bin/gosu",
                "github.com/opencontainers/runc"
            ]
        },
        {
            "depth": 2
        }
    ],
    "static-eval": [
        {
            "id": "CVE-2021-23334"
        },
        {
            "severity": "unknown"
        },
        {
            "path": [
                "ghost-5",
                "static-eval"
            ]
        },
        {
            "depth": 1
        }
    ],
    "express-hbs": [
        {
            "id": "CVE-2021-32817"
        },
        {
            "severity": "medium"
        },
        {
            "path": [
                "ghost-5",
                "express-hbs"
            ]
        },
        {
            "depth": 1
        }
    ],
    "socket.io-parser": [
        {
            "id": "CVE-2023-32695"
        },
        {
            "severity": "high"
        },
        {
            "path": [
                "ghost-5",
                "socket.io-parser"
            ]
        },
        {
            "depth": 1
        }
    ],
    "knex": [
        {
            "id": "CVE-2016-20018"
        },
        {
            "severity": "high"
        },
        {
            "path": [
                "ghost-5",
                "knex"
            ]
        },
        {
            "depth": 1
        }
    ],
    "moment": [
        {
            "id": "CVE-2022-31129"
        },
        {
            "severity": "medium"
        },
        {
            "path": [
                "ghost-5",
                "moment"
            ]
        },
        {
            "depth": 1
        }
    ],
    "lodash.template": [
        {
            "id": "CVE-2021-23337"
        },
        {
            "severity": "medium"
        },
        {
            "path": [
                "ghost-5",
                "lodash.template"
            ]
        },
        {
            "depth": 1
        }
    ],
    "undici": [
        {
            "id": "CVE-2023-24807"
        },
        {
            "severity": "high"
        },
        {
            "path": [
                "ghost-5",
                "undici"
            ]
        },
        {
            "depth": 1
        }
    ],
    "lexical": [
        {
            "id": "CVE-2023-30792"
        },
        {
            "severity": "medium"
        },
        {
            "path": [
                "ghost-5",
                "lexical"
            ]
        },
        {
            "depth": 1
        }
    ],
    "dicer": [
        {
            "id": "CVE-2022-24434"
        },
        {
            "severity": "medium"
        },
        {
            "path": [
                "ghost-5",
                "dicer"
            ]
        },
        {
            "depth": 1
        }
    ],
    "word-wrap": [
        {
            "id": "CVE-2023-26115"
        },
        {
            "severity": "unknown"
        },
        {
            "path": [
                "ghost-5",
                "word-wrap"
            ]
        },
        {
            "depth": 1
        }
    ],
    "trim": [
        {
            "id": "CVE-2020-7753"
        },
        {
            "severity": "medium"
        },
        {
            "path": [
                "ghost-5",
                "trim"
            ]
        },
        {
            "depth": 1
        }
    ],
    "luxon": [
        {
            "id": "CVE-2023-22467"
        },
        {
            "severity": "high"
        },
        {
            "path": [
                "ghost-5",
                "luxon"
            ]
        },
        {
            "depth": 1
        }
    ],
    "got": [
        {
            "id": "CVE-2022-33987"
        },
        {
            "severity": "medium"
        },
        {
            "path": [
                "ghost-5",
                "got"
            ]
        },
        {
            "depth": 1
        }
    ],
    "mobiledoc-dom-renderer": [
        {
            "id": "CVE-2022-2932"
        },
        {
            "severity": "medium"
        },
        {
            "path": [
                "ghost-5",
                "mobiledoc-dom-renderer"
            ]
        },
        {
            "depth": 1
        }
    ],
    "underscore": [
        {
            "id": "CVE-2021-23358"
        },
        {
            "severity": "medium"
        },
        {
            "path": [
                "ghost-5",
                "underscore"
            ]
        },
        {
            "depth": 1
        }
    ],
    "sqlite3": [
        {
            "id": "CVE-2022-43441"
        },
        {
            "severity": "critical"
        },
        {
            "path": [
                "ghost-5",
                "sqlite3"
            ]
        },
        {
            "depth": 1
        }
    ],
    "http-cache-semantics": [
        {
            "id": "CVE-2022-25881"
        },
        {
            "severity": "high"
        },
        {
            "path": [
                "ghost-5",
                "http-cache-semantics"
            ]
        },
        {
            "depth": 1
        }
    ],
    "nth-check": [
        {
            "id": "CVE-2021-3803"
        },
        {
            "severity": "medium"
        },
        {
            "path": [
                "ghost-5",
                "nth-check"
            ]
        },
        {
            "depth": 1
        }
    ],
    "css-what": [
        {
            "id": "CVE-2022-21222"
        },
        {
            "severity": "high"
        },
        {
            "path": [
                "ghost-5",
                "css-what"
            ]
        },
        {
            "depth": 1
        }
    ],
    "jsonwebtoken": [
        {
            "id": "CVE-2022-23541"
        },
        {
            "severity": "medium"
        },
        {
            "path": [
                "ghost-5",
                "jsonwebtoken"
            ]
        },
        {
            "depth": 1
        }
    ],
    "request": [
        {
            "id": "CVE-2023-28155"
        },
        {
            "severity": "medium"
        },
        {
            "path": [
                "ghost-5",
                "request"
            ]
        },
        {
            "depth": 1
        }
    ],
    "decode-uri-component": [
        {
            "id": "CVE-2022-38900"
        },
        {
            "severity": "high"
        },
        {
            "path": [
                "ghost-5",
                "decode-uri-component"
            ]
        },
        {
            "depth": 1
        }
    ],
    "engine.io": [
        {
            "id": "CVE-2023-31125"
        },
        {
            "severity": "medium"
        },
        {
            "path": [
                "ghost-5",
                "engine.io"
            ]
        },
        {
            "depth": 1
        }
    ],
    "busboy": [
        {
            "id": "CVE-2022-24434"
        },
        {
            "severity": "medium"
        },
        {
            "path": [
                "ghost-5",
                "busboy"
            ]
        },
        {
            "depth": 1
        }
    ],
    "ghost": [
        {
            "id": "CVE-2023-32235"
        },
        {
            "severity": "high"
        },
        {
            "path": [
                "ghost-5",
                "ghost"
            ]
        },
        {
            "depth": 1
        }
    ]
}