{
    "commons-fileupload:commons-fileupload": [
        {
            "id": "CVE-2023-24998"
        },
        {
            "severity": "high"
        },
        {
            "path": [
                "glassfish-latest",
                "commons-fileupload:commons-fileupload"
            ]
        },
        {
            "depth": 1
        }
    ],
    "commons-io:commons-io": [
        {
            "id": "CVE-2021-29425"
        },
        {
            "severity": "medium"
        },
        {
            "path": [
                "glassfish-latest",
                "commons-io:commons-io"
            ]
        },
        {
            "depth": 1
        }
    ],
    "org.glassfish.main.web:web-naming": [
        {
            "id": "CVE-2017-10385"
        },
        {
            "severity": "medium"
        },
        {
            "path": [
                "glassfish-latest",
                "org.glassfish.main.web:web-naming"
            ]
        },
        {
            "depth": 1
        }
    ],
    "org.glassfish:javax.faces": [
        {
            "id": "CVE-2020-6950"
        },
        {
            "severity": "medium"
        },
        {
            "path": [
                "glassfish-latest",
                "org.glassfish:javax.faces"
            ]
        },
        {
            "depth": 1
        }
    ],
    "org.glassfish.web:javax.servlet.jsp.jstl": [
        {
            "id": "CVE-2015-0254"
        },
        {
            "severity": "high"
        },
        {
            "path": [
                "glassfish-latest",
                "org.glassfish.web:javax.servlet.jsp.jstl"
            ]
        },
        {
            "depth": 1
        }
    ],
    "com.fasterxml.jackson.core:jackson-databind": [
        {
            "id": "CVE-2022-42004"
        },
        {
            "severity": "high"
        },
        {
            "path": [
                "glassfish-latest",
                "com.fasterxml.jackson.core:jackson-databind"
            ]
        },
        {
            "depth": 1
        }
    ],
    "org.glassfish.main.grizzly:nucleus-grizzly-all": [
        {
            "id": "CVE-2017-1000028"
        },
        {
            "severity": "medium"
        },
        {
            "path": [
                "glassfish-latest",
                "org.glassfish.main.grizzly:nucleus-grizzly-all"
            ]
        },
        {
            "depth": 1
        }
    ],
    "org.glassfish.main.common:glassfish-mbeanserver": [
        {
            "id": "CVE-2017-10391"
        },
        {
            "severity": "high"
        },
        {
            "path": [
                "glassfish-latest",
                "org.glassfish.main.common:glassfish-mbeanserver"
            ]
        },
        {
            "depth": 1
        }
    ],
    "org.glassfish.main.admingui:console-common": [
        {
            "id": "CVE-2021-3314"
        },
        {
            "severity": "medium"
        },
        {
            "path": [
                "glassfish-latest",
                "org.glassfish.main.admingui:console-common"
            ]
        },
        {
            "depth": 1
        }
    ],
    "org.jvnet.libpam4j:libpam4j": [
        {
            "id": "CVE-2017-12197"
        },
        {
            "severity": "medium"
        },
        {
            "path": [
                "glassfish-latest",
                "org.jvnet.libpam4j:libpam4j"
            ]
        },
        {
            "depth": 1
        }
    ],
    "org.glassfish.main.jms:gf-jms-connector": [
        {
            "id": "CVE-2018-14324"
        },
        {
            "severity": "high"
        },
        {
            "path": [
                "glassfish-latest",
                "org.glassfish.main.jms:gf-jms-connector"
            ]
        },
        {
            "depth": 1
        }
    ],
    "org.glassfish.main.security:security": [
        {
            "id": "CVE-2015-4899"
        },
        {
            "severity": "medium"
        },
        {
            "path": [
                "glassfish-latest",
                "org.glassfish.main.security:security"
            ]
        },
        {
            "depth": 1
        }
    ],
    "com.google.guava:guava": [
        {
            "id": "CVE-2020-8908"
        },
        {
            "severity": "low"
        },
        {
            "path": [
                "glassfish-latest",
                "com.google.guava:guava"
            ]
        },
        {
            "depth": 1
        }
    ],
    "org.codehaus.jettison:jettison": [
        {
            "id": "CVE-2023-1436"
        },
        {
            "severity": "high"
        },
        {
            "path": [
                "glassfish-latest",
                "org.codehaus.jettison:jettison"
            ]
        },
        {
            "depth": 1
        }
    ],
    "org.glassfish:javax.el": [
        {
            "id": "CVE-2021-28170"
        },
        {
            "severity": "medium"
        },
        {
            "path": [
                "glassfish-latest",
                "org.glassfish:javax.el"
            ]
        },
        {
            "depth": 1
        }
    ],
    "org.glassfish.main.web:web-core": [
        {
            "id": "CVE-2022-45129"
        },
        {
            "severity": "high"
        },
        {
            "path": [
                "glassfish-latest",
                "org.glassfish.main.web:web-core"
            ]
        },
        {
            "depth": 1
        }
    ],
    "org.jboss.weld:weld-core-impl": [
        {
            "id": "CVE-2014-8122"
        },
        {
            "severity": "medium"
        },
        {
            "path": [
                "glassfish-latest",
                "org.jboss.weld:weld-core-impl"
            ]
        },
        {
            "depth": 1
        }
    ],
    "org.hibernate:hibernate-validator": [
        {
            "id": "CVE-2020-10693"
        },
        {
            "severity": "medium"
        },
        {
            "path": [
                "glassfish-latest",
                "org.hibernate:hibernate-validator"
            ]
        },
        {
            "depth": 1
        }
    ],
    "org.apache.derby:derby": [
        {
            "id": "CVE-2015-1832"
        },
        {
            "severity": "medium"
        },
        {
            "path": [
                "glassfish-latest",
                "org.apache.derby:derby"
            ]
        },
        {
            "depth": 1
        }
    ],
    "org.apache.derby:derbynet": [
        {
            "id": "CVE-2018-1313"
        },
        {
            "severity": "low"
        },
        {
            "path": [
                "glassfish-latest",
                "org.apache.derby:derbynet"
            ]
        },
        {
            "depth": 1
        }
    ],
    "org.glassfish.grizzly:grizzly-http": [
        {
            "id": "CVE-2017-1000028"
        },
        {
            "severity": "medium"
        },
        {
            "path": [
                "glassfish-latest",
                "org.glassfish.grizzly:grizzly-http"
            ]
        },
        {
            "depth": 1
        }
    ]
}