{
    "pip": [
        {
            "id": "CVE-2018-20225"
        },
        {
            "severity": "medium"
        },
        {
            "path": [
                "hylang-0",
                "pip"
            ]
        },
        {
            "depth": 1
        }
    ]
}