{
    "tough-cookie": [
        {
            "id": "CVE-2017-15010"
        },
        {
            "severity": "medium"
        },
        {
            "path": [
                "iojs-3",
                "tough-cookie"
            ]
        },
        {
            "depth": 1
        }
    ],
    "qs": [
        {
            "id": "CVE-2022-24999"
        },
        {
            "severity": "high"
        },
        {
            "path": [
                "iojs-3",
                "qs"
            ]
        },
        {
            "depth": 1
        }
    ],
    "bl": [
        {
            "id": "CVE-2020-8244"
        },
        {
            "severity": "medium"
        },
        {
            "path": [
                "iojs-3",
                "bl"
            ]
        },
        {
            "depth": 1
        }
    ],
    "is-my-json-valid": [
        {
            "id": "CVE-2016-2537"
        },
        {
            "severity": "medium"
        },
        {
            "path": [
                "iojs-3",
                "is-my-json-valid"
            ]
        },
        {
            "depth": 1
        }
    ],
    "hoek": [
        {
            "id": "CVE-2018-3728"
        },
        {
            "severity": "medium"
        },
        {
            "path": [
                "iojs-3",
                "hoek"
            ]
        },
        {
            "depth": 1
        }
    ],
    "hawk": [
        {
            "id": "CVE-2016-2515"
        },
        {
            "severity": "high"
        },
        {
            "path": [
                "iojs-3",
                "hawk"
            ]
        },
        {
            "depth": 1
        }
    ],
    "read-package-json": [
        {
            "id": "CVE-2019-16776"
        },
        {
            "severity": "medium"
        },
        {
            "path": [
                "iojs-3",
                "read-package-json"
            ]
        },
        {
            "depth": 1
        }
    ],
    "tar": [
        {
            "id": "CVE-2021-32804"
        },
        {
            "severity": "medium"
        },
        {
            "path": [
                "iojs-3",
                "debian",
                "tar"
            ]
        },
        {
            "depth": 2
        }
    ],
    "ms": [
        {
            "id": "CVE-2017-20162"
        },
        {
            "severity": "medium"
        },
        {
            "path": [
                "iojs-3",
                "ms"
            ]
        },
        {
            "depth": 1
        }
    ],
    "minimist": [
        {
            "id": "CVE-2020-7598"
        },
        {
            "severity": "medium"
        },
        {
            "path": [
                "iojs-3",
                "minimist"
            ]
        },
        {
            "depth": 1
        }
    ],
    "npm": [
        {
            "id": "CVE-2020-15095"
        },
        {
            "severity": "low"
        },
        {
            "path": [
                "iojs-3",
                "npm"
            ]
        },
        {
            "depth": 1
        }
    ]
}