{
    "org.codehaus.janino:janino": [
        {
            "id": "CVE-2023-33546"
        },
        {
            "severity": "medium"
        },
        {
            "path": [
                "lightstreamer-7.3-jdk8-tmurin",
                "org.codehaus.janino:janino"
            ]
        },
        {
            "depth": 1
        }
    ],
    "com.google.guava:guava": [
        {
            "id": "CVE-2020-8908"
        },
        {
            "severity": "low"
        },
        {
            "path": [
                "lightstreamer-7.3-jdk8-tmurin",
                "com.google.guava:guava"
            ]
        },
        {
            "depth": 1
        }
    ]
}