{
    "sinatra": [
        {
            "id": "CVE-2022-45442"
        },
        {
            "severity": "high"
        },
        {
            "path": [
                "logstash-8.6.0",
                "sinatra"
            ]
        },
        {
            "depth": 1
        }
    ],
    "rack": [
        {
            "id": "CVE-2023-27539"
        },
        {
            "severity": "high"
        },
        {
            "path": [
                "logstash-8.6.0",
                "rack"
            ]
        },
        {
            "depth": 1
        }
    ],
    "nokogiri": [
        {
            "id": "CVE-2022-23476"
        },
        {
            "severity": "high"
        },
        {
            "path": [
                "logstash-8.6.0",
                "nokogiri"
            ]
        },
        {
            "depth": 1
        }
    ],
    "rubyzip": [
        {
            "id": "CVE-2019-16892"
        },
        {
            "severity": "high"
        },
        {
            "path": [
                "logstash-8.6.0",
                "rubyzip"
            ]
        },
        {
            "depth": 1
        }
    ],
    "rexml": [
        {
            "id": "CVE-2021-28965"
        },
        {
            "severity": "medium"
        },
        {
            "path": [
                "logstash-8.6.0",
                "rexml"
            ]
        },
        {
            "depth": 1
        }
    ],
    "rdoc": [
        {
            "id": "CVE-2021-31799"
        },
        {
            "severity": "medium"
        },
        {
            "path": [
                "logstash-8.6.0",
                "rdoc"
            ]
        },
        {
            "depth": 1
        }
    ],
    "com.fasterxml.jackson.core:jackson-databind": [
        {
            "id": "CVE-2022-42004"
        },
        {
            "severity": "high"
        },
        {
            "path": [
                "logstash-8.6.0",
                "com.fasterxml.jackson.core:jackson-databind"
            ]
        },
        {
            "depth": 1
        }
    ],
    "com.google.guava:guava": [
        {
            "id": "CVE-2020-8908"
        },
        {
            "severity": "low"
        },
        {
            "path": [
                "logstash-8.6.0",
                "com.google.guava:guava"
            ]
        },
        {
            "depth": 1
        }
    ],
    "org.codehaus.janino:janino": [
        {
            "id": "CVE-2023-33546"
        },
        {
            "severity": "medium"
        },
        {
            "path": [
                "logstash-8.6.0",
                "org.codehaus.janino:janino"
            ]
        },
        {
            "depth": 1
        }
    ],
    "org.yaml:snakeyaml": [
        {
            "id": "CVE-2022-41854"
        },
        {
            "severity": "medium"
        },
        {
            "path": [
                "logstash-8.6.0",
                "org.yaml:snakeyaml"
            ]
        },
        {
            "depth": 1
        }
    ],
    "com.google.code.gson:gson": [
        {
            "id": "CVE-2022-25647"
        },
        {
            "severity": "medium"
        },
        {
            "path": [
                "logstash-8.6.0",
                "com.google.code.gson:gson"
            ]
        },
        {
            "depth": 1
        }
    ],
    "org.apache.kafka:kafka-clients": [
        {
            "id": "CVE-2023-25194"
        },
        {
            "severity": "high"
        },
        {
            "path": [
                "logstash-8.6.0",
                "org.apache.kafka:kafka-clients"
            ]
        },
        {
            "depth": 1
        }
    ],
    "org.glassfish.jersey.core:jersey-common": [
        {
            "id": "CVE-2021-28168"
        },
        {
            "severity": "low"
        },
        {
            "path": [
                "logstash-8.6.0",
                "org.glassfish.jersey.core:jersey-common"
            ]
        },
        {
            "depth": 1
        }
    ],
    "xalan:xalan": [
        {
            "id": "CVE-2022-34169"
        },
        {
            "severity": "high"
        },
        {
            "path": [
                "logstash-8.6.0",
                "xalan:xalan"
            ]
        },
        {
            "depth": 1
        }
    ],
    "xerces:xercesImpl": [
        {
            "id": "CVE-2017-10355"
        },
        {
            "severity": "medium"
        },
        {
            "path": [
                "logstash-8.6.0",
                "xerces:xercesImpl"
            ]
        },
        {
            "depth": 1
        }
    ]
}