{
    "com.google.guava:guava": [
        {
            "id": "CVE-2020-8908"
        },
        {
            "severity": "low"
        },
        {
            "path": [
                "neo4j-5-enterprise",
                "com.google.guava:guava"
            ]
        },
        {
            "depth": 1
        }
    ],
    "net.minidev:json-smart": [
        {
            "id": "CVE-2023-1370"
        },
        {
            "severity": "high"
        },
        {
            "path": [
                "neo4j-5-enterprise",
                "net.minidev:json-smart"
            ]
        },
        {
            "depth": 1
        }
    ],
    "org.eclipse.jetty:jetty-util": [
        {
            "id": "CVE-2023-26048"
        },
        {
            "severity": "medium"
        },
        {
            "path": [
                "neo4j-5-enterprise",
                "org.eclipse.jetty:jetty-util"
            ]
        },
        {
            "depth": 1
        }
    ],
    "org.eclipse.jetty:jetty-server": [
        {
            "id": "CVE-2023-26049"
        },
        {
            "severity": "medium"
        },
        {
            "path": [
                "neo4j-5-enterprise",
                "org.eclipse.jetty:jetty-server"
            ]
        },
        {
            "depth": 1
        }
    ],
    "org.eclipse.jetty:jetty-http": [
        {
            "id": "CVE-2023-26048"
        },
        {
            "severity": "medium"
        },
        {
            "path": [
                "neo4j-5-enterprise",
                "org.eclipse.jetty:jetty-http"
            ]
        },
        {
            "depth": 1
        }
    ],
    "org.codehaus.jettison:jettison": [
        {
            "id": "CVE-2023-1436"
        },
        {
            "severity": "high"
        },
        {
            "path": [
                "neo4j-5-enterprise",
                "org.codehaus.jettison:jettison"
            ]
        },
        {
            "depth": 1
        }
    ],
    "com.fasterxml.jackson.core:jackson-databind": [
        {
            "id": "CVE-2022-42004"
        },
        {
            "severity": "high"
        },
        {
            "path": [
                "neo4j-5-enterprise",
                "com.fasterxml.jackson.core:jackson-databind"
            ]
        },
        {
            "depth": 1
        }
    ]
}