{
    "com.hazelcast:hazelcast": [
        {
            "id": "CVE-2022-36437"
        },
        {
            "severity": "critical"
        },
        {
            "path": [
                "orientdb-3.1",
                "com.hazelcast:hazelcast"
            ]
        },
        {
            "depth": 1
        }
    ],
    "com.orientechnologies:orientdb-community": [
        {
            "id": "CVE-2015-2918"
        },
        {
            "severity": "medium"
        },
        {
            "path": [
                "orientdb-3.1",
                "com.orientechnologies:orientdb-community"
            ]
        },
        {
            "depth": 1
        }
    ]
}