{
    "pear/archive_tar": [
        {
            "id": "CVE-2021-32610"
        },
        {
            "severity": "low"
        },
        {
            "path": [
                "piwik-3.6.0-apache",
                "usr/src/piwik/composer.lock",
                "pear/archive_tar"
            ]
        },
        {
            "depth": 2
        }
    ],
    "tecnickcom/tcpdf": [
        {
            "id": "CVE-2018-17057"
        },
        {
            "severity": "high"
        },
        {
            "path": [
                "piwik-3.6.0-apache",
                "usr/src/piwik/composer.lock",
                "tecnickcom/tcpdf"
            ]
        },
        {
            "depth": 2
        }
    ],
    "angular": [
        {
            "id": "CVE-2020-7676"
        },
        {
            "severity": "low"
        },
        {
            "path": [
                "piwik-3.6.0-apache",
                "angular"
            ]
        },
        {
            "depth": 1
        }
    ],
    "jquery-ui": [
        {
            "id": "CVE-2016-7103"
        },
        {
            "severity": "medium"
        },
        {
            "path": [
                "piwik-3.6.0-apache",
                "jquery-ui"
            ]
        },
        {
            "depth": 1
        }
    ]
}