{
    "github.com/opencontainers/runc": [
        {
            "id": "CVE-2023-28642"
        },
        {
            "severity": "high"
        },
        {
            "path": [
                "redis-7.0.9",
                "usr/local/bin/gosu",
                "github.com/opencontainers/runc"
            ]
        },
        {
            "depth": 2
        }
    ]
}