{
    "org.apache.httpcomponents:httpclient": [
        {
            "id": "CVE-2020-13956"
        },
        {
            "severity": "medium"
        },
        {
            "path": [
                "sonarqube-lts-datacenter-search",
                "org.apache.httpcomponents:httpclient"
            ]
        },
        {
            "depth": 1
        }
    ],
    "io.netty:netty-codec": [
        {
            "id": "CVE-2022-41915"
        },
        {
            "severity": "medium"
        },
        {
            "path": [
                "sonarqube-lts-datacenter-search",
                "io.netty:netty-codec"
            ]
        },
        {
            "depth": 1
        }
    ],
    "io.netty:netty-codec-http": [
        {
            "id": "CVE-2021-43797"
        },
        {
            "severity": "medium"
        },
        {
            "path": [
                "sonarqube-lts-datacenter-search",
                "io.netty:netty-codec-http"
            ]
        },
        {
            "depth": 1
        }
    ],
    "io.netty:netty-common": [
        {
            "id": "CVE-2022-24823"
        },
        {
            "severity": "low"
        },
        {
            "path": [
                "sonarqube-lts-datacenter-search",
                "io.netty:netty-common"
            ]
        },
        {
            "depth": 1
        }
    ],
    "com.google.guava:guava": [
        {
            "id": "CVE-2020-8908"
        },
        {
            "severity": "low"
        },
        {
            "path": [
                "sonarqube-lts-datacenter-search",
                "com.google.guava:guava"
            ]
        },
        {
            "depth": 1
        }
    ],
    "org.apache.santuario:xmlsec": [
        {
            "id": "CVE-2021-40690"
        },
        {
            "severity": "medium"
        },
        {
            "path": [
                "sonarqube-lts-datacenter-search",
                "org.apache.santuario:xmlsec"
            ]
        },
        {
            "depth": 1
        }
    ],
    "net.minidev:json-smart": [
        {
            "id": "CVE-2023-1370"
        },
        {
            "severity": "high"
        },
        {
            "path": [
                "sonarqube-lts-datacenter-search",
                "net.minidev:json-smart"
            ]
        },
        {
            "depth": 1
        }
    ],
    "com.fasterxml.jackson.dataformat:jackson-dataformat-cbor": [
        {
            "id": "CVE-2020-28491"
        },
        {
            "severity": "medium"
        },
        {
            "path": [
                "sonarqube-lts-datacenter-search",
                "com.fasterxml.jackson.dataformat:jackson-dataformat-cbor"
            ]
        },
        {
            "depth": 1
        }
    ],
    "org.yaml:snakeyaml": [
        {
            "id": "CVE-2022-1471"
        },
        {
            "severity": "critical"
        },
        {
            "path": [
                "sonarqube-lts-datacenter-search",
                "org.yaml:snakeyaml"
            ]
        },
        {
            "depth": 1
        }
    ],
    "org.apache.sshd:sshd-common": [
        {
            "id": "CVE-2022-45047"
        },
        {
            "severity": "critical"
        },
        {
            "path": [
                "sonarqube-lts-datacenter-search",
                "org.apache.sshd:sshd-common"
            ]
        },
        {
            "depth": 1
        }
    ],
    "com.fasterxml.woodstox:woodstox-core": [
        {
            "id": "CVE-2022-40152"
        },
        {
            "severity": "high"
        },
        {
            "path": [
                "sonarqube-lts-datacenter-search",
                "com.fasterxml.woodstox:woodstox-core"
            ]
        },
        {
            "depth": 1
        }
    ],
    "com.hazelcast:hazelcast": [
        {
            "id": "CVE-2023-33264"
        },
        {
            "severity": "medium"
        },
        {
            "path": [
                "sonarqube-lts-datacenter-search",
                "com.hazelcast:hazelcast"
            ]
        },
        {
            "depth": 1
        }
    ],
    "org.json:json": [
        {
            "id": "CVE-2022-45688"
        },
        {
            "severity": "high"
        },
        {
            "path": [
                "sonarqube-lts-datacenter-search",
                "org.json:json"
            ]
        },
        {
            "depth": 1
        }
    ],
    "com.google.protobuf:protobuf-java": [
        {
            "id": "CVE-2022-3509"
        },
        {
            "severity": "high"
        },
        {
            "path": [
                "sonarqube-lts-datacenter-search",
                "com.google.protobuf:protobuf-java"
            ]
        },
        {
            "depth": 1
        }
    ],
    "org.springframework:spring-expression": [
        {
            "id": "CVE-2023-20863"
        },
        {
            "severity": "medium"
        },
        {
            "path": [
                "sonarqube-lts-datacenter-search",
                "org.springframework:spring-expression"
            ]
        },
        {
            "depth": 1
        }
    ],
    "com.h2database:h2": [
        {
            "id": "CVE-2022-45868"
        },
        {
            "severity": "high"
        },
        {
            "path": [
                "sonarqube-lts-datacenter-search",
                "com.h2database:h2"
            ]
        },
        {
            "depth": 1
        }
    ]
}