{
  "bomFormat" : "CycloneDX",
  "specVersion" : "1.4",
  "serialNumber" : "urn:uuid:1f96b449-607b-40bc-8f12-c652ab460f0e",
  "version" : 1,
  "metadata" : {
    "timestamp" : "2023-07-03T14:58:34Z",
    "tools" : [
      {
        "vendor" : "OWASP",
        "name" : "Dependency-Track",
        "version" : "4.8.2"
      }
    ],
    "component" : {
      "name" : "docker-cli",
      "version" : "SNAPSHOT",
      "type" : "application",
      "bom-ref" : "60be5e8e-84c8-45e9-93eb-5633703ce851"
    }
  },
  "components" : [
    {
      "name" : "alpine",
      "version" : "3.17.2",
      "type" : "operating-system",
      "bom-ref" : "33931b43-abe3-4ebb-8822-d9d9ab00b129"
    },
    {
      "name" : "alpine-baselayout",
      "version" : "3.4.0-r0",
      "purl" : "pkg:apk/alpine/alpine-baselayout@3.4.0-r0?distro=3.17.2",
      "type" : "library",
      "bom-ref" : "c6d907fa-8d7d-4da8-94aa-7995a9652851"
    },
    {
      "name" : "alpine-baselayout-data",
      "version" : "3.4.0-r0",
      "purl" : "pkg:apk/alpine/alpine-baselayout-data@3.4.0-r0?distro=3.17.2",
      "type" : "library",
      "bom-ref" : "b6894304-e5d5-47ab-a426-aa47249c4655"
    },
    {
      "name" : "alpine-keys",
      "version" : "2.4-r1",
      "purl" : "pkg:apk/alpine/alpine-keys@2.4-r1?distro=3.17.2",
      "type" : "library",
      "bom-ref" : "95a38f93-44f8-4056-a520-fa139bec7040"
    },
    {
      "name" : "apk-tools",
      "version" : "2.12.10-r1",
      "purl" : "pkg:apk/alpine/apk-tools@2.12.10-r1?distro=3.17.2",
      "type" : "library",
      "bom-ref" : "af80ced7-dccc-44b6-910a-68efe4a74b32"
    },
    {
      "name" : "busybox",
      "version" : "1.35.0-r29",
      "purl" : "pkg:apk/alpine/busybox@1.35.0-r29?distro=3.17.2",
      "type" : "library",
      "bom-ref" : "7fe69b3d-6cb5-4107-9300-c35c364bec2d"
    },
    {
      "name" : "busybox-binsh",
      "version" : "1.35.0-r29",
      "purl" : "pkg:apk/alpine/busybox-binsh@1.35.0-r29?distro=3.17.2",
      "type" : "library",
      "bom-ref" : "9e5aa957-a324-4c2a-a1cb-4b755054f4bd"
    },
    {
      "name" : "ca-certificates",
      "version" : "20220614-r4",
      "purl" : "pkg:apk/alpine/ca-certificates@20220614-r4?distro=3.17.2",
      "type" : "library",
      "bom-ref" : "0826a96b-b2d7-46e6-9660-84763c9aefea"
    },
    {
      "name" : "ca-certificates-bundle",
      "version" : "20220614-r4",
      "purl" : "pkg:apk/alpine/ca-certificates-bundle@20220614-r4?distro=3.17.2",
      "type" : "library",
      "bom-ref" : "319cfaed-454b-4c40-b1cd-3db7ba6db544"
    },
    {
      "name" : "cloud.google.com/go/compute/metadata",
      "version" : "v0.2.1",
      "purl" : "pkg:golang/cloud.google.com/go/compute/metadata@v0.2.1",
      "type" : "library",
      "bom-ref" : "0399a6a7-657b-42bb-b1ac-35c2065fc5d1"
    },
    {
      "name" : "github.com/AlecAivazis/survey/v2",
      "version" : "v2.3.6",
      "purl" : "pkg:golang/github.com/alecaivazis/survey/v2@v2.3.6",
      "type" : "library",
      "bom-ref" : "1a73d41d-90d9-4544-82de-ee733334e7fc"
    },
    {
      "name" : "github.com/Azure/go-autorest/autorest",
      "version" : "v0.11.24",
      "purl" : "pkg:golang/github.com/azure/go-autorest/autorest@v0.11.24",
      "type" : "library",
      "bom-ref" : "fac20796-cbe0-4c8d-9f40-c48be3036403"
    },
    {
      "name" : "github.com/Azure/go-autorest/autorest/adal",
      "version" : "v0.9.18",
      "purl" : "pkg:golang/github.com/azure/go-autorest/autorest/adal@v0.9.18",
      "type" : "library",
      "bom-ref" : "04657847-254b-48f2-8712-57de4413b36c"
    },
    {
      "name" : "github.com/Azure/go-autorest/autorest/date",
      "version" : "v0.3.0",
      "purl" : "pkg:golang/github.com/azure/go-autorest/autorest/date@v0.3.0",
      "type" : "library",
      "bom-ref" : "6fbb684b-25e2-4252-ab72-35ba09c10979"
    },
    {
      "name" : "github.com/Azure/go-autorest/logger",
      "version" : "v0.2.1",
      "purl" : "pkg:golang/github.com/azure/go-autorest/logger@v0.2.1",
      "type" : "library",
      "bom-ref" : "e83bd4a4-cce8-43f3-9d62-32133198c489"
    },
    {
      "name" : "github.com/Azure/go-autorest/tracing",
      "version" : "v0.6.0",
      "purl" : "pkg:golang/github.com/azure/go-autorest/tracing@v0.6.0",
      "type" : "library",
      "bom-ref" : "3a2099f4-996c-45ef-ab89-345cf3b68151"
    },
    {
      "name" : "github.com/agext/levenshtein",
      "version" : "v1.2.3",
      "purl" : "pkg:golang/github.com/agext/levenshtein@v1.2.3",
      "type" : "library",
      "bom-ref" : "30a1a54b-7a58-4e84-a890-5e7b78f51f55"
    },
    {
      "name" : "github.com/agl/ed25519",
      "version" : "v0.0.0-20170116200512-5312a6153412",
      "purl" : "pkg:golang/github.com/agl/ed25519@v0.0.0-20170116200512-5312a6153412",
      "type" : "library",
      "bom-ref" : "cb2a351e-cc1d-4810-a254-8b48718bc219"
    },
    {
      "name" : "github.com/apparentlymart/go-cidr",
      "version" : "v1.0.1",
      "purl" : "pkg:golang/github.com/apparentlymart/go-cidr@v1.0.1",
      "type" : "library",
      "bom-ref" : "dc38f79d-6819-4978-8ad8-13f30a220e66"
    },
    {
      "name" : "github.com/apparentlymart/go-textseg/v12",
      "version" : "v12.0.0",
      "purl" : "pkg:golang/github.com/apparentlymart/go-textseg/v12@v12.0.0",
      "type" : "library",
      "bom-ref" : "39df3e23-47e3-4f49-854c-a5bce085d2ae"
    },
    {
      "name" : "github.com/apparentlymart/go-textseg/v13",
      "version" : "v13.0.0",
      "purl" : "pkg:golang/github.com/apparentlymart/go-textseg/v13@v13.0.0",
      "type" : "library",
      "bom-ref" : "79fcf13f-114d-4275-898e-0f3fe5482f7c"
    },
    {
      "name" : "github.com/aws/aws-sdk-go-v2",
      "version" : "v1.16.3",
      "purl" : "pkg:golang/github.com/aws/aws-sdk-go-v2@v1.16.3",
      "type" : "library",
      "bom-ref" : "b820611e-a3d4-4964-96de-811d8ad52bb0"
    },
    {
      "name" : "github.com/aws/aws-sdk-go-v2/config",
      "version" : "v1.15.5",
      "purl" : "pkg:golang/github.com/aws/aws-sdk-go-v2/config@v1.15.5",
      "type" : "library",
      "bom-ref" : "19b1300a-c676-45f2-a7c8-7fc34ba213a0"
    },
    {
      "name" : "github.com/aws/aws-sdk-go-v2/credentials",
      "version" : "v1.12.0",
      "purl" : "pkg:golang/github.com/aws/aws-sdk-go-v2/credentials@v1.12.0",
      "type" : "library",
      "bom-ref" : "794bcb99-ec2f-4343-b255-e025155f1b59"
    },
    {
      "name" : "github.com/aws/aws-sdk-go-v2/feature/ec2/imds",
      "version" : "v1.12.4",
      "purl" : "pkg:golang/github.com/aws/aws-sdk-go-v2/feature/ec2/imds@v1.12.4",
      "type" : "library",
      "bom-ref" : "1752bf32-d864-4925-acaa-c262fb90a740"
    },
    {
      "name" : "github.com/aws/aws-sdk-go-v2/internal/configsources",
      "version" : "v1.1.10",
      "purl" : "pkg:golang/github.com/aws/aws-sdk-go-v2/internal/configsources@v1.1.10",
      "type" : "library",
      "bom-ref" : "5adeab0f-cbc7-43c6-8318-eb4d20f852a2"
    },
    {
      "name" : "github.com/aws/aws-sdk-go-v2/internal/endpoints/v2",
      "version" : "v2.4.4",
      "purl" : "pkg:golang/github.com/aws/aws-sdk-go-v2/internal/endpoints/v2@v2.4.4",
      "type" : "library",
      "bom-ref" : "9bcd1cc2-a25d-4842-8ceb-abc5b8a7a868"
    },
    {
      "name" : "github.com/aws/aws-sdk-go-v2/internal/ini",
      "version" : "v1.3.11",
      "purl" : "pkg:golang/github.com/aws/aws-sdk-go-v2/internal/ini@v1.3.11",
      "type" : "library",
      "bom-ref" : "a1983425-fd5a-4638-a455-d70882ee8d18"
    },
    {
      "name" : "github.com/aws/aws-sdk-go-v2/service/internal/presigned-url",
      "version" : "v1.9.4",
      "purl" : "pkg:golang/github.com/aws/aws-sdk-go-v2/service/internal/presigned-url@v1.9.4",
      "type" : "library",
      "bom-ref" : "3f2edeea-5ac5-45e5-8ffd-d1d3190ac045"
    },
    {
      "name" : "github.com/aws/aws-sdk-go-v2/service/sso",
      "version" : "v1.11.4",
      "purl" : "pkg:golang/github.com/aws/aws-sdk-go-v2/service/sso@v1.11.4",
      "type" : "library",
      "bom-ref" : "206c147f-5cd3-4ba8-9645-c8961d1ec125"
    },
    {
      "name" : "github.com/aws/aws-sdk-go-v2/service/sts",
      "version" : "v1.16.4",
      "purl" : "pkg:golang/github.com/aws/aws-sdk-go-v2/service/sts@v1.16.4",
      "type" : "library",
      "bom-ref" : "92364509-e602-4188-9fa3-65af81260a96"
    },
    {
      "name" : "github.com/aws/smithy-go",
      "version" : "v1.11.2",
      "purl" : "pkg:golang/github.com/aws/smithy-go@v1.11.2",
      "type" : "library",
      "bom-ref" : "89741f11-4cc5-47a8-996d-0efe49eaae12"
    },
    {
      "name" : "github.com/beorn7/perks",
      "version" : "v1.0.1",
      "purl" : "pkg:golang/github.com/beorn7/perks@v1.0.1",
      "type" : "library",
      "bom-ref" : "a962d061-bc2e-4d2b-9520-12bb0b54c383"
    },
    {
      "name" : "github.com/buger/goterm",
      "version" : "v1.0.4",
      "purl" : "pkg:golang/github.com/buger/goterm@v1.0.4",
      "type" : "library",
      "bom-ref" : "38bc0c61-3888-4c19-8f4c-cf086c45757c"
    },
    {
      "name" : "github.com/cenkalti/backoff/v4",
      "version" : "v4.1.2",
      "purl" : "pkg:golang/github.com/cenkalti/backoff/v4@v4.1.2",
      "type" : "library",
      "bom-ref" : "eeff864c-b09a-4d16-840b-87ddf4b32539"
    },
    {
      "name" : "github.com/cespare/xxhash/v2",
      "version" : "v2.1.2",
      "purl" : "pkg:golang/github.com/cespare/xxhash/v2@v2.1.2",
      "type" : "library",
      "bom-ref" : "dd355181-472c-4e6a-ab39-76993e67a001"
    },
    {
      "name" : "github.com/compose-spec/compose-go",
      "version" : "v1.6.0",
      "purl" : "pkg:golang/github.com/compose-spec/compose-go@v1.6.0",
      "type" : "library",
      "bom-ref" : "bd0c03bb-c79b-40c6-b06c-335606650303"
    },
    {
      "name" : "github.com/compose-spec/compose-go",
      "version" : "v1.9.0",
      "purl" : "pkg:golang/github.com/compose-spec/compose-go@v1.9.0",
      "type" : "library",
      "bom-ref" : "df6a3226-6872-4272-ba46-210e8ca65770"
    },
    {
      "name" : "github.com/containerd/console",
      "version" : "v1.0.3",
      "purl" : "pkg:golang/github.com/containerd/console@v1.0.3",
      "type" : "library",
      "bom-ref" : "181cb44c-1983-4c98-91b8-71f27d995dba"
    },
    {
      "name" : "github.com/containerd/containerd",
      "version" : "v1.6.16-0.20230124210447-1709cfe273d9",
      "purl" : "pkg:golang/github.com/containerd/containerd@v1.6.16-0.20230124210447-1709cfe273d9",
      "type" : "library",
      "bom-ref" : "6ff63d9c-f218-4690-975f-688df48d3b1b"
    },
    {
      "name" : "github.com/containerd/containerd",
      "version" : "v1.6.16",
      "purl" : "pkg:golang/github.com/containerd/containerd@v1.6.16",
      "type" : "library",
      "bom-ref" : "83b1a262-c92f-4319-9d50-ed6faf331792"
    },
    {
      "name" : "github.com/containerd/continuity",
      "version" : "v0.3.0",
      "purl" : "pkg:golang/github.com/containerd/continuity@v0.3.0",
      "type" : "library",
      "bom-ref" : "efbdd5fc-9a2e-4512-8f69-80a67cd4ec01"
    },
    {
      "name" : "github.com/containerd/ttrpc",
      "version" : "v1.1.0",
      "purl" : "pkg:golang/github.com/containerd/ttrpc@v1.1.0",
      "type" : "library",
      "bom-ref" : "c637d29b-9c04-497b-8557-3d2ac3114aab"
    },
    {
      "name" : "github.com/containerd/typeurl",
      "version" : "v1.0.2",
      "purl" : "pkg:golang/github.com/containerd/typeurl@v1.0.2",
      "type" : "library",
      "bom-ref" : "4e12afcd-f257-4582-a06e-39d461d7c888"
    },
    {
      "name" : "github.com/davecgh/go-spew",
      "version" : "v1.1.1",
      "purl" : "pkg:golang/github.com/davecgh/go-spew@v1.1.1",
      "type" : "library",
      "bom-ref" : "ddcea673-23e7-4ea2-badf-483f136228b9"
    },
    {
      "name" : "github.com/distribution/distribution/v3",
      "version" : "v3.0.0-20220725133111-4bf3547399eb",
      "purl" : "pkg:golang/github.com/distribution/distribution/v3@v3.0.0-20220725133111-4bf3547399eb",
      "type" : "library",
      "bom-ref" : "793ae66f-632e-46f7-9408-5ff52c078a8f"
    },
    {
      "name" : "github.com/distribution/distribution/v3",
      "version" : "v3.0.0-20221201083218-92d136e113cf",
      "purl" : "pkg:golang/github.com/distribution/distribution/v3@v3.0.0-20221201083218-92d136e113cf",
      "type" : "library",
      "bom-ref" : "a1a5de81-78f0-4ea3-9431-c4c6b9e1918d"
    },
    {
      "name" : "github.com/docker/buildx",
      "version" : "v0.10.2",
      "purl" : "pkg:golang/github.com/docker/buildx@v0.10.2",
      "type" : "library",
      "bom-ref" : "8e6a7b89-d006-49de-a4da-2192758ed992"
    },
    {
      "name" : "github.com/docker/cli",
      "version" : "v23.0.0-rc.1+incompatible",
      "purl" : "pkg:golang/github.com/docker/cli@v23.0.0-rc.1%20incompatible",
      "type" : "library",
      "bom-ref" : "71ae95e4-52c6-4969-af50-2a252826d770"
    },
    {
      "name" : "github.com/docker/cli",
      "version" : "v23.0.0+incompatible",
      "purl" : "pkg:golang/github.com/docker/cli@v23.0.0%20incompatible",
      "type" : "library",
      "bom-ref" : "80626524-62ef-4dbd-9c3d-9f3f6a61414a"
    },
    {
      "name" : "github.com/docker/cli-docs-tool",
      "version" : "v0.5.1",
      "purl" : "pkg:golang/github.com/docker/cli-docs-tool@v0.5.1",
      "type" : "library",
      "bom-ref" : "c61a8a89-98a0-45ff-8454-d5c851cd3fb3"
    },
    {
      "name" : "github.com/docker/distribution",
      "version" : "v2.8.1+incompatible",
      "purl" : "pkg:golang/github.com/docker/distribution@v2.8.1%20incompatible",
      "type" : "library",
      "bom-ref" : "6a521679-52b8-4968-840f-acb0ba05db35"
    },
    {
      "name" : "github.com/docker/docker",
      "version" : "v23.0.0-rc.1+incompatible",
      "purl" : "pkg:golang/github.com/docker/docker@v23.0.0-rc.1%20incompatible",
      "type" : "library",
      "bom-ref" : "853d6ab1-e1e8-4f9c-b229-948ff1448566"
    },
    {
      "name" : "github.com/docker/docker",
      "version" : "v23.0.0+incompatible",
      "purl" : "pkg:golang/github.com/docker/docker@v23.0.0%20incompatible",
      "type" : "library",
      "bom-ref" : "96d0f83c-a217-4623-ba57-75b05c93d2ee"
    },
    {
      "name" : "github.com/docker/docker-credential-helpers",
      "version" : "v0.7.0",
      "purl" : "pkg:golang/github.com/docker/docker-credential-helpers@v0.7.0",
      "type" : "library",
      "bom-ref" : "3c9b9ef7-6f46-4b09-87df-9acb18445e7b"
    },
    {
      "name" : "github.com/docker/go",
      "version" : "v1.5.1-1.0.20160303222718-d30aec9fd63c",
      "purl" : "pkg:golang/github.com/docker/go@v1.5.1-1.0.20160303222718-d30aec9fd63c",
      "type" : "library",
      "bom-ref" : "2e6051d6-e5eb-4aa0-a472-dbadf4546d5b"
    },
    {
      "name" : "github.com/docker/go-connections",
      "version" : "v0.4.0",
      "purl" : "pkg:golang/github.com/docker/go-connections@v0.4.0",
      "type" : "library",
      "bom-ref" : "80989b9b-386a-492d-88ce-c54c123ae509"
    },
    {
      "name" : "github.com/docker/go-metrics",
      "version" : "v0.0.1",
      "purl" : "pkg:golang/github.com/docker/go-metrics@v0.0.1",
      "type" : "library",
      "bom-ref" : "e3dffbce-2862-4a96-8f9b-73bc02f0fbde"
    },
    {
      "name" : "github.com/docker/go-units",
      "version" : "v0.5.0",
      "purl" : "pkg:golang/github.com/docker/go-units@v0.5.0",
      "type" : "library",
      "bom-ref" : "e7063f51-ab7c-45ef-ab0a-cc4595445670"
    },
    {
      "name" : "github.com/felixge/httpsnoop",
      "version" : "v1.0.2",
      "purl" : "pkg:golang/github.com/felixge/httpsnoop@v1.0.2",
      "type" : "library",
      "bom-ref" : "a2c44aa0-fb7a-4a50-b2f4-2c2ef8bdb462"
    },
    {
      "name" : "github.com/fvbommel/sortorder",
      "version" : "v1.0.1",
      "purl" : "pkg:golang/github.com/fvbommel/sortorder@v1.0.1",
      "type" : "library",
      "bom-ref" : "4fe65060-96a4-424f-b5d5-0c576d86bf96"
    },
    {
      "name" : "github.com/fvbommel/sortorder",
      "version" : "v1.0.2",
      "purl" : "pkg:golang/github.com/fvbommel/sortorder@v1.0.2",
      "type" : "library",
      "bom-ref" : "55485c9e-c2d5-4f50-9f83-740fac759bb1"
    },
    {
      "name" : "github.com/go-logr/logr",
      "version" : "v1.2.3",
      "purl" : "pkg:golang/github.com/go-logr/logr@v1.2.3",
      "type" : "library",
      "bom-ref" : "2cbe72f4-174d-44b5-b4c7-4f7e9ab26621"
    },
    {
      "name" : "github.com/go-logr/stdr",
      "version" : "v1.2.2",
      "purl" : "pkg:golang/github.com/go-logr/stdr@v1.2.2",
      "type" : "library",
      "bom-ref" : "ad3a76ef-5d6d-4b8c-a255-498cb5f5bbc6"
    },
    {
      "name" : "github.com/gofrs/flock",
      "version" : "v0.8.1",
      "purl" : "pkg:golang/github.com/gofrs/flock@v0.8.1",
      "type" : "library",
      "bom-ref" : "44252e19-b315-463c-aea0-ea6f7b52757e"
    },
    {
      "name" : "github.com/gogo/googleapis",
      "version" : "v1.4.1",
      "purl" : "pkg:golang/github.com/gogo/googleapis@v1.4.1",
      "type" : "library",
      "bom-ref" : "d0b50a9a-6b40-4952-a59b-a90717b44b4e"
    },
    {
      "name" : "github.com/gogo/protobuf",
      "version" : "v1.3.2",
      "purl" : "pkg:golang/github.com/gogo/protobuf@v1.3.2",
      "type" : "library",
      "bom-ref" : "c9aaa311-6a6a-493f-add1-b06c510094e5"
    },
    {
      "name" : "github.com/golang-jwt/jwt/v4",
      "version" : "v4.4.2",
      "purl" : "pkg:golang/github.com/golang-jwt/jwt/v4@v4.4.2",
      "type" : "library",
      "bom-ref" : "25e51f86-7d13-4966-91e6-6ad76025c454"
    },
    {
      "name" : "github.com/golang/mock",
      "version" : "v1.6.0",
      "purl" : "pkg:golang/github.com/golang/mock@v1.6.0",
      "type" : "library",
      "bom-ref" : "62da9038-80fe-4f15-a850-dd3c682e4e41"
    },
    {
      "name" : "github.com/golang/protobuf",
      "version" : "v1.5.2",
      "purl" : "pkg:golang/github.com/golang/protobuf@v1.5.2",
      "type" : "library",
      "bom-ref" : "79f80b16-8c09-43ea-92b7-305428ad70e1"
    },
    {
      "name" : "github.com/google/go-cmp",
      "version" : "v0.5.9",
      "purl" : "pkg:golang/github.com/google/go-cmp@v0.5.9",
      "type" : "library",
      "bom-ref" : "ad0d17fe-c3d3-4659-b0b2-6c066d1b1fc9"
    },
    {
      "name" : "github.com/google/gofuzz",
      "version" : "v1.2.0",
      "purl" : "pkg:golang/github.com/google/gofuzz@v1.2.0",
      "type" : "library",
      "bom-ref" : "5e60b8f7-8448-4505-ac87-4108af40b016"
    },
    {
      "name" : "github.com/google/shlex",
      "version" : "v0.0.0-20191202100458-e7afc7fbc510",
      "purl" : "pkg:golang/github.com/google/shlex@v0.0.0-20191202100458-e7afc7fbc510",
      "type" : "library",
      "bom-ref" : "e895e940-4f7e-4fbd-8651-0a86d280612b"
    },
    {
      "name" : "github.com/google/uuid",
      "version" : "v1.3.0",
      "purl" : "pkg:golang/github.com/google/uuid@v1.3.0",
      "type" : "library",
      "bom-ref" : "8a44fa54-5997-4b95-bf44-ba960f7284c8"
    },
    {
      "name" : "github.com/googleapis/gnostic",
      "version" : "v0.5.5",
      "purl" : "pkg:golang/github.com/googleapis/gnostic@v0.5.5",
      "type" : "library",
      "bom-ref" : "1005b5b2-dbb9-447b-8be5-97ef1e85dc03"
    },
    {
      "name" : "github.com/gorilla/mux",
      "version" : "v1.8.0",
      "purl" : "pkg:golang/github.com/gorilla/mux@v1.8.0",
      "type" : "library",
      "bom-ref" : "3e943c0d-db24-4a5e-bbab-4968b2769808"
    },
    {
      "name" : "github.com/grpc-ecosystem/go-grpc-middleware",
      "version" : "v1.3.0",
      "purl" : "pkg:golang/github.com/grpc-ecosystem/go-grpc-middleware@v1.3.0",
      "type" : "library",
      "bom-ref" : "68d2599c-44c8-44de-8225-4a015056c8f1"
    },
    {
      "name" : "github.com/grpc-ecosystem/grpc-gateway",
      "version" : "v1.16.0",
      "purl" : "pkg:golang/github.com/grpc-ecosystem/grpc-gateway@v1.16.0",
      "type" : "library",
      "bom-ref" : "cb0408f6-816d-444d-abe4-9e46a7abaec5"
    },
    {
      "name" : "github.com/hashicorp/errwrap",
      "version" : "v1.1.0",
      "purl" : "pkg:golang/github.com/hashicorp/errwrap@v1.1.0",
      "type" : "library",
      "bom-ref" : "750c0a23-0794-4a19-aa75-b0d22c48fa59"
    },
    {
      "name" : "github.com/hashicorp/go-cty-funcs",
      "version" : "v0.0.0-20200930094925-2721b1e36840",
      "purl" : "pkg:golang/github.com/hashicorp/go-cty-funcs@v0.0.0-20200930094925-2721b1e36840",
      "type" : "library",
      "bom-ref" : "9a3b070a-02b2-47a1-92fa-e118dc9f1871"
    },
    {
      "name" : "github.com/hashicorp/go-multierror",
      "version" : "v1.1.1",
      "purl" : "pkg:golang/github.com/hashicorp/go-multierror@v1.1.1",
      "type" : "library",
      "bom-ref" : "7fd47627-7ec1-40cb-9ce0-7be989f39a63"
    },
    {
      "name" : "github.com/hashicorp/go-version",
      "version" : "v1.6.0",
      "purl" : "pkg:golang/github.com/hashicorp/go-version@v1.6.0",
      "type" : "library",
      "bom-ref" : "03b1660a-2b12-4a07-b83e-cdc12665c241"
    },
    {
      "name" : "github.com/hashicorp/hcl/v2",
      "version" : "v2.8.2",
      "purl" : "pkg:golang/github.com/hashicorp/hcl/v2@v2.8.2",
      "type" : "library",
      "bom-ref" : "401490f2-ef94-499c-bb71-cc3a3053e204"
    },
    {
      "name" : "github.com/imdario/mergo",
      "version" : "v0.3.13",
      "purl" : "pkg:golang/github.com/imdario/mergo@v0.3.13",
      "type" : "library",
      "bom-ref" : "430d5c7c-03fb-44db-a5ed-124088ca30ce"
    },
    {
      "name" : "github.com/jonboulle/clockwork",
      "version" : "v0.3.1-0.20230117163003-a89700cec744",
      "purl" : "pkg:golang/github.com/jonboulle/clockwork@v0.3.1-0.20230117163003-a89700cec744",
      "type" : "library",
      "bom-ref" : "495a9c41-e731-4a91-b6a9-3daf0878436f"
    },
    {
      "name" : "github.com/json-iterator/go",
      "version" : "v1.1.12",
      "purl" : "pkg:golang/github.com/json-iterator/go@v1.1.12",
      "type" : "library",
      "bom-ref" : "61472fd2-6481-4d2a-a99b-ae58999e987f"
    },
    {
      "name" : "github.com/kballard/go-shellquote",
      "version" : "v0.0.0-20180428030007-95032a82bc51",
      "purl" : "pkg:golang/github.com/kballard/go-shellquote@v0.0.0-20180428030007-95032a82bc51",
      "type" : "library",
      "bom-ref" : "11e49a03-2d00-4a94-ab4c-fcdeabdf1e89"
    },
    {
      "name" : "github.com/klauspost/compress",
      "version" : "v1.15.12",
      "purl" : "pkg:golang/github.com/klauspost/compress@v1.15.12",
      "type" : "library",
      "bom-ref" : "c5119c4f-7de1-4c38-84e9-aba1f0208ed6"
    },
    {
      "name" : "github.com/mattn/go-colorable",
      "version" : "v0.1.12",
      "purl" : "pkg:golang/github.com/mattn/go-colorable@v0.1.12",
      "type" : "library",
      "bom-ref" : "89da88b4-cace-4470-88cc-55bcced77d76"
    },
    {
      "name" : "github.com/mattn/go-isatty",
      "version" : "v0.0.16",
      "purl" : "pkg:golang/github.com/mattn/go-isatty@v0.0.16",
      "type" : "library",
      "bom-ref" : "4c22e035-b615-4bb0-9e9e-eb373d2a255c"
    },
    {
      "name" : "github.com/mattn/go-runewidth",
      "version" : "v0.0.14",
      "purl" : "pkg:golang/github.com/mattn/go-runewidth@v0.0.14",
      "type" : "library",
      "bom-ref" : "8e504a71-d90e-44e5-9164-81ee026fe15f"
    },
    {
      "name" : "github.com/mattn/go-shellwords",
      "version" : "v1.0.12",
      "purl" : "pkg:golang/github.com/mattn/go-shellwords@v1.0.12",
      "type" : "library",
      "bom-ref" : "a8d72d69-5dc6-4182-926b-395c50282901"
    },
    {
      "name" : "github.com/matttproud/golang_protobuf_extensions",
      "version" : "v1.0.4",
      "purl" : "pkg:golang/github.com/matttproud/golang_protobuf_extensions@v1.0.4",
      "type" : "library",
      "bom-ref" : "29a97dc9-7791-419c-9efc-847ee16e2d28"
    },
    {
      "name" : "github.com/mgutz/ansi",
      "version" : "v0.0.0-20170206155736-9520e82c474b",
      "purl" : "pkg:golang/github.com/mgutz/ansi@v0.0.0-20170206155736-9520e82c474b",
      "type" : "library",
      "bom-ref" : "e8c34583-ce17-4744-8950-87470f87ff13"
    },
    {
      "name" : "github.com/mitchellh/go-wordwrap",
      "version" : "v0.0.0-20150314170334-ad45545899c7",
      "purl" : "pkg:golang/github.com/mitchellh/go-wordwrap@v0.0.0-20150314170334-ad45545899c7",
      "type" : "library",
      "bom-ref" : "cdec5b74-5ea5-49a2-86e4-bf55f2eedbef"
    },
    {
      "name" : "github.com/mitchellh/mapstructure",
      "version" : "v1.5.0",
      "purl" : "pkg:golang/github.com/mitchellh/mapstructure@v1.5.0",
      "type" : "library",
      "bom-ref" : "933378a4-f1b3-4c04-bfaf-2a091b3a921a"
    },
    {
      "name" : "github.com/moby/buildkit",
      "version" : "v0.11.2",
      "purl" : "pkg:golang/github.com/moby/buildkit@v0.11.2",
      "type" : "library",
      "bom-ref" : "c92b53bf-66df-491f-89c3-6c90ca188fe4"
    },
    {
      "name" : "github.com/moby/locker",
      "version" : "v1.0.1",
      "purl" : "pkg:golang/github.com/moby/locker@v1.0.1",
      "type" : "library",
      "bom-ref" : "39ce4bb0-7552-46b7-9c35-0792d3ca14af"
    },
    {
      "name" : "github.com/moby/patternmatcher",
      "version" : "v0.5.0",
      "purl" : "pkg:golang/github.com/moby/patternmatcher@v0.5.0",
      "type" : "library",
      "bom-ref" : "2148ed9f-3c0c-42b1-a61b-eee1346937c9"
    },
    {
      "name" : "github.com/moby/spdystream",
      "version" : "v0.2.0",
      "purl" : "pkg:golang/github.com/moby/spdystream@v0.2.0",
      "type" : "library",
      "bom-ref" : "3e4c20a2-55ad-4e7d-9fb2-6710ea132f7e"
    },
    {
      "name" : "github.com/moby/sys/mountinfo",
      "version" : "v0.6.2",
      "purl" : "pkg:golang/github.com/moby/sys/mountinfo@v0.6.2",
      "type" : "library",
      "bom-ref" : "7381b590-17e8-464e-ab6f-1d80c64229aa"
    },
    {
      "name" : "github.com/moby/sys/sequential",
      "version" : "v0.5.0",
      "purl" : "pkg:golang/github.com/moby/sys/sequential@v0.5.0",
      "type" : "library",
      "bom-ref" : "ad31b37c-bae7-46ee-ac8f-07979ddb83be"
    },
    {
      "name" : "github.com/moby/sys/signal",
      "version" : "v0.7.0",
      "purl" : "pkg:golang/github.com/moby/sys/signal@v0.7.0",
      "type" : "library",
      "bom-ref" : "97b45cd5-49b5-4579-bd2b-2b08da251199"
    },
    {
      "name" : "github.com/moby/sys/symlink",
      "version" : "v0.2.0",
      "purl" : "pkg:golang/github.com/moby/sys/symlink@v0.2.0",
      "type" : "library",
      "bom-ref" : "372a7144-2f1a-4bf2-b28a-10a81512e911"
    },
    {
      "name" : "github.com/moby/term",
      "version" : "v0.0.0-20221120202655-abb19827d345",
      "purl" : "pkg:golang/github.com/moby/term@v0.0.0-20221120202655-abb19827d345",
      "type" : "library",
      "bom-ref" : "b3cf0c2e-b080-4671-8786-48424d32ed13"
    },
    {
      "name" : "github.com/moby/term",
      "version" : "v0.0.0-20221128092401-c43b287e0e0f",
      "purl" : "pkg:golang/github.com/moby/term@v0.0.0-20221128092401-c43b287e0e0f",
      "type" : "library",
      "bom-ref" : "1690780c-3f79-4150-9411-14ce223dd344"
    },
    {
      "name" : "github.com/modern-go/concurrent",
      "version" : "v0.0.0-20180306012644-bacd9c7ef1dd",
      "purl" : "pkg:golang/github.com/modern-go/concurrent@v0.0.0-20180306012644-bacd9c7ef1dd",
      "type" : "library",
      "bom-ref" : "29329711-f258-4eae-9dfa-b1558a850fc5"
    },
    {
      "name" : "github.com/modern-go/reflect2",
      "version" : "v1.0.2",
      "purl" : "pkg:golang/github.com/modern-go/reflect2@v1.0.2",
      "type" : "library",
      "bom-ref" : "f4c949b9-8c2d-41e3-99ba-15d814095acc"
    },
    {
      "name" : "github.com/morikuni/aec",
      "version" : "v1.0.0",
      "purl" : "pkg:golang/github.com/morikuni/aec@v1.0.0",
      "type" : "library",
      "bom-ref" : "99444809-f207-465e-b811-86ea5f3b2b60"
    },
    {
      "name" : "github.com/opencontainers/go-digest",
      "version" : "v1.0.0",
      "purl" : "pkg:golang/github.com/opencontainers/go-digest@v1.0.0",
      "type" : "library",
      "bom-ref" : "ff4d328f-dd62-45b0-979b-182bf71adf17"
    },
    {
      "name" : "github.com/opencontainers/image-spec",
      "version" : "v1.0.3-0.20220303224323-02efb9a75ee1",
      "purl" : "pkg:golang/github.com/opencontainers/image-spec@v1.0.3-0.20220303224323-02efb9a75ee1",
      "type" : "library",
      "bom-ref" : "f1da516e-e80d-4385-8aef-27f7bf509c81"
    },
    {
      "name" : "github.com/opencontainers/image-spec",
      "version" : "v1.1.0-rc2",
      "purl" : "pkg:golang/github.com/opencontainers/image-spec@v1.1.0-rc2",
      "type" : "library",
      "bom-ref" : "b9db2522-d5b4-4ebf-b145-9683eb88023a"
    },
    {
      "name" : "github.com/opencontainers/runc",
      "version" : "v1.1.3",
      "purl" : "pkg:golang/github.com/opencontainers/runc@v1.1.3",
      "type" : "library",
      "bom-ref" : "02018a04-5249-4e31-975f-2c9855ef62c0"
    },
    {
      "name" : "github.com/pelletier/go-toml",
      "version" : "v1.9.5",
      "purl" : "pkg:golang/github.com/pelletier/go-toml@v1.9.5",
      "type" : "library",
      "bom-ref" : "b6091c0d-9756-44e4-a021-1d4368afb2b9"
    },
    {
      "name" : "github.com/pkg/errors",
      "version" : "v0.9.1",
      "purl" : "pkg:golang/github.com/pkg/errors@v0.9.1",
      "type" : "library",
      "bom-ref" : "c3ea31b6-667b-4eb1-954a-2a24ebdb4f36"
    },
    {
      "name" : "github.com/pmezard/go-difflib",
      "version" : "v1.0.0",
      "purl" : "pkg:golang/github.com/pmezard/go-difflib@v1.0.0",
      "type" : "library",
      "bom-ref" : "a57f1bd2-944a-404d-99ea-41212b74725b"
    },
    {
      "name" : "github.com/prometheus/client_golang",
      "version" : "v1.14.0",
      "purl" : "pkg:golang/github.com/prometheus/client_golang@v1.14.0",
      "type" : "library",
      "bom-ref" : "af77578f-c930-4374-995c-06ca5b63d3f3"
    },
    {
      "name" : "github.com/prometheus/client_model",
      "version" : "v0.3.0",
      "purl" : "pkg:golang/github.com/prometheus/client_model@v0.3.0",
      "type" : "library",
      "bom-ref" : "10aad92f-2b74-4b89-ac1e-00228d8bd064"
    },
    {
      "name" : "github.com/prometheus/common",
      "version" : "v0.37.0",
      "purl" : "pkg:golang/github.com/prometheus/common@v0.37.0",
      "type" : "library",
      "bom-ref" : "086ee139-3267-4438-952b-5a433c603b41"
    },
    {
      "name" : "github.com/prometheus/procfs",
      "version" : "v0.8.0",
      "purl" : "pkg:golang/github.com/prometheus/procfs@v0.8.0",
      "type" : "library",
      "bom-ref" : "27be160e-af41-4d24-9853-6a108b571582"
    },
    {
      "name" : "github.com/rivo/uniseg",
      "version" : "v0.2.0",
      "purl" : "pkg:golang/github.com/rivo/uniseg@v0.2.0",
      "type" : "library",
      "bom-ref" : "6fe13792-dc92-4579-bcfe-8405a4978ccc"
    },
    {
      "name" : "github.com/serialx/hashring",
      "version" : "v0.0.0-20190422032157-8b2912629002",
      "purl" : "pkg:golang/github.com/serialx/hashring@v0.0.0-20190422032157-8b2912629002",
      "type" : "library",
      "bom-ref" : "a7401fab-2e85-4a3a-b2c4-2d5f274f06c8"
    },
    {
      "name" : "github.com/sirupsen/logrus",
      "version" : "v1.9.0",
      "purl" : "pkg:golang/github.com/sirupsen/logrus@v1.9.0",
      "type" : "library",
      "bom-ref" : "0056f90e-2d83-4812-8f8f-fae6a30ddea8"
    },
    {
      "name" : "github.com/spf13/cobra",
      "version" : "v1.6.1",
      "purl" : "pkg:golang/github.com/spf13/cobra@v1.6.1",
      "type" : "library",
      "bom-ref" : "7544a375-fb59-44f1-ba26-52334ffc33d1"
    },
    {
      "name" : "github.com/spf13/pflag",
      "version" : "v1.0.5",
      "purl" : "pkg:golang/github.com/spf13/pflag@v1.0.5",
      "type" : "library",
      "bom-ref" : "c9920d7f-ef2d-421b-9499-7325d1a45e20"
    },
    {
      "name" : "github.com/stretchr/testify",
      "version" : "v1.8.1",
      "purl" : "pkg:golang/github.com/stretchr/testify@v1.8.1",
      "type" : "library",
      "bom-ref" : "0c0d74d1-3d25-4aa4-9117-f65e6100d7d5"
    },
    {
      "name" : "github.com/theupdateframework/notary",
      "version" : "v0.6.1",
      "purl" : "pkg:golang/github.com/theupdateframework/notary@v0.6.1",
      "type" : "library",
      "bom-ref" : "ee603e4b-67db-485e-83eb-7d9b0e5af78e"
    },
    {
      "name" : "github.com/theupdateframework/notary",
      "version" : "v0.7.0",
      "purl" : "pkg:golang/github.com/theupdateframework/notary@v0.7.0",
      "type" : "library",
      "bom-ref" : "e79cbf5f-5f74-479b-89a6-29beb03e3a5c"
    },
    {
      "name" : "github.com/tilt-dev/fsnotify",
      "version" : "v1.4.8-0.20220602155310-fff9c274a375",
      "purl" : "pkg:golang/github.com/tilt-dev/fsnotify@v1.4.8-0.20220602155310-fff9c274a375",
      "type" : "library",
      "bom-ref" : "05e4282d-cc32-499b-beec-a609fe2e069d"
    },
    {
      "name" : "github.com/tonistiigi/fsutil",
      "version" : "v0.0.0-20230105215944-fb433841cbfa",
      "purl" : "pkg:golang/github.com/tonistiigi/fsutil@v0.0.0-20230105215944-fb433841cbfa",
      "type" : "library",
      "bom-ref" : "ef41043c-7728-4fb8-9457-9b0bdec08bb6"
    },
    {
      "name" : "github.com/tonistiigi/units",
      "version" : "v0.0.0-20180711220420-6950e57a87ea",
      "purl" : "pkg:golang/github.com/tonistiigi/units@v0.0.0-20180711220420-6950e57a87ea",
      "type" : "library",
      "bom-ref" : "33ac88dc-f090-4562-882f-ad1ccd71eb34"
    },
    {
      "name" : "github.com/tonistiigi/vt100",
      "version" : "v0.0.0-20210615222946-8066bb97264f",
      "purl" : "pkg:golang/github.com/tonistiigi/vt100@v0.0.0-20210615222946-8066bb97264f",
      "type" : "library",
      "bom-ref" : "6aafb6b9-1cc7-4991-9d62-a9297524d638"
    },
    {
      "name" : "github.com/xeipuuv/gojsonpointer",
      "version" : "v0.0.0-20180127040702-4e3ac2762d5f",
      "purl" : "pkg:golang/github.com/xeipuuv/gojsonpointer@v0.0.0-20180127040702-4e3ac2762d5f",
      "type" : "library",
      "bom-ref" : "5bf01158-e998-48d3-aaa6-c632647627bd"
    },
    {
      "name" : "github.com/xeipuuv/gojsonpointer",
      "version" : "v0.0.0-20190905194746-02993c407bfb",
      "purl" : "pkg:golang/github.com/xeipuuv/gojsonpointer@v0.0.0-20190905194746-02993c407bfb",
      "type" : "library",
      "bom-ref" : "3065240a-6cc8-4ca7-9e15-9831b75128f0"
    },
    {
      "name" : "github.com/xeipuuv/gojsonreference",
      "version" : "v0.0.0-20180127040603-bd5ef7bd5415",
      "purl" : "pkg:golang/github.com/xeipuuv/gojsonreference@v0.0.0-20180127040603-bd5ef7bd5415",
      "type" : "library",
      "bom-ref" : "9e386c87-1f57-4ad4-a7c0-d4c68d1a2e93"
    },
    {
      "name" : "github.com/xeipuuv/gojsonschema",
      "version" : "v1.2.0",
      "purl" : "pkg:golang/github.com/xeipuuv/gojsonschema@v1.2.0",
      "type" : "library",
      "bom-ref" : "4917a372-67e2-46ec-b294-baed6b8730e9"
    },
    {
      "name" : "github.com/zclconf/go-cty",
      "version" : "v1.10.0",
      "purl" : "pkg:golang/github.com/zclconf/go-cty@v1.10.0",
      "type" : "library",
      "bom-ref" : "2ece523d-d5a4-40fb-9128-97d17a74858d"
    },
    {
      "name" : "go.opentelemetry.io/contrib/instrumentation/google.golang.org/grpc/otelgrpc",
      "version" : "v0.29.0",
      "purl" : "pkg:golang/go.opentelemetry.io/contrib/instrumentation/google.golang.org/grpc/otelgrpc@v0.29.0",
      "type" : "library",
      "bom-ref" : "efadda8a-3e6d-464d-9c82-809345c5b5f4"
    },
    {
      "name" : "go.opentelemetry.io/contrib/instrumentation/net/http/httptrace/otelhttptrace",
      "version" : "v0.29.0",
      "purl" : "pkg:golang/go.opentelemetry.io/contrib/instrumentation/net/http/httptrace/otelhttptrace@v0.29.0",
      "type" : "library",
      "bom-ref" : "6e486844-2db9-4014-99e1-a21f5deb3e2a"
    },
    {
      "name" : "go.opentelemetry.io/contrib/instrumentation/net/http/otelhttp",
      "version" : "v0.29.0",
      "purl" : "pkg:golang/go.opentelemetry.io/contrib/instrumentation/net/http/otelhttp@v0.29.0",
      "type" : "library",
      "bom-ref" : "eb2b086b-1751-42b1-904e-98f8eb65cce8"
    },
    {
      "name" : "go.opentelemetry.io/otel",
      "version" : "v1.4.1",
      "purl" : "pkg:golang/go.opentelemetry.io/otel@v1.4.1",
      "type" : "library",
      "bom-ref" : "ff7a71df-e312-40e5-8d6e-b0b36dc59db4"
    },
    {
      "name" : "go.opentelemetry.io/otel",
      "version" : "v1.13.0",
      "purl" : "pkg:golang/go.opentelemetry.io/otel@v1.13.0",
      "type" : "library",
      "bom-ref" : "5db8eea7-734b-4848-bd2a-24b7e477a197"
    },
    {
      "name" : "go.opentelemetry.io/otel/exporters/otlp/internal/retry",
      "version" : "v1.4.1",
      "purl" : "pkg:golang/go.opentelemetry.io/otel/exporters/otlp/internal/retry@v1.4.1",
      "type" : "library",
      "bom-ref" : "ec64b56f-26bc-4b9d-85a1-299b5b8a2f84"
    },
    {
      "name" : "go.opentelemetry.io/otel/exporters/otlp/otlptrace",
      "version" : "v1.4.1",
      "purl" : "pkg:golang/go.opentelemetry.io/otel/exporters/otlp/otlptrace@v1.4.1",
      "type" : "library",
      "bom-ref" : "614a7cb8-9f03-490f-89db-b598b2118420"
    },
    {
      "name" : "go.opentelemetry.io/otel/exporters/otlp/otlptrace/otlptracegrpc",
      "version" : "v1.4.1",
      "purl" : "pkg:golang/go.opentelemetry.io/otel/exporters/otlp/otlptrace/otlptracegrpc@v1.4.1",
      "type" : "library",
      "bom-ref" : "73be00be-dd9e-43b4-8ec3-eccd0fafdda3"
    },
    {
      "name" : "go.opentelemetry.io/otel/exporters/otlp/otlptrace/otlptracehttp",
      "version" : "v1.4.1",
      "purl" : "pkg:golang/go.opentelemetry.io/otel/exporters/otlp/otlptrace/otlptracehttp@v1.4.1",
      "type" : "library",
      "bom-ref" : "258f1a97-58a6-44d8-90d9-02cb20879c02"
    },
    {
      "name" : "go.opentelemetry.io/otel/internal/metric",
      "version" : "v0.27.0",
      "purl" : "pkg:golang/go.opentelemetry.io/otel/internal/metric@v0.27.0",
      "type" : "library",
      "bom-ref" : "04ed9d3b-5cdb-4b1d-bc76-b22475bcbe35"
    },
    {
      "name" : "go.opentelemetry.io/otel/metric",
      "version" : "v0.27.0",
      "purl" : "pkg:golang/go.opentelemetry.io/otel/metric@v0.27.0",
      "type" : "library",
      "bom-ref" : "e08070ff-40b8-4374-bddd-a1ad54b1343a"
    },
    {
      "name" : "go.opentelemetry.io/otel/sdk",
      "version" : "v1.4.1",
      "purl" : "pkg:golang/go.opentelemetry.io/otel/sdk@v1.4.1",
      "type" : "library",
      "bom-ref" : "c36925ad-66bb-42a7-b99d-bfc739d64e73"
    },
    {
      "name" : "go.opentelemetry.io/otel/trace",
      "version" : "v1.4.1",
      "purl" : "pkg:golang/go.opentelemetry.io/otel/trace@v1.4.1",
      "type" : "library",
      "bom-ref" : "6c4a255a-c627-49e8-a69c-c5817a68b1cd"
    },
    {
      "name" : "go.opentelemetry.io/otel/trace",
      "version" : "v1.13.0",
      "purl" : "pkg:golang/go.opentelemetry.io/otel/trace@v1.13.0",
      "type" : "library",
      "bom-ref" : "720712e8-99b3-4856-bffa-797890b15d10"
    },
    {
      "name" : "go.opentelemetry.io/proto/otlp",
      "version" : "v0.12.0",
      "purl" : "pkg:golang/go.opentelemetry.io/proto/otlp@v0.12.0",
      "type" : "library",
      "bom-ref" : "0c757176-90b4-48c8-a2e9-b2512f122a2e"
    },
    {
      "name" : "golang.org/x/crypto",
      "version" : "v0.2.0",
      "purl" : "pkg:golang/golang.org/x/crypto@v0.2.0",
      "type" : "library",
      "bom-ref" : "fab12edf-ae7b-4d5a-bc07-1dd157270d0b"
    },
    {
      "name" : "golang.org/x/net",
      "version" : "v0.4.0",
      "purl" : "pkg:golang/golang.org/x/net@v0.4.0",
      "type" : "library",
      "bom-ref" : "38ec9003-7e6c-4754-9105-6af92c5cb804"
    },
    {
      "name" : "golang.org/x/oauth2",
      "version" : "v0.0.0-20221014153046-6fdb5e3db783",
      "purl" : "pkg:golang/golang.org/x/oauth2@v0.0.0-20221014153046-6fdb5e3db783",
      "type" : "library",
      "bom-ref" : "6906d9d1-557f-496a-9042-a604974bf69b"
    },
    {
      "name" : "golang.org/x/sync",
      "version" : "v0.1.0",
      "purl" : "pkg:golang/golang.org/x/sync@v0.1.0",
      "type" : "library",
      "bom-ref" : "ea6ae259-6e01-45ce-88e7-cc5a49747224"
    },
    {
      "name" : "golang.org/x/sys",
      "version" : "v0.3.0",
      "purl" : "pkg:golang/golang.org/x/sys@v0.3.0",
      "type" : "library",
      "bom-ref" : "50dfd467-7fe9-44b1-b256-cc8d283bd6e3"
    },
    {
      "name" : "golang.org/x/sys",
      "version" : "v0.4.0",
      "purl" : "pkg:golang/golang.org/x/sys@v0.4.0",
      "type" : "library",
      "bom-ref" : "aedadd3d-19ab-4584-8943-2e88420dbfcb"
    },
    {
      "name" : "golang.org/x/term",
      "version" : "v0.3.0",
      "purl" : "pkg:golang/golang.org/x/term@v0.3.0",
      "type" : "library",
      "bom-ref" : "5e0371f5-fd51-422c-9c7c-f8a0d1ed7a3f"
    },
    {
      "name" : "golang.org/x/text",
      "version" : "v0.5.0",
      "purl" : "pkg:golang/golang.org/x/text@v0.5.0",
      "type" : "library",
      "bom-ref" : "7c1fd0ea-0ce6-489c-bdbb-d723266eebd3"
    },
    {
      "name" : "golang.org/x/text",
      "version" : "v0.6.0",
      "purl" : "pkg:golang/golang.org/x/text@v0.6.0",
      "type" : "library",
      "bom-ref" : "33e9c029-07d5-4779-a992-a24aa0d707d0"
    },
    {
      "name" : "golang.org/x/time",
      "version" : "v0.1.0",
      "purl" : "pkg:golang/golang.org/x/time@v0.1.0",
      "type" : "library",
      "bom-ref" : "625e6d2c-d6df-421c-86a1-c9ac41666645"
    },
    {
      "name" : "google.golang.org/genproto",
      "version" : "v0.0.0-20221024183307-1bc688fe9f3e",
      "purl" : "pkg:golang/google.golang.org/genproto@v0.0.0-20221024183307-1bc688fe9f3e",
      "type" : "library",
      "bom-ref" : "644ca7d2-b74b-412e-8085-766f79c7fbb2"
    },
    {
      "name" : "google.golang.org/grpc",
      "version" : "v1.50.1",
      "purl" : "pkg:golang/google.golang.org/grpc@v1.50.1",
      "type" : "library",
      "bom-ref" : "05adf542-2bd1-49d5-9420-98852479bf70"
    },
    {
      "name" : "google.golang.org/protobuf",
      "version" : "v1.28.1",
      "purl" : "pkg:golang/google.golang.org/protobuf@v1.28.1",
      "type" : "library",
      "bom-ref" : "e6c2efba-cff9-4083-a924-7c123d78bd1d"
    },
    {
      "name" : "gopkg.in/inf.v0",
      "version" : "v0.9.1",
      "purl" : "pkg:golang/gopkg.in/inf.v0@v0.9.1",
      "type" : "library",
      "bom-ref" : "386bf7df-e23e-4af7-8176-8b7910f061d0"
    },
    {
      "name" : "gopkg.in/yaml.v2",
      "version" : "v2.4.0",
      "purl" : "pkg:golang/gopkg.in/yaml.v2@v2.4.0",
      "type" : "library",
      "bom-ref" : "ce420f62-abb8-4ad2-acbb-cca5fb3fe190"
    },
    {
      "name" : "gopkg.in/yaml.v3",
      "version" : "v3.0.1",
      "purl" : "pkg:golang/gopkg.in/yaml.v3@v3.0.1",
      "type" : "library",
      "bom-ref" : "202ee7d5-9995-4597-974f-2428ddde31f2"
    },
    {
      "name" : "k8s.io/api",
      "version" : "v0.22.4",
      "purl" : "pkg:golang/k8s.io/api@v0.22.4",
      "type" : "library",
      "bom-ref" : "69a772d9-15ed-48d2-a475-48ad0358a7a5"
    },
    {
      "name" : "k8s.io/apimachinery",
      "version" : "v0.22.4",
      "purl" : "pkg:golang/k8s.io/apimachinery@v0.22.4",
      "type" : "library",
      "bom-ref" : "a3f058ce-a104-4eaf-91d6-117b3e56126c"
    },
    {
      "name" : "k8s.io/client-go",
      "version" : "v0.22.4",
      "purl" : "pkg:golang/k8s.io/client-go@v0.22.4",
      "type" : "library",
      "bom-ref" : "5ed3d5b5-30eb-44e2-8867-4dccb941a0ba"
    },
    {
      "name" : "k8s.io/klog/v2",
      "version" : "v2.30.0",
      "purl" : "pkg:golang/k8s.io/klog/v2@v2.30.0",
      "type" : "library",
      "bom-ref" : "d065bd4c-e5c9-4ac7-98ca-68f4a0ce2195"
    },
    {
      "name" : "k8s.io/klog/v2",
      "version" : "v2.60.1",
      "purl" : "pkg:golang/k8s.io/klog/v2@v2.60.1",
      "type" : "library",
      "bom-ref" : "cfaf0a56-ed5c-45e7-be61-459f2b9e0cde"
    },
    {
      "name" : "k8s.io/utils",
      "version" : "v0.0.0-20210930125809-cb0fa318a74b",
      "purl" : "pkg:golang/k8s.io/utils@v0.0.0-20210930125809-cb0fa318a74b",
      "type" : "library",
      "bom-ref" : "62f83841-01d9-4398-89db-4c050c004a23"
    },
    {
      "name" : "k8s.io/utils",
      "version" : "v0.0.0-20220210201930-3a6ce19ff2f9",
      "purl" : "pkg:golang/k8s.io/utils@v0.0.0-20220210201930-3a6ce19ff2f9",
      "type" : "library",
      "bom-ref" : "f61f71ea-cad5-46f3-8479-fade823296ff"
    },
    {
      "name" : "libc-utils",
      "version" : "0.7.2-r3",
      "purl" : "pkg:apk/alpine/libc-utils@0.7.2-r3?distro=3.17.2",
      "type" : "library",
      "bom-ref" : "119fcbd0-57e4-4b3b-b6dc-b051b3121d4c"
    },
    {
      "name" : "libc6-compat",
      "version" : "1.2.3-r4",
      "purl" : "pkg:apk/alpine/libc6-compat@1.2.3-r4?distro=3.17.2",
      "type" : "library",
      "bom-ref" : "e0e54298-bef0-4a64-b108-8d6d10cb02d6"
    },
    {
      "name" : "libcrypto3",
      "version" : "3.0.8-r0",
      "purl" : "pkg:apk/alpine/libcrypto3@3.0.8-r0?distro=3.17.2",
      "type" : "library",
      "bom-ref" : "685899e2-d260-4c41-8548-d02f970b46be"
    },
    {
      "name" : "libedit",
      "version" : "20221030.3.1-r0",
      "purl" : "pkg:apk/alpine/libedit@20221030.3.1-r0?distro=3.17.2",
      "type" : "library",
      "bom-ref" : "3ac13fae-45fa-4d70-90b4-946dc986ffa8"
    },
    {
      "name" : "libssl3",
      "version" : "3.0.8-r0",
      "purl" : "pkg:apk/alpine/libssl3@3.0.8-r0?distro=3.17.2",
      "type" : "library",
      "bom-ref" : "15820216-ac96-496a-84f2-4a4c6f23333d"
    },
    {
      "name" : "musl",
      "version" : "1.2.3-r4",
      "purl" : "pkg:apk/alpine/musl@1.2.3-r4?distro=3.17.2",
      "type" : "library",
      "bom-ref" : "73991ff5-8723-4a2b-be38-d0641b771c9a"
    },
    {
      "name" : "musl-utils",
      "version" : "1.2.3-r4",
      "purl" : "pkg:apk/alpine/musl-utils@1.2.3-r4?distro=3.17.2",
      "type" : "library",
      "bom-ref" : "be24bc18-2185-47ff-b981-da90099158e0"
    },
    {
      "name" : "ncurses-libs",
      "version" : "6.3_p20221119-r0",
      "purl" : "pkg:apk/alpine/ncurses-libs@6.3_p20221119-r0?distro=3.17.2",
      "type" : "library",
      "bom-ref" : "555007ce-4a5b-47f8-96dc-8ffc3fa9d8fd"
    },
    {
      "name" : "ncurses-terminfo-base",
      "version" : "6.3_p20221119-r0",
      "purl" : "pkg:apk/alpine/ncurses-terminfo-base@6.3_p20221119-r0?distro=3.17.2",
      "type" : "library",
      "bom-ref" : "a6e2f271-55a8-4045-b2b9-97432d23eead"
    },
    {
      "name" : "openssh-client-common",
      "version" : "9.1_p1-r2",
      "purl" : "pkg:apk/alpine/openssh-client-common@9.1_p1-r2?distro=3.17.2",
      "type" : "library",
      "bom-ref" : "6a16a009-b8fc-4d3c-b497-191ad6e48863"
    },
    {
      "name" : "openssh-client-default",
      "version" : "9.1_p1-r2",
      "purl" : "pkg:apk/alpine/openssh-client-default@9.1_p1-r2?distro=3.17.2",
      "type" : "library",
      "bom-ref" : "54d3ad56-27fa-4be9-9b4f-bcd017ee411d"
    },
    {
      "name" : "openssh-keygen",
      "version" : "9.1_p1-r2",
      "purl" : "pkg:apk/alpine/openssh-keygen@9.1_p1-r2?distro=3.17.2",
      "type" : "library",
      "bom-ref" : "d72a63de-85a5-47db-86b2-47b39ddb495b"
    },
    {
      "name" : "scanelf",
      "version" : "1.3.5-r1",
      "purl" : "pkg:apk/alpine/scanelf@1.3.5-r1?distro=3.17.2",
      "type" : "library",
      "bom-ref" : "56b41df1-9755-4631-a5fa-c96a29c63639"
    },
    {
      "name" : "sigs.k8s.io/structured-merge-diff/v4",
      "version" : "v4.1.2",
      "purl" : "pkg:golang/sigs.k8s.io/structured-merge-diff/v4@v4.1.2",
      "type" : "library",
      "bom-ref" : "975b09a7-84cb-46a5-afda-13588b07fde0"
    },
    {
      "name" : "sigs.k8s.io/structured-merge-diff/v4",
      "version" : "v4.2.1",
      "purl" : "pkg:golang/sigs.k8s.io/structured-merge-diff/v4@v4.2.1",
      "type" : "library",
      "bom-ref" : "59c92b88-3cf2-4e78-b84e-51dd470537e1"
    },
    {
      "name" : "sigs.k8s.io/yaml",
      "version" : "v1.2.0",
      "purl" : "pkg:golang/sigs.k8s.io/yaml@v1.2.0",
      "type" : "library",
      "bom-ref" : "368862b5-3c38-4201-abff-7688e0a6fdfe"
    },
    {
      "name" : "ssl_client",
      "version" : "1.35.0-r29",
      "purl" : "pkg:apk/alpine/ssl_client@1.35.0-r29?distro=3.17.2",
      "type" : "library",
      "bom-ref" : "1e56a62e-bf0a-48bd-91b8-027591deac35"
    },
    {
      "name" : "usr/libexec/docker/cli-plugins/docker-buildx",
      "type" : "application",
      "bom-ref" : "f81bc5f3-8121-4847-bbe8-4767ba1fb2e5"
    },
    {
      "name" : "usr/libexec/docker/cli-plugins/docker-compose",
      "type" : "application",
      "bom-ref" : "e5263bce-9533-44f8-aad6-d6a5a553984f"
    },
    {
      "name" : "zlib",
      "version" : "1.2.13-r0",
      "purl" : "pkg:apk/alpine/zlib@1.2.13-r0?distro=3.17.2",
      "type" : "library",
      "bom-ref" : "61681076-90ea-453e-8272-67caa3486f6f"
    }
  ],
  "dependencies" : [
    {
      "ref" : "60be5e8e-84c8-45e9-93eb-5633703ce851",
      "dependsOn" : [
        "33931b43-abe3-4ebb-8822-d9d9ab00b129",
        "f81bc5f3-8121-4847-bbe8-4767ba1fb2e5",
        "e5263bce-9533-44f8-aad6-d6a5a553984f"
      ]
    },
    {
      "ref" : "33931b43-abe3-4ebb-8822-d9d9ab00b129",
      "dependsOn" : [
        "c6d907fa-8d7d-4da8-94aa-7995a9652851",
        "b6894304-e5d5-47ab-a426-aa47249c4655",
        "95a38f93-44f8-4056-a520-fa139bec7040",
        "af80ced7-dccc-44b6-910a-68efe4a74b32",
        "7fe69b3d-6cb5-4107-9300-c35c364bec2d",
        "9e5aa957-a324-4c2a-a1cb-4b755054f4bd",
        "0826a96b-b2d7-46e6-9660-84763c9aefea",
        "319cfaed-454b-4c40-b1cd-3db7ba6db544",
        "119fcbd0-57e4-4b3b-b6dc-b051b3121d4c",
        "e0e54298-bef0-4a64-b108-8d6d10cb02d6",
        "685899e2-d260-4c41-8548-d02f970b46be",
        "3ac13fae-45fa-4d70-90b4-946dc986ffa8",
        "15820216-ac96-496a-84f2-4a4c6f23333d",
        "73991ff5-8723-4a2b-be38-d0641b771c9a",
        "be24bc18-2185-47ff-b981-da90099158e0",
        "555007ce-4a5b-47f8-96dc-8ffc3fa9d8fd",
        "a6e2f271-55a8-4045-b2b9-97432d23eead",
        "6a16a009-b8fc-4d3c-b497-191ad6e48863",
        "54d3ad56-27fa-4be9-9b4f-bcd017ee411d",
        "d72a63de-85a5-47db-86b2-47b39ddb495b",
        "56b41df1-9755-4631-a5fa-c96a29c63639",
        "1e56a62e-bf0a-48bd-91b8-027591deac35",
        "61681076-90ea-453e-8272-67caa3486f6f"
      ]
    },
    {
      "ref" : "c6d907fa-8d7d-4da8-94aa-7995a9652851",
      "dependsOn" : [ ]
    },
    {
      "ref" : "b6894304-e5d5-47ab-a426-aa47249c4655",
      "dependsOn" : [ ]
    },
    {
      "ref" : "95a38f93-44f8-4056-a520-fa139bec7040",
      "dependsOn" : [ ]
    },
    {
      "ref" : "af80ced7-dccc-44b6-910a-68efe4a74b32",
      "dependsOn" : [ ]
    },
    {
      "ref" : "7fe69b3d-6cb5-4107-9300-c35c364bec2d",
      "dependsOn" : [ ]
    },
    {
      "ref" : "9e5aa957-a324-4c2a-a1cb-4b755054f4bd",
      "dependsOn" : [ ]
    },
    {
      "ref" : "0826a96b-b2d7-46e6-9660-84763c9aefea",
      "dependsOn" : [ ]
    },
    {
      "ref" : "319cfaed-454b-4c40-b1cd-3db7ba6db544",
      "dependsOn" : [ ]
    },
    {
      "ref" : "0399a6a7-657b-42bb-b1ac-35c2065fc5d1",
      "dependsOn" : [ ]
    },
    {
      "ref" : "1a73d41d-90d9-4544-82de-ee733334e7fc",
      "dependsOn" : [ ]
    },
    {
      "ref" : "fac20796-cbe0-4c8d-9f40-c48be3036403",
      "dependsOn" : [ ]
    },
    {
      "ref" : "04657847-254b-48f2-8712-57de4413b36c",
      "dependsOn" : [ ]
    },
    {
      "ref" : "6fbb684b-25e2-4252-ab72-35ba09c10979",
      "dependsOn" : [ ]
    },
    {
      "ref" : "e83bd4a4-cce8-43f3-9d62-32133198c489",
      "dependsOn" : [ ]
    },
    {
      "ref" : "3a2099f4-996c-45ef-ab89-345cf3b68151",
      "dependsOn" : [ ]
    },
    {
      "ref" : "30a1a54b-7a58-4e84-a890-5e7b78f51f55",
      "dependsOn" : [ ]
    },
    {
      "ref" : "cb2a351e-cc1d-4810-a254-8b48718bc219",
      "dependsOn" : [ ]
    },
    {
      "ref" : "dc38f79d-6819-4978-8ad8-13f30a220e66",
      "dependsOn" : [ ]
    },
    {
      "ref" : "39df3e23-47e3-4f49-854c-a5bce085d2ae",
      "dependsOn" : [ ]
    },
    {
      "ref" : "79fcf13f-114d-4275-898e-0f3fe5482f7c",
      "dependsOn" : [ ]
    },
    {
      "ref" : "b820611e-a3d4-4964-96de-811d8ad52bb0",
      "dependsOn" : [ ]
    },
    {
      "ref" : "19b1300a-c676-45f2-a7c8-7fc34ba213a0",
      "dependsOn" : [ ]
    },
    {
      "ref" : "794bcb99-ec2f-4343-b255-e025155f1b59",
      "dependsOn" : [ ]
    },
    {
      "ref" : "1752bf32-d864-4925-acaa-c262fb90a740",
      "dependsOn" : [ ]
    },
    {
      "ref" : "5adeab0f-cbc7-43c6-8318-eb4d20f852a2",
      "dependsOn" : [ ]
    },
    {
      "ref" : "9bcd1cc2-a25d-4842-8ceb-abc5b8a7a868",
      "dependsOn" : [ ]
    },
    {
      "ref" : "a1983425-fd5a-4638-a455-d70882ee8d18",
      "dependsOn" : [ ]
    },
    {
      "ref" : "3f2edeea-5ac5-45e5-8ffd-d1d3190ac045",
      "dependsOn" : [ ]
    },
    {
      "ref" : "206c147f-5cd3-4ba8-9645-c8961d1ec125",
      "dependsOn" : [ ]
    },
    {
      "ref" : "92364509-e602-4188-9fa3-65af81260a96",
      "dependsOn" : [ ]
    },
    {
      "ref" : "89741f11-4cc5-47a8-996d-0efe49eaae12",
      "dependsOn" : [ ]
    },
    {
      "ref" : "a962d061-bc2e-4d2b-9520-12bb0b54c383",
      "dependsOn" : [ ]
    },
    {
      "ref" : "38bc0c61-3888-4c19-8f4c-cf086c45757c",
      "dependsOn" : [ ]
    },
    {
      "ref" : "eeff864c-b09a-4d16-840b-87ddf4b32539",
      "dependsOn" : [ ]
    },
    {
      "ref" : "dd355181-472c-4e6a-ab39-76993e67a001",
      "dependsOn" : [ ]
    },
    {
      "ref" : "bd0c03bb-c79b-40c6-b06c-335606650303",
      "dependsOn" : [ ]
    },
    {
      "ref" : "df6a3226-6872-4272-ba46-210e8ca65770",
      "dependsOn" : [ ]
    },
    {
      "ref" : "181cb44c-1983-4c98-91b8-71f27d995dba",
      "dependsOn" : [ ]
    },
    {
      "ref" : "6ff63d9c-f218-4690-975f-688df48d3b1b",
      "dependsOn" : [ ]
    },
    {
      "ref" : "83b1a262-c92f-4319-9d50-ed6faf331792",
      "dependsOn" : [ ]
    },
    {
      "ref" : "efbdd5fc-9a2e-4512-8f69-80a67cd4ec01",
      "dependsOn" : [ ]
    },
    {
      "ref" : "c637d29b-9c04-497b-8557-3d2ac3114aab",
      "dependsOn" : [ ]
    },
    {
      "ref" : "4e12afcd-f257-4582-a06e-39d461d7c888",
      "dependsOn" : [ ]
    },
    {
      "ref" : "ddcea673-23e7-4ea2-badf-483f136228b9",
      "dependsOn" : [ ]
    },
    {
      "ref" : "793ae66f-632e-46f7-9408-5ff52c078a8f",
      "dependsOn" : [ ]
    },
    {
      "ref" : "a1a5de81-78f0-4ea3-9431-c4c6b9e1918d",
      "dependsOn" : [ ]
    },
    {
      "ref" : "8e6a7b89-d006-49de-a4da-2192758ed992",
      "dependsOn" : [ ]
    },
    {
      "ref" : "71ae95e4-52c6-4969-af50-2a252826d770",
      "dependsOn" : [ ]
    },
    {
      "ref" : "80626524-62ef-4dbd-9c3d-9f3f6a61414a",
      "dependsOn" : [ ]
    },
    {
      "ref" : "c61a8a89-98a0-45ff-8454-d5c851cd3fb3",
      "dependsOn" : [ ]
    },
    {
      "ref" : "6a521679-52b8-4968-840f-acb0ba05db35",
      "dependsOn" : [ ]
    },
    {
      "ref" : "853d6ab1-e1e8-4f9c-b229-948ff1448566",
      "dependsOn" : [ ]
    },
    {
      "ref" : "96d0f83c-a217-4623-ba57-75b05c93d2ee",
      "dependsOn" : [ ]
    },
    {
      "ref" : "3c9b9ef7-6f46-4b09-87df-9acb18445e7b",
      "dependsOn" : [ ]
    },
    {
      "ref" : "2e6051d6-e5eb-4aa0-a472-dbadf4546d5b",
      "dependsOn" : [ ]
    },
    {
      "ref" : "80989b9b-386a-492d-88ce-c54c123ae509",
      "dependsOn" : [ ]
    },
    {
      "ref" : "e3dffbce-2862-4a96-8f9b-73bc02f0fbde",
      "dependsOn" : [ ]
    },
    {
      "ref" : "e7063f51-ab7c-45ef-ab0a-cc4595445670",
      "dependsOn" : [ ]
    },
    {
      "ref" : "a2c44aa0-fb7a-4a50-b2f4-2c2ef8bdb462",
      "dependsOn" : [ ]
    },
    {
      "ref" : "4fe65060-96a4-424f-b5d5-0c576d86bf96",
      "dependsOn" : [ ]
    },
    {
      "ref" : "55485c9e-c2d5-4f50-9f83-740fac759bb1",
      "dependsOn" : [ ]
    },
    {
      "ref" : "2cbe72f4-174d-44b5-b4c7-4f7e9ab26621",
      "dependsOn" : [ ]
    },
    {
      "ref" : "ad3a76ef-5d6d-4b8c-a255-498cb5f5bbc6",
      "dependsOn" : [ ]
    },
    {
      "ref" : "44252e19-b315-463c-aea0-ea6f7b52757e",
      "dependsOn" : [ ]
    },
    {
      "ref" : "d0b50a9a-6b40-4952-a59b-a90717b44b4e",
      "dependsOn" : [ ]
    },
    {
      "ref" : "c9aaa311-6a6a-493f-add1-b06c510094e5",
      "dependsOn" : [ ]
    },
    {
      "ref" : "25e51f86-7d13-4966-91e6-6ad76025c454",
      "dependsOn" : [ ]
    },
    {
      "ref" : "62da9038-80fe-4f15-a850-dd3c682e4e41",
      "dependsOn" : [ ]
    },
    {
      "ref" : "79f80b16-8c09-43ea-92b7-305428ad70e1",
      "dependsOn" : [ ]
    },
    {
      "ref" : "ad0d17fe-c3d3-4659-b0b2-6c066d1b1fc9",
      "dependsOn" : [ ]
    },
    {
      "ref" : "5e60b8f7-8448-4505-ac87-4108af40b016",
      "dependsOn" : [ ]
    },
    {
      "ref" : "e895e940-4f7e-4fbd-8651-0a86d280612b",
      "dependsOn" : [ ]
    },
    {
      "ref" : "8a44fa54-5997-4b95-bf44-ba960f7284c8",
      "dependsOn" : [ ]
    },
    {
      "ref" : "1005b5b2-dbb9-447b-8be5-97ef1e85dc03",
      "dependsOn" : [ ]
    },
    {
      "ref" : "3e943c0d-db24-4a5e-bbab-4968b2769808",
      "dependsOn" : [ ]
    },
    {
      "ref" : "68d2599c-44c8-44de-8225-4a015056c8f1",
      "dependsOn" : [ ]
    },
    {
      "ref" : "cb0408f6-816d-444d-abe4-9e46a7abaec5",
      "dependsOn" : [ ]
    },
    {
      "ref" : "750c0a23-0794-4a19-aa75-b0d22c48fa59",
      "dependsOn" : [ ]
    },
    {
      "ref" : "9a3b070a-02b2-47a1-92fa-e118dc9f1871",
      "dependsOn" : [ ]
    },
    {
      "ref" : "7fd47627-7ec1-40cb-9ce0-7be989f39a63",
      "dependsOn" : [ ]
    },
    {
      "ref" : "03b1660a-2b12-4a07-b83e-cdc12665c241",
      "dependsOn" : [ ]
    },
    {
      "ref" : "401490f2-ef94-499c-bb71-cc3a3053e204",
      "dependsOn" : [ ]
    },
    {
      "ref" : "430d5c7c-03fb-44db-a5ed-124088ca30ce",
      "dependsOn" : [ ]
    },
    {
      "ref" : "495a9c41-e731-4a91-b6a9-3daf0878436f",
      "dependsOn" : [ ]
    },
    {
      "ref" : "61472fd2-6481-4d2a-a99b-ae58999e987f",
      "dependsOn" : [ ]
    },
    {
      "ref" : "11e49a03-2d00-4a94-ab4c-fcdeabdf1e89",
      "dependsOn" : [ ]
    },
    {
      "ref" : "c5119c4f-7de1-4c38-84e9-aba1f0208ed6",
      "dependsOn" : [ ]
    },
    {
      "ref" : "89da88b4-cace-4470-88cc-55bcced77d76",
      "dependsOn" : [ ]
    },
    {
      "ref" : "4c22e035-b615-4bb0-9e9e-eb373d2a255c",
      "dependsOn" : [ ]
    },
    {
      "ref" : "8e504a71-d90e-44e5-9164-81ee026fe15f",
      "dependsOn" : [ ]
    },
    {
      "ref" : "a8d72d69-5dc6-4182-926b-395c50282901",
      "dependsOn" : [ ]
    },
    {
      "ref" : "29a97dc9-7791-419c-9efc-847ee16e2d28",
      "dependsOn" : [ ]
    },
    {
      "ref" : "e8c34583-ce17-4744-8950-87470f87ff13",
      "dependsOn" : [ ]
    },
    {
      "ref" : "cdec5b74-5ea5-49a2-86e4-bf55f2eedbef",
      "dependsOn" : [ ]
    },
    {
      "ref" : "933378a4-f1b3-4c04-bfaf-2a091b3a921a",
      "dependsOn" : [ ]
    },
    {
      "ref" : "c92b53bf-66df-491f-89c3-6c90ca188fe4",
      "dependsOn" : [ ]
    },
    {
      "ref" : "39ce4bb0-7552-46b7-9c35-0792d3ca14af",
      "dependsOn" : [ ]
    },
    {
      "ref" : "2148ed9f-3c0c-42b1-a61b-eee1346937c9",
      "dependsOn" : [ ]
    },
    {
      "ref" : "3e4c20a2-55ad-4e7d-9fb2-6710ea132f7e",
      "dependsOn" : [ ]
    },
    {
      "ref" : "7381b590-17e8-464e-ab6f-1d80c64229aa",
      "dependsOn" : [ ]
    },
    {
      "ref" : "ad31b37c-bae7-46ee-ac8f-07979ddb83be",
      "dependsOn" : [ ]
    },
    {
      "ref" : "97b45cd5-49b5-4579-bd2b-2b08da251199",
      "dependsOn" : [ ]
    },
    {
      "ref" : "372a7144-2f1a-4bf2-b28a-10a81512e911",
      "dependsOn" : [ ]
    },
    {
      "ref" : "b3cf0c2e-b080-4671-8786-48424d32ed13",
      "dependsOn" : [ ]
    },
    {
      "ref" : "1690780c-3f79-4150-9411-14ce223dd344",
      "dependsOn" : [ ]
    },
    {
      "ref" : "29329711-f258-4eae-9dfa-b1558a850fc5",
      "dependsOn" : [ ]
    },
    {
      "ref" : "f4c949b9-8c2d-41e3-99ba-15d814095acc",
      "dependsOn" : [ ]
    },
    {
      "ref" : "99444809-f207-465e-b811-86ea5f3b2b60",
      "dependsOn" : [ ]
    },
    {
      "ref" : "ff4d328f-dd62-45b0-979b-182bf71adf17",
      "dependsOn" : [ ]
    },
    {
      "ref" : "f1da516e-e80d-4385-8aef-27f7bf509c81",
      "dependsOn" : [ ]
    },
    {
      "ref" : "b9db2522-d5b4-4ebf-b145-9683eb88023a",
      "dependsOn" : [ ]
    },
    {
      "ref" : "02018a04-5249-4e31-975f-2c9855ef62c0",
      "dependsOn" : [ ]
    },
    {
      "ref" : "b6091c0d-9756-44e4-a021-1d4368afb2b9",
      "dependsOn" : [ ]
    },
    {
      "ref" : "c3ea31b6-667b-4eb1-954a-2a24ebdb4f36",
      "dependsOn" : [ ]
    },
    {
      "ref" : "a57f1bd2-944a-404d-99ea-41212b74725b",
      "dependsOn" : [ ]
    },
    {
      "ref" : "af77578f-c930-4374-995c-06ca5b63d3f3",
      "dependsOn" : [ ]
    },
    {
      "ref" : "10aad92f-2b74-4b89-ac1e-00228d8bd064",
      "dependsOn" : [ ]
    },
    {
      "ref" : "086ee139-3267-4438-952b-5a433c603b41",
      "dependsOn" : [ ]
    },
    {
      "ref" : "27be160e-af41-4d24-9853-6a108b571582",
      "dependsOn" : [ ]
    },
    {
      "ref" : "6fe13792-dc92-4579-bcfe-8405a4978ccc",
      "dependsOn" : [ ]
    },
    {
      "ref" : "a7401fab-2e85-4a3a-b2c4-2d5f274f06c8",
      "dependsOn" : [ ]
    },
    {
      "ref" : "0056f90e-2d83-4812-8f8f-fae6a30ddea8",
      "dependsOn" : [ ]
    },
    {
      "ref" : "7544a375-fb59-44f1-ba26-52334ffc33d1",
      "dependsOn" : [ ]
    },
    {
      "ref" : "c9920d7f-ef2d-421b-9499-7325d1a45e20",
      "dependsOn" : [ ]
    },
    {
      "ref" : "0c0d74d1-3d25-4aa4-9117-f65e6100d7d5",
      "dependsOn" : [ ]
    },
    {
      "ref" : "ee603e4b-67db-485e-83eb-7d9b0e5af78e",
      "dependsOn" : [ ]
    },
    {
      "ref" : "e79cbf5f-5f74-479b-89a6-29beb03e3a5c",
      "dependsOn" : [ ]
    },
    {
      "ref" : "05e4282d-cc32-499b-beec-a609fe2e069d",
      "dependsOn" : [ ]
    },
    {
      "ref" : "ef41043c-7728-4fb8-9457-9b0bdec08bb6",
      "dependsOn" : [ ]
    },
    {
      "ref" : "33ac88dc-f090-4562-882f-ad1ccd71eb34",
      "dependsOn" : [ ]
    },
    {
      "ref" : "6aafb6b9-1cc7-4991-9d62-a9297524d638",
      "dependsOn" : [ ]
    },
    {
      "ref" : "5bf01158-e998-48d3-aaa6-c632647627bd",
      "dependsOn" : [ ]
    },
    {
      "ref" : "3065240a-6cc8-4ca7-9e15-9831b75128f0",
      "dependsOn" : [ ]
    },
    {
      "ref" : "9e386c87-1f57-4ad4-a7c0-d4c68d1a2e93",
      "dependsOn" : [ ]
    },
    {
      "ref" : "4917a372-67e2-46ec-b294-baed6b8730e9",
      "dependsOn" : [ ]
    },
    {
      "ref" : "2ece523d-d5a4-40fb-9128-97d17a74858d",
      "dependsOn" : [ ]
    },
    {
      "ref" : "efadda8a-3e6d-464d-9c82-809345c5b5f4",
      "dependsOn" : [ ]
    },
    {
      "ref" : "6e486844-2db9-4014-99e1-a21f5deb3e2a",
      "dependsOn" : [ ]
    },
    {
      "ref" : "eb2b086b-1751-42b1-904e-98f8eb65cce8",
      "dependsOn" : [ ]
    },
    {
      "ref" : "ff7a71df-e312-40e5-8d6e-b0b36dc59db4",
      "dependsOn" : [ ]
    },
    {
      "ref" : "5db8eea7-734b-4848-bd2a-24b7e477a197",
      "dependsOn" : [ ]
    },
    {
      "ref" : "ec64b56f-26bc-4b9d-85a1-299b5b8a2f84",
      "dependsOn" : [ ]
    },
    {
      "ref" : "614a7cb8-9f03-490f-89db-b598b2118420",
      "dependsOn" : [ ]
    },
    {
      "ref" : "73be00be-dd9e-43b4-8ec3-eccd0fafdda3",
      "dependsOn" : [ ]
    },
    {
      "ref" : "258f1a97-58a6-44d8-90d9-02cb20879c02",
      "dependsOn" : [ ]
    },
    {
      "ref" : "04ed9d3b-5cdb-4b1d-bc76-b22475bcbe35",
      "dependsOn" : [ ]
    },
    {
      "ref" : "e08070ff-40b8-4374-bddd-a1ad54b1343a",
      "dependsOn" : [ ]
    },
    {
      "ref" : "c36925ad-66bb-42a7-b99d-bfc739d64e73",
      "dependsOn" : [ ]
    },
    {
      "ref" : "6c4a255a-c627-49e8-a69c-c5817a68b1cd",
      "dependsOn" : [ ]
    },
    {
      "ref" : "720712e8-99b3-4856-bffa-797890b15d10",
      "dependsOn" : [ ]
    },
    {
      "ref" : "0c757176-90b4-48c8-a2e9-b2512f122a2e",
      "dependsOn" : [ ]
    },
    {
      "ref" : "fab12edf-ae7b-4d5a-bc07-1dd157270d0b",
      "dependsOn" : [ ]
    },
    {
      "ref" : "38ec9003-7e6c-4754-9105-6af92c5cb804",
      "dependsOn" : [ ]
    },
    {
      "ref" : "6906d9d1-557f-496a-9042-a604974bf69b",
      "dependsOn" : [ ]
    },
    {
      "ref" : "ea6ae259-6e01-45ce-88e7-cc5a49747224",
      "dependsOn" : [ ]
    },
    {
      "ref" : "50dfd467-7fe9-44b1-b256-cc8d283bd6e3",
      "dependsOn" : [ ]
    },
    {
      "ref" : "aedadd3d-19ab-4584-8943-2e88420dbfcb",
      "dependsOn" : [ ]
    },
    {
      "ref" : "5e0371f5-fd51-422c-9c7c-f8a0d1ed7a3f",
      "dependsOn" : [ ]
    },
    {
      "ref" : "7c1fd0ea-0ce6-489c-bdbb-d723266eebd3",
      "dependsOn" : [ ]
    },
    {
      "ref" : "33e9c029-07d5-4779-a992-a24aa0d707d0",
      "dependsOn" : [ ]
    },
    {
      "ref" : "625e6d2c-d6df-421c-86a1-c9ac41666645",
      "dependsOn" : [ ]
    },
    {
      "ref" : "644ca7d2-b74b-412e-8085-766f79c7fbb2",
      "dependsOn" : [ ]
    },
    {
      "ref" : "05adf542-2bd1-49d5-9420-98852479bf70",
      "dependsOn" : [ ]
    },
    {
      "ref" : "e6c2efba-cff9-4083-a924-7c123d78bd1d",
      "dependsOn" : [ ]
    },
    {
      "ref" : "386bf7df-e23e-4af7-8176-8b7910f061d0",
      "dependsOn" : [ ]
    },
    {
      "ref" : "ce420f62-abb8-4ad2-acbb-cca5fb3fe190",
      "dependsOn" : [ ]
    },
    {
      "ref" : "202ee7d5-9995-4597-974f-2428ddde31f2",
      "dependsOn" : [ ]
    },
    {
      "ref" : "69a772d9-15ed-48d2-a475-48ad0358a7a5",
      "dependsOn" : [ ]
    },
    {
      "ref" : "a3f058ce-a104-4eaf-91d6-117b3e56126c",
      "dependsOn" : [ ]
    },
    {
      "ref" : "5ed3d5b5-30eb-44e2-8867-4dccb941a0ba",
      "dependsOn" : [ ]
    },
    {
      "ref" : "d065bd4c-e5c9-4ac7-98ca-68f4a0ce2195",
      "dependsOn" : [ ]
    },
    {
      "ref" : "cfaf0a56-ed5c-45e7-be61-459f2b9e0cde",
      "dependsOn" : [ ]
    },
    {
      "ref" : "62f83841-01d9-4398-89db-4c050c004a23",
      "dependsOn" : [ ]
    },
    {
      "ref" : "f61f71ea-cad5-46f3-8479-fade823296ff",
      "dependsOn" : [ ]
    },
    {
      "ref" : "119fcbd0-57e4-4b3b-b6dc-b051b3121d4c",
      "dependsOn" : [ ]
    },
    {
      "ref" : "e0e54298-bef0-4a64-b108-8d6d10cb02d6",
      "dependsOn" : [ ]
    },
    {
      "ref" : "685899e2-d260-4c41-8548-d02f970b46be",
      "dependsOn" : [ ]
    },
    {
      "ref" : "3ac13fae-45fa-4d70-90b4-946dc986ffa8",
      "dependsOn" : [ ]
    },
    {
      "ref" : "15820216-ac96-496a-84f2-4a4c6f23333d",
      "dependsOn" : [ ]
    },
    {
      "ref" : "73991ff5-8723-4a2b-be38-d0641b771c9a",
      "dependsOn" : [ ]
    },
    {
      "ref" : "be24bc18-2185-47ff-b981-da90099158e0",
      "dependsOn" : [ ]
    },
    {
      "ref" : "555007ce-4a5b-47f8-96dc-8ffc3fa9d8fd",
      "dependsOn" : [ ]
    },
    {
      "ref" : "a6e2f271-55a8-4045-b2b9-97432d23eead",
      "dependsOn" : [ ]
    },
    {
      "ref" : "6a16a009-b8fc-4d3c-b497-191ad6e48863",
      "dependsOn" : [ ]
    },
    {
      "ref" : "54d3ad56-27fa-4be9-9b4f-bcd017ee411d",
      "dependsOn" : [ ]
    },
    {
      "ref" : "d72a63de-85a5-47db-86b2-47b39ddb495b",
      "dependsOn" : [ ]
    },
    {
      "ref" : "56b41df1-9755-4631-a5fa-c96a29c63639",
      "dependsOn" : [ ]
    },
    {
      "ref" : "975b09a7-84cb-46a5-afda-13588b07fde0",
      "dependsOn" : [ ]
    },
    {
      "ref" : "59c92b88-3cf2-4e78-b84e-51dd470537e1",
      "dependsOn" : [ ]
    },
    {
      "ref" : "368862b5-3c38-4201-abff-7688e0a6fdfe",
      "dependsOn" : [ ]
    },
    {
      "ref" : "1e56a62e-bf0a-48bd-91b8-027591deac35",
      "dependsOn" : [ ]
    },
    {
      "ref" : "f81bc5f3-8121-4847-bbe8-4767ba1fb2e5",
      "dependsOn" : [
        "0399a6a7-657b-42bb-b1ac-35c2065fc5d1",
        "fac20796-cbe0-4c8d-9f40-c48be3036403",
        "04657847-254b-48f2-8712-57de4413b36c",
        "6fbb684b-25e2-4252-ab72-35ba09c10979",
        "e83bd4a4-cce8-43f3-9d62-32133198c489",
        "3a2099f4-996c-45ef-ab89-345cf3b68151",
        "30a1a54b-7a58-4e84-a890-5e7b78f51f55",
        "cb2a351e-cc1d-4810-a254-8b48718bc219",
        "dc38f79d-6819-4978-8ad8-13f30a220e66",
        "39df3e23-47e3-4f49-854c-a5bce085d2ae",
        "79fcf13f-114d-4275-898e-0f3fe5482f7c",
        "b820611e-a3d4-4964-96de-811d8ad52bb0",
        "19b1300a-c676-45f2-a7c8-7fc34ba213a0",
        "794bcb99-ec2f-4343-b255-e025155f1b59",
        "1752bf32-d864-4925-acaa-c262fb90a740",
        "5adeab0f-cbc7-43c6-8318-eb4d20f852a2",
        "9bcd1cc2-a25d-4842-8ceb-abc5b8a7a868",
        "a1983425-fd5a-4638-a455-d70882ee8d18",
        "3f2edeea-5ac5-45e5-8ffd-d1d3190ac045",
        "206c147f-5cd3-4ba8-9645-c8961d1ec125",
        "92364509-e602-4188-9fa3-65af81260a96",
        "89741f11-4cc5-47a8-996d-0efe49eaae12",
        "a962d061-bc2e-4d2b-9520-12bb0b54c383",
        "eeff864c-b09a-4d16-840b-87ddf4b32539",
        "dd355181-472c-4e6a-ab39-76993e67a001",
        "bd0c03bb-c79b-40c6-b06c-335606650303",
        "181cb44c-1983-4c98-91b8-71f27d995dba",
        "6ff63d9c-f218-4690-975f-688df48d3b1b",
        "efbdd5fc-9a2e-4512-8f69-80a67cd4ec01",
        "c637d29b-9c04-497b-8557-3d2ac3114aab",
        "4e12afcd-f257-4582-a06e-39d461d7c888",
        "ddcea673-23e7-4ea2-badf-483f136228b9",
        "793ae66f-632e-46f7-9408-5ff52c078a8f",
        "71ae95e4-52c6-4969-af50-2a252826d770",
        "c61a8a89-98a0-45ff-8454-d5c851cd3fb3",
        "6a521679-52b8-4968-840f-acb0ba05db35",
        "853d6ab1-e1e8-4f9c-b229-948ff1448566",
        "3c9b9ef7-6f46-4b09-87df-9acb18445e7b",
        "2e6051d6-e5eb-4aa0-a472-dbadf4546d5b",
        "80989b9b-386a-492d-88ce-c54c123ae509",
        "e3dffbce-2862-4a96-8f9b-73bc02f0fbde",
        "e7063f51-ab7c-45ef-ab0a-cc4595445670",
        "a2c44aa0-fb7a-4a50-b2f4-2c2ef8bdb462",
        "4fe65060-96a4-424f-b5d5-0c576d86bf96",
        "2cbe72f4-174d-44b5-b4c7-4f7e9ab26621",
        "ad3a76ef-5d6d-4b8c-a255-498cb5f5bbc6",
        "44252e19-b315-463c-aea0-ea6f7b52757e",
        "d0b50a9a-6b40-4952-a59b-a90717b44b4e",
        "c9aaa311-6a6a-493f-add1-b06c510094e5",
        "25e51f86-7d13-4966-91e6-6ad76025c454",
        "79f80b16-8c09-43ea-92b7-305428ad70e1",
        "ad0d17fe-c3d3-4659-b0b2-6c066d1b1fc9",
        "5e60b8f7-8448-4505-ac87-4108af40b016",
        "e895e940-4f7e-4fbd-8651-0a86d280612b",
        "8a44fa54-5997-4b95-bf44-ba960f7284c8",
        "1005b5b2-dbb9-447b-8be5-97ef1e85dc03",
        "3e943c0d-db24-4a5e-bbab-4968b2769808",
        "68d2599c-44c8-44de-8225-4a015056c8f1",
        "cb0408f6-816d-444d-abe4-9e46a7abaec5",
        "9a3b070a-02b2-47a1-92fa-e118dc9f1871",
        "401490f2-ef94-499c-bb71-cc3a3053e204",
        "430d5c7c-03fb-44db-a5ed-124088ca30ce",
        "61472fd2-6481-4d2a-a99b-ae58999e987f",
        "c5119c4f-7de1-4c38-84e9-aba1f0208ed6",
        "a8d72d69-5dc6-4182-926b-395c50282901",
        "29a97dc9-7791-419c-9efc-847ee16e2d28",
        "cdec5b74-5ea5-49a2-86e4-bf55f2eedbef",
        "933378a4-f1b3-4c04-bfaf-2a091b3a921a",
        "c92b53bf-66df-491f-89c3-6c90ca188fe4",
        "39ce4bb0-7552-46b7-9c35-0792d3ca14af",
        "2148ed9f-3c0c-42b1-a61b-eee1346937c9",
        "3e4c20a2-55ad-4e7d-9fb2-6710ea132f7e",
        "7381b590-17e8-464e-ab6f-1d80c64229aa",
        "ad31b37c-bae7-46ee-ac8f-07979ddb83be",
        "97b45cd5-49b5-4579-bd2b-2b08da251199",
        "b3cf0c2e-b080-4671-8786-48424d32ed13",
        "29329711-f258-4eae-9dfa-b1558a850fc5",
        "f4c949b9-8c2d-41e3-99ba-15d814095acc",
        "99444809-f207-465e-b811-86ea5f3b2b60",
        "ff4d328f-dd62-45b0-979b-182bf71adf17",
        "f1da516e-e80d-4385-8aef-27f7bf509c81",
        "02018a04-5249-4e31-975f-2c9855ef62c0",
        "b6091c0d-9756-44e4-a021-1d4368afb2b9",
        "c3ea31b6-667b-4eb1-954a-2a24ebdb4f36",
        "a57f1bd2-944a-404d-99ea-41212b74725b",
        "af77578f-c930-4374-995c-06ca5b63d3f3",
        "10aad92f-2b74-4b89-ac1e-00228d8bd064",
        "086ee139-3267-4438-952b-5a433c603b41",
        "27be160e-af41-4d24-9853-6a108b571582",
        "a7401fab-2e85-4a3a-b2c4-2d5f274f06c8",
        "0056f90e-2d83-4812-8f8f-fae6a30ddea8",
        "7544a375-fb59-44f1-ba26-52334ffc33d1",
        "c9920d7f-ef2d-421b-9499-7325d1a45e20",
        "0c0d74d1-3d25-4aa4-9117-f65e6100d7d5",
        "ee603e4b-67db-485e-83eb-7d9b0e5af78e",
        "ef41043c-7728-4fb8-9457-9b0bdec08bb6",
        "33ac88dc-f090-4562-882f-ad1ccd71eb34",
        "6aafb6b9-1cc7-4991-9d62-a9297524d638",
        "5bf01158-e998-48d3-aaa6-c632647627bd",
        "9e386c87-1f57-4ad4-a7c0-d4c68d1a2e93",
        "4917a372-67e2-46ec-b294-baed6b8730e9",
        "2ece523d-d5a4-40fb-9128-97d17a74858d",
        "efadda8a-3e6d-464d-9c82-809345c5b5f4",
        "6e486844-2db9-4014-99e1-a21f5deb3e2a",
        "eb2b086b-1751-42b1-904e-98f8eb65cce8",
        "ff7a71df-e312-40e5-8d6e-b0b36dc59db4",
        "ec64b56f-26bc-4b9d-85a1-299b5b8a2f84",
        "614a7cb8-9f03-490f-89db-b598b2118420",
        "73be00be-dd9e-43b4-8ec3-eccd0fafdda3",
        "258f1a97-58a6-44d8-90d9-02cb20879c02",
        "04ed9d3b-5cdb-4b1d-bc76-b22475bcbe35",
        "e08070ff-40b8-4374-bddd-a1ad54b1343a",
        "c36925ad-66bb-42a7-b99d-bfc739d64e73",
        "6c4a255a-c627-49e8-a69c-c5817a68b1cd",
        "0c757176-90b4-48c8-a2e9-b2512f122a2e",
        "fab12edf-ae7b-4d5a-bc07-1dd157270d0b",
        "38ec9003-7e6c-4754-9105-6af92c5cb804",
        "6906d9d1-557f-496a-9042-a604974bf69b",
        "ea6ae259-6e01-45ce-88e7-cc5a49747224",
        "50dfd467-7fe9-44b1-b256-cc8d283bd6e3",
        "5e0371f5-fd51-422c-9c7c-f8a0d1ed7a3f",
        "7c1fd0ea-0ce6-489c-bdbb-d723266eebd3",
        "625e6d2c-d6df-421c-86a1-c9ac41666645",
        "644ca7d2-b74b-412e-8085-766f79c7fbb2",
        "05adf542-2bd1-49d5-9420-98852479bf70",
        "e6c2efba-cff9-4083-a924-7c123d78bd1d",
        "386bf7df-e23e-4af7-8176-8b7910f061d0",
        "ce420f62-abb8-4ad2-acbb-cca5fb3fe190",
        "202ee7d5-9995-4597-974f-2428ddde31f2",
        "69a772d9-15ed-48d2-a475-48ad0358a7a5",
        "a3f058ce-a104-4eaf-91d6-117b3e56126c",
        "5ed3d5b5-30eb-44e2-8867-4dccb941a0ba",
        "d065bd4c-e5c9-4ac7-98ca-68f4a0ce2195",
        "62f83841-01d9-4398-89db-4c050c004a23",
        "975b09a7-84cb-46a5-afda-13588b07fde0",
        "368862b5-3c38-4201-abff-7688e0a6fdfe"
      ]
    },
    {
      "ref" : "e5263bce-9533-44f8-aad6-d6a5a553984f",
      "dependsOn" : [
        "1a73d41d-90d9-4544-82de-ee733334e7fc",
        "b820611e-a3d4-4964-96de-811d8ad52bb0",
        "19b1300a-c676-45f2-a7c8-7fc34ba213a0",
        "794bcb99-ec2f-4343-b255-e025155f1b59",
        "1752bf32-d864-4925-acaa-c262fb90a740",
        "5adeab0f-cbc7-43c6-8318-eb4d20f852a2",
        "9bcd1cc2-a25d-4842-8ceb-abc5b8a7a868",
        "a1983425-fd5a-4638-a455-d70882ee8d18",
        "3f2edeea-5ac5-45e5-8ffd-d1d3190ac045",
        "206c147f-5cd3-4ba8-9645-c8961d1ec125",
        "92364509-e602-4188-9fa3-65af81260a96",
        "89741f11-4cc5-47a8-996d-0efe49eaae12",
        "a962d061-bc2e-4d2b-9520-12bb0b54c383",
        "38bc0c61-3888-4c19-8f4c-cf086c45757c",
        "eeff864c-b09a-4d16-840b-87ddf4b32539",
        "dd355181-472c-4e6a-ab39-76993e67a001",
        "df6a3226-6872-4272-ba46-210e8ca65770",
        "181cb44c-1983-4c98-91b8-71f27d995dba",
        "83b1a262-c92f-4319-9d50-ed6faf331792",
        "efbdd5fc-9a2e-4512-8f69-80a67cd4ec01",
        "c637d29b-9c04-497b-8557-3d2ac3114aab",
        "4e12afcd-f257-4582-a06e-39d461d7c888",
        "ddcea673-23e7-4ea2-badf-483f136228b9",
        "a1a5de81-78f0-4ea3-9431-c4c6b9e1918d",
        "8e6a7b89-d006-49de-a4da-2192758ed992",
        "80626524-62ef-4dbd-9c3d-9f3f6a61414a",
        "6a521679-52b8-4968-840f-acb0ba05db35",
        "96d0f83c-a217-4623-ba57-75b05c93d2ee",
        "3c9b9ef7-6f46-4b09-87df-9acb18445e7b",
        "2e6051d6-e5eb-4aa0-a472-dbadf4546d5b",
        "80989b9b-386a-492d-88ce-c54c123ae509",
        "e3dffbce-2862-4a96-8f9b-73bc02f0fbde",
        "e7063f51-ab7c-45ef-ab0a-cc4595445670",
        "a2c44aa0-fb7a-4a50-b2f4-2c2ef8bdb462",
        "55485c9e-c2d5-4f50-9f83-740fac759bb1",
        "2cbe72f4-174d-44b5-b4c7-4f7e9ab26621",
        "ad3a76ef-5d6d-4b8c-a255-498cb5f5bbc6",
        "44252e19-b315-463c-aea0-ea6f7b52757e",
        "d0b50a9a-6b40-4952-a59b-a90717b44b4e",
        "c9aaa311-6a6a-493f-add1-b06c510094e5",
        "62da9038-80fe-4f15-a850-dd3c682e4e41",
        "79f80b16-8c09-43ea-92b7-305428ad70e1",
        "ad0d17fe-c3d3-4659-b0b2-6c066d1b1fc9",
        "5e60b8f7-8448-4505-ac87-4108af40b016",
        "e895e940-4f7e-4fbd-8651-0a86d280612b",
        "1005b5b2-dbb9-447b-8be5-97ef1e85dc03",
        "3e943c0d-db24-4a5e-bbab-4968b2769808",
        "68d2599c-44c8-44de-8225-4a015056c8f1",
        "cb0408f6-816d-444d-abe4-9e46a7abaec5",
        "750c0a23-0794-4a19-aa75-b0d22c48fa59",
        "7fd47627-7ec1-40cb-9ce0-7be989f39a63",
        "03b1660a-2b12-4a07-b83e-cdc12665c241",
        "430d5c7c-03fb-44db-a5ed-124088ca30ce",
        "495a9c41-e731-4a91-b6a9-3daf0878436f",
        "61472fd2-6481-4d2a-a99b-ae58999e987f",
        "11e49a03-2d00-4a94-ab4c-fcdeabdf1e89",
        "c5119c4f-7de1-4c38-84e9-aba1f0208ed6",
        "89da88b4-cace-4470-88cc-55bcced77d76",
        "4c22e035-b615-4bb0-9e9e-eb373d2a255c",
        "8e504a71-d90e-44e5-9164-81ee026fe15f",
        "a8d72d69-5dc6-4182-926b-395c50282901",
        "29a97dc9-7791-419c-9efc-847ee16e2d28",
        "e8c34583-ce17-4744-8950-87470f87ff13",
        "933378a4-f1b3-4c04-bfaf-2a091b3a921a",
        "c92b53bf-66df-491f-89c3-6c90ca188fe4",
        "39ce4bb0-7552-46b7-9c35-0792d3ca14af",
        "2148ed9f-3c0c-42b1-a61b-eee1346937c9",
        "3e4c20a2-55ad-4e7d-9fb2-6710ea132f7e",
        "7381b590-17e8-464e-ab6f-1d80c64229aa",
        "ad31b37c-bae7-46ee-ac8f-07979ddb83be",
        "97b45cd5-49b5-4579-bd2b-2b08da251199",
        "372a7144-2f1a-4bf2-b28a-10a81512e911",
        "1690780c-3f79-4150-9411-14ce223dd344",
        "29329711-f258-4eae-9dfa-b1558a850fc5",
        "f4c949b9-8c2d-41e3-99ba-15d814095acc",
        "99444809-f207-465e-b811-86ea5f3b2b60",
        "ff4d328f-dd62-45b0-979b-182bf71adf17",
        "b9db2522-d5b4-4ebf-b145-9683eb88023a",
        "02018a04-5249-4e31-975f-2c9855ef62c0",
        "b6091c0d-9756-44e4-a021-1d4368afb2b9",
        "c3ea31b6-667b-4eb1-954a-2a24ebdb4f36",
        "a57f1bd2-944a-404d-99ea-41212b74725b",
        "af77578f-c930-4374-995c-06ca5b63d3f3",
        "10aad92f-2b74-4b89-ac1e-00228d8bd064",
        "086ee139-3267-4438-952b-5a433c603b41",
        "27be160e-af41-4d24-9853-6a108b571582",
        "6fe13792-dc92-4579-bcfe-8405a4978ccc",
        "a7401fab-2e85-4a3a-b2c4-2d5f274f06c8",
        "0056f90e-2d83-4812-8f8f-fae6a30ddea8",
        "7544a375-fb59-44f1-ba26-52334ffc33d1",
        "c9920d7f-ef2d-421b-9499-7325d1a45e20",
        "0c0d74d1-3d25-4aa4-9117-f65e6100d7d5",
        "e79cbf5f-5f74-479b-89a6-29beb03e3a5c",
        "05e4282d-cc32-499b-beec-a609fe2e069d",
        "ef41043c-7728-4fb8-9457-9b0bdec08bb6",
        "33ac88dc-f090-4562-882f-ad1ccd71eb34",
        "6aafb6b9-1cc7-4991-9d62-a9297524d638",
        "3065240a-6cc8-4ca7-9e15-9831b75128f0",
        "9e386c87-1f57-4ad4-a7c0-d4c68d1a2e93",
        "4917a372-67e2-46ec-b294-baed6b8730e9",
        "efadda8a-3e6d-464d-9c82-809345c5b5f4",
        "6e486844-2db9-4014-99e1-a21f5deb3e2a",
        "eb2b086b-1751-42b1-904e-98f8eb65cce8",
        "5db8eea7-734b-4848-bd2a-24b7e477a197",
        "ec64b56f-26bc-4b9d-85a1-299b5b8a2f84",
        "614a7cb8-9f03-490f-89db-b598b2118420",
        "73be00be-dd9e-43b4-8ec3-eccd0fafdda3",
        "258f1a97-58a6-44d8-90d9-02cb20879c02",
        "04ed9d3b-5cdb-4b1d-bc76-b22475bcbe35",
        "e08070ff-40b8-4374-bddd-a1ad54b1343a",
        "c36925ad-66bb-42a7-b99d-bfc739d64e73",
        "720712e8-99b3-4856-bffa-797890b15d10",
        "0c757176-90b4-48c8-a2e9-b2512f122a2e",
        "fab12edf-ae7b-4d5a-bc07-1dd157270d0b",
        "38ec9003-7e6c-4754-9105-6af92c5cb804",
        "6906d9d1-557f-496a-9042-a604974bf69b",
        "ea6ae259-6e01-45ce-88e7-cc5a49747224",
        "aedadd3d-19ab-4584-8943-2e88420dbfcb",
        "5e0371f5-fd51-422c-9c7c-f8a0d1ed7a3f",
        "33e9c029-07d5-4779-a992-a24aa0d707d0",
        "625e6d2c-d6df-421c-86a1-c9ac41666645",
        "644ca7d2-b74b-412e-8085-766f79c7fbb2",
        "05adf542-2bd1-49d5-9420-98852479bf70",
        "e6c2efba-cff9-4083-a924-7c123d78bd1d",
        "386bf7df-e23e-4af7-8176-8b7910f061d0",
        "ce420f62-abb8-4ad2-acbb-cca5fb3fe190",
        "202ee7d5-9995-4597-974f-2428ddde31f2",
        "69a772d9-15ed-48d2-a475-48ad0358a7a5",
        "a3f058ce-a104-4eaf-91d6-117b3e56126c",
        "5ed3d5b5-30eb-44e2-8867-4dccb941a0ba",
        "cfaf0a56-ed5c-45e7-be61-459f2b9e0cde",
        "f61f71ea-cad5-46f3-8479-fade823296ff",
        "59c92b88-3cf2-4e78-b84e-51dd470537e1",
        "368862b5-3c38-4201-abff-7688e0a6fdfe"
      ]
    },
    {
      "ref" : "61681076-90ea-453e-8272-67caa3486f6f",
      "dependsOn" : [ ]
    }
  ],
  "vulnerabilities" : [
    {
      "bom-ref" : "322f1c47-5552-4038-b6cb-45437917bf4a",
      "id" : "CVE-2023-26054",
      "source" : {
        "name" : "NVD",
        "url" : "https://nvd.nist.gov/"
      },
      "ratings" : [
        {
          "source" : {
            "name" : "NVD",
            "url" : "https://nvd.nist.gov/"
          },
          "score" : 6.5,
          "severity" : "medium",
          "method" : "CVSSv3",
          "vector" : "CVSS:3.0/AV:N/AC:L/PR:N/UI:R/S:U/C:H/I:N/A:N"
        }
      ],
      "description" : "BuildKit is a toolkit for converting source code to build artifacts in an efficient, expressive and repeatable manner. In affected versions when the user sends a build request that contains a Git URL that contains credentials and the build creates a provenance attestation describing that build, these credentials could be visible from the provenance attestation. Git URL can be passed in two ways: 1) Invoking build directly from a URL with credentials. 2) If the client sends additional version control system (VCS) info hint parameters on builds from a local source. Usually, that would mean reading the origin URL from `.git/config` file. When a build is performed under specific conditions where credentials were passed to BuildKit they may be visible to everyone who has access to provenance attestation. Provenance attestations and VCS info hints were added in version v0.11.0. Previous versions are not vulnerable. In v0.10, when building directly from Git URL, the same URL could be visible in `BuildInfo` structure that is a predecessor of Provenance attestations. Previous versions are not vulnerable. This bug has been fixed in v0.11.4. Users are advised to upgrade. Users unable to upgrade may disable VCS info hints by setting `BUILDX_GIT_INFO=0`. `buildctl` does not set VCS hints based on `.git` directory, and values would need to be passed manually with `--opt`.",
      "published" : "2023-03-06T19:15:00Z",
      "updated" : "2023-03-13T18:37:00Z",
      "affects" : [
        {
          "ref" : "c92b53bf-66df-491f-89c3-6c90ca188fe4"
        }
      ]
    },
    {
      "bom-ref" : "f317791d-f881-4df2-a2c5-492b40c7a15a",
      "id" : "CVE-2023-25809",
      "source" : {
        "name" : "NVD",
        "url" : "https://nvd.nist.gov/"
      },
      "ratings" : [
        {
          "source" : {
            "name" : "NVD",
            "url" : "https://nvd.nist.gov/"
          },
          "score" : 6.3,
          "severity" : "medium",
          "method" : "CVSSv3",
          "vector" : "CVSS:3.0/AV:L/AC:L/PR:L/UI:N/S:C/C:L/I:L/A:L"
        }
      ],
      "cwes" : [
        281
      ],
      "description" : "runc is a CLI tool for spawning and running containers according to the OCI specification. In affected versions it was found that rootless runc makes `/sys/fs/cgroup` writable in following conditons: 1. when runc is executed inside the user namespace, and the `config.json` does not specify the cgroup namespace to be unshared (e.g.., `(docker|podman|nerdctl) run --cgroupns=host`, with Rootless Docker/Podman/nerdctl) or 2. when runc is executed outside the user namespace, and `/sys` is mounted with `rbind, ro` (e.g., `runc spec --rootless`; this condition is very rare). A container may gain the write access to user-owned cgroup hierarchy `/sys/fs/cgroup/user.slice/...` on the host . Other users's cgroup hierarchies are not affected. Users are advised to upgrade to version 1.1.5. Users unable to upgrade may unshare the cgroup namespace (`(docker|podman|nerdctl) run --cgroupns=private)`. This is the default behavior of Docker/Podman/nerdctl on cgroup v2 hosts. or add `/sys/fs/cgroup` to `maskedPaths`.",
      "published" : "2023-03-29T19:15:00Z",
      "updated" : "2023-04-06T17:41:00Z",
      "affects" : [
        {
          "ref" : "02018a04-5249-4e31-975f-2c9855ef62c0"
        }
      ]
    },
    {
      "bom-ref" : "2edbcc86-cabf-4e02-aa0c-a989bcc93683",
      "id" : "CVE-2023-27561",
      "source" : {
        "name" : "NVD",
        "url" : "https://nvd.nist.gov/"
      },
      "ratings" : [
        {
          "source" : {
            "name" : "NVD",
            "url" : "https://nvd.nist.gov/"
          },
          "score" : 7.0,
          "severity" : "high",
          "method" : "CVSSv3",
          "vector" : "CVSS:3.0/AV:L/AC:H/PR:L/UI:N/S:U/C:H/I:H/A:H"
        }
      ],
      "cwes" : [
        706
      ],
      "description" : "runc through 1.1.4 has Incorrect Access Control leading to Escalation of Privileges, related to libcontainer/rootfs_linux.go. To exploit this, an attacker must be able to spawn two containers with custom volume-mount configurations, and be able to run custom images. NOTE: this issue exists because of a CVE-2019-19921 regression.",
      "published" : "2023-03-03T19:15:00Z",
      "updated" : "2023-04-21T04:15:00Z",
      "affects" : [
        {
          "ref" : "02018a04-5249-4e31-975f-2c9855ef62c0"
        }
      ]
    },
    {
      "bom-ref" : "1ecec583-a61a-40de-a47b-cc706338bec9",
      "id" : "CVE-2023-28642",
      "source" : {
        "name" : "NVD",
        "url" : "https://nvd.nist.gov/"
      },
      "ratings" : [
        {
          "source" : {
            "name" : "NVD",
            "url" : "https://nvd.nist.gov/"
          },
          "score" : 7.8,
          "severity" : "high",
          "method" : "CVSSv3",
          "vector" : "CVSS:3.0/AV:L/AC:L/PR:L/UI:N/S:U/C:H/I:H/A:H"
        }
      ],
      "cwes" : [
        59
      ],
      "description" : "runc is a CLI tool for spawning and running containers according to the OCI specification. It was found that AppArmor can be bypassed when `/proc` inside the container is symlinked with a specific mount configuration. This issue has been fixed in runc version 1.1.5, by prohibiting symlinked `/proc`. See PR #3785 for details. users are advised to upgrade. Users unable to upgrade should avoid using an untrusted container image.",
      "published" : "2023-03-29T19:15:00Z",
      "updated" : "2023-04-06T17:45:00Z",
      "affects" : [
        {
          "ref" : "02018a04-5249-4e31-975f-2c9855ef62c0"
        }
      ]
    },
    {
      "bom-ref" : "ad3c70fd-fb7e-45da-ba10-def7c47762bc",
      "id" : "CVE-2022-41723",
      "source" : {
        "name" : "NVD",
        "url" : "https://nvd.nist.gov/"
      },
      "ratings" : [
        {
          "source" : {
            "name" : "NVD",
            "url" : "https://nvd.nist.gov/"
          },
          "score" : 7.5,
          "severity" : "high",
          "method" : "CVSSv3",
          "vector" : "CVSS:3.0/AV:N/AC:L/PR:N/UI:N/S:U/C:N/I:N/A:H"
        }
      ],
      "cwes" : [
        400
      ],
      "description" : "A maliciously crafted HTTP/2 stream could cause excessive CPU consumption in the HPACK decoder, sufficient to cause a denial of service from a small number of small requests.",
      "published" : "2023-02-28T18:15:00Z",
      "updated" : "2023-05-16T10:50:00Z",
      "affects" : [
        {
          "ref" : "38ec9003-7e6c-4754-9105-6af92c5cb804"
        }
      ]
    },
    {
      "bom-ref" : "0e4aac00-2b5d-47c6-a79c-0055ab2b3f3c",
      "id" : "CVE-2023-25153",
      "source" : {
        "name" : "NVD",
        "url" : "https://nvd.nist.gov/"
      },
      "ratings" : [
        {
          "source" : {
            "name" : "NVD",
            "url" : "https://nvd.nist.gov/"
          },
          "score" : 5.5,
          "severity" : "medium",
          "method" : "CVSSv3",
          "vector" : "CVSS:3.0/AV:L/AC:L/PR:N/UI:R/S:U/C:N/I:N/A:H"
        }
      ],
      "cwes" : [
        770
      ],
      "description" : "containerd is an open source container runtime. Before versions 1.6.18 and 1.5.18, when importing an OCI image, there was no limit on the number of bytes read for certain files. A maliciously crafted image with a large file where a limit was not applied could cause a denial of service. This bug has been fixed in containerd 1.6.18 and 1.5.18. Users should update to these versions to resolve the issue. As a workaround, ensure that only trusted images are used and that only trusted users have permissions to import images.",
      "published" : "2023-02-16T15:15:00Z",
      "updated" : "2023-02-24T16:41:00Z",
      "affects" : [
        {
          "ref" : "83b1a262-c92f-4319-9d50-ed6faf331792"
        }
      ]
    },
    {
      "bom-ref" : "d6275341-0cd8-4512-8e13-2f254a98de86",
      "id" : "CVE-2023-25173",
      "source" : {
        "name" : "NVD",
        "url" : "https://nvd.nist.gov/"
      },
      "ratings" : [
        {
          "source" : {
            "name" : "NVD",
            "url" : "https://nvd.nist.gov/"
          },
          "score" : 7.8,
          "severity" : "high",
          "method" : "CVSSv3",
          "vector" : "CVSS:3.0/AV:L/AC:L/PR:L/UI:N/S:U/C:H/I:H/A:H"
        }
      ],
      "cwes" : [
        863
      ],
      "description" : "containerd is an open source container runtime. A bug was found in containerd prior to versions 1.6.18 and 1.5.18 where supplementary groups are not set up properly inside a container. If an attacker has direct access to a container and manipulates their supplementary group access, they may be able to use supplementary group access to bypass primary group restrictions in some cases, potentially gaining access to sensitive information or gaining the ability to execute code in that container. Downstream applications that use the containerd client library may be affected as well. This bug has been fixed in containerd v1.6.18 and v.1.5.18. Users should update to these versions and recreate containers to resolve this issue. Users who rely on a downstream application that uses containerd's client library should check that application for a separate advisory and instructions. As a workaround, ensure that the `\"USER $USERNAME\"` Dockerfile instruction is not used. Instead, set the container entrypoint to a value similar to `ENTRYPOINT [\"su\", \"-\", \"user\"]` to allow `su` to properly set up supplementary groups.",
      "published" : "2023-02-16T15:15:00Z",
      "updated" : "2023-02-24T16:56:00Z",
      "affects" : [
        {
          "ref" : "83b1a262-c92f-4319-9d50-ed6faf331792"
        }
      ]
    }
  ]
}