{
  "bomFormat" : "CycloneDX",
  "specVersion" : "1.4",
  "serialNumber" : "urn:uuid:89a7f28d-f944-41ef-87ae-0113f283ddf9",
  "version" : 1,
  "metadata" : {
    "timestamp" : "2023-07-03T14:59:50Z",
    "tools" : [
      {
        "vendor" : "OWASP",
        "name" : "Dependency-Track",
        "version" : "4.8.2"
      }
    ],
    "component" : {
      "name" : "mysql-oracle",
      "version" : "SNAPSHOT",
      "type" : "application",
      "bom-ref" : "9faacdab-dd24-409c-abe2-284cd1e832d7"
    }
  },
  "components" : [
    {
      "name" : "PyNaCl",
      "version" : "1.4.0",
      "purl" : "pkg:pypi/pynacl@1.4.0",
      "type" : "library",
      "bom-ref" : "83439903-0c23-4400-8fbe-ba9495bf87d7"
    },
    {
      "name" : "PyYAML",
      "version" : "6.0",
      "purl" : "pkg:pypi/pyyaml@6.0",
      "type" : "library",
      "bom-ref" : "437e3b0e-490b-4802-b770-b6f2a1d3c3bb"
    },
    {
      "name" : "audit-libs",
      "version" : "3.0.7-4.el8",
      "purl" : "pkg:rpm/oracle/audit-libs@3.0.7-4.el8?arch=x86_64&distro=oracle-8.7",
      "type" : "library",
      "bom-ref" : "46d6af0d-3a40-4835-8288-235cae8dea68"
    },
    {
      "name" : "basesystem",
      "version" : "11-5.el8",
      "purl" : "pkg:rpm/oracle/basesystem@11-5.el8?arch=noarch&distro=oracle-8.7",
      "type" : "library",
      "bom-ref" : "81da5365-94d7-4e3a-90ee-fbb5d2617f2c"
    },
    {
      "name" : "bash",
      "version" : "4.4.20-4.el8_6",
      "purl" : "pkg:rpm/oracle/bash@4.4.20-4.el8_6?arch=x86_64&distro=oracle-8.7",
      "type" : "library",
      "bom-ref" : "35170a09-bff6-47fa-84be-7b2cf461ac5c"
    },
    {
      "name" : "bcrypt",
      "version" : "3.2.2",
      "purl" : "pkg:pypi/bcrypt@3.2.2",
      "type" : "library",
      "bom-ref" : "46174386-2de2-43fe-a97a-fb3a00c53a9c"
    },
    {
      "name" : "brotli",
      "version" : "1.0.6-3.el8",
      "purl" : "pkg:rpm/oracle/brotli@1.0.6-3.el8?arch=x86_64&distro=oracle-8.7",
      "type" : "library",
      "bom-ref" : "1d79e320-e36d-42c0-b6c7-019e4d68ee02"
    },
    {
      "name" : "bzip2",
      "version" : "1.0.6-26.el8",
      "purl" : "pkg:rpm/oracle/bzip2@1.0.6-26.el8?arch=x86_64&distro=oracle-8.7",
      "type" : "library",
      "bom-ref" : "e6ef69f0-28c4-4652-9036-a630b9e2f63f"
    },
    {
      "name" : "bzip2-libs",
      "version" : "1.0.6-26.el8",
      "purl" : "pkg:rpm/oracle/bzip2-libs@1.0.6-26.el8?arch=x86_64&distro=oracle-8.7",
      "type" : "library",
      "bom-ref" : "1f6f9d57-1033-4088-8106-ba2df53bba39"
    },
    {
      "name" : "ca-certificates",
      "version" : "2022.2.54-80.2.el8_6",
      "purl" : "pkg:rpm/oracle/ca-certificates@2022.2.54-80.2.el8_6?arch=noarch&distro=oracle-8.7",
      "type" : "library",
      "bom-ref" : "59bb594e-d423-48e4-9127-885cf6fc5b6a"
    },
    {
      "name" : "certifi",
      "version" : "2022.9.24",
      "purl" : "pkg:pypi/certifi@2022.9.24",
      "type" : "library",
      "bom-ref" : "a1ea7ee0-ca6e-41a5-9774-38bcbecff815"
    },
    {
      "name" : "cffi",
      "version" : "1.15.1",
      "purl" : "pkg:pypi/cffi@1.15.1",
      "type" : "library",
      "bom-ref" : "e8a021e7-64cd-49d9-af34-26a0430959ee"
    },
    {
      "name" : "chkconfig",
      "version" : "1.19.1-1.0.1.el8",
      "purl" : "pkg:rpm/oracle/chkconfig@1.19.1-1.0.1.el8?arch=x86_64&distro=oracle-8.7",
      "type" : "library",
      "bom-ref" : "673ddec6-453c-4214-bd15-19d81c66d3ab"
    },
    {
      "name" : "circuitbreaker",
      "version" : "1.4.0",
      "purl" : "pkg:pypi/circuitbreaker@1.4.0",
      "type" : "library",
      "bom-ref" : "406d395f-3b2b-4070-bcd6-ace4f5ff17e6"
    },
    {
      "name" : "coreutils-single",
      "version" : "8.30-13.0.1.el8",
      "purl" : "pkg:rpm/oracle/coreutils-single@8.30-13.0.1.el8?arch=x86_64&distro=oracle-8.7",
      "type" : "library",
      "bom-ref" : "b33135d7-baea-44d6-8415-a3a2a6d2ca2f"
    },
    {
      "name" : "crypto-policies",
      "version" : "20211116-1.gitae470d6.el8",
      "purl" : "pkg:rpm/oracle/crypto-policies@20211116-1.gitae470d6.el8?arch=noarch&distro=oracle-8.7",
      "type" : "library",
      "bom-ref" : "252e9da8-c00e-4e89-b2ab-c152359d0084"
    },
    {
      "name" : "cryptography",
      "version" : "37.0.2",
      "purl" : "pkg:pypi/cryptography@37.0.2",
      "type" : "library",
      "bom-ref" : "fce74b46-ecb0-4cfa-bc6c-22564b99cc79"
    },
    {
      "name" : "curl",
      "version" : "7.61.1-25.el8_7.2",
      "purl" : "pkg:rpm/oracle/curl@7.61.1-25.el8_7.2?arch=x86_64&distro=oracle-8.7",
      "type" : "library",
      "bom-ref" : "df906f40-869e-4bb4-8356-4f27d3494f4c"
    },
    {
      "name" : "cyrus-sasl-lib",
      "version" : "2.1.27-6.el8_5",
      "purl" : "pkg:rpm/oracle/cyrus-sasl-lib@2.1.27-6.el8_5?arch=x86_64&distro=oracle-8.7",
      "type" : "library",
      "bom-ref" : "d14aa32b-1f35-40b7-87d9-6f8bd36a2a29"
    },
    {
      "name" : "elfutils-libelf",
      "version" : "0.187-4.el8",
      "purl" : "pkg:rpm/oracle/elfutils-libelf@0.187-4.el8?arch=x86_64&distro=oracle-8.7",
      "type" : "library",
      "bom-ref" : "7434ab9e-9a5e-4667-95f9-61ed7153f23f"
    },
    {
      "name" : "expat",
      "version" : "2.2.5-10.0.1.el8_7.1",
      "purl" : "pkg:rpm/oracle/expat@2.2.5-10.0.1.el8_7.1?arch=x86_64&distro=oracle-8.7",
      "type" : "library",
      "bom-ref" : "20782cce-daea-4036-93e6-e3f44766f151"
    },
    {
      "name" : "file-libs",
      "version" : "5.33-21.el8",
      "purl" : "pkg:rpm/oracle/file-libs@5.33-21.el8?arch=x86_64&distro=oracle-8.7",
      "type" : "library",
      "bom-ref" : "e2953491-fec0-4fdf-85ac-dca1126178ec"
    },
    {
      "name" : "filesystem",
      "version" : "3.8-6.el8",
      "purl" : "pkg:rpm/oracle/filesystem@3.8-6.el8?arch=x86_64&distro=oracle-8.7",
      "type" : "library",
      "bom-ref" : "5b220f38-ecb0-4099-b5b1-a83827b2dfe3"
    },
    {
      "name" : "findutils",
      "version" : "1:4.6.0-20.el8",
      "purl" : "pkg:rpm/oracle/findutils@1%3A4.6.0-20.el8?arch=x86_64&distro=oracle-8.7",
      "type" : "library",
      "bom-ref" : "30e9732b-dace-4242-9a78-4e5272495b60"
    },
    {
      "name" : "gawk",
      "version" : "4.2.1-4.el8",
      "purl" : "pkg:rpm/oracle/gawk@4.2.1-4.el8?arch=x86_64&distro=oracle-8.7",
      "type" : "library",
      "bom-ref" : "8a231f2a-aac2-4385-bec6-03fde8a2d58f"
    },
    {
      "name" : "gdbm-libs",
      "version" : "1:1.18-2.el8",
      "purl" : "pkg:rpm/oracle/gdbm-libs@1%3A1.18-2.el8?arch=x86_64&distro=oracle-8.7",
      "type" : "library",
      "bom-ref" : "ec1810a5-5ac5-4034-9a6c-6f94594d10e8"
    },
    {
      "name" : "github.com/opencontainers/runc",
      "version" : "v1.1.0",
      "purl" : "pkg:golang/github.com/opencontainers/runc@v1.1.0",
      "type" : "library",
      "bom-ref" : "53a58d3f-5389-41b9-8df6-4164e05f7427"
    },
    {
      "name" : "glib2",
      "version" : "2.56.4-159.0.1.el8",
      "purl" : "pkg:rpm/oracle/glib2@2.56.4-159.0.1.el8?arch=x86_64&distro=oracle-8.7",
      "type" : "library",
      "bom-ref" : "5b7a2426-0e04-4211-9876-abec16916357"
    },
    {
      "name" : "glibc",
      "version" : "2.28-211.0.1.el8",
      "purl" : "pkg:rpm/oracle/glibc@2.28-211.0.1.el8?arch=x86_64&distro=oracle-8.7",
      "type" : "library",
      "bom-ref" : "bc5a7838-0479-4a4f-a832-f48897310c10"
    },
    {
      "name" : "glibc-common",
      "version" : "2.28-211.0.1.el8",
      "purl" : "pkg:rpm/oracle/glibc-common@2.28-211.0.1.el8?arch=x86_64&distro=oracle-8.7",
      "type" : "library",
      "bom-ref" : "082dbdcc-9071-49de-990a-fef9f5a1ed2c"
    },
    {
      "name" : "glibc-minimal-langpack",
      "version" : "2.28-211.0.1.el8",
      "purl" : "pkg:rpm/oracle/glibc-minimal-langpack@2.28-211.0.1.el8?arch=x86_64&distro=oracle-8.7",
      "type" : "library",
      "bom-ref" : "7fb6dbba-98f1-4de7-85f2-6190a2c8b1ec"
    },
    {
      "name" : "gmp",
      "version" : "1:6.1.2-10.el8",
      "purl" : "pkg:rpm/oracle/gmp@1%3A6.1.2-10.el8?arch=x86_64&distro=oracle-8.7",
      "type" : "library",
      "bom-ref" : "d66335b9-ce17-48ca-a412-323528d38160"
    },
    {
      "name" : "gnupg2",
      "version" : "2.2.20-3.el8_6",
      "purl" : "pkg:rpm/oracle/gnupg2@2.2.20-3.el8_6?arch=x86_64&distro=oracle-8.7",
      "type" : "library",
      "bom-ref" : "c15d77a2-446b-4793-8d37-ab4e1ec6735f"
    },
    {
      "name" : "gnutls",
      "version" : "3.6.16-5.el8_6",
      "purl" : "pkg:rpm/oracle/gnutls@3.6.16-5.el8_6?arch=x86_64&distro=oracle-8.7",
      "type" : "library",
      "bom-ref" : "4347aa06-32d7-4c36-9624-22238ffb19f6"
    },
    {
      "name" : "gobject-introspection",
      "version" : "1.56.1-1.el8",
      "purl" : "pkg:rpm/oracle/gobject-introspection@1.56.1-1.el8?arch=x86_64&distro=oracle-8.7",
      "type" : "library",
      "bom-ref" : "2b11e8f3-3040-4810-b41d-00bae30fc86c"
    },
    {
      "name" : "golang.org/x/sys",
      "version" : "v0.0.0-20220907062415-87db552b00fd",
      "purl" : "pkg:golang/golang.org/x/sys@v0.0.0-20220907062415-87db552b00fd",
      "type" : "library",
      "bom-ref" : "dc20a98e-ecee-4156-b822-1d11625a382c"
    },
    {
      "name" : "gpg-pubkey",
      "version" : "ad986da3-5cabf60d",
      "purl" : "pkg:rpm/oracle/gpg-pubkey@ad986da3-5cabf60d?arch=None&distro=oracle-8.7",
      "type" : "library",
      "bom-ref" : "b33bbb6a-cf92-4712-bb1c-aa7862a3a3f6"
    },
    {
      "name" : "gpgme",
      "version" : "1.13.1-11.el8",
      "purl" : "pkg:rpm/oracle/gpgme@1.13.1-11.el8?arch=x86_64&distro=oracle-8.7",
      "type" : "library",
      "bom-ref" : "ad318d92-7197-4ba4-b9fb-60969188447a"
    },
    {
      "name" : "grep",
      "version" : "3.1-6.el8",
      "purl" : "pkg:rpm/oracle/grep@3.1-6.el8?arch=x86_64&distro=oracle-8.7",
      "type" : "library",
      "bom-ref" : "9f096aab-d137-4ce1-846c-b72fcfa5d6be"
    },
    {
      "name" : "gzip",
      "version" : "1.9-13.el8_5",
      "purl" : "pkg:rpm/oracle/gzip@1.9-13.el8_5?arch=x86_64&distro=oracle-8.7",
      "type" : "library",
      "bom-ref" : "e08dc93c-324e-48b7-8afb-c2270031ed55"
    },
    {
      "name" : "info",
      "version" : "6.5-7.el8",
      "purl" : "pkg:rpm/oracle/info@6.5-7.el8?arch=x86_64&distro=oracle-8.7",
      "type" : "library",
      "bom-ref" : "6d43dc95-63a1-4500-9f48-a120a60531e1"
    },
    {
      "name" : "json-c",
      "version" : "0.13.1-3.el8",
      "purl" : "pkg:rpm/oracle/json-c@0.13.1-3.el8?arch=x86_64&distro=oracle-8.7",
      "type" : "library",
      "bom-ref" : "8d6680bb-3167-474a-a003-54aef0f4dc7c"
    },
    {
      "name" : "keyutils-libs",
      "version" : "1.5.10-9.el8",
      "purl" : "pkg:rpm/oracle/keyutils-libs@1.5.10-9.el8?arch=x86_64&distro=oracle-8.7",
      "type" : "library",
      "bom-ref" : "e26db7b4-2937-4936-ad25-4d1c3a4c9293"
    },
    {
      "name" : "krb5-libs",
      "version" : "1.18.2-22.0.1.el8_7",
      "purl" : "pkg:rpm/oracle/krb5-libs@1.18.2-22.0.1.el8_7?arch=x86_64&distro=oracle-8.7",
      "type" : "library",
      "bom-ref" : "1b2ae09d-64d3-4a07-81fc-741908113c42"
    },
    {
      "name" : "libacl",
      "version" : "2.2.53-1.el8",
      "purl" : "pkg:rpm/oracle/libacl@2.2.53-1.el8?arch=x86_64&distro=oracle-8.7",
      "type" : "library",
      "bom-ref" : "91bd014d-1d27-4837-9039-5611607371c6"
    },
    {
      "name" : "libaio",
      "version" : "0.3.112-1.el8",
      "purl" : "pkg:rpm/oracle/libaio@0.3.112-1.el8?arch=x86_64&distro=oracle-8.7",
      "type" : "library",
      "bom-ref" : "d3213d54-54b5-4a7e-8cbd-6e05ae80aea2"
    },
    {
      "name" : "libarchive",
      "version" : "3.3.3-4.el8",
      "purl" : "pkg:rpm/oracle/libarchive@3.3.3-4.el8?arch=x86_64&distro=oracle-8.7",
      "type" : "library",
      "bom-ref" : "975d4594-e874-409c-b740-3f4415da4379"
    },
    {
      "name" : "libassuan",
      "version" : "2.5.1-3.el8",
      "purl" : "pkg:rpm/oracle/libassuan@2.5.1-3.el8?arch=x86_64&distro=oracle-8.7",
      "type" : "library",
      "bom-ref" : "e5e3d6cb-97df-4ae6-b7ae-bd23dc624a11"
    },
    {
      "name" : "libattr",
      "version" : "2.4.48-3.el8",
      "purl" : "pkg:rpm/oracle/libattr@2.4.48-3.el8?arch=x86_64&distro=oracle-8.7",
      "type" : "library",
      "bom-ref" : "a5967561-1047-42a5-af84-103d3479e6fd"
    },
    {
      "name" : "libblkid",
      "version" : "2.32.1-39.el8_7",
      "purl" : "pkg:rpm/oracle/libblkid@2.32.1-39.el8_7?arch=x86_64&distro=oracle-8.7",
      "type" : "library",
      "bom-ref" : "37d792b6-e05e-4c96-9c0c-f642a654f2dd"
    },
    {
      "name" : "libcap",
      "version" : "2.48-4.el8",
      "purl" : "pkg:rpm/oracle/libcap@2.48-4.el8?arch=x86_64&distro=oracle-8.7",
      "type" : "library",
      "bom-ref" : "2ad74268-74db-4b9b-afa0-9a3dcbf8f983"
    },
    {
      "name" : "libcap-ng",
      "version" : "0.7.11-1.el8",
      "purl" : "pkg:rpm/oracle/libcap-ng@0.7.11-1.el8?arch=x86_64&distro=oracle-8.7",
      "type" : "library",
      "bom-ref" : "d3e9e1b0-a05d-4af0-b20b-4afc3d9d70f1"
    },
    {
      "name" : "libcom_err",
      "version" : "1.45.6-5.el8",
      "purl" : "pkg:rpm/oracle/libcom_err@1.45.6-5.el8?arch=x86_64&distro=oracle-8.7",
      "type" : "library",
      "bom-ref" : "6b56b7a4-2965-448a-a790-c5bd6f413bbe"
    },
    {
      "name" : "libcurl",
      "version" : "7.61.1-25.el8_7.2",
      "purl" : "pkg:rpm/oracle/libcurl@7.61.1-25.el8_7.2?arch=x86_64&distro=oracle-8.7",
      "type" : "library",
      "bom-ref" : "b6cba66f-bb83-43d7-b682-428511e35ec9"
    },
    {
      "name" : "libdb",
      "version" : "5.3.28-42.el8_4",
      "purl" : "pkg:rpm/oracle/libdb@5.3.28-42.el8_4?arch=x86_64&distro=oracle-8.7",
      "type" : "library",
      "bom-ref" : "60d9bdd9-6d74-46b2-84fa-e155cdafc69c"
    },
    {
      "name" : "libdb-utils",
      "version" : "5.3.28-42.el8_4",
      "purl" : "pkg:rpm/oracle/libdb-utils@5.3.28-42.el8_4?arch=x86_64&distro=oracle-8.7",
      "type" : "library",
      "bom-ref" : "cd1ce560-d1c8-4f2e-9072-4cc3f9486308"
    },
    {
      "name" : "libdnf",
      "version" : "0.63.0-11.1.0.1.el8",
      "purl" : "pkg:rpm/oracle/libdnf@0.63.0-11.1.0.1.el8?arch=x86_64&distro=oracle-8.7",
      "type" : "library",
      "bom-ref" : "9a533d7f-b381-4cd1-a015-d88a190ae0db"
    },
    {
      "name" : "libffi",
      "version" : "3.1-23.el8",
      "purl" : "pkg:rpm/oracle/libffi@3.1-23.el8?arch=x86_64&distro=oracle-8.7",
      "type" : "library",
      "bom-ref" : "b2ef137f-2e60-4631-ae9b-23ce1be8bdef"
    },
    {
      "name" : "libgcc",
      "version" : "8.5.0-16.0.2.el8_7",
      "purl" : "pkg:rpm/oracle/libgcc@8.5.0-16.0.2.el8_7?arch=x86_64&distro=oracle-8.7",
      "type" : "library",
      "bom-ref" : "b4262a4b-3e5f-45fe-8439-d90725e9fc60"
    },
    {
      "name" : "libgcrypt",
      "version" : "1.8.5-7.el8_6",
      "purl" : "pkg:rpm/oracle/libgcrypt@1.8.5-7.el8_6?arch=x86_64&distro=oracle-8.7",
      "type" : "library",
      "bom-ref" : "8123ebf4-052f-4ea7-9f61-099674f03b45"
    },
    {
      "name" : "libgpg-error",
      "version" : "1.31-1.el8",
      "purl" : "pkg:rpm/oracle/libgpg-error@1.31-1.el8?arch=x86_64&distro=oracle-8.7",
      "type" : "library",
      "bom-ref" : "a8c83cc6-d88f-4e33-a9e4-78d64acb6229"
    },
    {
      "name" : "libidn2",
      "version" : "2.2.0-1.el8",
      "purl" : "pkg:rpm/oracle/libidn2@2.2.0-1.el8?arch=x86_64&distro=oracle-8.7",
      "type" : "library",
      "bom-ref" : "f69b01c6-e312-4d94-971e-708414570c03"
    },
    {
      "name" : "libksba",
      "version" : "1.3.5-9.el8_7",
      "purl" : "pkg:rpm/oracle/libksba@1.3.5-9.el8_7?arch=x86_64&distro=oracle-8.7",
      "type" : "library",
      "bom-ref" : "8455e59d-2201-40ee-8db8-7d58f0c28df3"
    },
    {
      "name" : "libmodulemd",
      "version" : "2.13.0-1.el8",
      "purl" : "pkg:rpm/oracle/libmodulemd@2.13.0-1.el8?arch=x86_64&distro=oracle-8.7",
      "type" : "library",
      "bom-ref" : "e483428d-26d4-4fd5-b628-8f453f70e9a8"
    },
    {
      "name" : "libmount",
      "version" : "2.32.1-39.el8_7",
      "purl" : "pkg:rpm/oracle/libmount@2.32.1-39.el8_7?arch=x86_64&distro=oracle-8.7",
      "type" : "library",
      "bom-ref" : "9a7de610-cb92-44bb-826c-3cad1c1d1a78"
    },
    {
      "name" : "libnghttp2",
      "version" : "1.33.0-3.el8_2.1",
      "purl" : "pkg:rpm/oracle/libnghttp2@1.33.0-3.el8_2.1?arch=x86_64&distro=oracle-8.7",
      "type" : "library",
      "bom-ref" : "15e673ae-9ed1-412b-a7ae-006ff62ebe56"
    },
    {
      "name" : "libnsl2",
      "version" : "1.2.0-2.20180605git4a062cf.el8",
      "purl" : "pkg:rpm/oracle/libnsl2@1.2.0-2.20180605git4a062cf.el8?arch=x86_64&distro=oracle-8.7",
      "type" : "library",
      "bom-ref" : "38e42ada-087c-40de-b173-2a6c8fc543d5"
    },
    {
      "name" : "libpeas",
      "version" : "1.22.0-6.el8",
      "purl" : "pkg:rpm/oracle/libpeas@1.22.0-6.el8?arch=x86_64&distro=oracle-8.7",
      "type" : "library",
      "bom-ref" : "b46d1d22-ed6c-44c4-8296-f020ff07a0da"
    },
    {
      "name" : "libpsl",
      "version" : "0.20.2-6.el8",
      "purl" : "pkg:rpm/oracle/libpsl@0.20.2-6.el8?arch=x86_64&distro=oracle-8.7",
      "type" : "library",
      "bom-ref" : "ae6c7828-454c-4efa-8ef7-a1c2e80c3a28"
    },
    {
      "name" : "librepo",
      "version" : "1.14.2-3.el8",
      "purl" : "pkg:rpm/oracle/librepo@1.14.2-3.el8?arch=x86_64&distro=oracle-8.7",
      "type" : "library",
      "bom-ref" : "356b23d0-1878-48c9-833e-92ace55657aa"
    },
    {
      "name" : "libselinux",
      "version" : "2.9-6.el8",
      "purl" : "pkg:rpm/oracle/libselinux@2.9-6.el8?arch=x86_64&distro=oracle-8.7",
      "type" : "library",
      "bom-ref" : "675c40bf-98f6-4ca6-86e9-962bc0469de9"
    },
    {
      "name" : "libsemanage",
      "version" : "2.9-9.el8_6",
      "purl" : "pkg:rpm/oracle/libsemanage@2.9-9.el8_6?arch=x86_64&distro=oracle-8.7",
      "type" : "library",
      "bom-ref" : "e8743857-eb2a-442a-ad0c-fdaac4cf66ec"
    },
    {
      "name" : "libsepol",
      "version" : "2.9-3.el8",
      "purl" : "pkg:rpm/oracle/libsepol@2.9-3.el8?arch=x86_64&distro=oracle-8.7",
      "type" : "library",
      "bom-ref" : "146bb421-1481-4450-819c-f0466ba688a9"
    },
    {
      "name" : "libsigsegv",
      "version" : "2.11-5.el8",
      "purl" : "pkg:rpm/oracle/libsigsegv@2.11-5.el8?arch=x86_64&distro=oracle-8.7",
      "type" : "library",
      "bom-ref" : "1669f8d4-013d-4617-91e2-0f501b0ef9d1"
    },
    {
      "name" : "libsmartcols",
      "version" : "2.32.1-39.el8_7",
      "purl" : "pkg:rpm/oracle/libsmartcols@2.32.1-39.el8_7?arch=x86_64&distro=oracle-8.7",
      "type" : "library",
      "bom-ref" : "cf41873e-b466-4fdc-bb32-19be3851fdc9"
    },
    {
      "name" : "libsolv",
      "version" : "0.7.20-4.el8_7",
      "purl" : "pkg:rpm/oracle/libsolv@0.7.20-4.el8_7?arch=x86_64&distro=oracle-8.7",
      "type" : "library",
      "bom-ref" : "bd12fd87-7922-4e75-b0ae-c348884065e1"
    },
    {
      "name" : "libssh",
      "version" : "0.9.6-3.el8",
      "purl" : "pkg:rpm/oracle/libssh@0.9.6-3.el8?arch=x86_64&distro=oracle-8.7",
      "type" : "library",
      "bom-ref" : "a71c2e14-bfdb-4db8-b980-b490acfc1819"
    },
    {
      "name" : "libssh-config",
      "version" : "0.9.6-3.el8",
      "purl" : "pkg:rpm/oracle/libssh-config@0.9.6-3.el8?arch=noarch&distro=oracle-8.7",
      "type" : "library",
      "bom-ref" : "4086aa69-41e8-4276-93ca-36f23da04e22"
    },
    {
      "name" : "libstdc++",
      "version" : "8.5.0-16.0.2.el8_7",
      "purl" : "pkg:rpm/oracle/libstdc%20%20@8.5.0-16.0.2.el8_7?arch=x86_64&distro=oracle-8.7",
      "type" : "library",
      "bom-ref" : "6b423b3a-79e4-4eee-bed9-12c67a1513ad"
    },
    {
      "name" : "libtasn1",
      "version" : "4.13-4.el8_7",
      "purl" : "pkg:rpm/oracle/libtasn1@4.13-4.el8_7?arch=x86_64&distro=oracle-8.7",
      "type" : "library",
      "bom-ref" : "e9681d8f-89ef-4a84-857e-d67ae2d67c5d"
    },
    {
      "name" : "libtirpc",
      "version" : "1.1.4-8.el8",
      "purl" : "pkg:rpm/oracle/libtirpc@1.1.4-8.el8?arch=x86_64&distro=oracle-8.7",
      "type" : "library",
      "bom-ref" : "57fc3548-40f3-41ad-9d79-7b12605288ec"
    },
    {
      "name" : "libunistring",
      "version" : "0.9.9-3.el8",
      "purl" : "pkg:rpm/oracle/libunistring@0.9.9-3.el8?arch=x86_64&distro=oracle-8.7",
      "type" : "library",
      "bom-ref" : "ffd9df1c-d776-4099-94c5-298c5945b00f"
    },
    {
      "name" : "libusbx",
      "version" : "1.0.23-4.el8",
      "purl" : "pkg:rpm/oracle/libusbx@1.0.23-4.el8?arch=x86_64&distro=oracle-8.7",
      "type" : "library",
      "bom-ref" : "8d748287-865d-42de-95a6-4a5c0683f546"
    },
    {
      "name" : "libuuid",
      "version" : "2.32.1-39.el8_7",
      "purl" : "pkg:rpm/oracle/libuuid@2.32.1-39.el8_7?arch=x86_64&distro=oracle-8.7",
      "type" : "library",
      "bom-ref" : "adcd9ed0-e732-4264-8ce3-4826c5faab65"
    },
    {
      "name" : "libverto",
      "version" : "0.3.2-2.el8",
      "purl" : "pkg:rpm/oracle/libverto@0.3.2-2.el8?arch=x86_64&distro=oracle-8.7",
      "type" : "library",
      "bom-ref" : "6f26fad6-fcc5-4659-b026-63d404db024a"
    },
    {
      "name" : "libxcrypt",
      "version" : "4.1.1-6.el8",
      "purl" : "pkg:rpm/oracle/libxcrypt@4.1.1-6.el8?arch=x86_64&distro=oracle-8.7",
      "type" : "library",
      "bom-ref" : "2f929ece-73b4-47e4-9140-2c20fbdd9be0"
    },
    {
      "name" : "libxml2",
      "version" : "2.9.7-15.el8_7.1",
      "purl" : "pkg:rpm/oracle/libxml2@2.9.7-15.el8_7.1?arch=x86_64&distro=oracle-8.7",
      "type" : "library",
      "bom-ref" : "6c4aac7b-d111-467f-8532-01b42439a555"
    },
    {
      "name" : "libyaml",
      "version" : "0.1.7-5.el8",
      "purl" : "pkg:rpm/oracle/libyaml@0.1.7-5.el8?arch=x86_64&distro=oracle-8.7",
      "type" : "library",
      "bom-ref" : "526fa8cb-2af4-40f1-8706-9c4e05c94fe4"
    },
    {
      "name" : "libzstd",
      "version" : "1.4.4-1.0.1.el8",
      "purl" : "pkg:rpm/oracle/libzstd@1.4.4-1.0.1.el8?arch=x86_64&distro=oracle-8.7",
      "type" : "library",
      "bom-ref" : "29d2743a-32ff-4666-84d4-637b52133ce6"
    },
    {
      "name" : "lua-libs",
      "version" : "5.3.4-12.el8",
      "purl" : "pkg:rpm/oracle/lua-libs@5.3.4-12.el8?arch=x86_64&distro=oracle-8.7",
      "type" : "library",
      "bom-ref" : "a7404c11-f9d5-43bc-a1fd-14c72c3f3366"
    },
    {
      "name" : "lz4-libs",
      "version" : "1.8.3-3.el8_4",
      "purl" : "pkg:rpm/oracle/lz4-libs@1.8.3-3.el8_4?arch=x86_64&distro=oracle-8.7",
      "type" : "library",
      "bom-ref" : "103d727c-be51-460b-aaa3-ef44b70d5b11"
    },
    {
      "name" : "microdnf",
      "version" : "3.8.0-2.el8",
      "purl" : "pkg:rpm/oracle/microdnf@3.8.0-2.el8?arch=x86_64&distro=oracle-8.7",
      "type" : "library",
      "bom-ref" : "da1e2745-14fd-4ffa-9f73-3eeecb578c0f"
    },
    {
      "name" : "mpfr",
      "version" : "3.1.6-1.el8",
      "purl" : "pkg:rpm/oracle/mpfr@3.1.6-1.el8?arch=x86_64&distro=oracle-8.7",
      "type" : "library",
      "bom-ref" : "be7d0f8b-d340-45eb-825f-792d2a651b46"
    },
    {
      "name" : "mysql-community-server-minimal",
      "version" : "8.0.32-1.el8",
      "purl" : "pkg:rpm/oracle/mysql-community-server-minimal@8.0.32-1.el8?arch=x86_64&distro=oracle-8.7",
      "type" : "library",
      "bom-ref" : "32570c6f-a7d8-463b-93a2-51ccae6332f0"
    },
    {
      "name" : "mysql-shell",
      "version" : "8.0.32-1.el8",
      "purl" : "pkg:rpm/oracle/mysql-shell@8.0.32-1.el8?arch=x86_64&distro=oracle-8.7",
      "type" : "library",
      "bom-ref" : "97123694-340f-4816-87a3-2e27a0ef663d"
    },
    {
      "name" : "ncurses-base",
      "version" : "6.1-9.20180224.el8",
      "purl" : "pkg:rpm/oracle/ncurses-base@6.1-9.20180224.el8?arch=noarch&distro=oracle-8.7",
      "type" : "library",
      "bom-ref" : "efd2fbd7-7745-407c-9273-1cebb5ad4f87"
    },
    {
      "name" : "ncurses-libs",
      "version" : "6.1-9.20180224.el8",
      "purl" : "pkg:rpm/oracle/ncurses-libs@6.1-9.20180224.el8?arch=x86_64&distro=oracle-8.7",
      "type" : "library",
      "bom-ref" : "9e6c9f8c-2eb0-4f25-a279-ca284f916cf4"
    },
    {
      "name" : "nettle",
      "version" : "3.4.1-7.el8",
      "purl" : "pkg:rpm/oracle/nettle@3.4.1-7.el8?arch=x86_64&distro=oracle-8.7",
      "type" : "library",
      "bom-ref" : "de038560-dcc8-4e0c-a27f-142570c89f37"
    },
    {
      "name" : "npth",
      "version" : "1.5-4.el8",
      "purl" : "pkg:rpm/oracle/npth@1.5-4.el8?arch=x86_64&distro=oracle-8.7",
      "type" : "library",
      "bom-ref" : "3e028f6c-c184-47e6-b241-be7e533a9ade"
    },
    {
      "name" : "oci",
      "version" : "2.85.0",
      "purl" : "pkg:pypi/oci@2.85.0",
      "type" : "library",
      "bom-ref" : "9a5eb4cb-b528-4305-9d06-260ce26ad7ab"
    },
    {
      "name" : "openldap",
      "version" : "2.4.46-18.el8",
      "purl" : "pkg:rpm/oracle/openldap@2.4.46-18.el8?arch=x86_64&distro=oracle-8.7",
      "type" : "library",
      "bom-ref" : "cad71ca3-5f43-47f7-a314-bcf085513e95"
    },
    {
      "name" : "openssl",
      "version" : "1:1.1.1k-7.el8_6",
      "purl" : "pkg:rpm/oracle/openssl@1%3A1.1.1k-7.el8_6?arch=x86_64&distro=oracle-8.7",
      "type" : "library",
      "bom-ref" : "0431780a-2ed5-4409-9f99-6405dc22998a"
    },
    {
      "name" : "openssl-libs",
      "version" : "1:1.1.1k-7.el8_6",
      "purl" : "pkg:rpm/oracle/openssl-libs@1%3A1.1.1k-7.el8_6?arch=x86_64&distro=oracle-8.7",
      "type" : "library",
      "bom-ref" : "658e5f92-1b67-4212-bb7a-8866d4fcdd8e"
    },
    {
      "name" : "oracle",
      "version" : "8.7",
      "type" : "operating-system",
      "bom-ref" : "e4f9cd7d-26ee-4d53-8284-e8a8f72abbbd"
    },
    {
      "name" : "oraclelinux-release",
      "version" : "8:8.7-1.0.6.el8",
      "purl" : "pkg:rpm/oracle/oraclelinux-release@8%3A8.7-1.0.6.el8?arch=x86_64&distro=oracle-8.7",
      "type" : "library",
      "bom-ref" : "72374082-ee07-42c7-8bc8-8039029f2071"
    },
    {
      "name" : "oraclelinux-release-el8",
      "version" : "1.0-28.el8",
      "purl" : "pkg:rpm/oracle/oraclelinux-release-el8@1.0-28.el8?arch=x86_64&distro=oracle-8.7",
      "type" : "library",
      "bom-ref" : "3fb61d55-ace4-4548-9b05-9abf4bac2a66"
    },
    {
      "name" : "p11-kit",
      "version" : "0.23.22-1.el8",
      "purl" : "pkg:rpm/oracle/p11-kit@0.23.22-1.el8?arch=x86_64&distro=oracle-8.7",
      "type" : "library",
      "bom-ref" : "22710799-a2a7-4687-9708-a0f43c4078fd"
    },
    {
      "name" : "p11-kit-trust",
      "version" : "0.23.22-1.el8",
      "purl" : "pkg:rpm/oracle/p11-kit-trust@0.23.22-1.el8?arch=x86_64&distro=oracle-8.7",
      "type" : "library",
      "bom-ref" : "d812b03a-a05f-4c47-ae32-b10e9d62a89d"
    },
    {
      "name" : "paramiko",
      "version" : "2.11.0",
      "purl" : "pkg:pypi/paramiko@2.11.0",
      "type" : "library",
      "bom-ref" : "b054d81a-8492-43fc-b6a0-1e454a0d32f7"
    },
    {
      "name" : "pcre",
      "version" : "8.42-6.el8",
      "purl" : "pkg:rpm/oracle/pcre@8.42-6.el8?arch=x86_64&distro=oracle-8.7",
      "type" : "library",
      "bom-ref" : "d5a1ff79-b1eb-47fd-a53d-265c2a0c6eb3"
    },
    {
      "name" : "pcre2",
      "version" : "10.32-3.el8_6",
      "purl" : "pkg:rpm/oracle/pcre2@10.32-3.el8_6?arch=x86_64&distro=oracle-8.7",
      "type" : "library",
      "bom-ref" : "3ebc21cb-510a-4054-8319-8698944313dc"
    },
    {
      "name" : "popt",
      "version" : "1.18-1.el8",
      "purl" : "pkg:rpm/oracle/popt@1.18-1.el8?arch=x86_64&distro=oracle-8.7",
      "type" : "library",
      "bom-ref" : "191a9075-116d-487b-9c26-52530e0e58e2"
    },
    {
      "name" : "publicsuffix-list-dafsa",
      "version" : "20180723-1.el8",
      "purl" : "pkg:rpm/oracle/publicsuffix-list-dafsa@20180723-1.el8?arch=noarch&distro=oracle-8.7",
      "type" : "library",
      "bom-ref" : "6ea57a01-36c9-4ff6-91f6-8e088818d0c2"
    },
    {
      "name" : "pyOpenSSL",
      "version" : "22.0.0",
      "purl" : "pkg:pypi/pyopenssl@22.0.0",
      "type" : "library",
      "bom-ref" : "4bfccf26-7256-4e73-834f-eb7864f3b7e0"
    },
    {
      "name" : "pycparser",
      "version" : "2.21",
      "purl" : "pkg:pypi/pycparser@2.21",
      "type" : "library",
      "bom-ref" : "0509f648-d606-447a-8d67-f1b80e9059c1"
    },
    {
      "name" : "python-dateutil",
      "version" : "2.8.2",
      "purl" : "pkg:pypi/python-dateutil@2.8.2",
      "type" : "library",
      "bom-ref" : "82e57c19-cbc5-4324-a2b8-78f6a531d3ce"
    },
    {
      "name" : "python39",
      "version" : "3.9.13-2.module+el8.7.0+20879+a85b87b0",
      "purl" : "pkg:rpm/oracle/python39@3.9.13-2.module%20el8.7.0%2020879%20a85b87b0?arch=x86_64&distro=oracle-8.7&modularitylabel=python39%3A3.9%3A8070020221109174649%3A64dc89da",
      "type" : "library",
      "bom-ref" : "56f7ca36-f22c-4adb-8124-e273bf01f2fa"
    },
    {
      "name" : "python39-libs",
      "version" : "3.9.13-2.module+el8.7.0+20879+a85b87b0",
      "purl" : "pkg:rpm/oracle/python39-libs@3.9.13-2.module%20el8.7.0%2020879%20a85b87b0?arch=x86_64&distro=oracle-8.7&modularitylabel=python39%3A3.9%3A8070020221109174649%3A64dc89da",
      "type" : "library",
      "bom-ref" : "a350f4fb-d889-46f7-a008-31af9257c4dd"
    },
    {
      "name" : "python39-pip",
      "version" : "20.2.4-7.module+el8.6.0+20625+ee813db2",
      "purl" : "pkg:rpm/oracle/python39-pip@20.2.4-7.module%20el8.6.0%2020625%20ee813db2?arch=noarch&distro=oracle-8.7&modularitylabel=python39%3A3.9%3A8060020220118220913%3A7278570e",
      "type" : "library",
      "bom-ref" : "49c8408b-a8d0-4a10-bc0c-f19e03a62030"
    },
    {
      "name" : "python39-pip-wheel",
      "version" : "20.2.4-7.module+el8.6.0+20625+ee813db2",
      "purl" : "pkg:rpm/oracle/python39-pip-wheel@20.2.4-7.module%20el8.6.0%2020625%20ee813db2?arch=noarch&distro=oracle-8.7&modularitylabel=python39%3A3.9%3A8060020220118220913%3A7278570e",
      "type" : "library",
      "bom-ref" : "fdb1042b-da65-4af0-b0c7-803903786f7c"
    },
    {
      "name" : "python39-setuptools",
      "version" : "50.3.2-4.module+el8.5.0+20364+c7fe1181",
      "purl" : "pkg:rpm/oracle/python39-setuptools@50.3.2-4.module%20el8.5.0%2020364%20c7fe1181?arch=noarch&distro=oracle-8.7&modularitylabel=python39%3A3.9%3A8050020210811100211%3Ab26fa278",
      "type" : "library",
      "bom-ref" : "58c84823-7d25-413c-b8aa-0b7c6302e826"
    },
    {
      "name" : "python39-setuptools-wheel",
      "version" : "50.3.2-4.module+el8.5.0+20364+c7fe1181",
      "purl" : "pkg:rpm/oracle/python39-setuptools-wheel@50.3.2-4.module%20el8.5.0%2020364%20c7fe1181?arch=noarch&distro=oracle-8.7&modularitylabel=python39%3A3.9%3A8050020210811100211%3Ab26fa278",
      "type" : "library",
      "bom-ref" : "28ce99cd-fe71-4c7c-86e3-8d2f24f2fec3"
    },
    {
      "name" : "pytz",
      "version" : "2022.4",
      "purl" : "pkg:pypi/pytz@2022.4",
      "type" : "library",
      "bom-ref" : "1c0e108b-c261-4f9f-9275-6f5332728951"
    },
    {
      "name" : "readline",
      "version" : "7.0-10.el8",
      "purl" : "pkg:rpm/oracle/readline@7.0-10.el8?arch=x86_64&distro=oracle-8.7",
      "type" : "library",
      "bom-ref" : "243f8a7b-388a-43f8-af33-ffbe5f65181a"
    },
    {
      "name" : "redhat-release",
      "version" : "2:8.7-0.3.0.1.el8",
      "purl" : "pkg:rpm/oracle/redhat-release@2%3A8.7-0.3.0.1.el8?arch=x86_64&distro=oracle-8.7",
      "type" : "library",
      "bom-ref" : "737845d6-e59f-4616-8a8f-45a3db369f87"
    },
    {
      "name" : "rpm",
      "version" : "4.14.3-24.el8_7",
      "purl" : "pkg:rpm/oracle/rpm@4.14.3-24.el8_7?arch=x86_64&distro=oracle-8.7",
      "type" : "library",
      "bom-ref" : "8e6e736f-d2a2-47ed-b59c-d59bcbf033bf"
    },
    {
      "name" : "rpm-libs",
      "version" : "4.14.3-24.el8_7",
      "purl" : "pkg:rpm/oracle/rpm-libs@4.14.3-24.el8_7?arch=x86_64&distro=oracle-8.7",
      "type" : "library",
      "bom-ref" : "72f9f676-2c79-4633-8f96-1e1fc2666616"
    },
    {
      "name" : "sed",
      "version" : "4.5-5.el8",
      "purl" : "pkg:rpm/oracle/sed@4.5-5.el8?arch=x86_64&distro=oracle-8.7",
      "type" : "library",
      "bom-ref" : "eea2a2eb-b795-4247-acee-dc939856e841"
    },
    {
      "name" : "setup",
      "version" : "2.12.2-7.el8",
      "purl" : "pkg:rpm/oracle/setup@2.12.2-7.el8?arch=noarch&distro=oracle-8.7",
      "type" : "library",
      "bom-ref" : "5f3c9c57-72a2-4ea7-a163-6c37f0f727af"
    },
    {
      "name" : "shadow-utils",
      "version" : "2:4.6-17.el8",
      "purl" : "pkg:rpm/oracle/shadow-utils@2%3A4.6-17.el8?arch=x86_64&distro=oracle-8.7",
      "type" : "library",
      "bom-ref" : "9ee743fe-ba2a-4366-9154-d0e3022be71d"
    },
    {
      "name" : "six",
      "version" : "1.16.0",
      "purl" : "pkg:pypi/six@1.16.0",
      "type" : "library",
      "bom-ref" : "ec527875-858e-4fe4-8a58-f0f64c76b0a2"
    },
    {
      "name" : "sqlite-libs",
      "version" : "3.26.0-17.el8_7",
      "purl" : "pkg:rpm/oracle/sqlite-libs@3.26.0-17.el8_7?arch=x86_64&distro=oracle-8.7",
      "type" : "library",
      "bom-ref" : "492c1333-c061-441e-8258-4c30d9309246"
    },
    {
      "name" : "systemd-libs",
      "version" : "239-68.0.2.el8_7.4",
      "purl" : "pkg:rpm/oracle/systemd-libs@239-68.0.2.el8_7.4?arch=x86_64&distro=oracle-8.7",
      "type" : "library",
      "bom-ref" : "11fb622f-94c1-4742-9265-2a636d80d70f"
    },
    {
      "name" : "tar",
      "version" : "2:1.30-6.el8_7.1",
      "purl" : "pkg:rpm/oracle/tar@2%3A1.30-6.el8_7.1?arch=x86_64&distro=oracle-8.7",
      "type" : "library",
      "bom-ref" : "1b42ba3d-68f7-4e86-b377-963b5821d337"
    },
    {
      "name" : "tzdata",
      "version" : "2022g-1.el8",
      "purl" : "pkg:rpm/oracle/tzdata@2022g-1.el8?arch=noarch&distro=oracle-8.7",
      "type" : "library",
      "bom-ref" : "38a33ae4-adae-407f-bbe4-c02582b992c3"
    },
    {
      "name" : "usr/local/bin/gosu",
      "type" : "application",
      "bom-ref" : "b8fa7189-b54d-4fb8-9e41-480bca6a7e44"
    },
    {
      "name" : "xz",
      "version" : "5.2.4-4.el8_6",
      "purl" : "pkg:rpm/oracle/xz@5.2.4-4.el8_6?arch=x86_64&distro=oracle-8.7",
      "type" : "library",
      "bom-ref" : "3ae7014f-76d3-4c2d-9638-bac53691a15e"
    },
    {
      "name" : "xz-libs",
      "version" : "5.2.4-4.el8_6",
      "purl" : "pkg:rpm/oracle/xz-libs@5.2.4-4.el8_6?arch=x86_64&distro=oracle-8.7",
      "type" : "library",
      "bom-ref" : "f79ba0bc-996d-4eea-b735-0b7dd7b23bd8"
    },
    {
      "name" : "zlib",
      "version" : "1.2.11-21.el8_7",
      "purl" : "pkg:rpm/oracle/zlib@1.2.11-21.el8_7?arch=x86_64&distro=oracle-8.7",
      "type" : "library",
      "bom-ref" : "9376280e-2fae-4b8f-a4c2-7f093eff0e55"
    },
    {
      "name" : "zstd",
      "version" : "1.4.4-1.0.1.el8",
      "purl" : "pkg:rpm/oracle/zstd@1.4.4-1.0.1.el8?arch=x86_64&distro=oracle-8.7",
      "type" : "library",
      "bom-ref" : "c173aafe-4a11-415f-b217-2b0f18fd218d"
    }
  ],
  "dependencies" : [
    {
      "ref" : "9faacdab-dd24-409c-abe2-284cd1e832d7",
      "dependsOn" : [
        "e4f9cd7d-26ee-4d53-8284-e8a8f72abbbd",
        "b8fa7189-b54d-4fb8-9e41-480bca6a7e44",
        "437e3b0e-490b-4802-b770-b6f2a1d3c3bb",
        "e8a021e7-64cd-49d9-af34-26a0430959ee",
        "406d395f-3b2b-4070-bcd6-ace4f5ff17e6",
        "9a5eb4cb-b528-4305-9d06-260ce26ad7ab",
        "82e57c19-cbc5-4324-a2b8-78f6a531d3ce",
        "a1ea7ee0-ca6e-41a5-9774-38bcbecff815",
        "fce74b46-ecb0-4cfa-bc6c-22564b99cc79",
        "4bfccf26-7256-4e73-834f-eb7864f3b7e0",
        "46174386-2de2-43fe-a97a-fb3a00c53a9c",
        "0509f648-d606-447a-8d67-f1b80e9059c1",
        "ec527875-858e-4fe4-8a58-f0f64c76b0a2",
        "83439903-0c23-4400-8fbe-ba9495bf87d7",
        "b054d81a-8492-43fc-b6a0-1e454a0d32f7",
        "1c0e108b-c261-4f9f-9275-6f5332728951"
      ]
    },
    {
      "ref" : "83439903-0c23-4400-8fbe-ba9495bf87d7",
      "dependsOn" : [ ]
    },
    {
      "ref" : "437e3b0e-490b-4802-b770-b6f2a1d3c3bb",
      "dependsOn" : [ ]
    },
    {
      "ref" : "46d6af0d-3a40-4835-8288-235cae8dea68",
      "dependsOn" : [ ]
    },
    {
      "ref" : "81da5365-94d7-4e3a-90ee-fbb5d2617f2c",
      "dependsOn" : [ ]
    },
    {
      "ref" : "35170a09-bff6-47fa-84be-7b2cf461ac5c",
      "dependsOn" : [ ]
    },
    {
      "ref" : "46174386-2de2-43fe-a97a-fb3a00c53a9c",
      "dependsOn" : [ ]
    },
    {
      "ref" : "1d79e320-e36d-42c0-b6c7-019e4d68ee02",
      "dependsOn" : [ ]
    },
    {
      "ref" : "e6ef69f0-28c4-4652-9036-a630b9e2f63f",
      "dependsOn" : [ ]
    },
    {
      "ref" : "1f6f9d57-1033-4088-8106-ba2df53bba39",
      "dependsOn" : [ ]
    },
    {
      "ref" : "59bb594e-d423-48e4-9127-885cf6fc5b6a",
      "dependsOn" : [ ]
    },
    {
      "ref" : "a1ea7ee0-ca6e-41a5-9774-38bcbecff815",
      "dependsOn" : [ ]
    },
    {
      "ref" : "e8a021e7-64cd-49d9-af34-26a0430959ee",
      "dependsOn" : [ ]
    },
    {
      "ref" : "673ddec6-453c-4214-bd15-19d81c66d3ab",
      "dependsOn" : [ ]
    },
    {
      "ref" : "406d395f-3b2b-4070-bcd6-ace4f5ff17e6",
      "dependsOn" : [ ]
    },
    {
      "ref" : "b33135d7-baea-44d6-8415-a3a2a6d2ca2f",
      "dependsOn" : [ ]
    },
    {
      "ref" : "252e9da8-c00e-4e89-b2ab-c152359d0084",
      "dependsOn" : [ ]
    },
    {
      "ref" : "fce74b46-ecb0-4cfa-bc6c-22564b99cc79",
      "dependsOn" : [ ]
    },
    {
      "ref" : "df906f40-869e-4bb4-8356-4f27d3494f4c",
      "dependsOn" : [ ]
    },
    {
      "ref" : "d14aa32b-1f35-40b7-87d9-6f8bd36a2a29",
      "dependsOn" : [ ]
    },
    {
      "ref" : "7434ab9e-9a5e-4667-95f9-61ed7153f23f",
      "dependsOn" : [ ]
    },
    {
      "ref" : "20782cce-daea-4036-93e6-e3f44766f151",
      "dependsOn" : [ ]
    },
    {
      "ref" : "e2953491-fec0-4fdf-85ac-dca1126178ec",
      "dependsOn" : [ ]
    },
    {
      "ref" : "5b220f38-ecb0-4099-b5b1-a83827b2dfe3",
      "dependsOn" : [ ]
    },
    {
      "ref" : "30e9732b-dace-4242-9a78-4e5272495b60",
      "dependsOn" : [ ]
    },
    {
      "ref" : "8a231f2a-aac2-4385-bec6-03fde8a2d58f",
      "dependsOn" : [ ]
    },
    {
      "ref" : "ec1810a5-5ac5-4034-9a6c-6f94594d10e8",
      "dependsOn" : [ ]
    },
    {
      "ref" : "53a58d3f-5389-41b9-8df6-4164e05f7427",
      "dependsOn" : [ ]
    },
    {
      "ref" : "5b7a2426-0e04-4211-9876-abec16916357",
      "dependsOn" : [ ]
    },
    {
      "ref" : "bc5a7838-0479-4a4f-a832-f48897310c10",
      "dependsOn" : [ ]
    },
    {
      "ref" : "082dbdcc-9071-49de-990a-fef9f5a1ed2c",
      "dependsOn" : [ ]
    },
    {
      "ref" : "7fb6dbba-98f1-4de7-85f2-6190a2c8b1ec",
      "dependsOn" : [ ]
    },
    {
      "ref" : "d66335b9-ce17-48ca-a412-323528d38160",
      "dependsOn" : [ ]
    },
    {
      "ref" : "c15d77a2-446b-4793-8d37-ab4e1ec6735f",
      "dependsOn" : [ ]
    },
    {
      "ref" : "4347aa06-32d7-4c36-9624-22238ffb19f6",
      "dependsOn" : [ ]
    },
    {
      "ref" : "2b11e8f3-3040-4810-b41d-00bae30fc86c",
      "dependsOn" : [ ]
    },
    {
      "ref" : "dc20a98e-ecee-4156-b822-1d11625a382c",
      "dependsOn" : [ ]
    },
    {
      "ref" : "b33bbb6a-cf92-4712-bb1c-aa7862a3a3f6",
      "dependsOn" : [ ]
    },
    {
      "ref" : "ad318d92-7197-4ba4-b9fb-60969188447a",
      "dependsOn" : [ ]
    },
    {
      "ref" : "9f096aab-d137-4ce1-846c-b72fcfa5d6be",
      "dependsOn" : [ ]
    },
    {
      "ref" : "e08dc93c-324e-48b7-8afb-c2270031ed55",
      "dependsOn" : [ ]
    },
    {
      "ref" : "6d43dc95-63a1-4500-9f48-a120a60531e1",
      "dependsOn" : [ ]
    },
    {
      "ref" : "8d6680bb-3167-474a-a003-54aef0f4dc7c",
      "dependsOn" : [ ]
    },
    {
      "ref" : "e26db7b4-2937-4936-ad25-4d1c3a4c9293",
      "dependsOn" : [ ]
    },
    {
      "ref" : "1b2ae09d-64d3-4a07-81fc-741908113c42",
      "dependsOn" : [ ]
    },
    {
      "ref" : "91bd014d-1d27-4837-9039-5611607371c6",
      "dependsOn" : [ ]
    },
    {
      "ref" : "d3213d54-54b5-4a7e-8cbd-6e05ae80aea2",
      "dependsOn" : [ ]
    },
    {
      "ref" : "975d4594-e874-409c-b740-3f4415da4379",
      "dependsOn" : [ ]
    },
    {
      "ref" : "e5e3d6cb-97df-4ae6-b7ae-bd23dc624a11",
      "dependsOn" : [ ]
    },
    {
      "ref" : "a5967561-1047-42a5-af84-103d3479e6fd",
      "dependsOn" : [ ]
    },
    {
      "ref" : "37d792b6-e05e-4c96-9c0c-f642a654f2dd",
      "dependsOn" : [ ]
    },
    {
      "ref" : "2ad74268-74db-4b9b-afa0-9a3dcbf8f983",
      "dependsOn" : [ ]
    },
    {
      "ref" : "d3e9e1b0-a05d-4af0-b20b-4afc3d9d70f1",
      "dependsOn" : [ ]
    },
    {
      "ref" : "6b56b7a4-2965-448a-a790-c5bd6f413bbe",
      "dependsOn" : [ ]
    },
    {
      "ref" : "b6cba66f-bb83-43d7-b682-428511e35ec9",
      "dependsOn" : [ ]
    },
    {
      "ref" : "60d9bdd9-6d74-46b2-84fa-e155cdafc69c",
      "dependsOn" : [ ]
    },
    {
      "ref" : "cd1ce560-d1c8-4f2e-9072-4cc3f9486308",
      "dependsOn" : [ ]
    },
    {
      "ref" : "9a533d7f-b381-4cd1-a015-d88a190ae0db",
      "dependsOn" : [ ]
    },
    {
      "ref" : "b2ef137f-2e60-4631-ae9b-23ce1be8bdef",
      "dependsOn" : [ ]
    },
    {
      "ref" : "b4262a4b-3e5f-45fe-8439-d90725e9fc60",
      "dependsOn" : [ ]
    },
    {
      "ref" : "8123ebf4-052f-4ea7-9f61-099674f03b45",
      "dependsOn" : [ ]
    },
    {
      "ref" : "a8c83cc6-d88f-4e33-a9e4-78d64acb6229",
      "dependsOn" : [ ]
    },
    {
      "ref" : "f69b01c6-e312-4d94-971e-708414570c03",
      "dependsOn" : [ ]
    },
    {
      "ref" : "8455e59d-2201-40ee-8db8-7d58f0c28df3",
      "dependsOn" : [ ]
    },
    {
      "ref" : "e483428d-26d4-4fd5-b628-8f453f70e9a8",
      "dependsOn" : [ ]
    },
    {
      "ref" : "9a7de610-cb92-44bb-826c-3cad1c1d1a78",
      "dependsOn" : [ ]
    },
    {
      "ref" : "15e673ae-9ed1-412b-a7ae-006ff62ebe56",
      "dependsOn" : [ ]
    },
    {
      "ref" : "38e42ada-087c-40de-b173-2a6c8fc543d5",
      "dependsOn" : [ ]
    },
    {
      "ref" : "b46d1d22-ed6c-44c4-8296-f020ff07a0da",
      "dependsOn" : [ ]
    },
    {
      "ref" : "ae6c7828-454c-4efa-8ef7-a1c2e80c3a28",
      "dependsOn" : [ ]
    },
    {
      "ref" : "356b23d0-1878-48c9-833e-92ace55657aa",
      "dependsOn" : [ ]
    },
    {
      "ref" : "675c40bf-98f6-4ca6-86e9-962bc0469de9",
      "dependsOn" : [ ]
    },
    {
      "ref" : "e8743857-eb2a-442a-ad0c-fdaac4cf66ec",
      "dependsOn" : [ ]
    },
    {
      "ref" : "146bb421-1481-4450-819c-f0466ba688a9",
      "dependsOn" : [ ]
    },
    {
      "ref" : "1669f8d4-013d-4617-91e2-0f501b0ef9d1",
      "dependsOn" : [ ]
    },
    {
      "ref" : "cf41873e-b466-4fdc-bb32-19be3851fdc9",
      "dependsOn" : [ ]
    },
    {
      "ref" : "bd12fd87-7922-4e75-b0ae-c348884065e1",
      "dependsOn" : [ ]
    },
    {
      "ref" : "a71c2e14-bfdb-4db8-b980-b490acfc1819",
      "dependsOn" : [ ]
    },
    {
      "ref" : "4086aa69-41e8-4276-93ca-36f23da04e22",
      "dependsOn" : [ ]
    },
    {
      "ref" : "6b423b3a-79e4-4eee-bed9-12c67a1513ad",
      "dependsOn" : [ ]
    },
    {
      "ref" : "e9681d8f-89ef-4a84-857e-d67ae2d67c5d",
      "dependsOn" : [ ]
    },
    {
      "ref" : "57fc3548-40f3-41ad-9d79-7b12605288ec",
      "dependsOn" : [ ]
    },
    {
      "ref" : "ffd9df1c-d776-4099-94c5-298c5945b00f",
      "dependsOn" : [ ]
    },
    {
      "ref" : "8d748287-865d-42de-95a6-4a5c0683f546",
      "dependsOn" : [ ]
    },
    {
      "ref" : "adcd9ed0-e732-4264-8ce3-4826c5faab65",
      "dependsOn" : [ ]
    },
    {
      "ref" : "6f26fad6-fcc5-4659-b026-63d404db024a",
      "dependsOn" : [ ]
    },
    {
      "ref" : "2f929ece-73b4-47e4-9140-2c20fbdd9be0",
      "dependsOn" : [ ]
    },
    {
      "ref" : "6c4aac7b-d111-467f-8532-01b42439a555",
      "dependsOn" : [ ]
    },
    {
      "ref" : "526fa8cb-2af4-40f1-8706-9c4e05c94fe4",
      "dependsOn" : [ ]
    },
    {
      "ref" : "29d2743a-32ff-4666-84d4-637b52133ce6",
      "dependsOn" : [ ]
    },
    {
      "ref" : "a7404c11-f9d5-43bc-a1fd-14c72c3f3366",
      "dependsOn" : [ ]
    },
    {
      "ref" : "103d727c-be51-460b-aaa3-ef44b70d5b11",
      "dependsOn" : [ ]
    },
    {
      "ref" : "da1e2745-14fd-4ffa-9f73-3eeecb578c0f",
      "dependsOn" : [ ]
    },
    {
      "ref" : "be7d0f8b-d340-45eb-825f-792d2a651b46",
      "dependsOn" : [ ]
    },
    {
      "ref" : "32570c6f-a7d8-463b-93a2-51ccae6332f0",
      "dependsOn" : [ ]
    },
    {
      "ref" : "97123694-340f-4816-87a3-2e27a0ef663d",
      "dependsOn" : [ ]
    },
    {
      "ref" : "efd2fbd7-7745-407c-9273-1cebb5ad4f87",
      "dependsOn" : [ ]
    },
    {
      "ref" : "9e6c9f8c-2eb0-4f25-a279-ca284f916cf4",
      "dependsOn" : [ ]
    },
    {
      "ref" : "de038560-dcc8-4e0c-a27f-142570c89f37",
      "dependsOn" : [ ]
    },
    {
      "ref" : "3e028f6c-c184-47e6-b241-be7e533a9ade",
      "dependsOn" : [ ]
    },
    {
      "ref" : "9a5eb4cb-b528-4305-9d06-260ce26ad7ab",
      "dependsOn" : [ ]
    },
    {
      "ref" : "cad71ca3-5f43-47f7-a314-bcf085513e95",
      "dependsOn" : [ ]
    },
    {
      "ref" : "0431780a-2ed5-4409-9f99-6405dc22998a",
      "dependsOn" : [ ]
    },
    {
      "ref" : "658e5f92-1b67-4212-bb7a-8866d4fcdd8e",
      "dependsOn" : [ ]
    },
    {
      "ref" : "e4f9cd7d-26ee-4d53-8284-e8a8f72abbbd",
      "dependsOn" : [
        "46d6af0d-3a40-4835-8288-235cae8dea68",
        "81da5365-94d7-4e3a-90ee-fbb5d2617f2c",
        "35170a09-bff6-47fa-84be-7b2cf461ac5c",
        "1d79e320-e36d-42c0-b6c7-019e4d68ee02",
        "e6ef69f0-28c4-4652-9036-a630b9e2f63f",
        "1f6f9d57-1033-4088-8106-ba2df53bba39",
        "59bb594e-d423-48e4-9127-885cf6fc5b6a",
        "673ddec6-453c-4214-bd15-19d81c66d3ab",
        "b33135d7-baea-44d6-8415-a3a2a6d2ca2f",
        "252e9da8-c00e-4e89-b2ab-c152359d0084",
        "df906f40-869e-4bb4-8356-4f27d3494f4c",
        "d14aa32b-1f35-40b7-87d9-6f8bd36a2a29",
        "7434ab9e-9a5e-4667-95f9-61ed7153f23f",
        "20782cce-daea-4036-93e6-e3f44766f151",
        "e2953491-fec0-4fdf-85ac-dca1126178ec",
        "5b220f38-ecb0-4099-b5b1-a83827b2dfe3",
        "30e9732b-dace-4242-9a78-4e5272495b60",
        "8a231f2a-aac2-4385-bec6-03fde8a2d58f",
        "ec1810a5-5ac5-4034-9a6c-6f94594d10e8",
        "5b7a2426-0e04-4211-9876-abec16916357",
        "bc5a7838-0479-4a4f-a832-f48897310c10",
        "082dbdcc-9071-49de-990a-fef9f5a1ed2c",
        "7fb6dbba-98f1-4de7-85f2-6190a2c8b1ec",
        "d66335b9-ce17-48ca-a412-323528d38160",
        "c15d77a2-446b-4793-8d37-ab4e1ec6735f",
        "4347aa06-32d7-4c36-9624-22238ffb19f6",
        "2b11e8f3-3040-4810-b41d-00bae30fc86c",
        "b33bbb6a-cf92-4712-bb1c-aa7862a3a3f6",
        "ad318d92-7197-4ba4-b9fb-60969188447a",
        "9f096aab-d137-4ce1-846c-b72fcfa5d6be",
        "e08dc93c-324e-48b7-8afb-c2270031ed55",
        "6d43dc95-63a1-4500-9f48-a120a60531e1",
        "8d6680bb-3167-474a-a003-54aef0f4dc7c",
        "e26db7b4-2937-4936-ad25-4d1c3a4c9293",
        "1b2ae09d-64d3-4a07-81fc-741908113c42",
        "91bd014d-1d27-4837-9039-5611607371c6",
        "d3213d54-54b5-4a7e-8cbd-6e05ae80aea2",
        "975d4594-e874-409c-b740-3f4415da4379",
        "e5e3d6cb-97df-4ae6-b7ae-bd23dc624a11",
        "a5967561-1047-42a5-af84-103d3479e6fd",
        "37d792b6-e05e-4c96-9c0c-f642a654f2dd",
        "2ad74268-74db-4b9b-afa0-9a3dcbf8f983",
        "d3e9e1b0-a05d-4af0-b20b-4afc3d9d70f1",
        "6b56b7a4-2965-448a-a790-c5bd6f413bbe",
        "b6cba66f-bb83-43d7-b682-428511e35ec9",
        "60d9bdd9-6d74-46b2-84fa-e155cdafc69c",
        "cd1ce560-d1c8-4f2e-9072-4cc3f9486308",
        "9a533d7f-b381-4cd1-a015-d88a190ae0db",
        "b2ef137f-2e60-4631-ae9b-23ce1be8bdef",
        "b4262a4b-3e5f-45fe-8439-d90725e9fc60",
        "8123ebf4-052f-4ea7-9f61-099674f03b45",
        "a8c83cc6-d88f-4e33-a9e4-78d64acb6229",
        "f69b01c6-e312-4d94-971e-708414570c03",
        "8455e59d-2201-40ee-8db8-7d58f0c28df3",
        "e483428d-26d4-4fd5-b628-8f453f70e9a8",
        "9a7de610-cb92-44bb-826c-3cad1c1d1a78",
        "15e673ae-9ed1-412b-a7ae-006ff62ebe56",
        "38e42ada-087c-40de-b173-2a6c8fc543d5",
        "b46d1d22-ed6c-44c4-8296-f020ff07a0da",
        "ae6c7828-454c-4efa-8ef7-a1c2e80c3a28",
        "356b23d0-1878-48c9-833e-92ace55657aa",
        "675c40bf-98f6-4ca6-86e9-962bc0469de9",
        "e8743857-eb2a-442a-ad0c-fdaac4cf66ec",
        "146bb421-1481-4450-819c-f0466ba688a9",
        "1669f8d4-013d-4617-91e2-0f501b0ef9d1",
        "cf41873e-b466-4fdc-bb32-19be3851fdc9",
        "bd12fd87-7922-4e75-b0ae-c348884065e1",
        "a71c2e14-bfdb-4db8-b980-b490acfc1819",
        "4086aa69-41e8-4276-93ca-36f23da04e22",
        "6b423b3a-79e4-4eee-bed9-12c67a1513ad",
        "e9681d8f-89ef-4a84-857e-d67ae2d67c5d",
        "57fc3548-40f3-41ad-9d79-7b12605288ec",
        "ffd9df1c-d776-4099-94c5-298c5945b00f",
        "8d748287-865d-42de-95a6-4a5c0683f546",
        "adcd9ed0-e732-4264-8ce3-4826c5faab65",
        "6f26fad6-fcc5-4659-b026-63d404db024a",
        "2f929ece-73b4-47e4-9140-2c20fbdd9be0",
        "6c4aac7b-d111-467f-8532-01b42439a555",
        "526fa8cb-2af4-40f1-8706-9c4e05c94fe4",
        "29d2743a-32ff-4666-84d4-637b52133ce6",
        "a7404c11-f9d5-43bc-a1fd-14c72c3f3366",
        "103d727c-be51-460b-aaa3-ef44b70d5b11",
        "da1e2745-14fd-4ffa-9f73-3eeecb578c0f",
        "be7d0f8b-d340-45eb-825f-792d2a651b46",
        "32570c6f-a7d8-463b-93a2-51ccae6332f0",
        "97123694-340f-4816-87a3-2e27a0ef663d",
        "efd2fbd7-7745-407c-9273-1cebb5ad4f87",
        "9e6c9f8c-2eb0-4f25-a279-ca284f916cf4",
        "de038560-dcc8-4e0c-a27f-142570c89f37",
        "3e028f6c-c184-47e6-b241-be7e533a9ade",
        "cad71ca3-5f43-47f7-a314-bcf085513e95",
        "0431780a-2ed5-4409-9f99-6405dc22998a",
        "658e5f92-1b67-4212-bb7a-8866d4fcdd8e",
        "72374082-ee07-42c7-8bc8-8039029f2071",
        "3fb61d55-ace4-4548-9b05-9abf4bac2a66",
        "22710799-a2a7-4687-9708-a0f43c4078fd",
        "d812b03a-a05f-4c47-ae32-b10e9d62a89d",
        "d5a1ff79-b1eb-47fd-a53d-265c2a0c6eb3",
        "3ebc21cb-510a-4054-8319-8698944313dc",
        "191a9075-116d-487b-9c26-52530e0e58e2",
        "6ea57a01-36c9-4ff6-91f6-8e088818d0c2",
        "56f7ca36-f22c-4adb-8124-e273bf01f2fa",
        "a350f4fb-d889-46f7-a008-31af9257c4dd",
        "49c8408b-a8d0-4a10-bc0c-f19e03a62030",
        "fdb1042b-da65-4af0-b0c7-803903786f7c",
        "58c84823-7d25-413c-b8aa-0b7c6302e826",
        "28ce99cd-fe71-4c7c-86e3-8d2f24f2fec3",
        "243f8a7b-388a-43f8-af33-ffbe5f65181a",
        "737845d6-e59f-4616-8a8f-45a3db369f87",
        "8e6e736f-d2a2-47ed-b59c-d59bcbf033bf",
        "72f9f676-2c79-4633-8f96-1e1fc2666616",
        "eea2a2eb-b795-4247-acee-dc939856e841",
        "5f3c9c57-72a2-4ea7-a163-6c37f0f727af",
        "9ee743fe-ba2a-4366-9154-d0e3022be71d",
        "492c1333-c061-441e-8258-4c30d9309246",
        "11fb622f-94c1-4742-9265-2a636d80d70f",
        "1b42ba3d-68f7-4e86-b377-963b5821d337",
        "38a33ae4-adae-407f-bbe4-c02582b992c3",
        "3ae7014f-76d3-4c2d-9638-bac53691a15e",
        "f79ba0bc-996d-4eea-b735-0b7dd7b23bd8",
        "9376280e-2fae-4b8f-a4c2-7f093eff0e55",
        "c173aafe-4a11-415f-b217-2b0f18fd218d"
      ]
    },
    {
      "ref" : "72374082-ee07-42c7-8bc8-8039029f2071",
      "dependsOn" : [ ]
    },
    {
      "ref" : "3fb61d55-ace4-4548-9b05-9abf4bac2a66",
      "dependsOn" : [ ]
    },
    {
      "ref" : "22710799-a2a7-4687-9708-a0f43c4078fd",
      "dependsOn" : [ ]
    },
    {
      "ref" : "d812b03a-a05f-4c47-ae32-b10e9d62a89d",
      "dependsOn" : [ ]
    },
    {
      "ref" : "b054d81a-8492-43fc-b6a0-1e454a0d32f7",
      "dependsOn" : [ ]
    },
    {
      "ref" : "d5a1ff79-b1eb-47fd-a53d-265c2a0c6eb3",
      "dependsOn" : [ ]
    },
    {
      "ref" : "3ebc21cb-510a-4054-8319-8698944313dc",
      "dependsOn" : [ ]
    },
    {
      "ref" : "191a9075-116d-487b-9c26-52530e0e58e2",
      "dependsOn" : [ ]
    },
    {
      "ref" : "6ea57a01-36c9-4ff6-91f6-8e088818d0c2",
      "dependsOn" : [ ]
    },
    {
      "ref" : "4bfccf26-7256-4e73-834f-eb7864f3b7e0",
      "dependsOn" : [ ]
    },
    {
      "ref" : "0509f648-d606-447a-8d67-f1b80e9059c1",
      "dependsOn" : [ ]
    },
    {
      "ref" : "82e57c19-cbc5-4324-a2b8-78f6a531d3ce",
      "dependsOn" : [ ]
    },
    {
      "ref" : "56f7ca36-f22c-4adb-8124-e273bf01f2fa",
      "dependsOn" : [ ]
    },
    {
      "ref" : "a350f4fb-d889-46f7-a008-31af9257c4dd",
      "dependsOn" : [ ]
    },
    {
      "ref" : "49c8408b-a8d0-4a10-bc0c-f19e03a62030",
      "dependsOn" : [ ]
    },
    {
      "ref" : "fdb1042b-da65-4af0-b0c7-803903786f7c",
      "dependsOn" : [ ]
    },
    {
      "ref" : "58c84823-7d25-413c-b8aa-0b7c6302e826",
      "dependsOn" : [ ]
    },
    {
      "ref" : "28ce99cd-fe71-4c7c-86e3-8d2f24f2fec3",
      "dependsOn" : [ ]
    },
    {
      "ref" : "1c0e108b-c261-4f9f-9275-6f5332728951",
      "dependsOn" : [ ]
    },
    {
      "ref" : "243f8a7b-388a-43f8-af33-ffbe5f65181a",
      "dependsOn" : [ ]
    },
    {
      "ref" : "737845d6-e59f-4616-8a8f-45a3db369f87",
      "dependsOn" : [ ]
    },
    {
      "ref" : "8e6e736f-d2a2-47ed-b59c-d59bcbf033bf",
      "dependsOn" : [ ]
    },
    {
      "ref" : "72f9f676-2c79-4633-8f96-1e1fc2666616",
      "dependsOn" : [ ]
    },
    {
      "ref" : "eea2a2eb-b795-4247-acee-dc939856e841",
      "dependsOn" : [ ]
    },
    {
      "ref" : "5f3c9c57-72a2-4ea7-a163-6c37f0f727af",
      "dependsOn" : [ ]
    },
    {
      "ref" : "9ee743fe-ba2a-4366-9154-d0e3022be71d",
      "dependsOn" : [ ]
    },
    {
      "ref" : "ec527875-858e-4fe4-8a58-f0f64c76b0a2",
      "dependsOn" : [ ]
    },
    {
      "ref" : "492c1333-c061-441e-8258-4c30d9309246",
      "dependsOn" : [ ]
    },
    {
      "ref" : "11fb622f-94c1-4742-9265-2a636d80d70f",
      "dependsOn" : [ ]
    },
    {
      "ref" : "1b42ba3d-68f7-4e86-b377-963b5821d337",
      "dependsOn" : [ ]
    },
    {
      "ref" : "38a33ae4-adae-407f-bbe4-c02582b992c3",
      "dependsOn" : [ ]
    },
    {
      "ref" : "b8fa7189-b54d-4fb8-9e41-480bca6a7e44",
      "dependsOn" : [
        "53a58d3f-5389-41b9-8df6-4164e05f7427",
        "dc20a98e-ecee-4156-b822-1d11625a382c"
      ]
    },
    {
      "ref" : "3ae7014f-76d3-4c2d-9638-bac53691a15e",
      "dependsOn" : [ ]
    },
    {
      "ref" : "f79ba0bc-996d-4eea-b735-0b7dd7b23bd8",
      "dependsOn" : [ ]
    },
    {
      "ref" : "9376280e-2fae-4b8f-a4c2-7f093eff0e55",
      "dependsOn" : [ ]
    },
    {
      "ref" : "c173aafe-4a11-415f-b217-2b0f18fd218d",
      "dependsOn" : [ ]
    }
  ],
  "vulnerabilities" : [
    {
      "bom-ref" : "40eb5606-fd60-4ca3-b812-4c4cb8842ade",
      "id" : "CVE-2022-29162",
      "source" : {
        "name" : "NVD",
        "url" : "https://nvd.nist.gov/"
      },
      "ratings" : [
        {
          "source" : {
            "name" : "NVD",
            "url" : "https://nvd.nist.gov/"
          },
          "score" : 4.6,
          "severity" : "medium",
          "method" : "CVSSv2",
          "vector" : "(AV:L/AC:L/Au:N/C:P/I:P/A:P)"
        },
        {
          "source" : {
            "name" : "NVD",
            "url" : "https://nvd.nist.gov/"
          },
          "score" : 7.8,
          "severity" : "high",
          "method" : "CVSSv3",
          "vector" : "CVSS:3.0/AV:L/AC:L/PR:L/UI:N/S:U/C:H/I:H/A:H"
        }
      ],
      "cwes" : [
        276
      ],
      "description" : "runc is a CLI tool for spawning and running containers on Linux according to the OCI specification. A bug was found in runc prior to version 1.1.2 where `runc exec --cap` created processes with non-empty inheritable Linux process capabilities, creating an atypical Linux environment and enabling programs with inheritable file capabilities to elevate those capabilities to the permitted set during execve(2). This bug did not affect the container security sandbox as the inheritable set never contained more capabilities than were included in the container's bounding set. This bug has been fixed in runc 1.1.2. This fix changes `runc exec --cap` behavior such that the additional capabilities granted to the process being executed (as specified via `--cap` arguments) do not include inheritable capabilities. In addition, `runc spec` is changed to not set any inheritable capabilities in the created example OCI spec (`config.json`) file.",
      "published" : "2022-05-17T21:15:00Z",
      "updated" : "2023-03-27T18:15:00Z",
      "affects" : [
        {
          "ref" : "53a58d3f-5389-41b9-8df6-4164e05f7427"
        }
      ]
    },
    {
      "bom-ref" : "f317791d-f881-4df2-a2c5-492b40c7a15a",
      "id" : "CVE-2023-25809",
      "source" : {
        "name" : "NVD",
        "url" : "https://nvd.nist.gov/"
      },
      "ratings" : [
        {
          "source" : {
            "name" : "NVD",
            "url" : "https://nvd.nist.gov/"
          },
          "score" : 6.3,
          "severity" : "medium",
          "method" : "CVSSv3",
          "vector" : "CVSS:3.0/AV:L/AC:L/PR:L/UI:N/S:C/C:L/I:L/A:L"
        }
      ],
      "cwes" : [
        281
      ],
      "description" : "runc is a CLI tool for spawning and running containers according to the OCI specification. In affected versions it was found that rootless runc makes `/sys/fs/cgroup` writable in following conditons: 1. when runc is executed inside the user namespace, and the `config.json` does not specify the cgroup namespace to be unshared (e.g.., `(docker|podman|nerdctl) run --cgroupns=host`, with Rootless Docker/Podman/nerdctl) or 2. when runc is executed outside the user namespace, and `/sys` is mounted with `rbind, ro` (e.g., `runc spec --rootless`; this condition is very rare). A container may gain the write access to user-owned cgroup hierarchy `/sys/fs/cgroup/user.slice/...` on the host . Other users's cgroup hierarchies are not affected. Users are advised to upgrade to version 1.1.5. Users unable to upgrade may unshare the cgroup namespace (`(docker|podman|nerdctl) run --cgroupns=private)`. This is the default behavior of Docker/Podman/nerdctl on cgroup v2 hosts. or add `/sys/fs/cgroup` to `maskedPaths`.",
      "published" : "2023-03-29T19:15:00Z",
      "updated" : "2023-04-06T17:41:00Z",
      "affects" : [
        {
          "ref" : "53a58d3f-5389-41b9-8df6-4164e05f7427"
        }
      ]
    },
    {
      "bom-ref" : "2edbcc86-cabf-4e02-aa0c-a989bcc93683",
      "id" : "CVE-2023-27561",
      "source" : {
        "name" : "NVD",
        "url" : "https://nvd.nist.gov/"
      },
      "ratings" : [
        {
          "source" : {
            "name" : "NVD",
            "url" : "https://nvd.nist.gov/"
          },
          "score" : 7.0,
          "severity" : "high",
          "method" : "CVSSv3",
          "vector" : "CVSS:3.0/AV:L/AC:H/PR:L/UI:N/S:U/C:H/I:H/A:H"
        }
      ],
      "cwes" : [
        706
      ],
      "description" : "runc through 1.1.4 has Incorrect Access Control leading to Escalation of Privileges, related to libcontainer/rootfs_linux.go. To exploit this, an attacker must be able to spawn two containers with custom volume-mount configurations, and be able to run custom images. NOTE: this issue exists because of a CVE-2019-19921 regression.",
      "published" : "2023-03-03T19:15:00Z",
      "updated" : "2023-04-21T04:15:00Z",
      "affects" : [
        {
          "ref" : "53a58d3f-5389-41b9-8df6-4164e05f7427"
        }
      ]
    },
    {
      "bom-ref" : "1ecec583-a61a-40de-a47b-cc706338bec9",
      "id" : "CVE-2023-28642",
      "source" : {
        "name" : "NVD",
        "url" : "https://nvd.nist.gov/"
      },
      "ratings" : [
        {
          "source" : {
            "name" : "NVD",
            "url" : "https://nvd.nist.gov/"
          },
          "score" : 7.8,
          "severity" : "high",
          "method" : "CVSSv3",
          "vector" : "CVSS:3.0/AV:L/AC:L/PR:L/UI:N/S:U/C:H/I:H/A:H"
        }
      ],
      "cwes" : [
        59
      ],
      "description" : "runc is a CLI tool for spawning and running containers according to the OCI specification. It was found that AppArmor can be bypassed when `/proc` inside the container is symlinked with a specific mount configuration. This issue has been fixed in runc version 1.1.5, by prohibiting symlinked `/proc`. See PR #3785 for details. users are advised to upgrade. Users unable to upgrade should avoid using an untrusted container image.",
      "published" : "2023-03-29T19:15:00Z",
      "updated" : "2023-04-06T17:45:00Z",
      "affects" : [
        {
          "ref" : "53a58d3f-5389-41b9-8df6-4164e05f7427"
        }
      ]
    },
    {
      "bom-ref" : "050ef116-1df6-45bf-aa69-2f587c9874d3",
      "id" : "CVE-2022-23491",
      "source" : {
        "name" : "NVD",
        "url" : "https://nvd.nist.gov/"
      },
      "ratings" : [
        {
          "source" : {
            "name" : "NVD",
            "url" : "https://nvd.nist.gov/"
          },
          "score" : 7.5,
          "severity" : "high",
          "method" : "CVSSv3",
          "vector" : "CVSS:3.0/AV:N/AC:L/PR:N/UI:N/S:U/C:N/I:H/A:N"
        }
      ],
      "cwes" : [
        345
      ],
      "description" : "Certifi is a curated collection of Root Certificates for validating the trustworthiness of SSL certificates while verifying the identity of TLS hosts. Certifi 2022.12.07 removes root certificates from \"TrustCor\" from the root store. These are in the process of being removed from Mozilla's trust store. TrustCor's root certificates are being removed pursuant to an investigation prompted by media reporting that TrustCor's ownership also operated a business that produced spyware. Conclusions of Mozilla's investigation can be found in the linked google group discussion.",
      "published" : "2022-12-07T22:15:00Z",
      "updated" : "2023-03-24T18:12:00Z",
      "affects" : [
        {
          "ref" : "a1ea7ee0-ca6e-41a5-9774-38bcbecff815"
        }
      ]
    },
    {
      "bom-ref" : "8290205c-915c-4adc-9899-18ed621cd62a",
      "id" : "CVE-2023-23931",
      "source" : {
        "name" : "NVD",
        "url" : "https://nvd.nist.gov/"
      },
      "ratings" : [
        {
          "source" : {
            "name" : "NVD",
            "url" : "https://nvd.nist.gov/"
          },
          "score" : 6.5,
          "severity" : "medium",
          "method" : "CVSSv3",
          "vector" : "CVSS:3.0/AV:N/AC:L/PR:N/UI:N/S:U/C:N/I:L/A:L"
        }
      ],
      "cwes" : [
        754
      ],
      "description" : "cryptography is a package designed to expose cryptographic primitives and recipes to Python developers. In affected versions `Cipher.update_into` would accept Python objects which implement the buffer protocol, but provide only immutable buffers. This would allow immutable objects (such as `bytes`) to be mutated, thus violating fundamental rules of Python and resulting in corrupted output. This now correctly raises an exception. This issue has been present since `update_into` was originally introduced in cryptography 1.8.",
      "published" : "2023-02-07T21:15:00Z",
      "updated" : "2023-02-16T16:57:00Z",
      "affects" : [
        {
          "ref" : "fce74b46-ecb0-4cfa-bc6c-22564b99cc79"
        }
      ]
    }
  ]
}