{
  "bomFormat" : "CycloneDX",
  "specVersion" : "1.4",
  "serialNumber" : "urn:uuid:be8e2289-4def-4b9a-9c8a-4f6d04de4f18",
  "version" : 1,
  "metadata" : {
    "timestamp" : "2023-07-03T15:04:03Z",
    "tools" : [
      {
        "vendor" : "OWASP",
        "name" : "Dependency-Track",
        "version" : "4.8.2"
      }
    ],
    "component" : {
      "name" : "notary-server",
      "version" : "SNAPSHOT",
      "type" : "application",
      "bom-ref" : "8d5e82cc-7e4a-4c77-a650-9c61c0c2a92b"
    }
  },
  "components" : [
    {
      "name" : "alpine",
      "version" : "3.16.4",
      "type" : "operating-system",
      "bom-ref" : "ac140ca7-f818-48ed-a8cc-d6bc23ecfff8"
    },
    {
      "name" : "alpine-baselayout",
      "version" : "3.2.0-r23",
      "purl" : "pkg:apk/alpine/alpine-baselayout@3.2.0-r23?distro=3.16.4",
      "type" : "library",
      "bom-ref" : "0d3ced58-2b6a-4f0b-9642-38b1da4ef4c6"
    },
    {
      "name" : "alpine-baselayout-data",
      "version" : "3.2.0-r23",
      "purl" : "pkg:apk/alpine/alpine-baselayout-data@3.2.0-r23?distro=3.16.4",
      "type" : "library",
      "bom-ref" : "0fcf311d-b469-4d81-b01c-f636b066a06f"
    },
    {
      "name" : "alpine-keys",
      "version" : "2.4-r1",
      "purl" : "pkg:apk/alpine/alpine-keys@2.4-r1?distro=3.16.4",
      "type" : "library",
      "bom-ref" : "82b21713-58dd-41d9-8f23-cb17b597ba23"
    },
    {
      "name" : "apk-tools",
      "version" : "2.12.9-r3",
      "purl" : "pkg:apk/alpine/apk-tools@2.12.9-r3?distro=3.16.4",
      "type" : "library",
      "bom-ref" : "64f4d24b-705b-40f1-8aa1-158fb4b4d4fd"
    },
    {
      "name" : "busybox",
      "version" : "1.35.0-r17",
      "purl" : "pkg:apk/alpine/busybox@1.35.0-r17?distro=3.16.4",
      "type" : "library",
      "bom-ref" : "8d9ab515-4faa-4e9d-a5f1-36439834c3ee"
    },
    {
      "name" : "ca-certificates-bundle",
      "version" : "20220614-r0",
      "purl" : "pkg:apk/alpine/ca-certificates-bundle@20220614-r0?distro=3.16.4",
      "type" : "library",
      "bom-ref" : "1f7c55c7-4d31-408e-8826-e0960b6cba6a"
    },
    {
      "name" : "github.com/BurntSushi/toml",
      "version" : "v0.3.1",
      "purl" : "pkg:golang/github.com/burntsushi/toml@v0.3.1",
      "type" : "library",
      "bom-ref" : "e1cfcb9e-ebad-47b8-b691-6fabe67fac39"
    },
    {
      "name" : "github.com/Shopify/logrus-bugsnag",
      "version" : "v0.0.0-20170309145241-6dbc35f2c30d",
      "purl" : "pkg:golang/github.com/shopify/logrus-bugsnag@v0.0.0-20170309145241-6dbc35f2c30d",
      "type" : "library",
      "bom-ref" : "3dfd0b2a-8a6b-46f7-a8b3-e6ddb4cdd149"
    },
    {
      "name" : "github.com/beorn7/perks",
      "version" : "v0.0.0-20150223135152-b965b613227f",
      "purl" : "pkg:golang/github.com/beorn7/perks@v0.0.0-20150223135152-b965b613227f",
      "type" : "library",
      "bom-ref" : "5a05f90f-bc5c-486f-9a3a-ce678fc05b57"
    },
    {
      "name" : "github.com/bugsnag/bugsnag-go",
      "version" : "v1.0.5-0.20150529004307-13fd6b8acda0",
      "purl" : "pkg:golang/github.com/bugsnag/bugsnag-go@v1.0.5-0.20150529004307-13fd6b8acda0",
      "type" : "library",
      "bom-ref" : "4c52e62e-86dd-4b98-a25d-f9af1c88b831"
    },
    {
      "name" : "github.com/bugsnag/osext",
      "version" : "v0.0.0-20130617224835-0dd3f918b21b",
      "purl" : "pkg:golang/github.com/bugsnag/osext@v0.0.0-20130617224835-0dd3f918b21b",
      "type" : "library",
      "bom-ref" : "db7e2c32-d428-4e34-878e-9664e5c6560e"
    },
    {
      "name" : "github.com/bugsnag/panicwrap",
      "version" : "v0.0.0-20151223152923-e2c28503fcd0",
      "purl" : "pkg:golang/github.com/bugsnag/panicwrap@v0.0.0-20151223152923-e2c28503fcd0",
      "type" : "library",
      "bom-ref" : "3eeb784e-214c-415a-a704-a0b1d16f0af2"
    },
    {
      "name" : "github.com/docker/distribution",
      "version" : "v2.7.1+incompatible",
      "purl" : "pkg:golang/github.com/docker/distribution@v2.7.1%20incompatible",
      "type" : "library",
      "bom-ref" : "c3f34023-48a9-4d65-9159-d5fb13da9525"
    },
    {
      "name" : "github.com/docker/go",
      "version" : "v1.5.1-1.0.20160303222718-d30aec9fd63c",
      "purl" : "pkg:golang/github.com/docker/go@v1.5.1-1.0.20160303222718-d30aec9fd63c",
      "type" : "library",
      "bom-ref" : "8e9a719f-ae05-4d10-9f7b-b9c547584be6"
    },
    {
      "name" : "github.com/docker/go-connections",
      "version" : "v0.4.0",
      "purl" : "pkg:golang/github.com/docker/go-connections@v0.4.0",
      "type" : "library",
      "bom-ref" : "3a0d0b7f-8266-491c-bd2e-37ecc771899d"
    },
    {
      "name" : "github.com/docker/libtrust",
      "version" : "v0.0.0-20160708172513-aabc10ec26b7",
      "purl" : "pkg:golang/github.com/docker/libtrust@v0.0.0-20160708172513-aabc10ec26b7",
      "type" : "library",
      "bom-ref" : "5eb4beb1-0890-4564-a024-168308b8494d"
    },
    {
      "name" : "github.com/go-sql-driver/mysql",
      "version" : "v1.3.0",
      "purl" : "pkg:golang/github.com/go-sql-driver/mysql@v1.3.0",
      "type" : "library",
      "bom-ref" : "5a6b9781-f8d3-4a0f-b438-a81ac62714fe"
    },
    {
      "name" : "github.com/golang/protobuf",
      "version" : "v1.3.4",
      "purl" : "pkg:golang/github.com/golang/protobuf@v1.3.4",
      "type" : "library",
      "bom-ref" : "3d6df16b-b01b-45db-9bf4-b077b036cd29"
    },
    {
      "name" : "github.com/gorilla/mux",
      "version" : "v1.7.0",
      "purl" : "pkg:golang/github.com/gorilla/mux@v1.7.0",
      "type" : "library",
      "bom-ref" : "bdd55212-d3a0-461e-b5a4-172389abfa80"
    },
    {
      "name" : "github.com/hailocab/go-hostpool",
      "version" : "v0.0.0-20160125115350-e80d13ce29ed",
      "purl" : "pkg:golang/github.com/hailocab/go-hostpool@v0.0.0-20160125115350-e80d13ce29ed",
      "type" : "library",
      "bom-ref" : "b30a7697-a31c-4241-863c-6908452d82e5"
    },
    {
      "name" : "github.com/jinzhu/gorm",
      "version" : "v0.0.0-20170222002820-5409931a1bb8",
      "purl" : "pkg:golang/github.com/jinzhu/gorm@v0.0.0-20170222002820-5409931a1bb8",
      "type" : "library",
      "bom-ref" : "32c7a870-daaf-445d-bae3-a03625468c8f"
    },
    {
      "name" : "github.com/jinzhu/inflection",
      "version" : "v0.0.0-20170102125226-1c35d901db3d",
      "purl" : "pkg:golang/github.com/jinzhu/inflection@v0.0.0-20170102125226-1c35d901db3d",
      "type" : "library",
      "bom-ref" : "0f5118d0-b71e-4f7d-9880-7b77ef46a3d5"
    },
    {
      "name" : "github.com/kr/pretty",
      "version" : "v0.1.0",
      "purl" : "pkg:golang/github.com/kr/pretty@v0.1.0",
      "type" : "library",
      "bom-ref" : "c48bf659-fac1-41da-94ff-84e9afc0a197"
    },
    {
      "name" : "github.com/kr/text",
      "version" : "v0.2.0",
      "purl" : "pkg:golang/github.com/kr/text@v0.2.0",
      "type" : "library",
      "bom-ref" : "c1800d51-78ab-41c1-b50e-9c6dd79827d8"
    },
    {
      "name" : "github.com/lib/pq",
      "version" : "v0.0.0-20150723085316-0dad96c0b94f",
      "purl" : "pkg:golang/github.com/lib/pq@v0.0.0-20150723085316-0dad96c0b94f",
      "type" : "library",
      "bom-ref" : "dede89cd-5a95-466e-b4a2-d1587bdb748c"
    },
    {
      "name" : "github.com/magiconair/properties",
      "version" : "v1.5.3",
      "purl" : "pkg:golang/github.com/magiconair/properties@v1.5.3",
      "type" : "library",
      "bom-ref" : "fcffc6d0-e002-4782-9a92-8b62185bb93f"
    },
    {
      "name" : "github.com/matttproud/golang_protobuf_extensions",
      "version" : "v1.0.1",
      "purl" : "pkg:golang/github.com/matttproud/golang_protobuf_extensions@v1.0.1",
      "type" : "library",
      "bom-ref" : "515555ec-75af-4141-b4be-b15dd1d9e0cd"
    },
    {
      "name" : "github.com/mitchellh/mapstructure",
      "version" : "v0.0.0-20150613213606-2caf8efc9366",
      "purl" : "pkg:golang/github.com/mitchellh/mapstructure@v0.0.0-20150613213606-2caf8efc9366",
      "type" : "library",
      "bom-ref" : "4181ea25-f429-41c2-a032-0c31fe71d870"
    },
    {
      "name" : "github.com/opentracing/opentracing-go",
      "version" : "v1.1.0",
      "purl" : "pkg:golang/github.com/opentracing/opentracing-go@v1.1.0",
      "type" : "library",
      "bom-ref" : "30c33d8b-9bdd-4704-b537-13ec80d43af7"
    },
    {
      "name" : "github.com/pkg/errors",
      "version" : "v0.8.1",
      "purl" : "pkg:golang/github.com/pkg/errors@v0.8.1",
      "type" : "library",
      "bom-ref" : "23a38362-eb88-4dcc-a3f4-98c3d47ecaed"
    },
    {
      "name" : "github.com/prometheus/client_golang",
      "version" : "v0.9.0-pre1.0.20180209125602-c332b6f63c06",
      "purl" : "pkg:golang/github.com/prometheus/client_golang@v0.9.0-pre1.0.20180209125602-c332b6f63c06",
      "type" : "library",
      "bom-ref" : "9a7517df-f8e6-4283-bd63-a6fa25337d90"
    },
    {
      "name" : "github.com/prometheus/client_model",
      "version" : "v0.0.0-20171117100541-99fa1f4be8e5",
      "purl" : "pkg:golang/github.com/prometheus/client_model@v0.0.0-20171117100541-99fa1f4be8e5",
      "type" : "library",
      "bom-ref" : "0905c1d2-95ba-40d2-ac56-fbd1b93242b4"
    },
    {
      "name" : "github.com/prometheus/common",
      "version" : "v0.0.0-20180110214958-89604d197083",
      "purl" : "pkg:golang/github.com/prometheus/common@v0.0.0-20180110214958-89604d197083",
      "type" : "library",
      "bom-ref" : "be1012e1-75a4-4d5e-944b-bba56b895bc0"
    },
    {
      "name" : "github.com/prometheus/procfs",
      "version" : "v0.0.0-20180125133057-cb4147076ac7",
      "purl" : "pkg:golang/github.com/prometheus/procfs@v0.0.0-20180125133057-cb4147076ac7",
      "type" : "library",
      "bom-ref" : "6c0ab45e-4e46-4131-87db-ff856a2eee58"
    },
    {
      "name" : "github.com/sirupsen/logrus",
      "version" : "v1.4.1",
      "purl" : "pkg:golang/github.com/sirupsen/logrus@v1.4.1",
      "type" : "library",
      "bom-ref" : "eafc7e2a-49eb-40e5-ad40-9a15e6330174"
    },
    {
      "name" : "github.com/spf13/cast",
      "version" : "v0.0.0-20150508191742-4d07383ffe94",
      "purl" : "pkg:golang/github.com/spf13/cast@v0.0.0-20150508191742-4d07383ffe94",
      "type" : "library",
      "bom-ref" : "ad7d9281-7127-4648-9db4-7ca5e0812d49"
    },
    {
      "name" : "github.com/spf13/jwalterweatherman",
      "version" : "v0.0.0-20141219030609-3d60171a6431",
      "purl" : "pkg:golang/github.com/spf13/jwalterweatherman@v0.0.0-20141219030609-3d60171a6431",
      "type" : "library",
      "bom-ref" : "6cd54b1c-b40c-4198-b5c3-54de7df9e32c"
    },
    {
      "name" : "github.com/spf13/pflag",
      "version" : "v1.0.0",
      "purl" : "pkg:golang/github.com/spf13/pflag@v1.0.0",
      "type" : "library",
      "bom-ref" : "7ee36f1b-d462-4437-9607-b9d62e6e98c8"
    },
    {
      "name" : "github.com/spf13/viper",
      "version" : "v0.0.0-20150530192845-be5ff3e4840c",
      "purl" : "pkg:golang/github.com/spf13/viper@v0.0.0-20150530192845-be5ff3e4840c",
      "type" : "library",
      "bom-ref" : "c6ecf476-dff8-4e12-85af-592c07cc2cb7"
    },
    {
      "name" : "golang.org/x/crypto",
      "version" : "v0.0.0-20201117144127-c1f2f97bffc9",
      "purl" : "pkg:golang/golang.org/x/crypto@v0.0.0-20201117144127-c1f2f97bffc9",
      "type" : "library",
      "bom-ref" : "3ebde4cd-20c9-46a5-a8ee-f429591f20f3"
    },
    {
      "name" : "golang.org/x/net",
      "version" : "v0.0.0-20190404232315-eb5bcb51f2a3",
      "purl" : "pkg:golang/golang.org/x/net@v0.0.0-20190404232315-eb5bcb51f2a3",
      "type" : "library",
      "bom-ref" : "f2db84a0-7c30-4f3a-a0ae-a576a8cbde3e"
    },
    {
      "name" : "golang.org/x/sys",
      "version" : "v0.0.0-20191120155948-bd437916bb0e",
      "purl" : "pkg:golang/golang.org/x/sys@v0.0.0-20191120155948-bd437916bb0e",
      "type" : "library",
      "bom-ref" : "4796eba3-db66-467a-83c1-62cc519473ea"
    },
    {
      "name" : "golang.org/x/text",
      "version" : "v0.3.0",
      "purl" : "pkg:golang/golang.org/x/text@v0.3.0",
      "type" : "library",
      "bom-ref" : "655332ea-7ab3-45e4-969d-9e691061e45a"
    },
    {
      "name" : "google.golang.org/grpc",
      "version" : "v1.0.5",
      "purl" : "pkg:golang/google.golang.org/grpc@v1.0.5",
      "type" : "library",
      "bom-ref" : "be59463b-f612-490e-9531-8287c13a64b7"
    },
    {
      "name" : "gopkg.in/cenkalti/backoff.v2",
      "version" : "v2.2.1",
      "purl" : "pkg:golang/gopkg.in/cenkalti/backoff.v2@v2.2.1",
      "type" : "library",
      "bom-ref" : "a9cbce25-9c28-4bb7-b064-19bc035ab0e5"
    },
    {
      "name" : "gopkg.in/rethinkdb/rethinkdb-go.v6",
      "version" : "v6.2.1",
      "purl" : "pkg:golang/gopkg.in/rethinkdb/rethinkdb-go.v6@v6.2.1",
      "type" : "library",
      "bom-ref" : "2a6cb0b5-edeb-4bc4-9b28-eec7539f6f2e"
    },
    {
      "name" : "gopkg.in/yaml.v2",
      "version" : "v2.2.8",
      "purl" : "pkg:golang/gopkg.in/yaml.v2@v2.2.8",
      "type" : "library",
      "bom-ref" : "776d32f2-1c6e-452a-841b-efe97e2636e5"
    },
    {
      "name" : "libc-utils",
      "version" : "0.7.2-r3",
      "purl" : "pkg:apk/alpine/libc-utils@0.7.2-r3?distro=3.16.4",
      "type" : "library",
      "bom-ref" : "1aa5bb0e-3bab-40b4-9e00-76095d71b0e8"
    },
    {
      "name" : "libcrypto1.1",
      "version" : "1.1.1t-r0",
      "purl" : "pkg:apk/alpine/libcrypto1.1@1.1.1t-r0?distro=3.16.4",
      "type" : "library",
      "bom-ref" : "4faa328b-7e48-419e-a768-ea4654fd73c2"
    },
    {
      "name" : "libssl1.1",
      "version" : "1.1.1t-r0",
      "purl" : "pkg:apk/alpine/libssl1.1@1.1.1t-r0?distro=3.16.4",
      "type" : "library",
      "bom-ref" : "e049f204-3878-49d2-bcff-231b40db0434"
    },
    {
      "name" : "musl",
      "version" : "1.2.3-r2",
      "purl" : "pkg:apk/alpine/musl@1.2.3-r2?distro=3.16.4",
      "type" : "library",
      "bom-ref" : "3ef8e2fa-a97d-4554-ae63-7fe20775e267"
    },
    {
      "name" : "musl-utils",
      "version" : "1.2.3-r2",
      "purl" : "pkg:apk/alpine/musl-utils@1.2.3-r2?distro=3.16.4",
      "type" : "library",
      "bom-ref" : "ba9eb4fc-0f07-400e-b700-1af64bc8c9ee"
    },
    {
      "name" : "notary/server/notary-server",
      "type" : "application",
      "bom-ref" : "da2dbf82-5dd4-4ce7-80de-58c3e9debda2"
    },
    {
      "name" : "scanelf",
      "version" : "1.3.4-r0",
      "purl" : "pkg:apk/alpine/scanelf@1.3.4-r0?distro=3.16.4",
      "type" : "library",
      "bom-ref" : "24197432-e556-4e32-b537-2479ce719961"
    },
    {
      "name" : "ssl_client",
      "version" : "1.35.0-r17",
      "purl" : "pkg:apk/alpine/ssl_client@1.35.0-r17?distro=3.16.4",
      "type" : "library",
      "bom-ref" : "5f8ec933-d12c-4eea-99d7-b50f75838440"
    },
    {
      "name" : "zlib",
      "version" : "1.2.12-r3",
      "purl" : "pkg:apk/alpine/zlib@1.2.12-r3?distro=3.16.4",
      "type" : "library",
      "bom-ref" : "26c07ff3-3e59-4c50-8949-ce53d2c64f33"
    }
  ],
  "dependencies" : [
    {
      "ref" : "8d5e82cc-7e4a-4c77-a650-9c61c0c2a92b",
      "dependsOn" : [
        "ac140ca7-f818-48ed-a8cc-d6bc23ecfff8",
        "da2dbf82-5dd4-4ce7-80de-58c3e9debda2"
      ]
    },
    {
      "ref" : "ac140ca7-f818-48ed-a8cc-d6bc23ecfff8",
      "dependsOn" : [
        "0d3ced58-2b6a-4f0b-9642-38b1da4ef4c6",
        "0fcf311d-b469-4d81-b01c-f636b066a06f",
        "82b21713-58dd-41d9-8f23-cb17b597ba23",
        "64f4d24b-705b-40f1-8aa1-158fb4b4d4fd",
        "8d9ab515-4faa-4e9d-a5f1-36439834c3ee",
        "1f7c55c7-4d31-408e-8826-e0960b6cba6a",
        "1aa5bb0e-3bab-40b4-9e00-76095d71b0e8",
        "4faa328b-7e48-419e-a768-ea4654fd73c2",
        "e049f204-3878-49d2-bcff-231b40db0434",
        "3ef8e2fa-a97d-4554-ae63-7fe20775e267",
        "ba9eb4fc-0f07-400e-b700-1af64bc8c9ee",
        "24197432-e556-4e32-b537-2479ce719961",
        "5f8ec933-d12c-4eea-99d7-b50f75838440",
        "26c07ff3-3e59-4c50-8949-ce53d2c64f33"
      ]
    },
    {
      "ref" : "0d3ced58-2b6a-4f0b-9642-38b1da4ef4c6",
      "dependsOn" : [ ]
    },
    {
      "ref" : "0fcf311d-b469-4d81-b01c-f636b066a06f",
      "dependsOn" : [ ]
    },
    {
      "ref" : "82b21713-58dd-41d9-8f23-cb17b597ba23",
      "dependsOn" : [ ]
    },
    {
      "ref" : "64f4d24b-705b-40f1-8aa1-158fb4b4d4fd",
      "dependsOn" : [ ]
    },
    {
      "ref" : "8d9ab515-4faa-4e9d-a5f1-36439834c3ee",
      "dependsOn" : [ ]
    },
    {
      "ref" : "1f7c55c7-4d31-408e-8826-e0960b6cba6a",
      "dependsOn" : [ ]
    },
    {
      "ref" : "e1cfcb9e-ebad-47b8-b691-6fabe67fac39",
      "dependsOn" : [ ]
    },
    {
      "ref" : "3dfd0b2a-8a6b-46f7-a8b3-e6ddb4cdd149",
      "dependsOn" : [ ]
    },
    {
      "ref" : "5a05f90f-bc5c-486f-9a3a-ce678fc05b57",
      "dependsOn" : [ ]
    },
    {
      "ref" : "4c52e62e-86dd-4b98-a25d-f9af1c88b831",
      "dependsOn" : [ ]
    },
    {
      "ref" : "db7e2c32-d428-4e34-878e-9664e5c6560e",
      "dependsOn" : [ ]
    },
    {
      "ref" : "3eeb784e-214c-415a-a704-a0b1d16f0af2",
      "dependsOn" : [ ]
    },
    {
      "ref" : "c3f34023-48a9-4d65-9159-d5fb13da9525",
      "dependsOn" : [ ]
    },
    {
      "ref" : "8e9a719f-ae05-4d10-9f7b-b9c547584be6",
      "dependsOn" : [ ]
    },
    {
      "ref" : "3a0d0b7f-8266-491c-bd2e-37ecc771899d",
      "dependsOn" : [ ]
    },
    {
      "ref" : "5eb4beb1-0890-4564-a024-168308b8494d",
      "dependsOn" : [ ]
    },
    {
      "ref" : "5a6b9781-f8d3-4a0f-b438-a81ac62714fe",
      "dependsOn" : [ ]
    },
    {
      "ref" : "3d6df16b-b01b-45db-9bf4-b077b036cd29",
      "dependsOn" : [ ]
    },
    {
      "ref" : "bdd55212-d3a0-461e-b5a4-172389abfa80",
      "dependsOn" : [ ]
    },
    {
      "ref" : "b30a7697-a31c-4241-863c-6908452d82e5",
      "dependsOn" : [ ]
    },
    {
      "ref" : "32c7a870-daaf-445d-bae3-a03625468c8f",
      "dependsOn" : [ ]
    },
    {
      "ref" : "0f5118d0-b71e-4f7d-9880-7b77ef46a3d5",
      "dependsOn" : [ ]
    },
    {
      "ref" : "c48bf659-fac1-41da-94ff-84e9afc0a197",
      "dependsOn" : [ ]
    },
    {
      "ref" : "c1800d51-78ab-41c1-b50e-9c6dd79827d8",
      "dependsOn" : [ ]
    },
    {
      "ref" : "dede89cd-5a95-466e-b4a2-d1587bdb748c",
      "dependsOn" : [ ]
    },
    {
      "ref" : "fcffc6d0-e002-4782-9a92-8b62185bb93f",
      "dependsOn" : [ ]
    },
    {
      "ref" : "515555ec-75af-4141-b4be-b15dd1d9e0cd",
      "dependsOn" : [ ]
    },
    {
      "ref" : "4181ea25-f429-41c2-a032-0c31fe71d870",
      "dependsOn" : [ ]
    },
    {
      "ref" : "30c33d8b-9bdd-4704-b537-13ec80d43af7",
      "dependsOn" : [ ]
    },
    {
      "ref" : "23a38362-eb88-4dcc-a3f4-98c3d47ecaed",
      "dependsOn" : [ ]
    },
    {
      "ref" : "9a7517df-f8e6-4283-bd63-a6fa25337d90",
      "dependsOn" : [ ]
    },
    {
      "ref" : "0905c1d2-95ba-40d2-ac56-fbd1b93242b4",
      "dependsOn" : [ ]
    },
    {
      "ref" : "be1012e1-75a4-4d5e-944b-bba56b895bc0",
      "dependsOn" : [ ]
    },
    {
      "ref" : "6c0ab45e-4e46-4131-87db-ff856a2eee58",
      "dependsOn" : [ ]
    },
    {
      "ref" : "eafc7e2a-49eb-40e5-ad40-9a15e6330174",
      "dependsOn" : [ ]
    },
    {
      "ref" : "ad7d9281-7127-4648-9db4-7ca5e0812d49",
      "dependsOn" : [ ]
    },
    {
      "ref" : "6cd54b1c-b40c-4198-b5c3-54de7df9e32c",
      "dependsOn" : [ ]
    },
    {
      "ref" : "7ee36f1b-d462-4437-9607-b9d62e6e98c8",
      "dependsOn" : [ ]
    },
    {
      "ref" : "c6ecf476-dff8-4e12-85af-592c07cc2cb7",
      "dependsOn" : [ ]
    },
    {
      "ref" : "3ebde4cd-20c9-46a5-a8ee-f429591f20f3",
      "dependsOn" : [ ]
    },
    {
      "ref" : "f2db84a0-7c30-4f3a-a0ae-a576a8cbde3e",
      "dependsOn" : [ ]
    },
    {
      "ref" : "4796eba3-db66-467a-83c1-62cc519473ea",
      "dependsOn" : [ ]
    },
    {
      "ref" : "655332ea-7ab3-45e4-969d-9e691061e45a",
      "dependsOn" : [ ]
    },
    {
      "ref" : "be59463b-f612-490e-9531-8287c13a64b7",
      "dependsOn" : [ ]
    },
    {
      "ref" : "a9cbce25-9c28-4bb7-b064-19bc035ab0e5",
      "dependsOn" : [ ]
    },
    {
      "ref" : "2a6cb0b5-edeb-4bc4-9b28-eec7539f6f2e",
      "dependsOn" : [ ]
    },
    {
      "ref" : "776d32f2-1c6e-452a-841b-efe97e2636e5",
      "dependsOn" : [ ]
    },
    {
      "ref" : "1aa5bb0e-3bab-40b4-9e00-76095d71b0e8",
      "dependsOn" : [ ]
    },
    {
      "ref" : "4faa328b-7e48-419e-a768-ea4654fd73c2",
      "dependsOn" : [ ]
    },
    {
      "ref" : "e049f204-3878-49d2-bcff-231b40db0434",
      "dependsOn" : [ ]
    },
    {
      "ref" : "3ef8e2fa-a97d-4554-ae63-7fe20775e267",
      "dependsOn" : [ ]
    },
    {
      "ref" : "ba9eb4fc-0f07-400e-b700-1af64bc8c9ee",
      "dependsOn" : [ ]
    },
    {
      "ref" : "da2dbf82-5dd4-4ce7-80de-58c3e9debda2",
      "dependsOn" : [
        "e1cfcb9e-ebad-47b8-b691-6fabe67fac39",
        "3dfd0b2a-8a6b-46f7-a8b3-e6ddb4cdd149",
        "5a05f90f-bc5c-486f-9a3a-ce678fc05b57",
        "4c52e62e-86dd-4b98-a25d-f9af1c88b831",
        "db7e2c32-d428-4e34-878e-9664e5c6560e",
        "3eeb784e-214c-415a-a704-a0b1d16f0af2",
        "c3f34023-48a9-4d65-9159-d5fb13da9525",
        "8e9a719f-ae05-4d10-9f7b-b9c547584be6",
        "3a0d0b7f-8266-491c-bd2e-37ecc771899d",
        "5eb4beb1-0890-4564-a024-168308b8494d",
        "5a6b9781-f8d3-4a0f-b438-a81ac62714fe",
        "3d6df16b-b01b-45db-9bf4-b077b036cd29",
        "bdd55212-d3a0-461e-b5a4-172389abfa80",
        "b30a7697-a31c-4241-863c-6908452d82e5",
        "32c7a870-daaf-445d-bae3-a03625468c8f",
        "0f5118d0-b71e-4f7d-9880-7b77ef46a3d5",
        "c48bf659-fac1-41da-94ff-84e9afc0a197",
        "c1800d51-78ab-41c1-b50e-9c6dd79827d8",
        "dede89cd-5a95-466e-b4a2-d1587bdb748c",
        "fcffc6d0-e002-4782-9a92-8b62185bb93f",
        "515555ec-75af-4141-b4be-b15dd1d9e0cd",
        "4181ea25-f429-41c2-a032-0c31fe71d870",
        "30c33d8b-9bdd-4704-b537-13ec80d43af7",
        "23a38362-eb88-4dcc-a3f4-98c3d47ecaed",
        "9a7517df-f8e6-4283-bd63-a6fa25337d90",
        "0905c1d2-95ba-40d2-ac56-fbd1b93242b4",
        "be1012e1-75a4-4d5e-944b-bba56b895bc0",
        "6c0ab45e-4e46-4131-87db-ff856a2eee58",
        "eafc7e2a-49eb-40e5-ad40-9a15e6330174",
        "ad7d9281-7127-4648-9db4-7ca5e0812d49",
        "6cd54b1c-b40c-4198-b5c3-54de7df9e32c",
        "7ee36f1b-d462-4437-9607-b9d62e6e98c8",
        "c6ecf476-dff8-4e12-85af-592c07cc2cb7",
        "3ebde4cd-20c9-46a5-a8ee-f429591f20f3",
        "f2db84a0-7c30-4f3a-a0ae-a576a8cbde3e",
        "4796eba3-db66-467a-83c1-62cc519473ea",
        "655332ea-7ab3-45e4-969d-9e691061e45a",
        "be59463b-f612-490e-9531-8287c13a64b7",
        "a9cbce25-9c28-4bb7-b064-19bc035ab0e5",
        "2a6cb0b5-edeb-4bc4-9b28-eec7539f6f2e",
        "776d32f2-1c6e-452a-841b-efe97e2636e5"
      ]
    },
    {
      "ref" : "24197432-e556-4e32-b537-2479ce719961",
      "dependsOn" : [ ]
    },
    {
      "ref" : "5f8ec933-d12c-4eea-99d7-b50f75838440",
      "dependsOn" : [ ]
    },
    {
      "ref" : "26c07ff3-3e59-4c50-8949-ce53d2c64f33",
      "dependsOn" : [ ]
    }
  ],
  "vulnerabilities" : [
    {
      "bom-ref" : "f716b89b-4a4d-4617-bbdc-9706c23b2afc",
      "id" : "CVE-2020-14040",
      "source" : {
        "name" : "NVD",
        "url" : "https://nvd.nist.gov/"
      },
      "ratings" : [
        {
          "source" : {
            "name" : "NVD",
            "url" : "https://nvd.nist.gov/"
          },
          "score" : 5.0,
          "severity" : "medium",
          "method" : "CVSSv2",
          "vector" : "(AV:N/AC:L/Au:N/C:N/I:N/A:P)"
        },
        {
          "source" : {
            "name" : "NVD",
            "url" : "https://nvd.nist.gov/"
          },
          "score" : 7.5,
          "severity" : "high",
          "method" : "CVSSv3",
          "vector" : "CVSS:3.0/AV:N/AC:L/PR:N/UI:N/S:U/C:N/I:N/A:H"
        }
      ],
      "cwes" : [
        835
      ],
      "description" : "The x/text package before 0.3.3 for Go has a vulnerability in encoding/unicode that could lead to the UTF-16 decoder entering an infinite loop, causing the program to crash or run out of memory. An attacker could provide a single byte to a UTF16 decoder instantiated with UseBOM or ExpectBOM to trigger an infinite loop if the String function on the Decoder is called, or the Decoder is passed to golang.org/x/text/transform.String.",
      "published" : "2020-06-17T20:15:00Z",
      "updated" : "2020-11-18T14:44:00Z",
      "affects" : [
        {
          "ref" : "655332ea-7ab3-45e4-969d-9e691061e45a"
        }
      ]
    },
    {
      "bom-ref" : "27477cde-99ad-409a-bbc9-e00e0fa8f786",
      "id" : "CVE-2021-38561",
      "source" : {
        "name" : "NVD",
        "url" : "https://nvd.nist.gov/"
      },
      "ratings" : [
        {
          "source" : {
            "name" : "NVD",
            "url" : "https://nvd.nist.gov/"
          },
          "score" : 7.5,
          "severity" : "high",
          "method" : "CVSSv3",
          "vector" : "CVSS:3.0/AV:N/AC:L/PR:N/UI:N/S:U/C:N/I:N/A:H"
        }
      ],
      "cwes" : [
        125
      ],
      "description" : "golang.org/x/text/language in golang.org/x/text before 0.3.7 can panic with an out-of-bounds read during BCP 47 language tag parsing. Index calculation is mishandled. If parsing untrusted user input, this can be used as a vector for a denial-of-service attack.",
      "published" : "2022-12-26T06:15:00Z",
      "updated" : "2023-01-05T04:52:00Z",
      "affects" : [
        {
          "ref" : "655332ea-7ab3-45e4-969d-9e691061e45a"
        }
      ]
    },
    {
      "bom-ref" : "c90aaf17-f4e1-442c-9516-08764d031478",
      "id" : "CVE-2022-32149",
      "source" : {
        "name" : "NVD",
        "url" : "https://nvd.nist.gov/"
      },
      "ratings" : [
        {
          "source" : {
            "name" : "NVD",
            "url" : "https://nvd.nist.gov/"
          },
          "score" : 7.5,
          "severity" : "high",
          "method" : "CVSSv3",
          "vector" : "CVSS:3.0/AV:N/AC:L/PR:N/UI:N/S:U/C:N/I:N/A:H"
        }
      ],
      "cwes" : [
        772
      ],
      "description" : "An attacker may cause a denial of service by crafting an Accept-Language header which ParseAcceptLanguage will take significant time to parse.",
      "published" : "2022-10-14T15:15:00Z",
      "updated" : "2022-10-18T17:41:00Z",
      "affects" : [
        {
          "ref" : "655332ea-7ab3-45e4-969d-9e691061e45a"
        }
      ]
    }
  ]
}