{
    "bomFormat": "CycloneDX",
    "specVersion": "1.4",
    "serialNumber": "urn:uuid:c3492643-199a-4282-bf6c-d66b59fe0fee",
    "version": 1,
    "metadata": {
        "timestamp": "2023-02-28T07:16:08+00:00",
        "tools": [
            {
                "vendor": "aquasecurity",
                "name": "trivy",
                "version": "0.36.1"
            }
        ],
        "component": {
            "bom-ref": "pkg:oci/busybox@sha256:133c96e963fb798875f6dd48df3fd6e5d474e28b6f90cebef4f49f5b416200db?repository_url=index.docker.io%2Flibrary%2Fbusybox\u0026arch=amd64",
            "type": "container",
            "name": "busybox:unstable-uclibc",
            "purl": "pkg:oci/busybox@sha256:133c96e963fb798875f6dd48df3fd6e5d474e28b6f90cebef4f49f5b416200db?repository_url=index.docker.io%2Flibrary%2Fbusybox\u0026arch=amd64",
            "properties": [
                {
                    "name": "aquasecurity:trivy:SchemaVersion",
                    "value": "2"
                },
                {
                    "name": "aquasecurity:trivy:ImageID",
                    "value": "sha256:501925536cb4c4c9d2602ef3bf6d7464b4eef898d92f07c13ebdff1ee3aabb95"
                },
                {
                    "name": "aquasecurity:trivy:RepoDigest",
                    "value": "busybox@sha256:133c96e963fb798875f6dd48df3fd6e5d474e28b6f90cebef4f49f5b416200db"
                },
                {
                    "name": "aquasecurity:trivy:DiffID",
                    "value": "sha256:ae34ff7e9bd8c1cbec33ea1de76e15b6189d4475addc1e89a9498f6eef6d8764"
                },
                {
                    "name": "aquasecurity:trivy:RepoTag",
                    "value": "busybox:1-uclibc"
                },
                {
                    "name": "aquasecurity:trivy:RepoTag",
                    "value": "busybox:uclibc"
                },
                {
                    "name": "aquasecurity:trivy:RepoTag",
                    "value": "busybox:unstable-uclibc"
                }
            ]
        }
    },
    "components": null,
    "dependencies": [
        {
            "ref": "pkg:oci/busybox@sha256:133c96e963fb798875f6dd48df3fd6e5d474e28b6f90cebef4f49f5b416200db?repository_url=index.docker.io%2Flibrary%2Fbusybox\u0026arch=amd64",
            "dependsOn": null
        }
    ],
    "vulnerabilities": []
}

