{
    "bomFormat": "CycloneDX",
    "specVersion": "1.4",
    "serialNumber": "urn:uuid:25b2d1e8-4907-41d2-abf4-339e4b3b0683",
    "version": 1,
    "metadata": {
        "timestamp": "2023-03-05T14:33:04+00:00",
        "tools": [
            {
                "vendor": "aquasecurity",
                "name": "trivy",
                "version": "0.36.1"
            }
        ],
        "component": {
            "bom-ref": "pkg:oci/httpd@sha256:8363615b26b4a52cd91a8fadd1c20a3ed07148af64a66b5f5988af1be36482fb?repository_url=index.docker.io%2Flibrary%2Fhttpd\u0026arch=amd64",
            "type": "container",
            "name": "httpd:alpine",
            "purl": "pkg:oci/httpd@sha256:8363615b26b4a52cd91a8fadd1c20a3ed07148af64a66b5f5988af1be36482fb?repository_url=index.docker.io%2Flibrary%2Fhttpd\u0026arch=amd64",
            "properties": [
                {
                    "name": "aquasecurity:trivy:SchemaVersion",
                    "value": "2"
                },
                {
                    "name": "aquasecurity:trivy:ImageID",
                    "value": "sha256:2717589de96486e8f3277f070b2299e2f9841601008ab0474224489440a1c98f"
                },
                {
                    "name": "aquasecurity:trivy:RepoDigest",
                    "value": "httpd@sha256:8363615b26b4a52cd91a8fadd1c20a3ed07148af64a66b5f5988af1be36482fb"
                },
                {
                    "name": "aquasecurity:trivy:DiffID",
                    "value": "sha256:7cd52847ad775a5ddc4b58326cf884beee34544296402c6292ed76474c686d39"
                },
                {
                    "name": "aquasecurity:trivy:DiffID",
                    "value": "sha256:e7ef567ce2460ac111c8fac9c292a93d32e247664a72dcad366f63073dd1943a"
                },
                {
                    "name": "aquasecurity:trivy:DiffID",
                    "value": "sha256:22a179a20faf96377d95d91a79e15f50fcea39082a5094955304f49c892327c4"
                },
                {
                    "name": "aquasecurity:trivy:DiffID",
                    "value": "sha256:79fbf90f5eef59036574ebdc36793c1a64a47c9874bef6fa324964fbbb4146ac"
                },
                {
                    "name": "aquasecurity:trivy:DiffID",
                    "value": "sha256:550dc39d0e22cb7ed9d7decf4cec9a7eee9db7cfb922c061072fd031232be17a"
                },
                {
                    "name": "aquasecurity:trivy:DiffID",
                    "value": "sha256:08ef4b119953a4f7f29a46877ebde5ef52f5bb6bc04f351113b0a63955bb301e"
                },
                {
                    "name": "aquasecurity:trivy:RepoTag",
                    "value": "httpd:alpine"
                }
            ]
        }
    },
    "components": [
        {
            "bom-ref": "pkg:apk/alpine/.httpd-so-deps@20230211.094421?distro=3.17.2",
            "type": "library",
            "name": ".httpd-so-deps",
            "version": "20230211.094421",
            "purl": "pkg:apk/alpine/.httpd-so-deps@20230211.094421?distro=3.17.2",
            "properties": [
                {
                    "name": "aquasecurity:trivy:PkgID",
                    "value": ".httpd-so-deps@20230211.094421"
                },
                {
                    "name": "aquasecurity:trivy:PkgType",
                    "value": "alpine"
                },
                {
                    "name": "aquasecurity:trivy:LayerDigest",
                    "value": "sha256:7f67bdc40aa69b594ed41bc4c1428934acab1d44ad89d639b84b48400d74e707"
                },
                {
                    "name": "aquasecurity:trivy:LayerDiffID",
                    "value": "sha256:550dc39d0e22cb7ed9d7decf4cec9a7eee9db7cfb922c061072fd031232be17a"
                }
            ]
        },
        {
            "bom-ref": "pkg:apk/alpine/alpine-baselayout@3.4.0-r0?distro=3.17.2",
            "type": "library",
            "name": "alpine-baselayout",
            "version": "3.4.0-r0",
            "licenses": [
                {
                    "expression": "GPL-2.0"
                }
            ],
            "purl": "pkg:apk/alpine/alpine-baselayout@3.4.0-r0?distro=3.17.2",
            "properties": [
                {
                    "name": "aquasecurity:trivy:PkgID",
                    "value": "alpine-baselayout@3.4.0-r0"
                },
                {
                    "name": "aquasecurity:trivy:PkgType",
                    "value": "alpine"
                },
                {
                    "name": "aquasecurity:trivy:SrcName",
                    "value": "alpine-baselayout"
                },
                {
                    "name": "aquasecurity:trivy:SrcVersion",
                    "value": "3.4.0-r0"
                },
                {
                    "name": "aquasecurity:trivy:LayerDiffID",
                    "value": "sha256:7cd52847ad775a5ddc4b58326cf884beee34544296402c6292ed76474c686d39"
                }
            ]
        },
        {
            "bom-ref": "pkg:apk/alpine/alpine-baselayout-data@3.4.0-r0?distro=3.17.2",
            "type": "library",
            "name": "alpine-baselayout-data",
            "version": "3.4.0-r0",
            "licenses": [
                {
                    "expression": "GPL-2.0"
                }
            ],
            "purl": "pkg:apk/alpine/alpine-baselayout-data@3.4.0-r0?distro=3.17.2",
            "properties": [
                {
                    "name": "aquasecurity:trivy:PkgID",
                    "value": "alpine-baselayout-data@3.4.0-r0"
                },
                {
                    "name": "aquasecurity:trivy:PkgType",
                    "value": "alpine"
                },
                {
                    "name": "aquasecurity:trivy:SrcName",
                    "value": "alpine-baselayout"
                },
                {
                    "name": "aquasecurity:trivy:SrcVersion",
                    "value": "3.4.0-r0"
                },
                {
                    "name": "aquasecurity:trivy:LayerDiffID",
                    "value": "sha256:7cd52847ad775a5ddc4b58326cf884beee34544296402c6292ed76474c686d39"
                }
            ]
        },
        {
            "bom-ref": "pkg:apk/alpine/alpine-keys@2.4-r1?distro=3.17.2",
            "type": "library",
            "name": "alpine-keys",
            "version": "2.4-r1",
            "licenses": [
                {
                    "expression": "MIT"
                }
            ],
            "purl": "pkg:apk/alpine/alpine-keys@2.4-r1?distro=3.17.2",
            "properties": [
                {
                    "name": "aquasecurity:trivy:PkgID",
                    "value": "alpine-keys@2.4-r1"
                },
                {
                    "name": "aquasecurity:trivy:PkgType",
                    "value": "alpine"
                },
                {
                    "name": "aquasecurity:trivy:SrcName",
                    "value": "alpine-keys"
                },
                {
                    "name": "aquasecurity:trivy:SrcVersion",
                    "value": "2.4-r1"
                },
                {
                    "name": "aquasecurity:trivy:LayerDiffID",
                    "value": "sha256:7cd52847ad775a5ddc4b58326cf884beee34544296402c6292ed76474c686d39"
                }
            ]
        },
        {
            "bom-ref": "pkg:apk/alpine/apk-tools@2.12.10-r1?distro=3.17.2",
            "type": "library",
            "name": "apk-tools",
            "version": "2.12.10-r1",
            "licenses": [
                {
                    "expression": "GPL-2.0"
                }
            ],
            "purl": "pkg:apk/alpine/apk-tools@2.12.10-r1?distro=3.17.2",
            "properties": [
                {
                    "name": "aquasecurity:trivy:PkgID",
                    "value": "apk-tools@2.12.10-r1"
                },
                {
                    "name": "aquasecurity:trivy:PkgType",
                    "value": "alpine"
                },
                {
                    "name": "aquasecurity:trivy:SrcName",
                    "value": "apk-tools"
                },
                {
                    "name": "aquasecurity:trivy:SrcVersion",
                    "value": "2.12.10-r1"
                },
                {
                    "name": "aquasecurity:trivy:LayerDiffID",
                    "value": "sha256:7cd52847ad775a5ddc4b58326cf884beee34544296402c6292ed76474c686d39"
                }
            ]
        },
        {
            "bom-ref": "pkg:apk/alpine/apr@1.7.2-r0?distro=3.17.2",
            "type": "library",
            "name": "apr",
            "version": "1.7.2-r0",
            "licenses": [
                {
                    "expression": "Apache-2.0"
                }
            ],
            "purl": "pkg:apk/alpine/apr@1.7.2-r0?distro=3.17.2",
            "properties": [
                {
                    "name": "aquasecurity:trivy:PkgID",
                    "value": "apr@1.7.2-r0"
                },
                {
                    "name": "aquasecurity:trivy:PkgType",
                    "value": "alpine"
                },
                {
                    "name": "aquasecurity:trivy:SrcName",
                    "value": "apr"
                },
                {
                    "name": "aquasecurity:trivy:SrcVersion",
                    "value": "1.7.2-r0"
                },
                {
                    "name": "aquasecurity:trivy:LayerDigest",
                    "value": "sha256:56e6e368b425382c3fc100b05c371fd91cbddc9f4dc53f72b5e971ad11311130"
                },
                {
                    "name": "aquasecurity:trivy:LayerDiffID",
                    "value": "sha256:79fbf90f5eef59036574ebdc36793c1a64a47c9874bef6fa324964fbbb4146ac"
                }
            ]
        },
        {
            "bom-ref": "pkg:apk/alpine/apr-util@1.6.3-r0?distro=3.17.2",
            "type": "library",
            "name": "apr-util",
            "version": "1.6.3-r0",
            "licenses": [
                {
                    "expression": "Apache-2.0"
                }
            ],
            "purl": "pkg:apk/alpine/apr-util@1.6.3-r0?distro=3.17.2",
            "properties": [
                {
                    "name": "aquasecurity:trivy:PkgID",
                    "value": "apr-util@1.6.3-r0"
                },
                {
                    "name": "aquasecurity:trivy:PkgType",
                    "value": "alpine"
                },
                {
                    "name": "aquasecurity:trivy:SrcName",
                    "value": "apr-util"
                },
                {
                    "name": "aquasecurity:trivy:SrcVersion",
                    "value": "1.6.3-r0"
                },
                {
                    "name": "aquasecurity:trivy:LayerDigest",
                    "value": "sha256:56e6e368b425382c3fc100b05c371fd91cbddc9f4dc53f72b5e971ad11311130"
                },
                {
                    "name": "aquasecurity:trivy:LayerDiffID",
                    "value": "sha256:79fbf90f5eef59036574ebdc36793c1a64a47c9874bef6fa324964fbbb4146ac"
                }
            ]
        },
        {
            "bom-ref": "pkg:apk/alpine/apr-util-ldap@1.6.3-r0?distro=3.17.2",
            "type": "library",
            "name": "apr-util-ldap",
            "version": "1.6.3-r0",
            "licenses": [
                {
                    "expression": "Apache-2.0"
                }
            ],
            "purl": "pkg:apk/alpine/apr-util-ldap@1.6.3-r0?distro=3.17.2",
            "properties": [
                {
                    "name": "aquasecurity:trivy:PkgID",
                    "value": "apr-util-ldap@1.6.3-r0"
                },
                {
                    "name": "aquasecurity:trivy:PkgType",
                    "value": "alpine"
                },
                {
                    "name": "aquasecurity:trivy:SrcName",
                    "value": "apr-util"
                },
                {
                    "name": "aquasecurity:trivy:SrcVersion",
                    "value": "1.6.3-r0"
                },
                {
                    "name": "aquasecurity:trivy:LayerDigest",
                    "value": "sha256:56e6e368b425382c3fc100b05c371fd91cbddc9f4dc53f72b5e971ad11311130"
                },
                {
                    "name": "aquasecurity:trivy:LayerDiffID",
                    "value": "sha256:79fbf90f5eef59036574ebdc36793c1a64a47c9874bef6fa324964fbbb4146ac"
                }
            ]
        },
        {
            "bom-ref": "pkg:apk/alpine/brotli-libs@1.0.9-r9?distro=3.17.2",
            "type": "library",
            "name": "brotli-libs",
            "version": "1.0.9-r9",
            "licenses": [
                {
                    "expression": "MIT"
                }
            ],
            "purl": "pkg:apk/alpine/brotli-libs@1.0.9-r9?distro=3.17.2",
            "properties": [
                {
                    "name": "aquasecurity:trivy:PkgID",
                    "value": "brotli-libs@1.0.9-r9"
                },
                {
                    "name": "aquasecurity:trivy:PkgType",
                    "value": "alpine"
                },
                {
                    "name": "aquasecurity:trivy:SrcName",
                    "value": "brotli"
                },
                {
                    "name": "aquasecurity:trivy:SrcVersion",
                    "value": "1.0.9-r9"
                },
                {
                    "name": "aquasecurity:trivy:LayerDigest",
                    "value": "sha256:7f67bdc40aa69b594ed41bc4c1428934acab1d44ad89d639b84b48400d74e707"
                },
                {
                    "name": "aquasecurity:trivy:LayerDiffID",
                    "value": "sha256:550dc39d0e22cb7ed9d7decf4cec9a7eee9db7cfb922c061072fd031232be17a"
                }
            ]
        },
        {
            "bom-ref": "pkg:apk/alpine/busybox@1.35.0-r29?distro=3.17.2",
            "type": "library",
            "name": "busybox",
            "version": "1.35.0-r29",
            "licenses": [
                {
                    "expression": "GPL-2.0"
                }
            ],
            "purl": "pkg:apk/alpine/busybox@1.35.0-r29?distro=3.17.2",
            "properties": [
                {
                    "name": "aquasecurity:trivy:PkgID",
                    "value": "busybox@1.35.0-r29"
                },
                {
                    "name": "aquasecurity:trivy:PkgType",
                    "value": "alpine"
                },
                {
                    "name": "aquasecurity:trivy:SrcName",
                    "value": "busybox"
                },
                {
                    "name": "aquasecurity:trivy:SrcVersion",
                    "value": "1.35.0-r29"
                },
                {
                    "name": "aquasecurity:trivy:LayerDiffID",
                    "value": "sha256:7cd52847ad775a5ddc4b58326cf884beee34544296402c6292ed76474c686d39"
                }
            ]
        },
        {
            "bom-ref": "pkg:apk/alpine/busybox-binsh@1.35.0-r29?distro=3.17.2",
            "type": "library",
            "name": "busybox-binsh",
            "version": "1.35.0-r29",
            "licenses": [
                {
                    "expression": "GPL-2.0"
                }
            ],
            "purl": "pkg:apk/alpine/busybox-binsh@1.35.0-r29?distro=3.17.2",
            "properties": [
                {
                    "name": "aquasecurity:trivy:PkgID",
                    "value": "busybox-binsh@1.35.0-r29"
                },
                {
                    "name": "aquasecurity:trivy:PkgType",
                    "value": "alpine"
                },
                {
                    "name": "aquasecurity:trivy:SrcName",
                    "value": "busybox"
                },
                {
                    "name": "aquasecurity:trivy:SrcVersion",
                    "value": "1.35.0-r29"
                },
                {
                    "name": "aquasecurity:trivy:LayerDiffID",
                    "value": "sha256:7cd52847ad775a5ddc4b58326cf884beee34544296402c6292ed76474c686d39"
                }
            ]
        },
        {
            "bom-ref": "pkg:apk/alpine/ca-certificates@20220614-r4?distro=3.17.2",
            "type": "library",
            "name": "ca-certificates",
            "version": "20220614-r4",
            "licenses": [
                {
                    "expression": "MPL-2.0"
                },
                {
                    "expression": "MIT"
                }
            ],
            "purl": "pkg:apk/alpine/ca-certificates@20220614-r4?distro=3.17.2",
            "properties": [
                {
                    "name": "aquasecurity:trivy:PkgID",
                    "value": "ca-certificates@20220614-r4"
                },
                {
                    "name": "aquasecurity:trivy:PkgType",
                    "value": "alpine"
                },
                {
                    "name": "aquasecurity:trivy:SrcName",
                    "value": "ca-certificates"
                },
                {
                    "name": "aquasecurity:trivy:SrcVersion",
                    "value": "20220614-r4"
                },
                {
                    "name": "aquasecurity:trivy:LayerDigest",
                    "value": "sha256:56e6e368b425382c3fc100b05c371fd91cbddc9f4dc53f72b5e971ad11311130"
                },
                {
                    "name": "aquasecurity:trivy:LayerDiffID",
                    "value": "sha256:79fbf90f5eef59036574ebdc36793c1a64a47c9874bef6fa324964fbbb4146ac"
                }
            ]
        },
        {
            "bom-ref": "pkg:apk/alpine/ca-certificates-bundle@20220614-r4?distro=3.17.2",
            "type": "library",
            "name": "ca-certificates-bundle",
            "version": "20220614-r4",
            "licenses": [
                {
                    "expression": "MPL-2.0"
                },
                {
                    "expression": "MIT"
                }
            ],
            "purl": "pkg:apk/alpine/ca-certificates-bundle@20220614-r4?distro=3.17.2",
            "properties": [
                {
                    "name": "aquasecurity:trivy:PkgID",
                    "value": "ca-certificates-bundle@20220614-r4"
                },
                {
                    "name": "aquasecurity:trivy:PkgType",
                    "value": "alpine"
                },
                {
                    "name": "aquasecurity:trivy:SrcName",
                    "value": "ca-certificates"
                },
                {
                    "name": "aquasecurity:trivy:SrcVersion",
                    "value": "20220614-r4"
                },
                {
                    "name": "aquasecurity:trivy:LayerDiffID",
                    "value": "sha256:7cd52847ad775a5ddc4b58326cf884beee34544296402c6292ed76474c686d39"
                }
            ]
        },
        {
            "bom-ref": "pkg:apk/alpine/gdbm@1.23-r0?distro=3.17.2",
            "type": "library",
            "name": "gdbm",
            "version": "1.23-r0",
            "licenses": [
                {
                    "expression": "GPL-3.0"
                }
            ],
            "purl": "pkg:apk/alpine/gdbm@1.23-r0?distro=3.17.2",
            "properties": [
                {
                    "name": "aquasecurity:trivy:PkgID",
                    "value": "gdbm@1.23-r0"
                },
                {
                    "name": "aquasecurity:trivy:PkgType",
                    "value": "alpine"
                },
                {
                    "name": "aquasecurity:trivy:SrcName",
                    "value": "gdbm"
                },
                {
                    "name": "aquasecurity:trivy:SrcVersion",
                    "value": "1.23-r0"
                },
                {
                    "name": "aquasecurity:trivy:LayerDigest",
                    "value": "sha256:56e6e368b425382c3fc100b05c371fd91cbddc9f4dc53f72b5e971ad11311130"
                },
                {
                    "name": "aquasecurity:trivy:LayerDiffID",
                    "value": "sha256:79fbf90f5eef59036574ebdc36793c1a64a47c9874bef6fa324964fbbb4146ac"
                }
            ]
        },
        {
            "bom-ref": "pkg:apk/alpine/jansson@2.14-r0?distro=3.17.2",
            "type": "library",
            "name": "jansson",
            "version": "2.14-r0",
            "licenses": [
                {
                    "expression": "MIT"
                }
            ],
            "purl": "pkg:apk/alpine/jansson@2.14-r0?distro=3.17.2",
            "properties": [
                {
                    "name": "aquasecurity:trivy:PkgID",
                    "value": "jansson@2.14-r0"
                },
                {
                    "name": "aquasecurity:trivy:PkgType",
                    "value": "alpine"
                },
                {
                    "name": "aquasecurity:trivy:SrcName",
                    "value": "jansson"
                },
                {
                    "name": "aquasecurity:trivy:SrcVersion",
                    "value": "2.14-r0"
                },
                {
                    "name": "aquasecurity:trivy:LayerDigest",
                    "value": "sha256:7f67bdc40aa69b594ed41bc4c1428934acab1d44ad89d639b84b48400d74e707"
                },
                {
                    "name": "aquasecurity:trivy:LayerDiffID",
                    "value": "sha256:550dc39d0e22cb7ed9d7decf4cec9a7eee9db7cfb922c061072fd031232be17a"
                }
            ]
        },
        {
            "bom-ref": "pkg:apk/alpine/libbz2@1.0.8-r4?distro=3.17.2",
            "type": "library",
            "name": "libbz2",
            "version": "1.0.8-r4",
            "licenses": [
                {
                    "expression": "bzip2-1.0.6"
                }
            ],
            "purl": "pkg:apk/alpine/libbz2@1.0.8-r4?distro=3.17.2",
            "properties": [
                {
                    "name": "aquasecurity:trivy:PkgID",
                    "value": "libbz2@1.0.8-r4"
                },
                {
                    "name": "aquasecurity:trivy:PkgType",
                    "value": "alpine"
                },
                {
                    "name": "aquasecurity:trivy:SrcName",
                    "value": "bzip2"
                },
                {
                    "name": "aquasecurity:trivy:SrcVersion",
                    "value": "1.0.8-r4"
                },
                {
                    "name": "aquasecurity:trivy:LayerDigest",
                    "value": "sha256:56e6e368b425382c3fc100b05c371fd91cbddc9f4dc53f72b5e971ad11311130"
                },
                {
                    "name": "aquasecurity:trivy:LayerDiffID",
                    "value": "sha256:79fbf90f5eef59036574ebdc36793c1a64a47c9874bef6fa324964fbbb4146ac"
                }
            ]
        },
        {
            "bom-ref": "pkg:apk/alpine/libc-utils@0.7.2-r3?distro=3.17.2",
            "type": "library",
            "name": "libc-utils",
            "version": "0.7.2-r3",
            "licenses": [
                {
                    "expression": "BSD-2-Clause"
                },
                {
                    "expression": "BSD-3-Clause"
                }
            ],
            "purl": "pkg:apk/alpine/libc-utils@0.7.2-r3?distro=3.17.2",
            "properties": [
                {
                    "name": "aquasecurity:trivy:PkgID",
                    "value": "libc-utils@0.7.2-r3"
                },
                {
                    "name": "aquasecurity:trivy:PkgType",
                    "value": "alpine"
                },
                {
                    "name": "aquasecurity:trivy:SrcName",
                    "value": "libc-dev"
                },
                {
                    "name": "aquasecurity:trivy:SrcVersion",
                    "value": "0.7.2-r3"
                },
                {
                    "name": "aquasecurity:trivy:LayerDiffID",
                    "value": "sha256:7cd52847ad775a5ddc4b58326cf884beee34544296402c6292ed76474c686d39"
                }
            ]
        },
        {
            "bom-ref": "pkg:apk/alpine/libcrypto3@3.0.8-r0?distro=3.17.2",
            "type": "library",
            "name": "libcrypto3",
            "version": "3.0.8-r0",
            "licenses": [
                {
                    "expression": "Apache-2.0"
                }
            ],
            "purl": "pkg:apk/alpine/libcrypto3@3.0.8-r0?distro=3.17.2",
            "properties": [
                {
                    "name": "aquasecurity:trivy:PkgID",
                    "value": "libcrypto3@3.0.8-r0"
                },
                {
                    "name": "aquasecurity:trivy:PkgType",
                    "value": "alpine"
                },
                {
                    "name": "aquasecurity:trivy:SrcName",
                    "value": "openssl"
                },
                {
                    "name": "aquasecurity:trivy:SrcVersion",
                    "value": "3.0.8-r0"
                },
                {
                    "name": "aquasecurity:trivy:LayerDiffID",
                    "value": "sha256:7cd52847ad775a5ddc4b58326cf884beee34544296402c6292ed76474c686d39"
                }
            ]
        },
        {
            "bom-ref": "pkg:apk/alpine/libcurl@7.87.0-r1?distro=3.17.2",
            "type": "library",
            "name": "libcurl",
            "version": "7.87.0-r1",
            "licenses": [
                {
                    "expression": "curl"
                }
            ],
            "purl": "pkg:apk/alpine/libcurl@7.87.0-r1?distro=3.17.2",
            "properties": [
                {
                    "name": "aquasecurity:trivy:PkgID",
                    "value": "libcurl@7.87.0-r1"
                },
                {
                    "name": "aquasecurity:trivy:PkgType",
                    "value": "alpine"
                },
                {
                    "name": "aquasecurity:trivy:SrcName",
                    "value": "curl"
                },
                {
                    "name": "aquasecurity:trivy:SrcVersion",
                    "value": "7.87.0-r1"
                },
                {
                    "name": "aquasecurity:trivy:LayerDigest",
                    "value": "sha256:7f67bdc40aa69b594ed41bc4c1428934acab1d44ad89d639b84b48400d74e707"
                },
                {
                    "name": "aquasecurity:trivy:LayerDiffID",
                    "value": "sha256:550dc39d0e22cb7ed9d7decf4cec9a7eee9db7cfb922c061072fd031232be17a"
                }
            ]
        },
        {
            "bom-ref": "pkg:apk/alpine/libexpat@2.5.0-r0?distro=3.17.2",
            "type": "library",
            "name": "libexpat",
            "version": "2.5.0-r0",
            "licenses": [
                {
                    "expression": "MIT"
                }
            ],
            "purl": "pkg:apk/alpine/libexpat@2.5.0-r0?distro=3.17.2",
            "properties": [
                {
                    "name": "aquasecurity:trivy:PkgID",
                    "value": "libexpat@2.5.0-r0"
                },
                {
                    "name": "aquasecurity:trivy:PkgType",
                    "value": "alpine"
                },
                {
                    "name": "aquasecurity:trivy:SrcName",
                    "value": "expat"
                },
                {
                    "name": "aquasecurity:trivy:SrcVersion",
                    "value": "2.5.0-r0"
                },
                {
                    "name": "aquasecurity:trivy:LayerDigest",
                    "value": "sha256:56e6e368b425382c3fc100b05c371fd91cbddc9f4dc53f72b5e971ad11311130"
                },
                {
                    "name": "aquasecurity:trivy:LayerDiffID",
                    "value": "sha256:79fbf90f5eef59036574ebdc36793c1a64a47c9874bef6fa324964fbbb4146ac"
                }
            ]
        },
        {
            "bom-ref": "pkg:apk/alpine/libldap@2.6.3-r6?distro=3.17.2",
            "type": "library",
            "name": "libldap",
            "version": "2.6.3-r6",
            "licenses": [
                {
                    "expression": "OLDAP-2.8"
                }
            ],
            "purl": "pkg:apk/alpine/libldap@2.6.3-r6?distro=3.17.2",
            "properties": [
                {
                    "name": "aquasecurity:trivy:PkgID",
                    "value": "libldap@2.6.3-r6"
                },
                {
                    "name": "aquasecurity:trivy:PkgType",
                    "value": "alpine"
                },
                {
                    "name": "aquasecurity:trivy:SrcName",
                    "value": "openldap"
                },
                {
                    "name": "aquasecurity:trivy:SrcVersion",
                    "value": "2.6.3-r6"
                },
                {
                    "name": "aquasecurity:trivy:LayerDigest",
                    "value": "sha256:56e6e368b425382c3fc100b05c371fd91cbddc9f4dc53f72b5e971ad11311130"
                },
                {
                    "name": "aquasecurity:trivy:LayerDiffID",
                    "value": "sha256:79fbf90f5eef59036574ebdc36793c1a64a47c9874bef6fa324964fbbb4146ac"
                }
            ]
        },
        {
            "bom-ref": "pkg:apk/alpine/libsasl@2.1.28-r3?distro=3.17.2",
            "type": "library",
            "name": "libsasl",
            "version": "2.1.28-r3",
            "licenses": [
                {
                    "expression": "custom"
                }
            ],
            "purl": "pkg:apk/alpine/libsasl@2.1.28-r3?distro=3.17.2",
            "properties": [
                {
                    "name": "aquasecurity:trivy:PkgID",
                    "value": "libsasl@2.1.28-r3"
                },
                {
                    "name": "aquasecurity:trivy:PkgType",
                    "value": "alpine"
                },
                {
                    "name": "aquasecurity:trivy:SrcName",
                    "value": "cyrus-sasl"
                },
                {
                    "name": "aquasecurity:trivy:SrcVersion",
                    "value": "2.1.28-r3"
                },
                {
                    "name": "aquasecurity:trivy:LayerDigest",
                    "value": "sha256:56e6e368b425382c3fc100b05c371fd91cbddc9f4dc53f72b5e971ad11311130"
                },
                {
                    "name": "aquasecurity:trivy:LayerDiffID",
                    "value": "sha256:79fbf90f5eef59036574ebdc36793c1a64a47c9874bef6fa324964fbbb4146ac"
                }
            ]
        },
        {
            "bom-ref": "pkg:apk/alpine/libssl3@3.0.8-r0?distro=3.17.2",
            "type": "library",
            "name": "libssl3",
            "version": "3.0.8-r0",
            "licenses": [
                {
                    "expression": "Apache-2.0"
                }
            ],
            "purl": "pkg:apk/alpine/libssl3@3.0.8-r0?distro=3.17.2",
            "properties": [
                {
                    "name": "aquasecurity:trivy:PkgID",
                    "value": "libssl3@3.0.8-r0"
                },
                {
                    "name": "aquasecurity:trivy:PkgType",
                    "value": "alpine"
                },
                {
                    "name": "aquasecurity:trivy:SrcName",
                    "value": "openssl"
                },
                {
                    "name": "aquasecurity:trivy:SrcVersion",
                    "value": "3.0.8-r0"
                },
                {
                    "name": "aquasecurity:trivy:LayerDiffID",
                    "value": "sha256:7cd52847ad775a5ddc4b58326cf884beee34544296402c6292ed76474c686d39"
                }
            ]
        },
        {
            "bom-ref": "pkg:apk/alpine/libuuid@2.38.1-r1?distro=3.17.2",
            "type": "library",
            "name": "libuuid",
            "version": "2.38.1-r1",
            "licenses": [
                {
                    "expression": "BSD-3-Clause"
                }
            ],
            "purl": "pkg:apk/alpine/libuuid@2.38.1-r1?distro=3.17.2",
            "properties": [
                {
                    "name": "aquasecurity:trivy:PkgID",
                    "value": "libuuid@2.38.1-r1"
                },
                {
                    "name": "aquasecurity:trivy:PkgType",
                    "value": "alpine"
                },
                {
                    "name": "aquasecurity:trivy:SrcName",
                    "value": "util-linux"
                },
                {
                    "name": "aquasecurity:trivy:SrcVersion",
                    "value": "2.38.1-r1"
                },
                {
                    "name": "aquasecurity:trivy:LayerDigest",
                    "value": "sha256:56e6e368b425382c3fc100b05c371fd91cbddc9f4dc53f72b5e971ad11311130"
                },
                {
                    "name": "aquasecurity:trivy:LayerDiffID",
                    "value": "sha256:79fbf90f5eef59036574ebdc36793c1a64a47c9874bef6fa324964fbbb4146ac"
                }
            ]
        },
        {
            "bom-ref": "pkg:apk/alpine/libxml2@2.10.3-r1?distro=3.17.2",
            "type": "library",
            "name": "libxml2",
            "version": "2.10.3-r1",
            "licenses": [
                {
                    "expression": "MIT"
                }
            ],
            "purl": "pkg:apk/alpine/libxml2@2.10.3-r1?distro=3.17.2",
            "properties": [
                {
                    "name": "aquasecurity:trivy:PkgID",
                    "value": "libxml2@2.10.3-r1"
                },
                {
                    "name": "aquasecurity:trivy:PkgType",
                    "value": "alpine"
                },
                {
                    "name": "aquasecurity:trivy:SrcName",
                    "value": "libxml2"
                },
                {
                    "name": "aquasecurity:trivy:SrcVersion",
                    "value": "2.10.3-r1"
                },
                {
                    "name": "aquasecurity:trivy:LayerDigest",
                    "value": "sha256:7f67bdc40aa69b594ed41bc4c1428934acab1d44ad89d639b84b48400d74e707"
                },
                {
                    "name": "aquasecurity:trivy:LayerDiffID",
                    "value": "sha256:550dc39d0e22cb7ed9d7decf4cec9a7eee9db7cfb922c061072fd031232be17a"
                }
            ]
        },
        {
            "bom-ref": "pkg:apk/alpine/lua5.1-libs@5.1.5-r11?distro=3.17.2",
            "type": "library",
            "name": "lua5.1-libs",
            "version": "5.1.5-r11",
            "licenses": [
                {
                    "expression": "MIT"
                }
            ],
            "purl": "pkg:apk/alpine/lua5.1-libs@5.1.5-r11?distro=3.17.2",
            "properties": [
                {
                    "name": "aquasecurity:trivy:PkgID",
                    "value": "lua5.1-libs@5.1.5-r11"
                },
                {
                    "name": "aquasecurity:trivy:PkgType",
                    "value": "alpine"
                },
                {
                    "name": "aquasecurity:trivy:SrcName",
                    "value": "lua5.1"
                },
                {
                    "name": "aquasecurity:trivy:SrcVersion",
                    "value": "5.1.5-r11"
                },
                {
                    "name": "aquasecurity:trivy:LayerDigest",
                    "value": "sha256:7f67bdc40aa69b594ed41bc4c1428934acab1d44ad89d639b84b48400d74e707"
                },
                {
                    "name": "aquasecurity:trivy:LayerDiffID",
                    "value": "sha256:550dc39d0e22cb7ed9d7decf4cec9a7eee9db7cfb922c061072fd031232be17a"
                }
            ]
        },
        {
            "bom-ref": "pkg:apk/alpine/musl@1.2.3-r4?distro=3.17.2",
            "type": "library",
            "name": "musl",
            "version": "1.2.3-r4",
            "licenses": [
                {
                    "expression": "MIT"
                }
            ],
            "purl": "pkg:apk/alpine/musl@1.2.3-r4?distro=3.17.2",
            "properties": [
                {
                    "name": "aquasecurity:trivy:PkgID",
                    "value": "musl@1.2.3-r4"
                },
                {
                    "name": "aquasecurity:trivy:PkgType",
                    "value": "alpine"
                },
                {
                    "name": "aquasecurity:trivy:SrcName",
                    "value": "musl"
                },
                {
                    "name": "aquasecurity:trivy:SrcVersion",
                    "value": "1.2.3-r4"
                },
                {
                    "name": "aquasecurity:trivy:LayerDiffID",
                    "value": "sha256:7cd52847ad775a5ddc4b58326cf884beee34544296402c6292ed76474c686d39"
                }
            ]
        },
        {
            "bom-ref": "pkg:apk/alpine/musl-utils@1.2.3-r4?distro=3.17.2",
            "type": "library",
            "name": "musl-utils",
            "version": "1.2.3-r4",
            "licenses": [
                {
                    "expression": "MIT"
                },
                {
                    "expression": "BSD-2-Clause"
                },
                {
                    "expression": "GPL-2.0"
                }
            ],
            "purl": "pkg:apk/alpine/musl-utils@1.2.3-r4?distro=3.17.2",
            "properties": [
                {
                    "name": "aquasecurity:trivy:PkgID",
                    "value": "musl-utils@1.2.3-r4"
                },
                {
                    "name": "aquasecurity:trivy:PkgType",
                    "value": "alpine"
                },
                {
                    "name": "aquasecurity:trivy:SrcName",
                    "value": "musl"
                },
                {
                    "name": "aquasecurity:trivy:SrcVersion",
                    "value": "1.2.3-r4"
                },
                {
                    "name": "aquasecurity:trivy:LayerDiffID",
                    "value": "sha256:7cd52847ad775a5ddc4b58326cf884beee34544296402c6292ed76474c686d39"
                }
            ]
        },
        {
            "bom-ref": "pkg:apk/alpine/nghttp2-libs@1.51.0-r0?distro=3.17.2",
            "type": "library",
            "name": "nghttp2-libs",
            "version": "1.51.0-r0",
            "licenses": [
                {
                    "expression": "MIT"
                }
            ],
            "purl": "pkg:apk/alpine/nghttp2-libs@1.51.0-r0?distro=3.17.2",
            "properties": [
                {
                    "name": "aquasecurity:trivy:PkgID",
                    "value": "nghttp2-libs@1.51.0-r0"
                },
                {
                    "name": "aquasecurity:trivy:PkgType",
                    "value": "alpine"
                },
                {
                    "name": "aquasecurity:trivy:SrcName",
                    "value": "nghttp2"
                },
                {
                    "name": "aquasecurity:trivy:SrcVersion",
                    "value": "1.51.0-r0"
                },
                {
                    "name": "aquasecurity:trivy:LayerDigest",
                    "value": "sha256:7f67bdc40aa69b594ed41bc4c1428934acab1d44ad89d639b84b48400d74e707"
                },
                {
                    "name": "aquasecurity:trivy:LayerDiffID",
                    "value": "sha256:550dc39d0e22cb7ed9d7decf4cec9a7eee9db7cfb922c061072fd031232be17a"
                }
            ]
        },
        {
            "bom-ref": "pkg:apk/alpine/pcre@8.45-r2?distro=3.17.2",
            "type": "library",
            "name": "pcre",
            "version": "8.45-r2",
            "licenses": [
                {
                    "expression": "BSD-3-Clause"
                }
            ],
            "purl": "pkg:apk/alpine/pcre@8.45-r2?distro=3.17.2",
            "properties": [
                {
                    "name": "aquasecurity:trivy:PkgID",
                    "value": "pcre@8.45-r2"
                },
                {
                    "name": "aquasecurity:trivy:PkgType",
                    "value": "alpine"
                },
                {
                    "name": "aquasecurity:trivy:SrcName",
                    "value": "pcre"
                },
                {
                    "name": "aquasecurity:trivy:SrcVersion",
                    "value": "8.45-r2"
                },
                {
                    "name": "aquasecurity:trivy:LayerDigest",
                    "value": "sha256:7f67bdc40aa69b594ed41bc4c1428934acab1d44ad89d639b84b48400d74e707"
                },
                {
                    "name": "aquasecurity:trivy:LayerDiffID",
                    "value": "sha256:550dc39d0e22cb7ed9d7decf4cec9a7eee9db7cfb922c061072fd031232be17a"
                }
            ]
        },
        {
            "bom-ref": "pkg:apk/alpine/perl@5.36.0-r0?distro=3.17.2",
            "type": "library",
            "name": "perl",
            "version": "5.36.0-r0",
            "licenses": [
                {
                    "expression": "Artistic-Perl"
                },
                {
                    "expression": "GPL-1.0-or-later"
                }
            ],
            "purl": "pkg:apk/alpine/perl@5.36.0-r0?distro=3.17.2",
            "properties": [
                {
                    "name": "aquasecurity:trivy:PkgID",
                    "value": "perl@5.36.0-r0"
                },
                {
                    "name": "aquasecurity:trivy:PkgType",
                    "value": "alpine"
                },
                {
                    "name": "aquasecurity:trivy:SrcName",
                    "value": "perl"
                },
                {
                    "name": "aquasecurity:trivy:SrcVersion",
                    "value": "5.36.0-r0"
                },
                {
                    "name": "aquasecurity:trivy:LayerDigest",
                    "value": "sha256:56e6e368b425382c3fc100b05c371fd91cbddc9f4dc53f72b5e971ad11311130"
                },
                {
                    "name": "aquasecurity:trivy:LayerDiffID",
                    "value": "sha256:79fbf90f5eef59036574ebdc36793c1a64a47c9874bef6fa324964fbbb4146ac"
                }
            ]
        },
        {
            "bom-ref": "pkg:apk/alpine/scanelf@1.3.5-r1?distro=3.17.2",
            "type": "library",
            "name": "scanelf",
            "version": "1.3.5-r1",
            "licenses": [
                {
                    "expression": "GPL-2.0"
                }
            ],
            "purl": "pkg:apk/alpine/scanelf@1.3.5-r1?distro=3.17.2",
            "properties": [
                {
                    "name": "aquasecurity:trivy:PkgID",
                    "value": "scanelf@1.3.5-r1"
                },
                {
                    "name": "aquasecurity:trivy:PkgType",
                    "value": "alpine"
                },
                {
                    "name": "aquasecurity:trivy:SrcName",
                    "value": "pax-utils"
                },
                {
                    "name": "aquasecurity:trivy:SrcVersion",
                    "value": "1.3.5-r1"
                },
                {
                    "name": "aquasecurity:trivy:LayerDiffID",
                    "value": "sha256:7cd52847ad775a5ddc4b58326cf884beee34544296402c6292ed76474c686d39"
                }
            ]
        },
        {
            "bom-ref": "pkg:apk/alpine/ssl_client@1.35.0-r29?distro=3.17.2",
            "type": "library",
            "name": "ssl_client",
            "version": "1.35.0-r29",
            "licenses": [
                {
                    "expression": "GPL-2.0"
                }
            ],
            "purl": "pkg:apk/alpine/ssl_client@1.35.0-r29?distro=3.17.2",
            "properties": [
                {
                    "name": "aquasecurity:trivy:PkgID",
                    "value": "ssl_client@1.35.0-r29"
                },
                {
                    "name": "aquasecurity:trivy:PkgType",
                    "value": "alpine"
                },
                {
                    "name": "aquasecurity:trivy:SrcName",
                    "value": "busybox"
                },
                {
                    "name": "aquasecurity:trivy:SrcVersion",
                    "value": "1.35.0-r29"
                },
                {
                    "name": "aquasecurity:trivy:LayerDiffID",
                    "value": "sha256:7cd52847ad775a5ddc4b58326cf884beee34544296402c6292ed76474c686d39"
                }
            ]
        },
        {
            "bom-ref": "pkg:apk/alpine/xz-libs@5.2.9-r0?distro=3.17.2",
            "type": "library",
            "name": "xz-libs",
            "version": "5.2.9-r0",
            "licenses": [
                {
                    "expression": "GPL-2.0"
                },
                {
                    "expression": "Public-Domain"
                },
                {
                    "expression": "LGPL-2.1-or-later"
                }
            ],
            "purl": "pkg:apk/alpine/xz-libs@5.2.9-r0?distro=3.17.2",
            "properties": [
                {
                    "name": "aquasecurity:trivy:PkgID",
                    "value": "xz-libs@5.2.9-r0"
                },
                {
                    "name": "aquasecurity:trivy:PkgType",
                    "value": "alpine"
                },
                {
                    "name": "aquasecurity:trivy:SrcName",
                    "value": "xz"
                },
                {
                    "name": "aquasecurity:trivy:SrcVersion",
                    "value": "5.2.9-r0"
                },
                {
                    "name": "aquasecurity:trivy:LayerDigest",
                    "value": "sha256:7f67bdc40aa69b594ed41bc4c1428934acab1d44ad89d639b84b48400d74e707"
                },
                {
                    "name": "aquasecurity:trivy:LayerDiffID",
                    "value": "sha256:550dc39d0e22cb7ed9d7decf4cec9a7eee9db7cfb922c061072fd031232be17a"
                }
            ]
        },
        {
            "bom-ref": "pkg:apk/alpine/zlib@1.2.13-r0?distro=3.17.2",
            "type": "library",
            "name": "zlib",
            "version": "1.2.13-r0",
            "licenses": [
                {
                    "expression": "Zlib"
                }
            ],
            "purl": "pkg:apk/alpine/zlib@1.2.13-r0?distro=3.17.2",
            "properties": [
                {
                    "name": "aquasecurity:trivy:PkgID",
                    "value": "zlib@1.2.13-r0"
                },
                {
                    "name": "aquasecurity:trivy:PkgType",
                    "value": "alpine"
                },
                {
                    "name": "aquasecurity:trivy:SrcName",
                    "value": "zlib"
                },
                {
                    "name": "aquasecurity:trivy:SrcVersion",
                    "value": "1.2.13-r0"
                },
                {
                    "name": "aquasecurity:trivy:LayerDiffID",
                    "value": "sha256:7cd52847ad775a5ddc4b58326cf884beee34544296402c6292ed76474c686d39"
                }
            ]
        },
        {
            "bom-ref": "8309b927-cd93-4285-9f42-a592dc4619a6",
            "type": "operating-system",
            "name": "alpine",
            "version": "3.17.2",
            "properties": [
                {
                    "name": "aquasecurity:trivy:Type",
                    "value": "alpine"
                },
                {
                    "name": "aquasecurity:trivy:Class",
                    "value": "os-pkgs"
                }
            ]
        }
    ],
    "dependencies": [
        {
            "ref": "8309b927-cd93-4285-9f42-a592dc4619a6",
            "dependsOn": [
                "pkg:apk/alpine/.httpd-so-deps@20230211.094421?distro=3.17.2",
                "pkg:apk/alpine/alpine-baselayout@3.4.0-r0?distro=3.17.2",
                "pkg:apk/alpine/alpine-baselayout-data@3.4.0-r0?distro=3.17.2",
                "pkg:apk/alpine/alpine-keys@2.4-r1?distro=3.17.2",
                "pkg:apk/alpine/apk-tools@2.12.10-r1?distro=3.17.2",
                "pkg:apk/alpine/apr@1.7.2-r0?distro=3.17.2",
                "pkg:apk/alpine/apr-util@1.6.3-r0?distro=3.17.2",
                "pkg:apk/alpine/apr-util-ldap@1.6.3-r0?distro=3.17.2",
                "pkg:apk/alpine/brotli-libs@1.0.9-r9?distro=3.17.2",
                "pkg:apk/alpine/busybox@1.35.0-r29?distro=3.17.2",
                "pkg:apk/alpine/busybox-binsh@1.35.0-r29?distro=3.17.2",
                "pkg:apk/alpine/ca-certificates@20220614-r4?distro=3.17.2",
                "pkg:apk/alpine/ca-certificates-bundle@20220614-r4?distro=3.17.2",
                "pkg:apk/alpine/gdbm@1.23-r0?distro=3.17.2",
                "pkg:apk/alpine/jansson@2.14-r0?distro=3.17.2",
                "pkg:apk/alpine/libbz2@1.0.8-r4?distro=3.17.2",
                "pkg:apk/alpine/libc-utils@0.7.2-r3?distro=3.17.2",
                "pkg:apk/alpine/libcrypto3@3.0.8-r0?distro=3.17.2",
                "pkg:apk/alpine/libcurl@7.87.0-r1?distro=3.17.2",
                "pkg:apk/alpine/libexpat@2.5.0-r0?distro=3.17.2",
                "pkg:apk/alpine/libldap@2.6.3-r6?distro=3.17.2",
                "pkg:apk/alpine/libsasl@2.1.28-r3?distro=3.17.2",
                "pkg:apk/alpine/libssl3@3.0.8-r0?distro=3.17.2",
                "pkg:apk/alpine/libuuid@2.38.1-r1?distro=3.17.2",
                "pkg:apk/alpine/libxml2@2.10.3-r1?distro=3.17.2",
                "pkg:apk/alpine/lua5.1-libs@5.1.5-r11?distro=3.17.2",
                "pkg:apk/alpine/musl@1.2.3-r4?distro=3.17.2",
                "pkg:apk/alpine/musl-utils@1.2.3-r4?distro=3.17.2",
                "pkg:apk/alpine/nghttp2-libs@1.51.0-r0?distro=3.17.2",
                "pkg:apk/alpine/pcre@8.45-r2?distro=3.17.2",
                "pkg:apk/alpine/perl@5.36.0-r0?distro=3.17.2",
                "pkg:apk/alpine/scanelf@1.3.5-r1?distro=3.17.2",
                "pkg:apk/alpine/ssl_client@1.35.0-r29?distro=3.17.2",
                "pkg:apk/alpine/xz-libs@5.2.9-r0?distro=3.17.2",
                "pkg:apk/alpine/zlib@1.2.13-r0?distro=3.17.2"
            ]
        },
        {
            "ref": "pkg:oci/httpd@sha256:8363615b26b4a52cd91a8fadd1c20a3ed07148af64a66b5f5988af1be36482fb?repository_url=index.docker.io%2Flibrary%2Fhttpd\u0026arch=amd64",
            "dependsOn": [
                "8309b927-cd93-4285-9f42-a592dc4619a6"
            ]
        }
    ],
    "vulnerabilities": []
}

