{
    "bomFormat": "CycloneDX",
    "specVersion": "1.4",
    "serialNumber": "urn:uuid:2ffd99b5-a3ec-45da-ac3f-179d1f953de0",
    "version": 1,
    "metadata": {
        "timestamp": "2023-03-06T05:39:58+00:00",
        "tools": [
            {
                "vendor": "aquasecurity",
                "name": "trivy",
                "version": "0.36.1"
            }
        ],
        "component": {
            "bom-ref": "pkg:oci/irssi@sha256:cecc161781c1ea3b4d5b0f5b0a97a1562cb3bcf6da43cbf399463dadb3c4f331?repository_url=index.docker.io%2Flibrary%2Firssi\u0026arch=amd64",
            "type": "container",
            "name": "irssi:1-alpine",
            "purl": "pkg:oci/irssi@sha256:cecc161781c1ea3b4d5b0f5b0a97a1562cb3bcf6da43cbf399463dadb3c4f331?repository_url=index.docker.io%2Flibrary%2Firssi\u0026arch=amd64",
            "properties": [
                {
                    "name": "aquasecurity:trivy:SchemaVersion",
                    "value": "2"
                },
                {
                    "name": "aquasecurity:trivy:ImageID",
                    "value": "sha256:de3b5216db23e966343a70e9dd1da1b5a8b118d6a09e50d117078603fbcc43ce"
                },
                {
                    "name": "aquasecurity:trivy:RepoDigest",
                    "value": "irssi@sha256:cecc161781c1ea3b4d5b0f5b0a97a1562cb3bcf6da43cbf399463dadb3c4f331"
                },
                {
                    "name": "aquasecurity:trivy:DiffID",
                    "value": "sha256:aa5968d388b8652cd305e0e037751228967839d83d0cafbde5debf0b092e7c42"
                },
                {
                    "name": "aquasecurity:trivy:DiffID",
                    "value": "sha256:d2528e96c1b061b8f1d9030fa4cb56d6dc25a14c391ffd1287ea1a2b6ec6c3d4"
                },
                {
                    "name": "aquasecurity:trivy:DiffID",
                    "value": "sha256:50232c57284521c3f24fd4f674b89af23e1df3250f7958d0a87daf1c86493a58"
                },
                {
                    "name": "aquasecurity:trivy:DiffID",
                    "value": "sha256:4c546406bfaf8a1c719c2dd6af68ec49bdee8723d447ccb7ce8518f3f4bf80d7"
                },
                {
                    "name": "aquasecurity:trivy:RepoTag",
                    "value": "irssi:1-alpine"
                }
            ]
        }
    },
    "components": [
        {
            "bom-ref": "pkg:apk/alpine/.irssi-rundeps@20230211.095007?distro=3.16.4",
            "type": "library",
            "name": ".irssi-rundeps",
            "version": "20230211.095007",
            "purl": "pkg:apk/alpine/.irssi-rundeps@20230211.095007?distro=3.16.4",
            "properties": [
                {
                    "name": "aquasecurity:trivy:PkgID",
                    "value": ".irssi-rundeps@20230211.095007"
                },
                {
                    "name": "aquasecurity:trivy:PkgType",
                    "value": "alpine"
                },
                {
                    "name": "aquasecurity:trivy:LayerDigest",
                    "value": "sha256:e948eb29d0c0ba780cb5c326b6c08c7fb39bcf620aa14af901acecad187db051"
                },
                {
                    "name": "aquasecurity:trivy:LayerDiffID",
                    "value": "sha256:4c546406bfaf8a1c719c2dd6af68ec49bdee8723d447ccb7ce8518f3f4bf80d7"
                }
            ]
        },
        {
            "bom-ref": "pkg:apk/alpine/alpine-baselayout@3.2.0-r23?distro=3.16.4",
            "type": "library",
            "name": "alpine-baselayout",
            "version": "3.2.0-r23",
            "licenses": [
                {
                    "expression": "GPL-2.0"
                }
            ],
            "purl": "pkg:apk/alpine/alpine-baselayout@3.2.0-r23?distro=3.16.4",
            "properties": [
                {
                    "name": "aquasecurity:trivy:PkgID",
                    "value": "alpine-baselayout@3.2.0-r23"
                },
                {
                    "name": "aquasecurity:trivy:PkgType",
                    "value": "alpine"
                },
                {
                    "name": "aquasecurity:trivy:SrcName",
                    "value": "alpine-baselayout"
                },
                {
                    "name": "aquasecurity:trivy:SrcVersion",
                    "value": "3.2.0-r23"
                },
                {
                    "name": "aquasecurity:trivy:LayerDiffID",
                    "value": "sha256:aa5968d388b8652cd305e0e037751228967839d83d0cafbde5debf0b092e7c42"
                }
            ]
        },
        {
            "bom-ref": "pkg:apk/alpine/alpine-baselayout-data@3.2.0-r23?distro=3.16.4",
            "type": "library",
            "name": "alpine-baselayout-data",
            "version": "3.2.0-r23",
            "licenses": [
                {
                    "expression": "GPL-2.0"
                }
            ],
            "purl": "pkg:apk/alpine/alpine-baselayout-data@3.2.0-r23?distro=3.16.4",
            "properties": [
                {
                    "name": "aquasecurity:trivy:PkgID",
                    "value": "alpine-baselayout-data@3.2.0-r23"
                },
                {
                    "name": "aquasecurity:trivy:PkgType",
                    "value": "alpine"
                },
                {
                    "name": "aquasecurity:trivy:SrcName",
                    "value": "alpine-baselayout"
                },
                {
                    "name": "aquasecurity:trivy:SrcVersion",
                    "value": "3.2.0-r23"
                },
                {
                    "name": "aquasecurity:trivy:LayerDiffID",
                    "value": "sha256:aa5968d388b8652cd305e0e037751228967839d83d0cafbde5debf0b092e7c42"
                }
            ]
        },
        {
            "bom-ref": "pkg:apk/alpine/alpine-keys@2.4-r1?distro=3.16.4",
            "type": "library",
            "name": "alpine-keys",
            "version": "2.4-r1",
            "licenses": [
                {
                    "expression": "MIT"
                }
            ],
            "purl": "pkg:apk/alpine/alpine-keys@2.4-r1?distro=3.16.4",
            "properties": [
                {
                    "name": "aquasecurity:trivy:PkgID",
                    "value": "alpine-keys@2.4-r1"
                },
                {
                    "name": "aquasecurity:trivy:PkgType",
                    "value": "alpine"
                },
                {
                    "name": "aquasecurity:trivy:SrcName",
                    "value": "alpine-keys"
                },
                {
                    "name": "aquasecurity:trivy:SrcVersion",
                    "value": "2.4-r1"
                },
                {
                    "name": "aquasecurity:trivy:LayerDiffID",
                    "value": "sha256:aa5968d388b8652cd305e0e037751228967839d83d0cafbde5debf0b092e7c42"
                }
            ]
        },
        {
            "bom-ref": "pkg:apk/alpine/apk-tools@2.12.9-r3?distro=3.16.4",
            "type": "library",
            "name": "apk-tools",
            "version": "2.12.9-r3",
            "licenses": [
                {
                    "expression": "GPL-2.0"
                }
            ],
            "purl": "pkg:apk/alpine/apk-tools@2.12.9-r3?distro=3.16.4",
            "properties": [
                {
                    "name": "aquasecurity:trivy:PkgID",
                    "value": "apk-tools@2.12.9-r3"
                },
                {
                    "name": "aquasecurity:trivy:PkgType",
                    "value": "alpine"
                },
                {
                    "name": "aquasecurity:trivy:SrcName",
                    "value": "apk-tools"
                },
                {
                    "name": "aquasecurity:trivy:SrcVersion",
                    "value": "2.12.9-r3"
                },
                {
                    "name": "aquasecurity:trivy:LayerDiffID",
                    "value": "sha256:aa5968d388b8652cd305e0e037751228967839d83d0cafbde5debf0b092e7c42"
                }
            ]
        },
        {
            "bom-ref": "pkg:apk/alpine/busybox@1.35.0-r17?distro=3.16.4",
            "type": "library",
            "name": "busybox",
            "version": "1.35.0-r17",
            "licenses": [
                {
                    "expression": "GPL-2.0"
                }
            ],
            "purl": "pkg:apk/alpine/busybox@1.35.0-r17?distro=3.16.4",
            "properties": [
                {
                    "name": "aquasecurity:trivy:PkgID",
                    "value": "busybox@1.35.0-r17"
                },
                {
                    "name": "aquasecurity:trivy:PkgType",
                    "value": "alpine"
                },
                {
                    "name": "aquasecurity:trivy:SrcName",
                    "value": "busybox"
                },
                {
                    "name": "aquasecurity:trivy:SrcVersion",
                    "value": "1.35.0-r17"
                },
                {
                    "name": "aquasecurity:trivy:LayerDiffID",
                    "value": "sha256:aa5968d388b8652cd305e0e037751228967839d83d0cafbde5debf0b092e7c42"
                }
            ]
        },
        {
            "bom-ref": "pkg:apk/alpine/ca-certificates@20220614-r0?distro=3.16.4",
            "type": "library",
            "name": "ca-certificates",
            "version": "20220614-r0",
            "licenses": [
                {
                    "expression": "MPL-2.0"
                },
                {
                    "expression": "MIT"
                }
            ],
            "purl": "pkg:apk/alpine/ca-certificates@20220614-r0?distro=3.16.4",
            "properties": [
                {
                    "name": "aquasecurity:trivy:PkgID",
                    "value": "ca-certificates@20220614-r0"
                },
                {
                    "name": "aquasecurity:trivy:PkgType",
                    "value": "alpine"
                },
                {
                    "name": "aquasecurity:trivy:SrcName",
                    "value": "ca-certificates"
                },
                {
                    "name": "aquasecurity:trivy:SrcVersion",
                    "value": "20220614-r0"
                },
                {
                    "name": "aquasecurity:trivy:LayerDigest",
                    "value": "sha256:0cc72a698bd939a0cee17ad6c98aa3d61530f30a966505073522b09f9d64dfc0"
                },
                {
                    "name": "aquasecurity:trivy:LayerDiffID",
                    "value": "sha256:d2528e96c1b061b8f1d9030fa4cb56d6dc25a14c391ffd1287ea1a2b6ec6c3d4"
                }
            ]
        },
        {
            "bom-ref": "pkg:apk/alpine/ca-certificates-bundle@20220614-r0?distro=3.16.4",
            "type": "library",
            "name": "ca-certificates-bundle",
            "version": "20220614-r0",
            "licenses": [
                {
                    "expression": "MPL-2.0"
                },
                {
                    "expression": "MIT"
                }
            ],
            "purl": "pkg:apk/alpine/ca-certificates-bundle@20220614-r0?distro=3.16.4",
            "properties": [
                {
                    "name": "aquasecurity:trivy:PkgID",
                    "value": "ca-certificates-bundle@20220614-r0"
                },
                {
                    "name": "aquasecurity:trivy:PkgType",
                    "value": "alpine"
                },
                {
                    "name": "aquasecurity:trivy:SrcName",
                    "value": "ca-certificates"
                },
                {
                    "name": "aquasecurity:trivy:SrcVersion",
                    "value": "20220614-r0"
                },
                {
                    "name": "aquasecurity:trivy:LayerDiffID",
                    "value": "sha256:aa5968d388b8652cd305e0e037751228967839d83d0cafbde5debf0b092e7c42"
                }
            ]
        },
        {
            "bom-ref": "pkg:apk/alpine/glib@2.72.1-r0?distro=3.16.4",
            "type": "library",
            "name": "glib",
            "version": "2.72.1-r0",
            "licenses": [
                {
                    "expression": "LGPL-2.1-or-later"
                }
            ],
            "purl": "pkg:apk/alpine/glib@2.72.1-r0?distro=3.16.4",
            "properties": [
                {
                    "name": "aquasecurity:trivy:PkgID",
                    "value": "glib@2.72.1-r0"
                },
                {
                    "name": "aquasecurity:trivy:PkgType",
                    "value": "alpine"
                },
                {
                    "name": "aquasecurity:trivy:SrcName",
                    "value": "glib"
                },
                {
                    "name": "aquasecurity:trivy:SrcVersion",
                    "value": "2.72.1-r0"
                },
                {
                    "name": "aquasecurity:trivy:LayerDigest",
                    "value": "sha256:e948eb29d0c0ba780cb5c326b6c08c7fb39bcf620aa14af901acecad187db051"
                },
                {
                    "name": "aquasecurity:trivy:LayerDiffID",
                    "value": "sha256:4c546406bfaf8a1c719c2dd6af68ec49bdee8723d447ccb7ce8518f3f4bf80d7"
                }
            ]
        },
        {
            "bom-ref": "pkg:apk/alpine/libblkid@2.38-r1?distro=3.16.4",
            "type": "library",
            "name": "libblkid",
            "version": "2.38-r1",
            "licenses": [
                {
                    "expression": "GPL-3.0"
                },
                {
                    "expression": "GPL-2.0"
                },
                {
                    "expression": "GPL-2.0"
                }
            ],
            "purl": "pkg:apk/alpine/libblkid@2.38-r1?distro=3.16.4",
            "properties": [
                {
                    "name": "aquasecurity:trivy:PkgID",
                    "value": "libblkid@2.38-r1"
                },
                {
                    "name": "aquasecurity:trivy:PkgType",
                    "value": "alpine"
                },
                {
                    "name": "aquasecurity:trivy:SrcName",
                    "value": "util-linux"
                },
                {
                    "name": "aquasecurity:trivy:SrcVersion",
                    "value": "2.38-r1"
                },
                {
                    "name": "aquasecurity:trivy:LayerDigest",
                    "value": "sha256:e948eb29d0c0ba780cb5c326b6c08c7fb39bcf620aa14af901acecad187db051"
                },
                {
                    "name": "aquasecurity:trivy:LayerDiffID",
                    "value": "sha256:4c546406bfaf8a1c719c2dd6af68ec49bdee8723d447ccb7ce8518f3f4bf80d7"
                }
            ]
        },
        {
            "bom-ref": "pkg:apk/alpine/libbz2@1.0.8-r1?distro=3.16.4",
            "type": "library",
            "name": "libbz2",
            "version": "1.0.8-r1",
            "licenses": [
                {
                    "expression": "bzip2-1.0.6"
                }
            ],
            "purl": "pkg:apk/alpine/libbz2@1.0.8-r1?distro=3.16.4",
            "properties": [
                {
                    "name": "aquasecurity:trivy:PkgID",
                    "value": "libbz2@1.0.8-r1"
                },
                {
                    "name": "aquasecurity:trivy:PkgType",
                    "value": "alpine"
                },
                {
                    "name": "aquasecurity:trivy:SrcName",
                    "value": "bzip2"
                },
                {
                    "name": "aquasecurity:trivy:SrcVersion",
                    "value": "1.0.8-r1"
                },
                {
                    "name": "aquasecurity:trivy:LayerDigest",
                    "value": "sha256:0cc72a698bd939a0cee17ad6c98aa3d61530f30a966505073522b09f9d64dfc0"
                },
                {
                    "name": "aquasecurity:trivy:LayerDiffID",
                    "value": "sha256:d2528e96c1b061b8f1d9030fa4cb56d6dc25a14c391ffd1287ea1a2b6ec6c3d4"
                }
            ]
        },
        {
            "bom-ref": "pkg:apk/alpine/libc-utils@0.7.2-r3?distro=3.16.4",
            "type": "library",
            "name": "libc-utils",
            "version": "0.7.2-r3",
            "licenses": [
                {
                    "expression": "BSD-2-Clause"
                },
                {
                    "expression": "BSD-3-Clause"
                }
            ],
            "purl": "pkg:apk/alpine/libc-utils@0.7.2-r3?distro=3.16.4",
            "properties": [
                {
                    "name": "aquasecurity:trivy:PkgID",
                    "value": "libc-utils@0.7.2-r3"
                },
                {
                    "name": "aquasecurity:trivy:PkgType",
                    "value": "alpine"
                },
                {
                    "name": "aquasecurity:trivy:SrcName",
                    "value": "libc-dev"
                },
                {
                    "name": "aquasecurity:trivy:SrcVersion",
                    "value": "0.7.2-r3"
                },
                {
                    "name": "aquasecurity:trivy:LayerDiffID",
                    "value": "sha256:aa5968d388b8652cd305e0e037751228967839d83d0cafbde5debf0b092e7c42"
                }
            ]
        },
        {
            "bom-ref": "pkg:apk/alpine/libcrypto1.1@1.1.1t-r0?distro=3.16.4",
            "type": "library",
            "name": "libcrypto1.1",
            "version": "1.1.1t-r0",
            "licenses": [
                {
                    "expression": "OpenSSL"
                }
            ],
            "purl": "pkg:apk/alpine/libcrypto1.1@1.1.1t-r0?distro=3.16.4",
            "properties": [
                {
                    "name": "aquasecurity:trivy:PkgID",
                    "value": "libcrypto1.1@1.1.1t-r0"
                },
                {
                    "name": "aquasecurity:trivy:PkgType",
                    "value": "alpine"
                },
                {
                    "name": "aquasecurity:trivy:SrcName",
                    "value": "openssl"
                },
                {
                    "name": "aquasecurity:trivy:SrcVersion",
                    "value": "1.1.1t-r0"
                },
                {
                    "name": "aquasecurity:trivy:LayerDiffID",
                    "value": "sha256:aa5968d388b8652cd305e0e037751228967839d83d0cafbde5debf0b092e7c42"
                }
            ]
        },
        {
            "bom-ref": "pkg:apk/alpine/libffi@3.4.2-r1?distro=3.16.4",
            "type": "library",
            "name": "libffi",
            "version": "3.4.2-r1",
            "licenses": [
                {
                    "expression": "MIT"
                }
            ],
            "purl": "pkg:apk/alpine/libffi@3.4.2-r1?distro=3.16.4",
            "properties": [
                {
                    "name": "aquasecurity:trivy:PkgID",
                    "value": "libffi@3.4.2-r1"
                },
                {
                    "name": "aquasecurity:trivy:PkgType",
                    "value": "alpine"
                },
                {
                    "name": "aquasecurity:trivy:SrcName",
                    "value": "libffi"
                },
                {
                    "name": "aquasecurity:trivy:SrcVersion",
                    "value": "3.4.2-r1"
                },
                {
                    "name": "aquasecurity:trivy:LayerDigest",
                    "value": "sha256:e948eb29d0c0ba780cb5c326b6c08c7fb39bcf620aa14af901acecad187db051"
                },
                {
                    "name": "aquasecurity:trivy:LayerDiffID",
                    "value": "sha256:4c546406bfaf8a1c719c2dd6af68ec49bdee8723d447ccb7ce8518f3f4bf80d7"
                }
            ]
        },
        {
            "bom-ref": "pkg:apk/alpine/libintl@0.21-r2?distro=3.16.4",
            "type": "library",
            "name": "libintl",
            "version": "0.21-r2",
            "licenses": [
                {
                    "expression": "LGPL-2.1-or-later"
                }
            ],
            "purl": "pkg:apk/alpine/libintl@0.21-r2?distro=3.16.4",
            "properties": [
                {
                    "name": "aquasecurity:trivy:PkgID",
                    "value": "libintl@0.21-r2"
                },
                {
                    "name": "aquasecurity:trivy:PkgType",
                    "value": "alpine"
                },
                {
                    "name": "aquasecurity:trivy:SrcName",
                    "value": "gettext"
                },
                {
                    "name": "aquasecurity:trivy:SrcVersion",
                    "value": "0.21-r2"
                },
                {
                    "name": "aquasecurity:trivy:LayerDigest",
                    "value": "sha256:e948eb29d0c0ba780cb5c326b6c08c7fb39bcf620aa14af901acecad187db051"
                },
                {
                    "name": "aquasecurity:trivy:LayerDiffID",
                    "value": "sha256:4c546406bfaf8a1c719c2dd6af68ec49bdee8723d447ccb7ce8518f3f4bf80d7"
                }
            ]
        },
        {
            "bom-ref": "pkg:apk/alpine/libmount@2.38-r1?distro=3.16.4",
            "type": "library",
            "name": "libmount",
            "version": "2.38-r1",
            "licenses": [
                {
                    "expression": "GPL-3.0"
                },
                {
                    "expression": "GPL-2.0"
                },
                {
                    "expression": "GPL-2.0"
                }
            ],
            "purl": "pkg:apk/alpine/libmount@2.38-r1?distro=3.16.4",
            "properties": [
                {
                    "name": "aquasecurity:trivy:PkgID",
                    "value": "libmount@2.38-r1"
                },
                {
                    "name": "aquasecurity:trivy:PkgType",
                    "value": "alpine"
                },
                {
                    "name": "aquasecurity:trivy:SrcName",
                    "value": "util-linux"
                },
                {
                    "name": "aquasecurity:trivy:SrcVersion",
                    "value": "2.38-r1"
                },
                {
                    "name": "aquasecurity:trivy:LayerDigest",
                    "value": "sha256:e948eb29d0c0ba780cb5c326b6c08c7fb39bcf620aa14af901acecad187db051"
                },
                {
                    "name": "aquasecurity:trivy:LayerDiffID",
                    "value": "sha256:4c546406bfaf8a1c719c2dd6af68ec49bdee8723d447ccb7ce8518f3f4bf80d7"
                }
            ]
        },
        {
            "bom-ref": "pkg:apk/alpine/libssl1.1@1.1.1t-r0?distro=3.16.4",
            "type": "library",
            "name": "libssl1.1",
            "version": "1.1.1t-r0",
            "licenses": [
                {
                    "expression": "OpenSSL"
                }
            ],
            "purl": "pkg:apk/alpine/libssl1.1@1.1.1t-r0?distro=3.16.4",
            "properties": [
                {
                    "name": "aquasecurity:trivy:PkgID",
                    "value": "libssl1.1@1.1.1t-r0"
                },
                {
                    "name": "aquasecurity:trivy:PkgType",
                    "value": "alpine"
                },
                {
                    "name": "aquasecurity:trivy:SrcName",
                    "value": "openssl"
                },
                {
                    "name": "aquasecurity:trivy:SrcVersion",
                    "value": "1.1.1t-r0"
                },
                {
                    "name": "aquasecurity:trivy:LayerDiffID",
                    "value": "sha256:aa5968d388b8652cd305e0e037751228967839d83d0cafbde5debf0b092e7c42"
                }
            ]
        },
        {
            "bom-ref": "pkg:apk/alpine/musl@1.2.3-r2?distro=3.16.4",
            "type": "library",
            "name": "musl",
            "version": "1.2.3-r2",
            "licenses": [
                {
                    "expression": "MIT"
                }
            ],
            "purl": "pkg:apk/alpine/musl@1.2.3-r2?distro=3.16.4",
            "properties": [
                {
                    "name": "aquasecurity:trivy:PkgID",
                    "value": "musl@1.2.3-r2"
                },
                {
                    "name": "aquasecurity:trivy:PkgType",
                    "value": "alpine"
                },
                {
                    "name": "aquasecurity:trivy:SrcName",
                    "value": "musl"
                },
                {
                    "name": "aquasecurity:trivy:SrcVersion",
                    "value": "1.2.3-r2"
                },
                {
                    "name": "aquasecurity:trivy:LayerDiffID",
                    "value": "sha256:aa5968d388b8652cd305e0e037751228967839d83d0cafbde5debf0b092e7c42"
                }
            ]
        },
        {
            "bom-ref": "pkg:apk/alpine/musl-utils@1.2.3-r2?distro=3.16.4",
            "type": "library",
            "name": "musl-utils",
            "version": "1.2.3-r2",
            "licenses": [
                {
                    "expression": "MIT"
                },
                {
                    "expression": "BSD-3-Clause"
                },
                {
                    "expression": "GPL-2.0"
                }
            ],
            "purl": "pkg:apk/alpine/musl-utils@1.2.3-r2?distro=3.16.4",
            "properties": [
                {
                    "name": "aquasecurity:trivy:PkgID",
                    "value": "musl-utils@1.2.3-r2"
                },
                {
                    "name": "aquasecurity:trivy:PkgType",
                    "value": "alpine"
                },
                {
                    "name": "aquasecurity:trivy:SrcName",
                    "value": "musl"
                },
                {
                    "name": "aquasecurity:trivy:SrcVersion",
                    "value": "1.2.3-r2"
                },
                {
                    "name": "aquasecurity:trivy:LayerDiffID",
                    "value": "sha256:aa5968d388b8652cd305e0e037751228967839d83d0cafbde5debf0b092e7c42"
                }
            ]
        },
        {
            "bom-ref": "pkg:apk/alpine/ncurses-libs@6.3_p20220521-r0?distro=3.16.4",
            "type": "library",
            "name": "ncurses-libs",
            "version": "6.3_p20220521-r0",
            "licenses": [
                {
                    "expression": "MIT"
                }
            ],
            "purl": "pkg:apk/alpine/ncurses-libs@6.3_p20220521-r0?distro=3.16.4",
            "properties": [
                {
                    "name": "aquasecurity:trivy:PkgID",
                    "value": "ncurses-libs@6.3_p20220521-r0"
                },
                {
                    "name": "aquasecurity:trivy:PkgType",
                    "value": "alpine"
                },
                {
                    "name": "aquasecurity:trivy:SrcName",
                    "value": "ncurses"
                },
                {
                    "name": "aquasecurity:trivy:SrcVersion",
                    "value": "6.3_p20220521-r0"
                },
                {
                    "name": "aquasecurity:trivy:LayerDigest",
                    "value": "sha256:e948eb29d0c0ba780cb5c326b6c08c7fb39bcf620aa14af901acecad187db051"
                },
                {
                    "name": "aquasecurity:trivy:LayerDiffID",
                    "value": "sha256:4c546406bfaf8a1c719c2dd6af68ec49bdee8723d447ccb7ce8518f3f4bf80d7"
                }
            ]
        },
        {
            "bom-ref": "pkg:apk/alpine/ncurses-terminfo-base@6.3_p20220521-r0?distro=3.16.4",
            "type": "library",
            "name": "ncurses-terminfo-base",
            "version": "6.3_p20220521-r0",
            "licenses": [
                {
                    "expression": "MIT"
                }
            ],
            "purl": "pkg:apk/alpine/ncurses-terminfo-base@6.3_p20220521-r0?distro=3.16.4",
            "properties": [
                {
                    "name": "aquasecurity:trivy:PkgID",
                    "value": "ncurses-terminfo-base@6.3_p20220521-r0"
                },
                {
                    "name": "aquasecurity:trivy:PkgType",
                    "value": "alpine"
                },
                {
                    "name": "aquasecurity:trivy:SrcName",
                    "value": "ncurses"
                },
                {
                    "name": "aquasecurity:trivy:SrcVersion",
                    "value": "6.3_p20220521-r0"
                },
                {
                    "name": "aquasecurity:trivy:LayerDigest",
                    "value": "sha256:e948eb29d0c0ba780cb5c326b6c08c7fb39bcf620aa14af901acecad187db051"
                },
                {
                    "name": "aquasecurity:trivy:LayerDiffID",
                    "value": "sha256:4c546406bfaf8a1c719c2dd6af68ec49bdee8723d447ccb7ce8518f3f4bf80d7"
                }
            ]
        },
        {
            "bom-ref": "pkg:apk/alpine/pcre@8.45-r2?distro=3.16.4",
            "type": "library",
            "name": "pcre",
            "version": "8.45-r2",
            "licenses": [
                {
                    "expression": "BSD-3-Clause"
                }
            ],
            "purl": "pkg:apk/alpine/pcre@8.45-r2?distro=3.16.4",
            "properties": [
                {
                    "name": "aquasecurity:trivy:PkgID",
                    "value": "pcre@8.45-r2"
                },
                {
                    "name": "aquasecurity:trivy:PkgType",
                    "value": "alpine"
                },
                {
                    "name": "aquasecurity:trivy:SrcName",
                    "value": "pcre"
                },
                {
                    "name": "aquasecurity:trivy:SrcVersion",
                    "value": "8.45-r2"
                },
                {
                    "name": "aquasecurity:trivy:LayerDigest",
                    "value": "sha256:e948eb29d0c0ba780cb5c326b6c08c7fb39bcf620aa14af901acecad187db051"
                },
                {
                    "name": "aquasecurity:trivy:LayerDiffID",
                    "value": "sha256:4c546406bfaf8a1c719c2dd6af68ec49bdee8723d447ccb7ce8518f3f4bf80d7"
                }
            ]
        },
        {
            "bom-ref": "pkg:apk/alpine/perl@5.34.1-r0?distro=3.16.4",
            "type": "library",
            "name": "perl",
            "version": "5.34.1-r0",
            "licenses": [
                {
                    "expression": "Artistic-Perl"
                },
                {
                    "expression": "GPL-1.0-or-later"
                }
            ],
            "purl": "pkg:apk/alpine/perl@5.34.1-r0?distro=3.16.4",
            "properties": [
                {
                    "name": "aquasecurity:trivy:PkgID",
                    "value": "perl@5.34.1-r0"
                },
                {
                    "name": "aquasecurity:trivy:PkgType",
                    "value": "alpine"
                },
                {
                    "name": "aquasecurity:trivy:SrcName",
                    "value": "perl"
                },
                {
                    "name": "aquasecurity:trivy:SrcVersion",
                    "value": "5.34.1-r0"
                },
                {
                    "name": "aquasecurity:trivy:LayerDigest",
                    "value": "sha256:0cc72a698bd939a0cee17ad6c98aa3d61530f30a966505073522b09f9d64dfc0"
                },
                {
                    "name": "aquasecurity:trivy:LayerDiffID",
                    "value": "sha256:d2528e96c1b061b8f1d9030fa4cb56d6dc25a14c391ffd1287ea1a2b6ec6c3d4"
                }
            ]
        },
        {
            "bom-ref": "pkg:apk/alpine/perl-capture-tiny@0.48-r2?distro=3.16.4",
            "type": "library",
            "name": "perl-capture-tiny",
            "version": "0.48-r2",
            "licenses": [
                {
                    "expression": "Apache-2.0"
                }
            ],
            "purl": "pkg:apk/alpine/perl-capture-tiny@0.48-r2?distro=3.16.4",
            "properties": [
                {
                    "name": "aquasecurity:trivy:PkgID",
                    "value": "perl-capture-tiny@0.48-r2"
                },
                {
                    "name": "aquasecurity:trivy:PkgType",
                    "value": "alpine"
                },
                {
                    "name": "aquasecurity:trivy:SrcName",
                    "value": "perl-capture-tiny"
                },
                {
                    "name": "aquasecurity:trivy:SrcVersion",
                    "value": "0.48-r2"
                },
                {
                    "name": "aquasecurity:trivy:LayerDigest",
                    "value": "sha256:0cc72a698bd939a0cee17ad6c98aa3d61530f30a966505073522b09f9d64dfc0"
                },
                {
                    "name": "aquasecurity:trivy:LayerDiffID",
                    "value": "sha256:d2528e96c1b061b8f1d9030fa4cb56d6dc25a14c391ffd1287ea1a2b6ec6c3d4"
                }
            ]
        },
        {
            "bom-ref": "pkg:apk/alpine/perl-devel-symdump@2.18-r2?distro=3.16.4",
            "type": "library",
            "name": "perl-devel-symdump",
            "version": "2.18-r2",
            "licenses": [
                {
                    "expression": "GPL-1.0-or-later"
                },
                {
                    "expression": "Artistic-1.0-Perl"
                }
            ],
            "purl": "pkg:apk/alpine/perl-devel-symdump@2.18-r2?distro=3.16.4",
            "properties": [
                {
                    "name": "aquasecurity:trivy:PkgID",
                    "value": "perl-devel-symdump@2.18-r2"
                },
                {
                    "name": "aquasecurity:trivy:PkgType",
                    "value": "alpine"
                },
                {
                    "name": "aquasecurity:trivy:SrcName",
                    "value": "perl-devel-symdump"
                },
                {
                    "name": "aquasecurity:trivy:SrcVersion",
                    "value": "2.18-r2"
                },
                {
                    "name": "aquasecurity:trivy:LayerDigest",
                    "value": "sha256:0cc72a698bd939a0cee17ad6c98aa3d61530f30a966505073522b09f9d64dfc0"
                },
                {
                    "name": "aquasecurity:trivy:LayerDiffID",
                    "value": "sha256:d2528e96c1b061b8f1d9030fa4cb56d6dc25a14c391ffd1287ea1a2b6ec6c3d4"
                }
            ]
        },
        {
            "bom-ref": "pkg:apk/alpine/perl-encode-locale@1.05-r3?distro=3.16.4",
            "type": "library",
            "name": "perl-encode-locale",
            "version": "1.05-r3",
            "licenses": [
                {
                    "expression": "GPL-1.0-or-later"
                },
                {
                    "expression": "Artistic-1.0-Perl"
                }
            ],
            "purl": "pkg:apk/alpine/perl-encode-locale@1.05-r3?distro=3.16.4",
            "properties": [
                {
                    "name": "aquasecurity:trivy:PkgID",
                    "value": "perl-encode-locale@1.05-r3"
                },
                {
                    "name": "aquasecurity:trivy:PkgType",
                    "value": "alpine"
                },
                {
                    "name": "aquasecurity:trivy:SrcName",
                    "value": "perl-encode-locale"
                },
                {
                    "name": "aquasecurity:trivy:SrcVersion",
                    "value": "1.05-r3"
                },
                {
                    "name": "aquasecurity:trivy:LayerDigest",
                    "value": "sha256:0cc72a698bd939a0cee17ad6c98aa3d61530f30a966505073522b09f9d64dfc0"
                },
                {
                    "name": "aquasecurity:trivy:LayerDiffID",
                    "value": "sha256:d2528e96c1b061b8f1d9030fa4cb56d6dc25a14c391ffd1287ea1a2b6ec6c3d4"
                }
            ]
        },
        {
            "bom-ref": "pkg:apk/alpine/perl-file-listing@6.14-r0?distro=3.16.4",
            "type": "library",
            "name": "perl-file-listing",
            "version": "6.14-r0",
            "licenses": [
                {
                    "expression": "GPL-1.0-or-later"
                },
                {
                    "expression": "Artistic-1.0-Perl"
                }
            ],
            "purl": "pkg:apk/alpine/perl-file-listing@6.14-r0?distro=3.16.4",
            "properties": [
                {
                    "name": "aquasecurity:trivy:PkgID",
                    "value": "perl-file-listing@6.14-r0"
                },
                {
                    "name": "aquasecurity:trivy:PkgType",
                    "value": "alpine"
                },
                {
                    "name": "aquasecurity:trivy:SrcName",
                    "value": "perl-file-listing"
                },
                {
                    "name": "aquasecurity:trivy:SrcVersion",
                    "value": "6.14-r0"
                },
                {
                    "name": "aquasecurity:trivy:LayerDigest",
                    "value": "sha256:0cc72a698bd939a0cee17ad6c98aa3d61530f30a966505073522b09f9d64dfc0"
                },
                {
                    "name": "aquasecurity:trivy:LayerDiffID",
                    "value": "sha256:d2528e96c1b061b8f1d9030fa4cb56d6dc25a14c391ffd1287ea1a2b6ec6c3d4"
                }
            ]
        },
        {
            "bom-ref": "pkg:apk/alpine/perl-html-parser@3.78-r0?distro=3.16.4",
            "type": "library",
            "name": "perl-html-parser",
            "version": "3.78-r0",
            "licenses": [
                {
                    "expression": "GPL-1.0-or-later"
                },
                {
                    "expression": "Artistic-1.0-Perl"
                }
            ],
            "purl": "pkg:apk/alpine/perl-html-parser@3.78-r0?distro=3.16.4",
            "properties": [
                {
                    "name": "aquasecurity:trivy:PkgID",
                    "value": "perl-html-parser@3.78-r0"
                },
                {
                    "name": "aquasecurity:trivy:PkgType",
                    "value": "alpine"
                },
                {
                    "name": "aquasecurity:trivy:SrcName",
                    "value": "perl-html-parser"
                },
                {
                    "name": "aquasecurity:trivy:SrcVersion",
                    "value": "3.78-r0"
                },
                {
                    "name": "aquasecurity:trivy:LayerDigest",
                    "value": "sha256:0cc72a698bd939a0cee17ad6c98aa3d61530f30a966505073522b09f9d64dfc0"
                },
                {
                    "name": "aquasecurity:trivy:LayerDiffID",
                    "value": "sha256:d2528e96c1b061b8f1d9030fa4cb56d6dc25a14c391ffd1287ea1a2b6ec6c3d4"
                }
            ]
        },
        {
            "bom-ref": "pkg:apk/alpine/perl-html-tagset@3.20-r3?distro=3.16.4",
            "type": "library",
            "name": "perl-html-tagset",
            "version": "3.20-r3",
            "licenses": [
                {
                    "expression": "GPL-1.0-or-later"
                },
                {
                    "expression": "Artistic-1.0-Perl"
                }
            ],
            "purl": "pkg:apk/alpine/perl-html-tagset@3.20-r3?distro=3.16.4",
            "properties": [
                {
                    "name": "aquasecurity:trivy:PkgID",
                    "value": "perl-html-tagset@3.20-r3"
                },
                {
                    "name": "aquasecurity:trivy:PkgType",
                    "value": "alpine"
                },
                {
                    "name": "aquasecurity:trivy:SrcName",
                    "value": "perl-html-tagset"
                },
                {
                    "name": "aquasecurity:trivy:SrcVersion",
                    "value": "3.20-r3"
                },
                {
                    "name": "aquasecurity:trivy:LayerDigest",
                    "value": "sha256:0cc72a698bd939a0cee17ad6c98aa3d61530f30a966505073522b09f9d64dfc0"
                },
                {
                    "name": "aquasecurity:trivy:LayerDiffID",
                    "value": "sha256:d2528e96c1b061b8f1d9030fa4cb56d6dc25a14c391ffd1287ea1a2b6ec6c3d4"
                }
            ]
        },
        {
            "bom-ref": "pkg:apk/alpine/perl-http-cookies@6.10-r0?distro=3.16.4",
            "type": "library",
            "name": "perl-http-cookies",
            "version": "6.10-r0",
            "licenses": [
                {
                    "expression": "GPL-1.0-or-later"
                },
                {
                    "expression": "Artistic-1.0-Perl"
                }
            ],
            "purl": "pkg:apk/alpine/perl-http-cookies@6.10-r0?distro=3.16.4",
            "properties": [
                {
                    "name": "aquasecurity:trivy:PkgID",
                    "value": "perl-http-cookies@6.10-r0"
                },
                {
                    "name": "aquasecurity:trivy:PkgType",
                    "value": "alpine"
                },
                {
                    "name": "aquasecurity:trivy:SrcName",
                    "value": "perl-http-cookies"
                },
                {
                    "name": "aquasecurity:trivy:SrcVersion",
                    "value": "6.10-r0"
                },
                {
                    "name": "aquasecurity:trivy:LayerDigest",
                    "value": "sha256:0cc72a698bd939a0cee17ad6c98aa3d61530f30a966505073522b09f9d64dfc0"
                },
                {
                    "name": "aquasecurity:trivy:LayerDiffID",
                    "value": "sha256:d2528e96c1b061b8f1d9030fa4cb56d6dc25a14c391ffd1287ea1a2b6ec6c3d4"
                }
            ]
        },
        {
            "bom-ref": "pkg:apk/alpine/perl-http-daemon@6.14-r0?distro=3.16.4",
            "type": "library",
            "name": "perl-http-daemon",
            "version": "6.14-r0",
            "licenses": [
                {
                    "expression": "GPL-1.0-or-later"
                },
                {
                    "expression": "Artistic-1.0-Perl"
                }
            ],
            "purl": "pkg:apk/alpine/perl-http-daemon@6.14-r0?distro=3.16.4",
            "properties": [
                {
                    "name": "aquasecurity:trivy:PkgID",
                    "value": "perl-http-daemon@6.14-r0"
                },
                {
                    "name": "aquasecurity:trivy:PkgType",
                    "value": "alpine"
                },
                {
                    "name": "aquasecurity:trivy:SrcName",
                    "value": "perl-http-daemon"
                },
                {
                    "name": "aquasecurity:trivy:SrcVersion",
                    "value": "6.14-r0"
                },
                {
                    "name": "aquasecurity:trivy:LayerDigest",
                    "value": "sha256:0cc72a698bd939a0cee17ad6c98aa3d61530f30a966505073522b09f9d64dfc0"
                },
                {
                    "name": "aquasecurity:trivy:LayerDiffID",
                    "value": "sha256:d2528e96c1b061b8f1d9030fa4cb56d6dc25a14c391ffd1287ea1a2b6ec6c3d4"
                }
            ]
        },
        {
            "bom-ref": "pkg:apk/alpine/perl-http-date@6.05-r1?distro=3.16.4",
            "type": "library",
            "name": "perl-http-date",
            "version": "6.05-r1",
            "licenses": [
                {
                    "expression": "GPL-1.0-or-later"
                },
                {
                    "expression": "Artistic-1.0-Perl"
                }
            ],
            "purl": "pkg:apk/alpine/perl-http-date@6.05-r1?distro=3.16.4",
            "properties": [
                {
                    "name": "aquasecurity:trivy:PkgID",
                    "value": "perl-http-date@6.05-r1"
                },
                {
                    "name": "aquasecurity:trivy:PkgType",
                    "value": "alpine"
                },
                {
                    "name": "aquasecurity:trivy:SrcName",
                    "value": "perl-http-date"
                },
                {
                    "name": "aquasecurity:trivy:SrcVersion",
                    "value": "6.05-r1"
                },
                {
                    "name": "aquasecurity:trivy:LayerDigest",
                    "value": "sha256:0cc72a698bd939a0cee17ad6c98aa3d61530f30a966505073522b09f9d64dfc0"
                },
                {
                    "name": "aquasecurity:trivy:LayerDiffID",
                    "value": "sha256:d2528e96c1b061b8f1d9030fa4cb56d6dc25a14c391ffd1287ea1a2b6ec6c3d4"
                }
            ]
        },
        {
            "bom-ref": "pkg:apk/alpine/perl-http-message@6.36-r0?distro=3.16.4",
            "type": "library",
            "name": "perl-http-message",
            "version": "6.36-r0",
            "licenses": [
                {
                    "expression": "GPL-1.0-or-later"
                },
                {
                    "expression": "Artistic-1.0-Perl"
                }
            ],
            "purl": "pkg:apk/alpine/perl-http-message@6.36-r0?distro=3.16.4",
            "properties": [
                {
                    "name": "aquasecurity:trivy:PkgID",
                    "value": "perl-http-message@6.36-r0"
                },
                {
                    "name": "aquasecurity:trivy:PkgType",
                    "value": "alpine"
                },
                {
                    "name": "aquasecurity:trivy:SrcName",
                    "value": "perl-http-message"
                },
                {
                    "name": "aquasecurity:trivy:SrcVersion",
                    "value": "6.36-r0"
                },
                {
                    "name": "aquasecurity:trivy:LayerDigest",
                    "value": "sha256:0cc72a698bd939a0cee17ad6c98aa3d61530f30a966505073522b09f9d64dfc0"
                },
                {
                    "name": "aquasecurity:trivy:LayerDiffID",
                    "value": "sha256:d2528e96c1b061b8f1d9030fa4cb56d6dc25a14c391ffd1287ea1a2b6ec6c3d4"
                }
            ]
        },
        {
            "bom-ref": "pkg:apk/alpine/perl-http-negotiate@6.01-r3?distro=3.16.4",
            "type": "library",
            "name": "perl-http-negotiate",
            "version": "6.01-r3",
            "licenses": [
                {
                    "expression": "GPL-2.0"
                },
                {
                    "expression": "or"
                },
                {
                    "expression": "Artistic"
                }
            ],
            "purl": "pkg:apk/alpine/perl-http-negotiate@6.01-r3?distro=3.16.4",
            "properties": [
                {
                    "name": "aquasecurity:trivy:PkgID",
                    "value": "perl-http-negotiate@6.01-r3"
                },
                {
                    "name": "aquasecurity:trivy:PkgType",
                    "value": "alpine"
                },
                {
                    "name": "aquasecurity:trivy:SrcName",
                    "value": "perl-http-negotiate"
                },
                {
                    "name": "aquasecurity:trivy:SrcVersion",
                    "value": "6.01-r3"
                },
                {
                    "name": "aquasecurity:trivy:LayerDigest",
                    "value": "sha256:0cc72a698bd939a0cee17ad6c98aa3d61530f30a966505073522b09f9d64dfc0"
                },
                {
                    "name": "aquasecurity:trivy:LayerDiffID",
                    "value": "sha256:d2528e96c1b061b8f1d9030fa4cb56d6dc25a14c391ffd1287ea1a2b6ec6c3d4"
                }
            ]
        },
        {
            "bom-ref": "pkg:apk/alpine/perl-io-html@1.004-r0?distro=3.16.4",
            "type": "library",
            "name": "perl-io-html",
            "version": "1.004-r0",
            "licenses": [
                {
                    "expression": "GPL-1.0-or-later"
                },
                {
                    "expression": "Artistic-1.0-Perl"
                }
            ],
            "purl": "pkg:apk/alpine/perl-io-html@1.004-r0?distro=3.16.4",
            "properties": [
                {
                    "name": "aquasecurity:trivy:PkgID",
                    "value": "perl-io-html@1.004-r0"
                },
                {
                    "name": "aquasecurity:trivy:PkgType",
                    "value": "alpine"
                },
                {
                    "name": "aquasecurity:trivy:SrcName",
                    "value": "perl-io-html"
                },
                {
                    "name": "aquasecurity:trivy:SrcVersion",
                    "value": "1.004-r0"
                },
                {
                    "name": "aquasecurity:trivy:LayerDigest",
                    "value": "sha256:0cc72a698bd939a0cee17ad6c98aa3d61530f30a966505073522b09f9d64dfc0"
                },
                {
                    "name": "aquasecurity:trivy:LayerDiffID",
                    "value": "sha256:d2528e96c1b061b8f1d9030fa4cb56d6dc25a14c391ffd1287ea1a2b6ec6c3d4"
                }
            ]
        },
        {
            "bom-ref": "pkg:apk/alpine/perl-libwww@6.66-r0?distro=3.16.4",
            "type": "library",
            "name": "perl-libwww",
            "version": "6.66-r0",
            "licenses": [
                {
                    "expression": "GPL-1.0-or-later"
                },
                {
                    "expression": "Artistic-1.0-Perl"
                }
            ],
            "purl": "pkg:apk/alpine/perl-libwww@6.66-r0?distro=3.16.4",
            "properties": [
                {
                    "name": "aquasecurity:trivy:PkgID",
                    "value": "perl-libwww@6.66-r0"
                },
                {
                    "name": "aquasecurity:trivy:PkgType",
                    "value": "alpine"
                },
                {
                    "name": "aquasecurity:trivy:SrcName",
                    "value": "perl-libwww"
                },
                {
                    "name": "aquasecurity:trivy:SrcVersion",
                    "value": "6.66-r0"
                },
                {
                    "name": "aquasecurity:trivy:LayerDigest",
                    "value": "sha256:0cc72a698bd939a0cee17ad6c98aa3d61530f30a966505073522b09f9d64dfc0"
                },
                {
                    "name": "aquasecurity:trivy:LayerDiffID",
                    "value": "sha256:d2528e96c1b061b8f1d9030fa4cb56d6dc25a14c391ffd1287ea1a2b6ec6c3d4"
                }
            ]
        },
        {
            "bom-ref": "pkg:apk/alpine/perl-lwp-mediatypes@6.04-r1?distro=3.16.4",
            "type": "library",
            "name": "perl-lwp-mediatypes",
            "version": "6.04-r1",
            "licenses": [
                {
                    "expression": "GPL-1.0-or-later"
                },
                {
                    "expression": "Artistic-1.0-Perl"
                }
            ],
            "purl": "pkg:apk/alpine/perl-lwp-mediatypes@6.04-r1?distro=3.16.4",
            "properties": [
                {
                    "name": "aquasecurity:trivy:PkgID",
                    "value": "perl-lwp-mediatypes@6.04-r1"
                },
                {
                    "name": "aquasecurity:trivy:PkgType",
                    "value": "alpine"
                },
                {
                    "name": "aquasecurity:trivy:SrcName",
                    "value": "perl-lwp-mediatypes"
                },
                {
                    "name": "aquasecurity:trivy:SrcVersion",
                    "value": "6.04-r1"
                },
                {
                    "name": "aquasecurity:trivy:LayerDigest",
                    "value": "sha256:0cc72a698bd939a0cee17ad6c98aa3d61530f30a966505073522b09f9d64dfc0"
                },
                {
                    "name": "aquasecurity:trivy:LayerDiffID",
                    "value": "sha256:d2528e96c1b061b8f1d9030fa4cb56d6dc25a14c391ffd1287ea1a2b6ec6c3d4"
                }
            ]
        },
        {
            "bom-ref": "pkg:apk/alpine/perl-net-http@6.22-r0?distro=3.16.4",
            "type": "library",
            "name": "perl-net-http",
            "version": "6.22-r0",
            "licenses": [
                {
                    "expression": "GPL-1.0-or-later"
                },
                {
                    "expression": "Artistic-1.0-Perl"
                }
            ],
            "purl": "pkg:apk/alpine/perl-net-http@6.22-r0?distro=3.16.4",
            "properties": [
                {
                    "name": "aquasecurity:trivy:PkgID",
                    "value": "perl-net-http@6.22-r0"
                },
                {
                    "name": "aquasecurity:trivy:PkgType",
                    "value": "alpine"
                },
                {
                    "name": "aquasecurity:trivy:SrcName",
                    "value": "perl-net-http"
                },
                {
                    "name": "aquasecurity:trivy:SrcVersion",
                    "value": "6.22-r0"
                },
                {
                    "name": "aquasecurity:trivy:LayerDigest",
                    "value": "sha256:0cc72a698bd939a0cee17ad6c98aa3d61530f30a966505073522b09f9d64dfc0"
                },
                {
                    "name": "aquasecurity:trivy:LayerDiffID",
                    "value": "sha256:d2528e96c1b061b8f1d9030fa4cb56d6dc25a14c391ffd1287ea1a2b6ec6c3d4"
                }
            ]
        },
        {
            "bom-ref": "pkg:apk/alpine/perl-pod-coverage@0.23-r2?distro=3.16.4",
            "type": "library",
            "name": "perl-pod-coverage",
            "version": "0.23-r2",
            "licenses": [
                {
                    "expression": "Artistic-1.0-Perl"
                },
                {
                    "expression": "or"
                },
                {
                    "expression": "GPL-1.0-or-later"
                }
            ],
            "purl": "pkg:apk/alpine/perl-pod-coverage@0.23-r2?distro=3.16.4",
            "properties": [
                {
                    "name": "aquasecurity:trivy:PkgID",
                    "value": "perl-pod-coverage@0.23-r2"
                },
                {
                    "name": "aquasecurity:trivy:PkgType",
                    "value": "alpine"
                },
                {
                    "name": "aquasecurity:trivy:SrcName",
                    "value": "perl-pod-coverage"
                },
                {
                    "name": "aquasecurity:trivy:SrcVersion",
                    "value": "0.23-r2"
                },
                {
                    "name": "aquasecurity:trivy:LayerDigest",
                    "value": "sha256:0cc72a698bd939a0cee17ad6c98aa3d61530f30a966505073522b09f9d64dfc0"
                },
                {
                    "name": "aquasecurity:trivy:LayerDiffID",
                    "value": "sha256:d2528e96c1b061b8f1d9030fa4cb56d6dc25a14c391ffd1287ea1a2b6ec6c3d4"
                }
            ]
        },
        {
            "bom-ref": "pkg:apk/alpine/perl-pod-parser@1.63-r1?distro=3.16.4",
            "type": "library",
            "name": "perl-pod-parser",
            "version": "1.63-r1",
            "licenses": [
                {
                    "expression": "GPL-1.0-or-later"
                },
                {
                    "expression": "Artistic-1.0-Perl"
                }
            ],
            "purl": "pkg:apk/alpine/perl-pod-parser@1.63-r1?distro=3.16.4",
            "properties": [
                {
                    "name": "aquasecurity:trivy:PkgID",
                    "value": "perl-pod-parser@1.63-r1"
                },
                {
                    "name": "aquasecurity:trivy:PkgType",
                    "value": "alpine"
                },
                {
                    "name": "aquasecurity:trivy:SrcName",
                    "value": "perl-pod-parser"
                },
                {
                    "name": "aquasecurity:trivy:SrcVersion",
                    "value": "1.63-r1"
                },
                {
                    "name": "aquasecurity:trivy:LayerDigest",
                    "value": "sha256:0cc72a698bd939a0cee17ad6c98aa3d61530f30a966505073522b09f9d64dfc0"
                },
                {
                    "name": "aquasecurity:trivy:LayerDiffID",
                    "value": "sha256:d2528e96c1b061b8f1d9030fa4cb56d6dc25a14c391ffd1287ea1a2b6ec6c3d4"
                }
            ]
        },
        {
            "bom-ref": "pkg:apk/alpine/perl-test-pod@1.52-r2?distro=3.16.4",
            "type": "library",
            "name": "perl-test-pod",
            "version": "1.52-r2",
            "licenses": [
                {
                    "expression": "GPL-1.0-or-later"
                },
                {
                    "expression": "Artistic-1.0-Perl"
                }
            ],
            "purl": "pkg:apk/alpine/perl-test-pod@1.52-r2?distro=3.16.4",
            "properties": [
                {
                    "name": "aquasecurity:trivy:PkgID",
                    "value": "perl-test-pod@1.52-r2"
                },
                {
                    "name": "aquasecurity:trivy:PkgType",
                    "value": "alpine"
                },
                {
                    "name": "aquasecurity:trivy:SrcName",
                    "value": "perl-test-pod"
                },
                {
                    "name": "aquasecurity:trivy:SrcVersion",
                    "value": "1.52-r2"
                },
                {
                    "name": "aquasecurity:trivy:LayerDigest",
                    "value": "sha256:0cc72a698bd939a0cee17ad6c98aa3d61530f30a966505073522b09f9d64dfc0"
                },
                {
                    "name": "aquasecurity:trivy:LayerDiffID",
                    "value": "sha256:d2528e96c1b061b8f1d9030fa4cb56d6dc25a14c391ffd1287ea1a2b6ec6c3d4"
                }
            ]
        },
        {
            "bom-ref": "pkg:apk/alpine/perl-try-tiny@0.31-r0?distro=3.16.4",
            "type": "library",
            "name": "perl-try-tiny",
            "version": "0.31-r0",
            "licenses": [
                {
                    "expression": "MIT"
                }
            ],
            "purl": "pkg:apk/alpine/perl-try-tiny@0.31-r0?distro=3.16.4",
            "properties": [
                {
                    "name": "aquasecurity:trivy:PkgID",
                    "value": "perl-try-tiny@0.31-r0"
                },
                {
                    "name": "aquasecurity:trivy:PkgType",
                    "value": "alpine"
                },
                {
                    "name": "aquasecurity:trivy:SrcName",
                    "value": "perl-try-tiny"
                },
                {
                    "name": "aquasecurity:trivy:SrcVersion",
                    "value": "0.31-r0"
                },
                {
                    "name": "aquasecurity:trivy:LayerDigest",
                    "value": "sha256:0cc72a698bd939a0cee17ad6c98aa3d61530f30a966505073522b09f9d64dfc0"
                },
                {
                    "name": "aquasecurity:trivy:LayerDiffID",
                    "value": "sha256:d2528e96c1b061b8f1d9030fa4cb56d6dc25a14c391ffd1287ea1a2b6ec6c3d4"
                }
            ]
        },
        {
            "bom-ref": "pkg:apk/alpine/perl-uri@5.10-r0?distro=3.16.4",
            "type": "library",
            "name": "perl-uri",
            "version": "5.10-r0",
            "licenses": [
                {
                    "expression": "GPL-1.0-or-later"
                },
                {
                    "expression": "Artistic-1.0-Perl"
                }
            ],
            "purl": "pkg:apk/alpine/perl-uri@5.10-r0?distro=3.16.4",
            "properties": [
                {
                    "name": "aquasecurity:trivy:PkgID",
                    "value": "perl-uri@5.10-r0"
                },
                {
                    "name": "aquasecurity:trivy:PkgType",
                    "value": "alpine"
                },
                {
                    "name": "aquasecurity:trivy:SrcName",
                    "value": "perl-uri"
                },
                {
                    "name": "aquasecurity:trivy:SrcVersion",
                    "value": "5.10-r0"
                },
                {
                    "name": "aquasecurity:trivy:LayerDigest",
                    "value": "sha256:0cc72a698bd939a0cee17ad6c98aa3d61530f30a966505073522b09f9d64dfc0"
                },
                {
                    "name": "aquasecurity:trivy:LayerDiffID",
                    "value": "sha256:d2528e96c1b061b8f1d9030fa4cb56d6dc25a14c391ffd1287ea1a2b6ec6c3d4"
                }
            ]
        },
        {
            "bom-ref": "pkg:apk/alpine/perl-www-robotrules@6.02-r3?distro=3.16.4",
            "type": "library",
            "name": "perl-www-robotrules",
            "version": "6.02-r3",
            "licenses": [
                {
                    "expression": "GPL-2.0"
                },
                {
                    "expression": "or"
                },
                {
                    "expression": "Artistic"
                }
            ],
            "purl": "pkg:apk/alpine/perl-www-robotrules@6.02-r3?distro=3.16.4",
            "properties": [
                {
                    "name": "aquasecurity:trivy:PkgID",
                    "value": "perl-www-robotrules@6.02-r3"
                },
                {
                    "name": "aquasecurity:trivy:PkgType",
                    "value": "alpine"
                },
                {
                    "name": "aquasecurity:trivy:SrcName",
                    "value": "perl-www-robotrules"
                },
                {
                    "name": "aquasecurity:trivy:SrcVersion",
                    "value": "6.02-r3"
                },
                {
                    "name": "aquasecurity:trivy:LayerDigest",
                    "value": "sha256:0cc72a698bd939a0cee17ad6c98aa3d61530f30a966505073522b09f9d64dfc0"
                },
                {
                    "name": "aquasecurity:trivy:LayerDiffID",
                    "value": "sha256:d2528e96c1b061b8f1d9030fa4cb56d6dc25a14c391ffd1287ea1a2b6ec6c3d4"
                }
            ]
        },
        {
            "bom-ref": "pkg:apk/alpine/scanelf@1.3.4-r0?distro=3.16.4",
            "type": "library",
            "name": "scanelf",
            "version": "1.3.4-r0",
            "licenses": [
                {
                    "expression": "GPL-2.0"
                }
            ],
            "purl": "pkg:apk/alpine/scanelf@1.3.4-r0?distro=3.16.4",
            "properties": [
                {
                    "name": "aquasecurity:trivy:PkgID",
                    "value": "scanelf@1.3.4-r0"
                },
                {
                    "name": "aquasecurity:trivy:PkgType",
                    "value": "alpine"
                },
                {
                    "name": "aquasecurity:trivy:SrcName",
                    "value": "pax-utils"
                },
                {
                    "name": "aquasecurity:trivy:SrcVersion",
                    "value": "1.3.4-r0"
                },
                {
                    "name": "aquasecurity:trivy:LayerDiffID",
                    "value": "sha256:aa5968d388b8652cd305e0e037751228967839d83d0cafbde5debf0b092e7c42"
                }
            ]
        },
        {
            "bom-ref": "pkg:apk/alpine/ssl_client@1.35.0-r17?distro=3.16.4",
            "type": "library",
            "name": "ssl_client",
            "version": "1.35.0-r17",
            "licenses": [
                {
                    "expression": "GPL-2.0"
                }
            ],
            "purl": "pkg:apk/alpine/ssl_client@1.35.0-r17?distro=3.16.4",
            "properties": [
                {
                    "name": "aquasecurity:trivy:PkgID",
                    "value": "ssl_client@1.35.0-r17"
                },
                {
                    "name": "aquasecurity:trivy:PkgType",
                    "value": "alpine"
                },
                {
                    "name": "aquasecurity:trivy:SrcName",
                    "value": "busybox"
                },
                {
                    "name": "aquasecurity:trivy:SrcVersion",
                    "value": "1.35.0-r17"
                },
                {
                    "name": "aquasecurity:trivy:LayerDiffID",
                    "value": "sha256:aa5968d388b8652cd305e0e037751228967839d83d0cafbde5debf0b092e7c42"
                }
            ]
        },
        {
            "bom-ref": "pkg:apk/alpine/zlib@1.2.12-r3?distro=3.16.4",
            "type": "library",
            "name": "zlib",
            "version": "1.2.12-r3",
            "licenses": [
                {
                    "expression": "Zlib"
                }
            ],
            "purl": "pkg:apk/alpine/zlib@1.2.12-r3?distro=3.16.4",
            "properties": [
                {
                    "name": "aquasecurity:trivy:PkgID",
                    "value": "zlib@1.2.12-r3"
                },
                {
                    "name": "aquasecurity:trivy:PkgType",
                    "value": "alpine"
                },
                {
                    "name": "aquasecurity:trivy:SrcName",
                    "value": "zlib"
                },
                {
                    "name": "aquasecurity:trivy:SrcVersion",
                    "value": "1.2.12-r3"
                },
                {
                    "name": "aquasecurity:trivy:LayerDiffID",
                    "value": "sha256:aa5968d388b8652cd305e0e037751228967839d83d0cafbde5debf0b092e7c42"
                }
            ]
        },
        {
            "bom-ref": "6e6a7394-a614-4546-b9af-1e20bfc83efb",
            "type": "operating-system",
            "name": "alpine",
            "version": "3.16.4",
            "properties": [
                {
                    "name": "aquasecurity:trivy:Type",
                    "value": "alpine"
                },
                {
                    "name": "aquasecurity:trivy:Class",
                    "value": "os-pkgs"
                }
            ]
        }
    ],
    "dependencies": [
        {
            "ref": "6e6a7394-a614-4546-b9af-1e20bfc83efb",
            "dependsOn": [
                "pkg:apk/alpine/.irssi-rundeps@20230211.095007?distro=3.16.4",
                "pkg:apk/alpine/alpine-baselayout@3.2.0-r23?distro=3.16.4",
                "pkg:apk/alpine/alpine-baselayout-data@3.2.0-r23?distro=3.16.4",
                "pkg:apk/alpine/alpine-keys@2.4-r1?distro=3.16.4",
                "pkg:apk/alpine/apk-tools@2.12.9-r3?distro=3.16.4",
                "pkg:apk/alpine/busybox@1.35.0-r17?distro=3.16.4",
                "pkg:apk/alpine/ca-certificates@20220614-r0?distro=3.16.4",
                "pkg:apk/alpine/ca-certificates-bundle@20220614-r0?distro=3.16.4",
                "pkg:apk/alpine/glib@2.72.1-r0?distro=3.16.4",
                "pkg:apk/alpine/libblkid@2.38-r1?distro=3.16.4",
                "pkg:apk/alpine/libbz2@1.0.8-r1?distro=3.16.4",
                "pkg:apk/alpine/libc-utils@0.7.2-r3?distro=3.16.4",
                "pkg:apk/alpine/libcrypto1.1@1.1.1t-r0?distro=3.16.4",
                "pkg:apk/alpine/libffi@3.4.2-r1?distro=3.16.4",
                "pkg:apk/alpine/libintl@0.21-r2?distro=3.16.4",
                "pkg:apk/alpine/libmount@2.38-r1?distro=3.16.4",
                "pkg:apk/alpine/libssl1.1@1.1.1t-r0?distro=3.16.4",
                "pkg:apk/alpine/musl@1.2.3-r2?distro=3.16.4",
                "pkg:apk/alpine/musl-utils@1.2.3-r2?distro=3.16.4",
                "pkg:apk/alpine/ncurses-libs@6.3_p20220521-r0?distro=3.16.4",
                "pkg:apk/alpine/ncurses-terminfo-base@6.3_p20220521-r0?distro=3.16.4",
                "pkg:apk/alpine/pcre@8.45-r2?distro=3.16.4",
                "pkg:apk/alpine/perl@5.34.1-r0?distro=3.16.4",
                "pkg:apk/alpine/perl-capture-tiny@0.48-r2?distro=3.16.4",
                "pkg:apk/alpine/perl-devel-symdump@2.18-r2?distro=3.16.4",
                "pkg:apk/alpine/perl-encode-locale@1.05-r3?distro=3.16.4",
                "pkg:apk/alpine/perl-file-listing@6.14-r0?distro=3.16.4",
                "pkg:apk/alpine/perl-html-parser@3.78-r0?distro=3.16.4",
                "pkg:apk/alpine/perl-html-tagset@3.20-r3?distro=3.16.4",
                "pkg:apk/alpine/perl-http-cookies@6.10-r0?distro=3.16.4",
                "pkg:apk/alpine/perl-http-daemon@6.14-r0?distro=3.16.4",
                "pkg:apk/alpine/perl-http-date@6.05-r1?distro=3.16.4",
                "pkg:apk/alpine/perl-http-message@6.36-r0?distro=3.16.4",
                "pkg:apk/alpine/perl-http-negotiate@6.01-r3?distro=3.16.4",
                "pkg:apk/alpine/perl-io-html@1.004-r0?distro=3.16.4",
                "pkg:apk/alpine/perl-libwww@6.66-r0?distro=3.16.4",
                "pkg:apk/alpine/perl-lwp-mediatypes@6.04-r1?distro=3.16.4",
                "pkg:apk/alpine/perl-net-http@6.22-r0?distro=3.16.4",
                "pkg:apk/alpine/perl-pod-coverage@0.23-r2?distro=3.16.4",
                "pkg:apk/alpine/perl-pod-parser@1.63-r1?distro=3.16.4",
                "pkg:apk/alpine/perl-test-pod@1.52-r2?distro=3.16.4",
                "pkg:apk/alpine/perl-try-tiny@0.31-r0?distro=3.16.4",
                "pkg:apk/alpine/perl-uri@5.10-r0?distro=3.16.4",
                "pkg:apk/alpine/perl-www-robotrules@6.02-r3?distro=3.16.4",
                "pkg:apk/alpine/scanelf@1.3.4-r0?distro=3.16.4",
                "pkg:apk/alpine/ssl_client@1.35.0-r17?distro=3.16.4",
                "pkg:apk/alpine/zlib@1.2.12-r3?distro=3.16.4"
            ]
        },
        {
            "ref": "pkg:oci/irssi@sha256:cecc161781c1ea3b4d5b0f5b0a97a1562cb3bcf6da43cbf399463dadb3c4f331?repository_url=index.docker.io%2Flibrary%2Firssi\u0026arch=amd64",
            "dependsOn": [
                "6e6a7394-a614-4546-b9af-1e20bfc83efb"
            ]
        }
    ],
    "vulnerabilities": []
}

