{
    "bomFormat": "CycloneDX",
    "specVersion": "1.4",
    "serialNumber": "urn:uuid:3685eebb-ab34-405a-b841-4b71223f4f64",
    "version": 1,
    "metadata": {
        "timestamp": "2023-03-06T15:50:27+00:00",
        "tools": [
            {
                "vendor": "aquasecurity",
                "name": "trivy",
                "version": "0.36.1"
            }
        ],
        "component": {
            "bom-ref": "pkg:oci/nats@sha256:e9767cfa85287292db74b0533d910366598f93e18b3c60706cf1c25ab7f657be?repository_url=index.docker.io%2Flibrary%2Fnats\u0026arch=amd64",
            "type": "container",
            "name": "nats:scratch",
            "purl": "pkg:oci/nats@sha256:e9767cfa85287292db74b0533d910366598f93e18b3c60706cf1c25ab7f657be?repository_url=index.docker.io%2Flibrary%2Fnats\u0026arch=amd64",
            "properties": [
                {
                    "name": "aquasecurity:trivy:SchemaVersion",
                    "value": "2"
                },
                {
                    "name": "aquasecurity:trivy:ImageID",
                    "value": "sha256:74665a2673c052e85d3417cec864d1aabab3263f3328051037a133d9b85765ce"
                },
                {
                    "name": "aquasecurity:trivy:RepoDigest",
                    "value": "nats@sha256:e9767cfa85287292db74b0533d910366598f93e18b3c60706cf1c25ab7f657be"
                },
                {
                    "name": "aquasecurity:trivy:DiffID",
                    "value": "sha256:bd04b9158ee68cdcccbe6c3161b4bc451d69764284caad5cabef6a02e3409c7b"
                },
                {
                    "name": "aquasecurity:trivy:DiffID",
                    "value": "sha256:9bec67987e0d2228ef8be2c150aa46bba37dac99f376dff9d84cc0fa306c6077"
                },
                {
                    "name": "aquasecurity:trivy:RepoTag",
                    "value": "nats:scratch"
                }
            ]
        }
    },
    "components": [
        {
            "bom-ref": "pkg:golang/github.com/klauspost/compress@v1.16.0",
            "type": "library",
            "name": "github.com/klauspost/compress",
            "version": "v1.16.0",
            "purl": "pkg:golang/github.com/klauspost/compress@v1.16.0",
            "properties": [
                {
                    "name": "aquasecurity:trivy:PkgType",
                    "value": "gobinary"
                },
                {
                    "name": "aquasecurity:trivy:LayerDigest",
                    "value": "sha256:436f213323b997ad7aca1675cce2c9a9366e3cd51995b9829835ab9762901f98"
                },
                {
                    "name": "aquasecurity:trivy:LayerDiffID",
                    "value": "sha256:bd04b9158ee68cdcccbe6c3161b4bc451d69764284caad5cabef6a02e3409c7b"
                }
            ]
        },
        {
            "bom-ref": "pkg:golang/github.com/minio/highwayhash@v1.0.2",
            "type": "library",
            "name": "github.com/minio/highwayhash",
            "version": "v1.0.2",
            "purl": "pkg:golang/github.com/minio/highwayhash@v1.0.2",
            "properties": [
                {
                    "name": "aquasecurity:trivy:PkgType",
                    "value": "gobinary"
                },
                {
                    "name": "aquasecurity:trivy:LayerDigest",
                    "value": "sha256:436f213323b997ad7aca1675cce2c9a9366e3cd51995b9829835ab9762901f98"
                },
                {
                    "name": "aquasecurity:trivy:LayerDiffID",
                    "value": "sha256:bd04b9158ee68cdcccbe6c3161b4bc451d69764284caad5cabef6a02e3409c7b"
                }
            ]
        },
        {
            "bom-ref": "pkg:golang/github.com/nats-io/jwt/v2@v2.3.0",
            "type": "library",
            "name": "github.com/nats-io/jwt/v2",
            "version": "v2.3.0",
            "purl": "pkg:golang/github.com/nats-io/jwt/v2@v2.3.0",
            "properties": [
                {
                    "name": "aquasecurity:trivy:PkgType",
                    "value": "gobinary"
                },
                {
                    "name": "aquasecurity:trivy:LayerDigest",
                    "value": "sha256:436f213323b997ad7aca1675cce2c9a9366e3cd51995b9829835ab9762901f98"
                },
                {
                    "name": "aquasecurity:trivy:LayerDiffID",
                    "value": "sha256:bd04b9158ee68cdcccbe6c3161b4bc451d69764284caad5cabef6a02e3409c7b"
                }
            ]
        },
        {
            "bom-ref": "pkg:golang/github.com/nats-io/nats-server/v2@%28devel%29",
            "type": "library",
            "name": "github.com/nats-io/nats-server/v2",
            "version": "(devel)",
            "purl": "pkg:golang/github.com/nats-io/nats-server/v2@%28devel%29",
            "properties": [
                {
                    "name": "aquasecurity:trivy:PkgType",
                    "value": "gobinary"
                },
                {
                    "name": "aquasecurity:trivy:LayerDigest",
                    "value": "sha256:436f213323b997ad7aca1675cce2c9a9366e3cd51995b9829835ab9762901f98"
                },
                {
                    "name": "aquasecurity:trivy:LayerDiffID",
                    "value": "sha256:bd04b9158ee68cdcccbe6c3161b4bc451d69764284caad5cabef6a02e3409c7b"
                }
            ]
        },
        {
            "bom-ref": "pkg:golang/github.com/nats-io/nkeys@v0.3.0",
            "type": "library",
            "name": "github.com/nats-io/nkeys",
            "version": "v0.3.0",
            "purl": "pkg:golang/github.com/nats-io/nkeys@v0.3.0",
            "properties": [
                {
                    "name": "aquasecurity:trivy:PkgType",
                    "value": "gobinary"
                },
                {
                    "name": "aquasecurity:trivy:LayerDigest",
                    "value": "sha256:436f213323b997ad7aca1675cce2c9a9366e3cd51995b9829835ab9762901f98"
                },
                {
                    "name": "aquasecurity:trivy:LayerDiffID",
                    "value": "sha256:bd04b9158ee68cdcccbe6c3161b4bc451d69764284caad5cabef6a02e3409c7b"
                }
            ]
        },
        {
            "bom-ref": "pkg:golang/github.com/nats-io/nuid@v1.0.1",
            "type": "library",
            "name": "github.com/nats-io/nuid",
            "version": "v1.0.1",
            "purl": "pkg:golang/github.com/nats-io/nuid@v1.0.1",
            "properties": [
                {
                    "name": "aquasecurity:trivy:PkgType",
                    "value": "gobinary"
                },
                {
                    "name": "aquasecurity:trivy:LayerDigest",
                    "value": "sha256:436f213323b997ad7aca1675cce2c9a9366e3cd51995b9829835ab9762901f98"
                },
                {
                    "name": "aquasecurity:trivy:LayerDiffID",
                    "value": "sha256:bd04b9158ee68cdcccbe6c3161b4bc451d69764284caad5cabef6a02e3409c7b"
                }
            ]
        },
        {
            "bom-ref": "pkg:golang/go.uber.org/automaxprocs@v1.5.1",
            "type": "library",
            "name": "go.uber.org/automaxprocs",
            "version": "v1.5.1",
            "purl": "pkg:golang/go.uber.org/automaxprocs@v1.5.1",
            "properties": [
                {
                    "name": "aquasecurity:trivy:PkgType",
                    "value": "gobinary"
                },
                {
                    "name": "aquasecurity:trivy:LayerDigest",
                    "value": "sha256:436f213323b997ad7aca1675cce2c9a9366e3cd51995b9829835ab9762901f98"
                },
                {
                    "name": "aquasecurity:trivy:LayerDiffID",
                    "value": "sha256:bd04b9158ee68cdcccbe6c3161b4bc451d69764284caad5cabef6a02e3409c7b"
                }
            ]
        },
        {
            "bom-ref": "pkg:golang/golang.org/x/crypto@v0.6.0",
            "type": "library",
            "name": "golang.org/x/crypto",
            "version": "v0.6.0",
            "purl": "pkg:golang/golang.org/x/crypto@v0.6.0",
            "properties": [
                {
                    "name": "aquasecurity:trivy:PkgType",
                    "value": "gobinary"
                },
                {
                    "name": "aquasecurity:trivy:LayerDigest",
                    "value": "sha256:436f213323b997ad7aca1675cce2c9a9366e3cd51995b9829835ab9762901f98"
                },
                {
                    "name": "aquasecurity:trivy:LayerDiffID",
                    "value": "sha256:bd04b9158ee68cdcccbe6c3161b4bc451d69764284caad5cabef6a02e3409c7b"
                }
            ]
        },
        {
            "bom-ref": "pkg:golang/golang.org/x/sys@v0.5.0",
            "type": "library",
            "name": "golang.org/x/sys",
            "version": "v0.5.0",
            "purl": "pkg:golang/golang.org/x/sys@v0.5.0",
            "properties": [
                {
                    "name": "aquasecurity:trivy:PkgType",
                    "value": "gobinary"
                },
                {
                    "name": "aquasecurity:trivy:LayerDigest",
                    "value": "sha256:436f213323b997ad7aca1675cce2c9a9366e3cd51995b9829835ab9762901f98"
                },
                {
                    "name": "aquasecurity:trivy:LayerDiffID",
                    "value": "sha256:bd04b9158ee68cdcccbe6c3161b4bc451d69764284caad5cabef6a02e3409c7b"
                }
            ]
        },
        {
            "bom-ref": "pkg:golang/golang.org/x/time@v0.3.0",
            "type": "library",
            "name": "golang.org/x/time",
            "version": "v0.3.0",
            "purl": "pkg:golang/golang.org/x/time@v0.3.0",
            "properties": [
                {
                    "name": "aquasecurity:trivy:PkgType",
                    "value": "gobinary"
                },
                {
                    "name": "aquasecurity:trivy:LayerDigest",
                    "value": "sha256:436f213323b997ad7aca1675cce2c9a9366e3cd51995b9829835ab9762901f98"
                },
                {
                    "name": "aquasecurity:trivy:LayerDiffID",
                    "value": "sha256:bd04b9158ee68cdcccbe6c3161b4bc451d69764284caad5cabef6a02e3409c7b"
                }
            ]
        },
        {
            "bom-ref": "a13419d4-4946-46dc-b0e3-755e037388c2",
            "type": "application",
            "name": "nats-server",
            "properties": [
                {
                    "name": "aquasecurity:trivy:Type",
                    "value": "gobinary"
                },
                {
                    "name": "aquasecurity:trivy:Class",
                    "value": "lang-pkgs"
                }
            ]
        }
    ],
    "dependencies": [
        {
            "ref": "a13419d4-4946-46dc-b0e3-755e037388c2",
            "dependsOn": [
                "pkg:golang/github.com/klauspost/compress@v1.16.0",
                "pkg:golang/github.com/minio/highwayhash@v1.0.2",
                "pkg:golang/github.com/nats-io/jwt/v2@v2.3.0",
                "pkg:golang/github.com/nats-io/nats-server/v2@%28devel%29",
                "pkg:golang/github.com/nats-io/nkeys@v0.3.0",
                "pkg:golang/github.com/nats-io/nuid@v1.0.1",
                "pkg:golang/go.uber.org/automaxprocs@v1.5.1",
                "pkg:golang/golang.org/x/crypto@v0.6.0",
                "pkg:golang/golang.org/x/sys@v0.5.0",
                "pkg:golang/golang.org/x/time@v0.3.0"
            ]
        },
        {
            "ref": "pkg:oci/nats@sha256:e9767cfa85287292db74b0533d910366598f93e18b3c60706cf1c25ab7f657be?repository_url=index.docker.io%2Flibrary%2Fnats\u0026arch=amd64",
            "dependsOn": [
                "a13419d4-4946-46dc-b0e3-755e037388c2"
            ]
        }
    ],
    "vulnerabilities": []
}

