{
    "bomFormat": "CycloneDX",
    "specVersion": "1.4",
    "serialNumber": "urn:uuid:48947778-029b-4459-8df6-e2e504c48df1",
    "version": 1,
    "metadata": {
        "timestamp": "2023-03-06T00:26:38+00:00",
        "tools": [
            {
                "vendor": "aquasecurity",
                "name": "trivy",
                "version": "0.36.1"
            }
        ],
        "component": {
            "bom-ref": "pkg:oci/photon@sha256:d415fc41684fa988b19b0beb7fb7d98a8c537e8d2ae09cd45551dce7644fbb78?repository_url=index.docker.io%2Flibrary%2Fphoton\u0026arch=amd64",
            "type": "container",
            "name": "photon:5.0",
            "purl": "pkg:oci/photon@sha256:d415fc41684fa988b19b0beb7fb7d98a8c537e8d2ae09cd45551dce7644fbb78?repository_url=index.docker.io%2Flibrary%2Fphoton\u0026arch=amd64",
            "properties": [
                {
                    "name": "aquasecurity:trivy:SchemaVersion",
                    "value": "2"
                },
                {
                    "name": "aquasecurity:trivy:ImageID",
                    "value": "sha256:fcce53cf55bab542c3d1303e112276a776858bc79b336d590e868f80c8be0346"
                },
                {
                    "name": "aquasecurity:trivy:RepoDigest",
                    "value": "photon@sha256:d415fc41684fa988b19b0beb7fb7d98a8c537e8d2ae09cd45551dce7644fbb78"
                },
                {
                    "name": "aquasecurity:trivy:DiffID",
                    "value": "sha256:6a7a7eca33cc2576b5b4677572922b7e2391719fecf25ae53f05ca508b548450"
                },
                {
                    "name": "aquasecurity:trivy:RepoTag",
                    "value": "photon:5.0"
                }
            ]
        }
    },
    "components": [
        {
            "bom-ref": "pkg:rpm/photon/bash@5.2-1.ph5?arch=x86_64\u0026distro=photon-5.0",
            "type": "library",
            "name": "bash",
            "version": "5.2-1.ph5",
            "licenses": [
                {
                    "expression": "GPLv3"
                }
            ],
            "purl": "pkg:rpm/photon/bash@5.2-1.ph5?arch=x86_64\u0026distro=photon-5.0",
            "properties": [
                {
                    "name": "aquasecurity:trivy:PkgID",
                    "value": "bash@5.2-1.ph5.x86_64"
                },
                {
                    "name": "aquasecurity:trivy:PkgType",
                    "value": "photon"
                },
                {
                    "name": "aquasecurity:trivy:SrcName",
                    "value": "bash"
                },
                {
                    "name": "aquasecurity:trivy:SrcVersion",
                    "value": "5.2"
                },
                {
                    "name": "aquasecurity:trivy:SrcRelease",
                    "value": "1.ph5"
                },
                {
                    "name": "aquasecurity:trivy:LayerDigest",
                    "value": "sha256:671747808a0540005ab919b70042a9aa90f201d253eb96d523d7f78dd604b583"
                },
                {
                    "name": "aquasecurity:trivy:LayerDiffID",
                    "value": "sha256:6a7a7eca33cc2576b5b4677572922b7e2391719fecf25ae53f05ca508b548450"
                }
            ]
        },
        {
            "bom-ref": "pkg:rpm/photon/bzip2-libs@1.0.8-5.ph5?arch=x86_64\u0026distro=photon-5.0",
            "type": "library",
            "name": "bzip2-libs",
            "version": "1.0.8-5.ph5",
            "licenses": [
                {
                    "expression": "BSD"
                }
            ],
            "purl": "pkg:rpm/photon/bzip2-libs@1.0.8-5.ph5?arch=x86_64\u0026distro=photon-5.0",
            "properties": [
                {
                    "name": "aquasecurity:trivy:PkgID",
                    "value": "bzip2-libs@1.0.8-5.ph5.x86_64"
                },
                {
                    "name": "aquasecurity:trivy:PkgType",
                    "value": "photon"
                },
                {
                    "name": "aquasecurity:trivy:SrcName",
                    "value": "bzip2"
                },
                {
                    "name": "aquasecurity:trivy:SrcVersion",
                    "value": "1.0.8"
                },
                {
                    "name": "aquasecurity:trivy:SrcRelease",
                    "value": "5.ph5"
                },
                {
                    "name": "aquasecurity:trivy:LayerDigest",
                    "value": "sha256:671747808a0540005ab919b70042a9aa90f201d253eb96d523d7f78dd604b583"
                },
                {
                    "name": "aquasecurity:trivy:LayerDiffID",
                    "value": "sha256:6a7a7eca33cc2576b5b4677572922b7e2391719fecf25ae53f05ca508b548450"
                }
            ]
        },
        {
            "bom-ref": "pkg:rpm/photon/ca-certificates@20220706-1.ph5?arch=x86_64\u0026distro=photon-5.0",
            "type": "library",
            "name": "ca-certificates",
            "version": "20220706-1.ph5",
            "licenses": [
                {
                    "expression": "Custom"
                }
            ],
            "purl": "pkg:rpm/photon/ca-certificates@20220706-1.ph5?arch=x86_64\u0026distro=photon-5.0",
            "properties": [
                {
                    "name": "aquasecurity:trivy:PkgID",
                    "value": "ca-certificates@20220706-1.ph5.x86_64"
                },
                {
                    "name": "aquasecurity:trivy:PkgType",
                    "value": "photon"
                },
                {
                    "name": "aquasecurity:trivy:SrcName",
                    "value": "ca-certificates"
                },
                {
                    "name": "aquasecurity:trivy:SrcVersion",
                    "value": "20220706"
                },
                {
                    "name": "aquasecurity:trivy:SrcRelease",
                    "value": "1.ph5"
                },
                {
                    "name": "aquasecurity:trivy:LayerDigest",
                    "value": "sha256:671747808a0540005ab919b70042a9aa90f201d253eb96d523d7f78dd604b583"
                },
                {
                    "name": "aquasecurity:trivy:LayerDiffID",
                    "value": "sha256:6a7a7eca33cc2576b5b4677572922b7e2391719fecf25ae53f05ca508b548450"
                }
            ]
        },
        {
            "bom-ref": "pkg:rpm/photon/ca-certificates-pki@20220706-1.ph5?arch=x86_64\u0026distro=photon-5.0",
            "type": "library",
            "name": "ca-certificates-pki",
            "version": "20220706-1.ph5",
            "licenses": [
                {
                    "expression": "Custom"
                }
            ],
            "purl": "pkg:rpm/photon/ca-certificates-pki@20220706-1.ph5?arch=x86_64\u0026distro=photon-5.0",
            "properties": [
                {
                    "name": "aquasecurity:trivy:PkgID",
                    "value": "ca-certificates-pki@20220706-1.ph5.x86_64"
                },
                {
                    "name": "aquasecurity:trivy:PkgType",
                    "value": "photon"
                },
                {
                    "name": "aquasecurity:trivy:SrcName",
                    "value": "ca-certificates"
                },
                {
                    "name": "aquasecurity:trivy:SrcVersion",
                    "value": "20220706"
                },
                {
                    "name": "aquasecurity:trivy:SrcRelease",
                    "value": "1.ph5"
                },
                {
                    "name": "aquasecurity:trivy:LayerDigest",
                    "value": "sha256:671747808a0540005ab919b70042a9aa90f201d253eb96d523d7f78dd604b583"
                },
                {
                    "name": "aquasecurity:trivy:LayerDiffID",
                    "value": "sha256:6a7a7eca33cc2576b5b4677572922b7e2391719fecf25ae53f05ca508b548450"
                }
            ]
        },
        {
            "bom-ref": "pkg:rpm/photon/curl@7.86.0-1.ph5?arch=x86_64\u0026distro=photon-5.0",
            "type": "library",
            "name": "curl",
            "version": "7.86.0-1.ph5",
            "licenses": [
                {
                    "expression": "MIT"
                }
            ],
            "purl": "pkg:rpm/photon/curl@7.86.0-1.ph5?arch=x86_64\u0026distro=photon-5.0",
            "properties": [
                {
                    "name": "aquasecurity:trivy:PkgID",
                    "value": "curl@7.86.0-1.ph5.x86_64"
                },
                {
                    "name": "aquasecurity:trivy:PkgType",
                    "value": "photon"
                },
                {
                    "name": "aquasecurity:trivy:SrcName",
                    "value": "curl"
                },
                {
                    "name": "aquasecurity:trivy:SrcVersion",
                    "value": "7.86.0"
                },
                {
                    "name": "aquasecurity:trivy:SrcRelease",
                    "value": "1.ph5"
                },
                {
                    "name": "aquasecurity:trivy:LayerDigest",
                    "value": "sha256:671747808a0540005ab919b70042a9aa90f201d253eb96d523d7f78dd604b583"
                },
                {
                    "name": "aquasecurity:trivy:LayerDiffID",
                    "value": "sha256:6a7a7eca33cc2576b5b4677572922b7e2391719fecf25ae53f05ca508b548450"
                }
            ]
        },
        {
            "bom-ref": "pkg:rpm/photon/curl-libs@7.86.0-1.ph5?arch=x86_64\u0026distro=photon-5.0",
            "type": "library",
            "name": "curl-libs",
            "version": "7.86.0-1.ph5",
            "licenses": [
                {
                    "expression": "MIT"
                }
            ],
            "purl": "pkg:rpm/photon/curl-libs@7.86.0-1.ph5?arch=x86_64\u0026distro=photon-5.0",
            "properties": [
                {
                    "name": "aquasecurity:trivy:PkgID",
                    "value": "curl-libs@7.86.0-1.ph5.x86_64"
                },
                {
                    "name": "aquasecurity:trivy:PkgType",
                    "value": "photon"
                },
                {
                    "name": "aquasecurity:trivy:SrcName",
                    "value": "curl"
                },
                {
                    "name": "aquasecurity:trivy:SrcVersion",
                    "value": "7.86.0"
                },
                {
                    "name": "aquasecurity:trivy:SrcRelease",
                    "value": "1.ph5"
                },
                {
                    "name": "aquasecurity:trivy:LayerDigest",
                    "value": "sha256:671747808a0540005ab919b70042a9aa90f201d253eb96d523d7f78dd604b583"
                },
                {
                    "name": "aquasecurity:trivy:LayerDiffID",
                    "value": "sha256:6a7a7eca33cc2576b5b4677572922b7e2391719fecf25ae53f05ca508b548450"
                }
            ]
        },
        {
            "bom-ref": "pkg:rpm/photon/e2fsprogs-libs@1.46.5-1.ph5?arch=x86_64\u0026distro=photon-5.0",
            "type": "library",
            "name": "e2fsprogs-libs",
            "version": "1.46.5-1.ph5",
            "licenses": [
                {
                    "expression": "GPLv2+"
                }
            ],
            "purl": "pkg:rpm/photon/e2fsprogs-libs@1.46.5-1.ph5?arch=x86_64\u0026distro=photon-5.0",
            "properties": [
                {
                    "name": "aquasecurity:trivy:PkgID",
                    "value": "e2fsprogs-libs@1.46.5-1.ph5.x86_64"
                },
                {
                    "name": "aquasecurity:trivy:PkgType",
                    "value": "photon"
                },
                {
                    "name": "aquasecurity:trivy:SrcName",
                    "value": "e2fsprogs"
                },
                {
                    "name": "aquasecurity:trivy:SrcVersion",
                    "value": "1.46.5"
                },
                {
                    "name": "aquasecurity:trivy:SrcRelease",
                    "value": "1.ph5"
                },
                {
                    "name": "aquasecurity:trivy:LayerDigest",
                    "value": "sha256:671747808a0540005ab919b70042a9aa90f201d253eb96d523d7f78dd604b583"
                },
                {
                    "name": "aquasecurity:trivy:LayerDiffID",
                    "value": "sha256:6a7a7eca33cc2576b5b4677572922b7e2391719fecf25ae53f05ca508b548450"
                }
            ]
        },
        {
            "bom-ref": "pkg:rpm/photon/elfutils-libelf@0.188-3.ph5?arch=x86_64\u0026distro=photon-5.0",
            "type": "library",
            "name": "elfutils-libelf",
            "version": "0.188-3.ph5",
            "licenses": [
                {
                    "expression": "GPLv2+ or LGPLv3+"
                }
            ],
            "purl": "pkg:rpm/photon/elfutils-libelf@0.188-3.ph5?arch=x86_64\u0026distro=photon-5.0",
            "properties": [
                {
                    "name": "aquasecurity:trivy:PkgID",
                    "value": "elfutils-libelf@0.188-3.ph5.x86_64"
                },
                {
                    "name": "aquasecurity:trivy:PkgType",
                    "value": "photon"
                },
                {
                    "name": "aquasecurity:trivy:SrcName",
                    "value": "elfutils"
                },
                {
                    "name": "aquasecurity:trivy:SrcVersion",
                    "value": "0.188"
                },
                {
                    "name": "aquasecurity:trivy:SrcRelease",
                    "value": "3.ph5"
                },
                {
                    "name": "aquasecurity:trivy:LayerDigest",
                    "value": "sha256:671747808a0540005ab919b70042a9aa90f201d253eb96d523d7f78dd604b583"
                },
                {
                    "name": "aquasecurity:trivy:LayerDiffID",
                    "value": "sha256:6a7a7eca33cc2576b5b4677572922b7e2391719fecf25ae53f05ca508b548450"
                }
            ]
        },
        {
            "bom-ref": "pkg:rpm/photon/expat-libs@2.5.0-1.ph5?arch=x86_64\u0026distro=photon-5.0",
            "type": "library",
            "name": "expat-libs",
            "version": "2.5.0-1.ph5",
            "licenses": [
                {
                    "expression": "MIT"
                }
            ],
            "purl": "pkg:rpm/photon/expat-libs@2.5.0-1.ph5?arch=x86_64\u0026distro=photon-5.0",
            "properties": [
                {
                    "name": "aquasecurity:trivy:PkgID",
                    "value": "expat-libs@2.5.0-1.ph5.x86_64"
                },
                {
                    "name": "aquasecurity:trivy:PkgType",
                    "value": "photon"
                },
                {
                    "name": "aquasecurity:trivy:SrcName",
                    "value": "expat"
                },
                {
                    "name": "aquasecurity:trivy:SrcVersion",
                    "value": "2.5.0"
                },
                {
                    "name": "aquasecurity:trivy:SrcRelease",
                    "value": "1.ph5"
                },
                {
                    "name": "aquasecurity:trivy:LayerDigest",
                    "value": "sha256:671747808a0540005ab919b70042a9aa90f201d253eb96d523d7f78dd604b583"
                },
                {
                    "name": "aquasecurity:trivy:LayerDiffID",
                    "value": "sha256:6a7a7eca33cc2576b5b4677572922b7e2391719fecf25ae53f05ca508b548450"
                }
            ]
        },
        {
            "bom-ref": "pkg:rpm/photon/filesystem@1.1-4.ph5?arch=x86_64\u0026distro=photon-5.0",
            "type": "library",
            "name": "filesystem",
            "version": "1.1-4.ph5",
            "licenses": [
                {
                    "expression": "GPLv3"
                }
            ],
            "purl": "pkg:rpm/photon/filesystem@1.1-4.ph5?arch=x86_64\u0026distro=photon-5.0",
            "properties": [
                {
                    "name": "aquasecurity:trivy:PkgID",
                    "value": "filesystem@1.1-4.ph5.x86_64"
                },
                {
                    "name": "aquasecurity:trivy:PkgType",
                    "value": "photon"
                },
                {
                    "name": "aquasecurity:trivy:SrcName",
                    "value": "filesystem"
                },
                {
                    "name": "aquasecurity:trivy:SrcVersion",
                    "value": "1.1"
                },
                {
                    "name": "aquasecurity:trivy:SrcRelease",
                    "value": "4.ph5"
                },
                {
                    "name": "aquasecurity:trivy:LayerDigest",
                    "value": "sha256:671747808a0540005ab919b70042a9aa90f201d253eb96d523d7f78dd604b583"
                },
                {
                    "name": "aquasecurity:trivy:LayerDiffID",
                    "value": "sha256:6a7a7eca33cc2576b5b4677572922b7e2391719fecf25ae53f05ca508b548450"
                }
            ]
        },
        {
            "bom-ref": "pkg:rpm/photon/glibc@2.36-3.ph5?arch=x86_64\u0026distro=photon-5.0",
            "type": "library",
            "name": "glibc",
            "version": "2.36-3.ph5",
            "licenses": [
                {
                    "expression": "LGPLv2+"
                }
            ],
            "purl": "pkg:rpm/photon/glibc@2.36-3.ph5?arch=x86_64\u0026distro=photon-5.0",
            "properties": [
                {
                    "name": "aquasecurity:trivy:PkgID",
                    "value": "glibc@2.36-3.ph5.x86_64"
                },
                {
                    "name": "aquasecurity:trivy:PkgType",
                    "value": "photon"
                },
                {
                    "name": "aquasecurity:trivy:SrcName",
                    "value": "glibc"
                },
                {
                    "name": "aquasecurity:trivy:SrcVersion",
                    "value": "2.36"
                },
                {
                    "name": "aquasecurity:trivy:SrcRelease",
                    "value": "3.ph5"
                },
                {
                    "name": "aquasecurity:trivy:LayerDigest",
                    "value": "sha256:671747808a0540005ab919b70042a9aa90f201d253eb96d523d7f78dd604b583"
                },
                {
                    "name": "aquasecurity:trivy:LayerDiffID",
                    "value": "sha256:6a7a7eca33cc2576b5b4677572922b7e2391719fecf25ae53f05ca508b548450"
                }
            ]
        },
        {
            "bom-ref": "pkg:rpm/photon/gpg-pubkey@66fd4949-4803fe57?arch=None\u0026distro=photon-5.0",
            "type": "library",
            "name": "gpg-pubkey",
            "version": "66fd4949-4803fe57",
            "licenses": [
                {
                    "expression": "pubkey"
                }
            ],
            "purl": "pkg:rpm/photon/gpg-pubkey@66fd4949-4803fe57?arch=None\u0026distro=photon-5.0",
            "properties": [
                {
                    "name": "aquasecurity:trivy:PkgID",
                    "value": "gpg-pubkey@66fd4949-4803fe57."
                },
                {
                    "name": "aquasecurity:trivy:PkgType",
                    "value": "photon"
                },
                {
                    "name": "aquasecurity:trivy:LayerDigest",
                    "value": "sha256:671747808a0540005ab919b70042a9aa90f201d253eb96d523d7f78dd604b583"
                },
                {
                    "name": "aquasecurity:trivy:LayerDiffID",
                    "value": "sha256:6a7a7eca33cc2576b5b4677572922b7e2391719fecf25ae53f05ca508b548450"
                }
            ]
        },
        {
            "bom-ref": "pkg:rpm/photon/gpg-pubkey@8a6a826d-596882ca?arch=None\u0026distro=photon-5.0",
            "type": "library",
            "name": "gpg-pubkey",
            "version": "8a6a826d-596882ca",
            "licenses": [
                {
                    "expression": "pubkey"
                }
            ],
            "purl": "pkg:rpm/photon/gpg-pubkey@8a6a826d-596882ca?arch=None\u0026distro=photon-5.0",
            "properties": [
                {
                    "name": "aquasecurity:trivy:PkgID",
                    "value": "gpg-pubkey@8a6a826d-596882ca."
                },
                {
                    "name": "aquasecurity:trivy:PkgType",
                    "value": "photon"
                },
                {
                    "name": "aquasecurity:trivy:LayerDigest",
                    "value": "sha256:671747808a0540005ab919b70042a9aa90f201d253eb96d523d7f78dd604b583"
                },
                {
                    "name": "aquasecurity:trivy:LayerDiffID",
                    "value": "sha256:6a7a7eca33cc2576b5b4677572922b7e2391719fecf25ae53f05ca508b548450"
                }
            ]
        },
        {
            "bom-ref": "pkg:rpm/photon/krb5@1.17.2-2.ph5?arch=x86_64\u0026distro=photon-5.0",
            "type": "library",
            "name": "krb5",
            "version": "1.17.2-2.ph5",
            "licenses": [
                {
                    "expression": "MIT"
                }
            ],
            "purl": "pkg:rpm/photon/krb5@1.17.2-2.ph5?arch=x86_64\u0026distro=photon-5.0",
            "properties": [
                {
                    "name": "aquasecurity:trivy:PkgID",
                    "value": "krb5@1.17.2-2.ph5.x86_64"
                },
                {
                    "name": "aquasecurity:trivy:PkgType",
                    "value": "photon"
                },
                {
                    "name": "aquasecurity:trivy:SrcName",
                    "value": "krb5"
                },
                {
                    "name": "aquasecurity:trivy:SrcVersion",
                    "value": "1.17.2"
                },
                {
                    "name": "aquasecurity:trivy:SrcRelease",
                    "value": "2.ph5"
                },
                {
                    "name": "aquasecurity:trivy:LayerDigest",
                    "value": "sha256:671747808a0540005ab919b70042a9aa90f201d253eb96d523d7f78dd604b583"
                },
                {
                    "name": "aquasecurity:trivy:LayerDiffID",
                    "value": "sha256:6a7a7eca33cc2576b5b4677572922b7e2391719fecf25ae53f05ca508b548450"
                }
            ]
        },
        {
            "bom-ref": "pkg:rpm/photon/libcap@2.66-1.ph5?arch=x86_64\u0026distro=photon-5.0",
            "type": "library",
            "name": "libcap",
            "version": "2.66-1.ph5",
            "licenses": [
                {
                    "expression": "GPLv2+"
                }
            ],
            "purl": "pkg:rpm/photon/libcap@2.66-1.ph5?arch=x86_64\u0026distro=photon-5.0",
            "properties": [
                {
                    "name": "aquasecurity:trivy:PkgID",
                    "value": "libcap@2.66-1.ph5.x86_64"
                },
                {
                    "name": "aquasecurity:trivy:PkgType",
                    "value": "photon"
                },
                {
                    "name": "aquasecurity:trivy:SrcName",
                    "value": "libcap"
                },
                {
                    "name": "aquasecurity:trivy:SrcVersion",
                    "value": "2.66"
                },
                {
                    "name": "aquasecurity:trivy:SrcRelease",
                    "value": "1.ph5"
                },
                {
                    "name": "aquasecurity:trivy:LayerDigest",
                    "value": "sha256:671747808a0540005ab919b70042a9aa90f201d253eb96d523d7f78dd604b583"
                },
                {
                    "name": "aquasecurity:trivy:LayerDiffID",
                    "value": "sha256:6a7a7eca33cc2576b5b4677572922b7e2391719fecf25ae53f05ca508b548450"
                }
            ]
        },
        {
            "bom-ref": "pkg:rpm/photon/libgcc@12.2.0-1.ph5?arch=x86_64\u0026distro=photon-5.0",
            "type": "library",
            "name": "libgcc",
            "version": "12.2.0-1.ph5",
            "licenses": [
                {
                    "expression": "GPLv2+"
                }
            ],
            "purl": "pkg:rpm/photon/libgcc@12.2.0-1.ph5?arch=x86_64\u0026distro=photon-5.0",
            "properties": [
                {
                    "name": "aquasecurity:trivy:PkgID",
                    "value": "libgcc@12.2.0-1.ph5.x86_64"
                },
                {
                    "name": "aquasecurity:trivy:PkgType",
                    "value": "photon"
                },
                {
                    "name": "aquasecurity:trivy:SrcName",
                    "value": "gcc"
                },
                {
                    "name": "aquasecurity:trivy:SrcVersion",
                    "value": "12.2.0"
                },
                {
                    "name": "aquasecurity:trivy:SrcRelease",
                    "value": "1.ph5"
                },
                {
                    "name": "aquasecurity:trivy:LayerDigest",
                    "value": "sha256:671747808a0540005ab919b70042a9aa90f201d253eb96d523d7f78dd604b583"
                },
                {
                    "name": "aquasecurity:trivy:LayerDiffID",
                    "value": "sha256:6a7a7eca33cc2576b5b4677572922b7e2391719fecf25ae53f05ca508b548450"
                }
            ]
        },
        {
            "bom-ref": "pkg:rpm/photon/libsolv@0.7.22-3.ph5?arch=x86_64\u0026distro=photon-5.0",
            "type": "library",
            "name": "libsolv",
            "version": "0.7.22-3.ph5",
            "licenses": [
                {
                    "expression": "BSD"
                }
            ],
            "purl": "pkg:rpm/photon/libsolv@0.7.22-3.ph5?arch=x86_64\u0026distro=photon-5.0",
            "properties": [
                {
                    "name": "aquasecurity:trivy:PkgID",
                    "value": "libsolv@0.7.22-3.ph5.x86_64"
                },
                {
                    "name": "aquasecurity:trivy:PkgType",
                    "value": "photon"
                },
                {
                    "name": "aquasecurity:trivy:SrcName",
                    "value": "libsolv"
                },
                {
                    "name": "aquasecurity:trivy:SrcVersion",
                    "value": "0.7.22"
                },
                {
                    "name": "aquasecurity:trivy:SrcRelease",
                    "value": "3.ph5"
                },
                {
                    "name": "aquasecurity:trivy:LayerDigest",
                    "value": "sha256:671747808a0540005ab919b70042a9aa90f201d253eb96d523d7f78dd604b583"
                },
                {
                    "name": "aquasecurity:trivy:LayerDiffID",
                    "value": "sha256:6a7a7eca33cc2576b5b4677572922b7e2391719fecf25ae53f05ca508b548450"
                }
            ]
        },
        {
            "bom-ref": "pkg:rpm/photon/libssh2@1.10.0-1.ph5?arch=x86_64\u0026distro=photon-5.0",
            "type": "library",
            "name": "libssh2",
            "version": "1.10.0-1.ph5",
            "licenses": [
                {
                    "expression": "BSD"
                }
            ],
            "purl": "pkg:rpm/photon/libssh2@1.10.0-1.ph5?arch=x86_64\u0026distro=photon-5.0",
            "properties": [
                {
                    "name": "aquasecurity:trivy:PkgID",
                    "value": "libssh2@1.10.0-1.ph5.x86_64"
                },
                {
                    "name": "aquasecurity:trivy:PkgType",
                    "value": "photon"
                },
                {
                    "name": "aquasecurity:trivy:SrcName",
                    "value": "libssh2"
                },
                {
                    "name": "aquasecurity:trivy:SrcVersion",
                    "value": "1.10.0"
                },
                {
                    "name": "aquasecurity:trivy:SrcRelease",
                    "value": "1.ph5"
                },
                {
                    "name": "aquasecurity:trivy:LayerDigest",
                    "value": "sha256:671747808a0540005ab919b70042a9aa90f201d253eb96d523d7f78dd604b583"
                },
                {
                    "name": "aquasecurity:trivy:LayerDiffID",
                    "value": "sha256:6a7a7eca33cc2576b5b4677572922b7e2391719fecf25ae53f05ca508b548450"
                }
            ]
        },
        {
            "bom-ref": "pkg:rpm/photon/lua@5.4.4-4.ph5?arch=x86_64\u0026distro=photon-5.0",
            "type": "library",
            "name": "lua",
            "version": "5.4.4-4.ph5",
            "licenses": [
                {
                    "expression": "MIT"
                }
            ],
            "purl": "pkg:rpm/photon/lua@5.4.4-4.ph5?arch=x86_64\u0026distro=photon-5.0",
            "properties": [
                {
                    "name": "aquasecurity:trivy:PkgID",
                    "value": "lua@5.4.4-4.ph5.x86_64"
                },
                {
                    "name": "aquasecurity:trivy:PkgType",
                    "value": "photon"
                },
                {
                    "name": "aquasecurity:trivy:SrcName",
                    "value": "lua"
                },
                {
                    "name": "aquasecurity:trivy:SrcVersion",
                    "value": "5.4.4"
                },
                {
                    "name": "aquasecurity:trivy:SrcRelease",
                    "value": "4.ph5"
                },
                {
                    "name": "aquasecurity:trivy:LayerDigest",
                    "value": "sha256:671747808a0540005ab919b70042a9aa90f201d253eb96d523d7f78dd604b583"
                },
                {
                    "name": "aquasecurity:trivy:LayerDiffID",
                    "value": "sha256:6a7a7eca33cc2576b5b4677572922b7e2391719fecf25ae53f05ca508b548450"
                }
            ]
        },
        {
            "bom-ref": "pkg:rpm/photon/ncurses-libs@6.3-1.ph5?arch=x86_64\u0026distro=photon-5.0",
            "type": "library",
            "name": "ncurses-libs",
            "version": "6.3-1.ph5",
            "licenses": [
                {
                    "expression": "MIT"
                }
            ],
            "purl": "pkg:rpm/photon/ncurses-libs@6.3-1.ph5?arch=x86_64\u0026distro=photon-5.0",
            "properties": [
                {
                    "name": "aquasecurity:trivy:PkgID",
                    "value": "ncurses-libs@6.3-1.ph5.x86_64"
                },
                {
                    "name": "aquasecurity:trivy:PkgType",
                    "value": "photon"
                },
                {
                    "name": "aquasecurity:trivy:SrcName",
                    "value": "ncurses"
                },
                {
                    "name": "aquasecurity:trivy:SrcVersion",
                    "value": "6.3"
                },
                {
                    "name": "aquasecurity:trivy:SrcRelease",
                    "value": "1.ph5"
                },
                {
                    "name": "aquasecurity:trivy:LayerDigest",
                    "value": "sha256:671747808a0540005ab919b70042a9aa90f201d253eb96d523d7f78dd604b583"
                },
                {
                    "name": "aquasecurity:trivy:LayerDiffID",
                    "value": "sha256:6a7a7eca33cc2576b5b4677572922b7e2391719fecf25ae53f05ca508b548450"
                }
            ]
        },
        {
            "bom-ref": "pkg:rpm/photon/nspr@4.33-1.ph5?arch=x86_64\u0026distro=photon-5.0",
            "type": "library",
            "name": "nspr",
            "version": "4.33-1.ph5",
            "licenses": [
                {
                    "expression": "MPLv2.0"
                }
            ],
            "purl": "pkg:rpm/photon/nspr@4.33-1.ph5?arch=x86_64\u0026distro=photon-5.0",
            "properties": [
                {
                    "name": "aquasecurity:trivy:PkgID",
                    "value": "nspr@4.33-1.ph5.x86_64"
                },
                {
                    "name": "aquasecurity:trivy:PkgType",
                    "value": "photon"
                },
                {
                    "name": "aquasecurity:trivy:SrcName",
                    "value": "nspr"
                },
                {
                    "name": "aquasecurity:trivy:SrcVersion",
                    "value": "4.33"
                },
                {
                    "name": "aquasecurity:trivy:SrcRelease",
                    "value": "1.ph5"
                },
                {
                    "name": "aquasecurity:trivy:LayerDigest",
                    "value": "sha256:671747808a0540005ab919b70042a9aa90f201d253eb96d523d7f78dd604b583"
                },
                {
                    "name": "aquasecurity:trivy:LayerDiffID",
                    "value": "sha256:6a7a7eca33cc2576b5b4677572922b7e2391719fecf25ae53f05ca508b548450"
                }
            ]
        },
        {
            "bom-ref": "pkg:rpm/photon/nss-libs@3.78-3.ph5?arch=x86_64\u0026distro=photon-5.0",
            "type": "library",
            "name": "nss-libs",
            "version": "3.78-3.ph5",
            "licenses": [
                {
                    "expression": "MPLv2.0"
                }
            ],
            "purl": "pkg:rpm/photon/nss-libs@3.78-3.ph5?arch=x86_64\u0026distro=photon-5.0",
            "properties": [
                {
                    "name": "aquasecurity:trivy:PkgID",
                    "value": "nss-libs@3.78-3.ph5.x86_64"
                },
                {
                    "name": "aquasecurity:trivy:PkgType",
                    "value": "photon"
                },
                {
                    "name": "aquasecurity:trivy:SrcName",
                    "value": "nss"
                },
                {
                    "name": "aquasecurity:trivy:SrcVersion",
                    "value": "3.78"
                },
                {
                    "name": "aquasecurity:trivy:SrcRelease",
                    "value": "3.ph5"
                },
                {
                    "name": "aquasecurity:trivy:LayerDigest",
                    "value": "sha256:671747808a0540005ab919b70042a9aa90f201d253eb96d523d7f78dd604b583"
                },
                {
                    "name": "aquasecurity:trivy:LayerDiffID",
                    "value": "sha256:6a7a7eca33cc2576b5b4677572922b7e2391719fecf25ae53f05ca508b548450"
                }
            ]
        },
        {
            "bom-ref": "pkg:rpm/photon/openssl@3.0.7-2.ph5?arch=x86_64\u0026distro=photon-5.0",
            "type": "library",
            "name": "openssl",
            "version": "3.0.7-2.ph5",
            "licenses": [
                {
                    "expression": "OpenSSL"
                }
            ],
            "purl": "pkg:rpm/photon/openssl@3.0.7-2.ph5?arch=x86_64\u0026distro=photon-5.0",
            "properties": [
                {
                    "name": "aquasecurity:trivy:PkgID",
                    "value": "openssl@3.0.7-2.ph5.x86_64"
                },
                {
                    "name": "aquasecurity:trivy:PkgType",
                    "value": "photon"
                },
                {
                    "name": "aquasecurity:trivy:SrcName",
                    "value": "openssl"
                },
                {
                    "name": "aquasecurity:trivy:SrcVersion",
                    "value": "3.0.7"
                },
                {
                    "name": "aquasecurity:trivy:SrcRelease",
                    "value": "2.ph5"
                },
                {
                    "name": "aquasecurity:trivy:LayerDigest",
                    "value": "sha256:671747808a0540005ab919b70042a9aa90f201d253eb96d523d7f78dd604b583"
                },
                {
                    "name": "aquasecurity:trivy:LayerDiffID",
                    "value": "sha256:6a7a7eca33cc2576b5b4677572922b7e2391719fecf25ae53f05ca508b548450"
                }
            ]
        },
        {
            "bom-ref": "pkg:rpm/photon/photon-release@5.0-2.ph5?arch=noarch\u0026distro=photon-5.0",
            "type": "library",
            "name": "photon-release",
            "version": "5.0-2.ph5",
            "licenses": [
                {
                    "expression": "Apache License"
                }
            ],
            "purl": "pkg:rpm/photon/photon-release@5.0-2.ph5?arch=noarch\u0026distro=photon-5.0",
            "properties": [
                {
                    "name": "aquasecurity:trivy:PkgID",
                    "value": "photon-release@5.0-2.ph5.noarch"
                },
                {
                    "name": "aquasecurity:trivy:PkgType",
                    "value": "photon"
                },
                {
                    "name": "aquasecurity:trivy:SrcName",
                    "value": "photon-release"
                },
                {
                    "name": "aquasecurity:trivy:SrcVersion",
                    "value": "5.0"
                },
                {
                    "name": "aquasecurity:trivy:SrcRelease",
                    "value": "2.ph5"
                },
                {
                    "name": "aquasecurity:trivy:LayerDigest",
                    "value": "sha256:671747808a0540005ab919b70042a9aa90f201d253eb96d523d7f78dd604b583"
                },
                {
                    "name": "aquasecurity:trivy:LayerDiffID",
                    "value": "sha256:6a7a7eca33cc2576b5b4677572922b7e2391719fecf25ae53f05ca508b548450"
                }
            ]
        },
        {
            "bom-ref": "pkg:rpm/photon/photon-repos@5.0-1.ph5?arch=noarch\u0026distro=photon-5.0",
            "type": "library",
            "name": "photon-repos",
            "version": "5.0-1.ph5",
            "licenses": [
                {
                    "expression": "Apache License"
                }
            ],
            "purl": "pkg:rpm/photon/photon-repos@5.0-1.ph5?arch=noarch\u0026distro=photon-5.0",
            "properties": [
                {
                    "name": "aquasecurity:trivy:PkgID",
                    "value": "photon-repos@5.0-1.ph5.noarch"
                },
                {
                    "name": "aquasecurity:trivy:PkgType",
                    "value": "photon"
                },
                {
                    "name": "aquasecurity:trivy:SrcName",
                    "value": "photon-repos"
                },
                {
                    "name": "aquasecurity:trivy:SrcVersion",
                    "value": "5.0"
                },
                {
                    "name": "aquasecurity:trivy:SrcRelease",
                    "value": "1.ph5"
                },
                {
                    "name": "aquasecurity:trivy:LayerDigest",
                    "value": "sha256:671747808a0540005ab919b70042a9aa90f201d253eb96d523d7f78dd604b583"
                },
                {
                    "name": "aquasecurity:trivy:LayerDiffID",
                    "value": "sha256:6a7a7eca33cc2576b5b4677572922b7e2391719fecf25ae53f05ca508b548450"
                }
            ]
        },
        {
            "bom-ref": "pkg:rpm/photon/popt@1.16-5.ph5?arch=x86_64\u0026distro=photon-5.0",
            "type": "library",
            "name": "popt",
            "version": "1.16-5.ph5",
            "licenses": [
                {
                    "expression": "MIT"
                }
            ],
            "purl": "pkg:rpm/photon/popt@1.16-5.ph5?arch=x86_64\u0026distro=photon-5.0",
            "properties": [
                {
                    "name": "aquasecurity:trivy:PkgID",
                    "value": "popt@1.16-5.ph5.x86_64"
                },
                {
                    "name": "aquasecurity:trivy:PkgType",
                    "value": "photon"
                },
                {
                    "name": "aquasecurity:trivy:SrcName",
                    "value": "popt"
                },
                {
                    "name": "aquasecurity:trivy:SrcVersion",
                    "value": "1.16"
                },
                {
                    "name": "aquasecurity:trivy:SrcRelease",
                    "value": "5.ph5"
                },
                {
                    "name": "aquasecurity:trivy:LayerDigest",
                    "value": "sha256:671747808a0540005ab919b70042a9aa90f201d253eb96d523d7f78dd604b583"
                },
                {
                    "name": "aquasecurity:trivy:LayerDiffID",
                    "value": "sha256:6a7a7eca33cc2576b5b4677572922b7e2391719fecf25ae53f05ca508b548450"
                }
            ]
        },
        {
            "bom-ref": "pkg:rpm/photon/readline@8.2-1.ph5?arch=x86_64\u0026distro=photon-5.0",
            "type": "library",
            "name": "readline",
            "version": "8.2-1.ph5",
            "licenses": [
                {
                    "expression": "GPLv3+"
                }
            ],
            "purl": "pkg:rpm/photon/readline@8.2-1.ph5?arch=x86_64\u0026distro=photon-5.0",
            "properties": [
                {
                    "name": "aquasecurity:trivy:PkgID",
                    "value": "readline@8.2-1.ph5.x86_64"
                },
                {
                    "name": "aquasecurity:trivy:PkgType",
                    "value": "photon"
                },
                {
                    "name": "aquasecurity:trivy:SrcName",
                    "value": "readline"
                },
                {
                    "name": "aquasecurity:trivy:SrcVersion",
                    "value": "8.2"
                },
                {
                    "name": "aquasecurity:trivy:SrcRelease",
                    "value": "1.ph5"
                },
                {
                    "name": "aquasecurity:trivy:LayerDigest",
                    "value": "sha256:671747808a0540005ab919b70042a9aa90f201d253eb96d523d7f78dd604b583"
                },
                {
                    "name": "aquasecurity:trivy:LayerDiffID",
                    "value": "sha256:6a7a7eca33cc2576b5b4677572922b7e2391719fecf25ae53f05ca508b548450"
                }
            ]
        },
        {
            "bom-ref": "pkg:rpm/photon/rpm-libs@4.18.0-7.ph5?arch=x86_64\u0026distro=photon-5.0",
            "type": "library",
            "name": "rpm-libs",
            "version": "4.18.0-7.ph5",
            "licenses": [
                {
                    "expression": "GPLv2+"
                }
            ],
            "purl": "pkg:rpm/photon/rpm-libs@4.18.0-7.ph5?arch=x86_64\u0026distro=photon-5.0",
            "properties": [
                {
                    "name": "aquasecurity:trivy:PkgID",
                    "value": "rpm-libs@4.18.0-7.ph5.x86_64"
                },
                {
                    "name": "aquasecurity:trivy:PkgType",
                    "value": "photon"
                },
                {
                    "name": "aquasecurity:trivy:SrcName",
                    "value": "rpm"
                },
                {
                    "name": "aquasecurity:trivy:SrcVersion",
                    "value": "4.18.0"
                },
                {
                    "name": "aquasecurity:trivy:SrcRelease",
                    "value": "7.ph5"
                },
                {
                    "name": "aquasecurity:trivy:LayerDigest",
                    "value": "sha256:671747808a0540005ab919b70042a9aa90f201d253eb96d523d7f78dd604b583"
                },
                {
                    "name": "aquasecurity:trivy:LayerDiffID",
                    "value": "sha256:6a7a7eca33cc2576b5b4677572922b7e2391719fecf25ae53f05ca508b548450"
                }
            ]
        },
        {
            "bom-ref": "pkg:rpm/photon/sqlite-libs@3.40.1-1.ph5?arch=x86_64\u0026distro=photon-5.0",
            "type": "library",
            "name": "sqlite-libs",
            "version": "3.40.1-1.ph5",
            "licenses": [
                {
                    "expression": "Public Domain"
                }
            ],
            "purl": "pkg:rpm/photon/sqlite-libs@3.40.1-1.ph5?arch=x86_64\u0026distro=photon-5.0",
            "properties": [
                {
                    "name": "aquasecurity:trivy:PkgID",
                    "value": "sqlite-libs@3.40.1-1.ph5.x86_64"
                },
                {
                    "name": "aquasecurity:trivy:PkgType",
                    "value": "photon"
                },
                {
                    "name": "aquasecurity:trivy:SrcName",
                    "value": "sqlite"
                },
                {
                    "name": "aquasecurity:trivy:SrcVersion",
                    "value": "3.40.1"
                },
                {
                    "name": "aquasecurity:trivy:SrcRelease",
                    "value": "1.ph5"
                },
                {
                    "name": "aquasecurity:trivy:LayerDigest",
                    "value": "sha256:671747808a0540005ab919b70042a9aa90f201d253eb96d523d7f78dd604b583"
                },
                {
                    "name": "aquasecurity:trivy:LayerDiffID",
                    "value": "sha256:6a7a7eca33cc2576b5b4677572922b7e2391719fecf25ae53f05ca508b548450"
                }
            ]
        },
        {
            "bom-ref": "pkg:rpm/photon/tdnf@3.4.8-1.ph5?arch=x86_64\u0026distro=photon-5.0",
            "type": "library",
            "name": "tdnf",
            "version": "3.4.8-1.ph5",
            "licenses": [
                {
                    "expression": "LGPLv2.1,GPLv2"
                }
            ],
            "purl": "pkg:rpm/photon/tdnf@3.4.8-1.ph5?arch=x86_64\u0026distro=photon-5.0",
            "properties": [
                {
                    "name": "aquasecurity:trivy:PkgID",
                    "value": "tdnf@3.4.8-1.ph5.x86_64"
                },
                {
                    "name": "aquasecurity:trivy:PkgType",
                    "value": "photon"
                },
                {
                    "name": "aquasecurity:trivy:SrcName",
                    "value": "tdnf"
                },
                {
                    "name": "aquasecurity:trivy:SrcVersion",
                    "value": "3.4.8"
                },
                {
                    "name": "aquasecurity:trivy:SrcRelease",
                    "value": "1.ph5"
                },
                {
                    "name": "aquasecurity:trivy:LayerDigest",
                    "value": "sha256:671747808a0540005ab919b70042a9aa90f201d253eb96d523d7f78dd604b583"
                },
                {
                    "name": "aquasecurity:trivy:LayerDiffID",
                    "value": "sha256:6a7a7eca33cc2576b5b4677572922b7e2391719fecf25ae53f05ca508b548450"
                }
            ]
        },
        {
            "bom-ref": "pkg:rpm/photon/tdnf-cli-libs@3.4.8-1.ph5?arch=x86_64\u0026distro=photon-5.0",
            "type": "library",
            "name": "tdnf-cli-libs",
            "version": "3.4.8-1.ph5",
            "licenses": [
                {
                    "expression": "LGPLv2.1,GPLv2"
                }
            ],
            "purl": "pkg:rpm/photon/tdnf-cli-libs@3.4.8-1.ph5?arch=x86_64\u0026distro=photon-5.0",
            "properties": [
                {
                    "name": "aquasecurity:trivy:PkgID",
                    "value": "tdnf-cli-libs@3.4.8-1.ph5.x86_64"
                },
                {
                    "name": "aquasecurity:trivy:PkgType",
                    "value": "photon"
                },
                {
                    "name": "aquasecurity:trivy:SrcName",
                    "value": "tdnf"
                },
                {
                    "name": "aquasecurity:trivy:SrcVersion",
                    "value": "3.4.8"
                },
                {
                    "name": "aquasecurity:trivy:SrcRelease",
                    "value": "1.ph5"
                },
                {
                    "name": "aquasecurity:trivy:LayerDigest",
                    "value": "sha256:671747808a0540005ab919b70042a9aa90f201d253eb96d523d7f78dd604b583"
                },
                {
                    "name": "aquasecurity:trivy:LayerDiffID",
                    "value": "sha256:6a7a7eca33cc2576b5b4677572922b7e2391719fecf25ae53f05ca508b548450"
                }
            ]
        },
        {
            "bom-ref": "pkg:rpm/photon/toybox@0.8.8-1.ph5?arch=x86_64\u0026distro=photon-5.0",
            "type": "library",
            "name": "toybox",
            "version": "0.8.8-1.ph5",
            "licenses": [
                {
                    "expression": "BSD"
                }
            ],
            "purl": "pkg:rpm/photon/toybox@0.8.8-1.ph5?arch=x86_64\u0026distro=photon-5.0",
            "properties": [
                {
                    "name": "aquasecurity:trivy:PkgID",
                    "value": "toybox@0.8.8-1.ph5.x86_64"
                },
                {
                    "name": "aquasecurity:trivy:PkgType",
                    "value": "photon"
                },
                {
                    "name": "aquasecurity:trivy:SrcName",
                    "value": "toybox"
                },
                {
                    "name": "aquasecurity:trivy:SrcVersion",
                    "value": "0.8.8"
                },
                {
                    "name": "aquasecurity:trivy:SrcRelease",
                    "value": "1.ph5"
                },
                {
                    "name": "aquasecurity:trivy:LayerDigest",
                    "value": "sha256:671747808a0540005ab919b70042a9aa90f201d253eb96d523d7f78dd604b583"
                },
                {
                    "name": "aquasecurity:trivy:LayerDiffID",
                    "value": "sha256:6a7a7eca33cc2576b5b4677572922b7e2391719fecf25ae53f05ca508b548450"
                }
            ]
        },
        {
            "bom-ref": "pkg:rpm/photon/xz-libs@5.4.0-1.ph5?arch=x86_64\u0026distro=photon-5.0",
            "type": "library",
            "name": "xz-libs",
            "version": "5.4.0-1.ph5",
            "licenses": [
                {
                    "expression": "GPLv2+ and GPLv3+ and LGPLv2+"
                }
            ],
            "purl": "pkg:rpm/photon/xz-libs@5.4.0-1.ph5?arch=x86_64\u0026distro=photon-5.0",
            "properties": [
                {
                    "name": "aquasecurity:trivy:PkgID",
                    "value": "xz-libs@5.4.0-1.ph5.x86_64"
                },
                {
                    "name": "aquasecurity:trivy:PkgType",
                    "value": "photon"
                },
                {
                    "name": "aquasecurity:trivy:SrcName",
                    "value": "xz"
                },
                {
                    "name": "aquasecurity:trivy:SrcVersion",
                    "value": "5.4.0"
                },
                {
                    "name": "aquasecurity:trivy:SrcRelease",
                    "value": "1.ph5"
                },
                {
                    "name": "aquasecurity:trivy:LayerDigest",
                    "value": "sha256:671747808a0540005ab919b70042a9aa90f201d253eb96d523d7f78dd604b583"
                },
                {
                    "name": "aquasecurity:trivy:LayerDiffID",
                    "value": "sha256:6a7a7eca33cc2576b5b4677572922b7e2391719fecf25ae53f05ca508b548450"
                }
            ]
        },
        {
            "bom-ref": "pkg:rpm/photon/zlib@1.2.11-2.ph5?arch=x86_64\u0026distro=photon-5.0",
            "type": "library",
            "name": "zlib",
            "version": "1.2.11-2.ph5",
            "licenses": [
                {
                    "expression": "zlib"
                }
            ],
            "purl": "pkg:rpm/photon/zlib@1.2.11-2.ph5?arch=x86_64\u0026distro=photon-5.0",
            "properties": [
                {
                    "name": "aquasecurity:trivy:PkgID",
                    "value": "zlib@1.2.11-2.ph5.x86_64"
                },
                {
                    "name": "aquasecurity:trivy:PkgType",
                    "value": "photon"
                },
                {
                    "name": "aquasecurity:trivy:SrcName",
                    "value": "zlib"
                },
                {
                    "name": "aquasecurity:trivy:SrcVersion",
                    "value": "1.2.11"
                },
                {
                    "name": "aquasecurity:trivy:SrcRelease",
                    "value": "2.ph5"
                },
                {
                    "name": "aquasecurity:trivy:LayerDigest",
                    "value": "sha256:671747808a0540005ab919b70042a9aa90f201d253eb96d523d7f78dd604b583"
                },
                {
                    "name": "aquasecurity:trivy:LayerDiffID",
                    "value": "sha256:6a7a7eca33cc2576b5b4677572922b7e2391719fecf25ae53f05ca508b548450"
                }
            ]
        },
        {
            "bom-ref": "pkg:rpm/photon/zstd-libs@1.5.2-1.ph5?arch=x86_64\u0026distro=photon-5.0",
            "type": "library",
            "name": "zstd-libs",
            "version": "1.5.2-1.ph5",
            "licenses": [
                {
                    "expression": "BSD and GPLv2"
                }
            ],
            "purl": "pkg:rpm/photon/zstd-libs@1.5.2-1.ph5?arch=x86_64\u0026distro=photon-5.0",
            "properties": [
                {
                    "name": "aquasecurity:trivy:PkgID",
                    "value": "zstd-libs@1.5.2-1.ph5.x86_64"
                },
                {
                    "name": "aquasecurity:trivy:PkgType",
                    "value": "photon"
                },
                {
                    "name": "aquasecurity:trivy:SrcName",
                    "value": "zstd"
                },
                {
                    "name": "aquasecurity:trivy:SrcVersion",
                    "value": "1.5.2"
                },
                {
                    "name": "aquasecurity:trivy:SrcRelease",
                    "value": "1.ph5"
                },
                {
                    "name": "aquasecurity:trivy:LayerDigest",
                    "value": "sha256:671747808a0540005ab919b70042a9aa90f201d253eb96d523d7f78dd604b583"
                },
                {
                    "name": "aquasecurity:trivy:LayerDiffID",
                    "value": "sha256:6a7a7eca33cc2576b5b4677572922b7e2391719fecf25ae53f05ca508b548450"
                }
            ]
        },
        {
            "bom-ref": "96a23c1d-d4d4-4456-b8ea-1b3298565145",
            "type": "operating-system",
            "name": "photon",
            "version": "5.0",
            "properties": [
                {
                    "name": "aquasecurity:trivy:Type",
                    "value": "photon"
                },
                {
                    "name": "aquasecurity:trivy:Class",
                    "value": "os-pkgs"
                }
            ]
        }
    ],
    "dependencies": [
        {
            "ref": "96a23c1d-d4d4-4456-b8ea-1b3298565145",
            "dependsOn": [
                "pkg:rpm/photon/bash@5.2-1.ph5?arch=x86_64\u0026distro=photon-5.0",
                "pkg:rpm/photon/bzip2-libs@1.0.8-5.ph5?arch=x86_64\u0026distro=photon-5.0",
                "pkg:rpm/photon/ca-certificates@20220706-1.ph5?arch=x86_64\u0026distro=photon-5.0",
                "pkg:rpm/photon/ca-certificates-pki@20220706-1.ph5?arch=x86_64\u0026distro=photon-5.0",
                "pkg:rpm/photon/curl@7.86.0-1.ph5?arch=x86_64\u0026distro=photon-5.0",
                "pkg:rpm/photon/curl-libs@7.86.0-1.ph5?arch=x86_64\u0026distro=photon-5.0",
                "pkg:rpm/photon/e2fsprogs-libs@1.46.5-1.ph5?arch=x86_64\u0026distro=photon-5.0",
                "pkg:rpm/photon/elfutils-libelf@0.188-3.ph5?arch=x86_64\u0026distro=photon-5.0",
                "pkg:rpm/photon/expat-libs@2.5.0-1.ph5?arch=x86_64\u0026distro=photon-5.0",
                "pkg:rpm/photon/filesystem@1.1-4.ph5?arch=x86_64\u0026distro=photon-5.0",
                "pkg:rpm/photon/glibc@2.36-3.ph5?arch=x86_64\u0026distro=photon-5.0",
                "pkg:rpm/photon/gpg-pubkey@66fd4949-4803fe57?arch=None\u0026distro=photon-5.0",
                "pkg:rpm/photon/gpg-pubkey@8a6a826d-596882ca?arch=None\u0026distro=photon-5.0",
                "pkg:rpm/photon/krb5@1.17.2-2.ph5?arch=x86_64\u0026distro=photon-5.0",
                "pkg:rpm/photon/libcap@2.66-1.ph5?arch=x86_64\u0026distro=photon-5.0",
                "pkg:rpm/photon/libgcc@12.2.0-1.ph5?arch=x86_64\u0026distro=photon-5.0",
                "pkg:rpm/photon/libsolv@0.7.22-3.ph5?arch=x86_64\u0026distro=photon-5.0",
                "pkg:rpm/photon/libssh2@1.10.0-1.ph5?arch=x86_64\u0026distro=photon-5.0",
                "pkg:rpm/photon/lua@5.4.4-4.ph5?arch=x86_64\u0026distro=photon-5.0",
                "pkg:rpm/photon/ncurses-libs@6.3-1.ph5?arch=x86_64\u0026distro=photon-5.0",
                "pkg:rpm/photon/nspr@4.33-1.ph5?arch=x86_64\u0026distro=photon-5.0",
                "pkg:rpm/photon/nss-libs@3.78-3.ph5?arch=x86_64\u0026distro=photon-5.0",
                "pkg:rpm/photon/openssl@3.0.7-2.ph5?arch=x86_64\u0026distro=photon-5.0",
                "pkg:rpm/photon/photon-release@5.0-2.ph5?arch=noarch\u0026distro=photon-5.0",
                "pkg:rpm/photon/photon-repos@5.0-1.ph5?arch=noarch\u0026distro=photon-5.0",
                "pkg:rpm/photon/popt@1.16-5.ph5?arch=x86_64\u0026distro=photon-5.0",
                "pkg:rpm/photon/readline@8.2-1.ph5?arch=x86_64\u0026distro=photon-5.0",
                "pkg:rpm/photon/rpm-libs@4.18.0-7.ph5?arch=x86_64\u0026distro=photon-5.0",
                "pkg:rpm/photon/sqlite-libs@3.40.1-1.ph5?arch=x86_64\u0026distro=photon-5.0",
                "pkg:rpm/photon/tdnf@3.4.8-1.ph5?arch=x86_64\u0026distro=photon-5.0",
                "pkg:rpm/photon/tdnf-cli-libs@3.4.8-1.ph5?arch=x86_64\u0026distro=photon-5.0",
                "pkg:rpm/photon/toybox@0.8.8-1.ph5?arch=x86_64\u0026distro=photon-5.0",
                "pkg:rpm/photon/xz-libs@5.4.0-1.ph5?arch=x86_64\u0026distro=photon-5.0",
                "pkg:rpm/photon/zlib@1.2.11-2.ph5?arch=x86_64\u0026distro=photon-5.0",
                "pkg:rpm/photon/zstd-libs@1.5.2-1.ph5?arch=x86_64\u0026distro=photon-5.0"
            ]
        },
        {
            "ref": "pkg:oci/photon@sha256:d415fc41684fa988b19b0beb7fb7d98a8c537e8d2ae09cd45551dce7644fbb78?repository_url=index.docker.io%2Flibrary%2Fphoton\u0026arch=amd64",
            "dependsOn": [
                "96a23c1d-d4d4-4456-b8ea-1b3298565145"
            ]
        }
    ],
    "vulnerabilities": []
}

