{
  "bomFormat" : "CycloneDX",
  "specVersion" : "1.4",
  "serialNumber" : "urn:uuid:b53bc4d8-e6b4-44e2-9c52-6c199789ae52",
  "version" : 1,
  "metadata" : {
    "timestamp" : "2023-07-03T15:06:42Z",
    "tools" : [
      {
        "vendor" : "OWASP",
        "name" : "Dependency-Track",
        "version" : "4.8.2"
      }
    ],
    "component" : {
      "name" : "jetty-9.4-jdk8-amazoncorretto",
      "version" : "SNAPSHOT",
      "type" : "application",
      "bom-ref" : "05a80cca-27d6-4c5d-aa75-3ee2d97f08b3"
    }
  },
  "components" : [
    {
      "name" : "amazon",
      "version" : "2 (Karoo)",
      "type" : "operating-system",
      "bom-ref" : "a834f645-af73-480e-9755-f6cdf37a5010"
    },
    {
      "name" : "amazon-linux-extras",
      "version" : "2.0.1-1.amzn2",
      "purl" : "pkg:rpm/amazon/amazon-linux-extras@2.0.1-1.amzn2?arch=noarch&distro=amazon-2%20%28Karoo%29",
      "type" : "library",
      "bom-ref" : "1e3621a1-ceba-4f8a-bb43-021fd580f60b"
    },
    {
      "name" : "audit-libs",
      "version" : "2.8.1-3.amzn2.1",
      "purl" : "pkg:rpm/amazon/audit-libs@2.8.1-3.amzn2.1?arch=x86_64&distro=amazon-2%20%28Karoo%29",
      "type" : "library",
      "bom-ref" : "1a61cff3-2575-47c4-bddf-d1e098dfe05c"
    },
    {
      "name" : "basesystem",
      "version" : "10.0-7.amzn2.0.1",
      "purl" : "pkg:rpm/amazon/basesystem@10.0-7.amzn2.0.1?arch=noarch&distro=amazon-2%20%28Karoo%29",
      "type" : "library",
      "bom-ref" : "b9be1e20-70f1-4de6-8b28-7957c76fae54"
    },
    {
      "name" : "bash",
      "version" : "4.2.46-34.amzn2",
      "purl" : "pkg:rpm/amazon/bash@4.2.46-34.amzn2?arch=x86_64&distro=amazon-2%20%28Karoo%29",
      "type" : "library",
      "bom-ref" : "ceb9c4f9-cb71-4075-be21-e7efe97d2036"
    },
    {
      "name" : "bzip2-libs",
      "version" : "1.0.6-13.amzn2.0.3",
      "purl" : "pkg:rpm/amazon/bzip2-libs@1.0.6-13.amzn2.0.3?arch=x86_64&distro=amazon-2%20%28Karoo%29",
      "type" : "library",
      "bom-ref" : "1db296ab-a049-4443-982c-0a2a8fb081d9"
    },
    {
      "name" : "ca-certificates",
      "version" : "2021.2.50-72.amzn2.0.5",
      "purl" : "pkg:rpm/amazon/ca-certificates@2021.2.50-72.amzn2.0.5?arch=noarch&distro=amazon-2%20%28Karoo%29",
      "type" : "library",
      "bom-ref" : "765e9257-b716-4816-8229-2ad609399433"
    },
    {
      "name" : "chkconfig",
      "version" : "1.7.4-1.amzn2.0.2",
      "purl" : "pkg:rpm/amazon/chkconfig@1.7.4-1.amzn2.0.2?arch=x86_64&distro=amazon-2%20%28Karoo%29",
      "type" : "library",
      "bom-ref" : "ac8c07bb-75bb-4fc3-af5b-a3f9ead4abe5"
    },
    {
      "name" : "coreutils",
      "version" : "8.22-24.amzn2",
      "purl" : "pkg:rpm/amazon/coreutils@8.22-24.amzn2?arch=x86_64&distro=amazon-2%20%28Karoo%29",
      "type" : "library",
      "bom-ref" : "01a8715c-aef2-4b3c-9acc-5562db003c09"
    },
    {
      "name" : "cpio",
      "version" : "2.11-28.amzn2",
      "purl" : "pkg:rpm/amazon/cpio@2.11-28.amzn2?arch=x86_64&distro=amazon-2%20%28Karoo%29",
      "type" : "library",
      "bom-ref" : "aae1e38d-a892-40af-b424-ad72f5086533"
    },
    {
      "name" : "curl",
      "version" : "7.87.0-2.amzn2.0.1",
      "purl" : "pkg:rpm/amazon/curl@7.87.0-2.amzn2.0.1?arch=x86_64&distro=amazon-2%20%28Karoo%29",
      "type" : "library",
      "bom-ref" : "1f7331d7-9614-4a5e-beb1-c0e54e4d1140"
    },
    {
      "name" : "cyrus-sasl-lib",
      "version" : "2.1.26-24.amzn2",
      "purl" : "pkg:rpm/amazon/cyrus-sasl-lib@2.1.26-24.amzn2?arch=x86_64&distro=amazon-2%20%28Karoo%29",
      "type" : "library",
      "bom-ref" : "6fc2c68c-9d39-4f98-a978-82d5fca957fd"
    },
    {
      "name" : "dejavu-fonts-common",
      "version" : "2.33-6.amzn2",
      "purl" : "pkg:rpm/amazon/dejavu-fonts-common@2.33-6.amzn2?arch=noarch&distro=amazon-2%20%28Karoo%29",
      "type" : "library",
      "bom-ref" : "1ee89a43-f336-45c2-a58c-0c2815fc1edb"
    },
    {
      "name" : "dejavu-sans-fonts",
      "version" : "2.33-6.amzn2",
      "purl" : "pkg:rpm/amazon/dejavu-sans-fonts@2.33-6.amzn2?arch=noarch&distro=amazon-2%20%28Karoo%29",
      "type" : "library",
      "bom-ref" : "98a32e92-1ec6-4083-8c67-b928aff6fa70"
    },
    {
      "name" : "diffutils",
      "version" : "3.3-5.amzn2",
      "purl" : "pkg:rpm/amazon/diffutils@3.3-5.amzn2?arch=x86_64&distro=amazon-2%20%28Karoo%29",
      "type" : "library",
      "bom-ref" : "34cdc0a1-292a-48f6-8b08-22c56962ab1f"
    },
    {
      "name" : "elfutils-libelf",
      "version" : "0.176-2.amzn2",
      "purl" : "pkg:rpm/amazon/elfutils-libelf@0.176-2.amzn2?arch=x86_64&distro=amazon-2%20%28Karoo%29",
      "type" : "library",
      "bom-ref" : "e94476a0-d381-4d1e-8b3b-9ddac4b27223"
    },
    {
      "name" : "expat",
      "version" : "2.1.0-15.amzn2.0.2",
      "purl" : "pkg:rpm/amazon/expat@2.1.0-15.amzn2.0.2?arch=x86_64&distro=amazon-2%20%28Karoo%29",
      "type" : "library",
      "bom-ref" : "5b0af0b8-79a7-41f5-9963-81cb3de5391a"
    },
    {
      "name" : "file-libs",
      "version" : "5.11-36.amzn2.0.1",
      "purl" : "pkg:rpm/amazon/file-libs@5.11-36.amzn2.0.1?arch=x86_64&distro=amazon-2%20%28Karoo%29",
      "type" : "library",
      "bom-ref" : "8fe00265-84bc-451c-ad8c-a010888fe2ae"
    },
    {
      "name" : "filesystem",
      "version" : "3.2-25.amzn2.0.4",
      "purl" : "pkg:rpm/amazon/filesystem@3.2-25.amzn2.0.4?arch=x86_64&distro=amazon-2%20%28Karoo%29",
      "type" : "library",
      "bom-ref" : "93497403-3342-4174-a53f-e136193b6421"
    },
    {
      "name" : "findutils",
      "version" : "1:4.5.11-6.amzn2",
      "purl" : "pkg:rpm/amazon/findutils@1%3A4.5.11-6.amzn2?arch=x86_64&distro=amazon-2%20%28Karoo%29",
      "type" : "library",
      "bom-ref" : "14547c26-21f0-4825-9d5a-ac1b708c991a"
    },
    {
      "name" : "fontconfig",
      "version" : "2.13.0-4.3.amzn2",
      "purl" : "pkg:rpm/amazon/fontconfig@2.13.0-4.3.amzn2?arch=x86_64&distro=amazon-2%20%28Karoo%29",
      "type" : "library",
      "bom-ref" : "1c1def82-fbef-47da-90d8-2962a590a59f"
    },
    {
      "name" : "fontpackages-filesystem",
      "version" : "1.44-8.amzn2",
      "purl" : "pkg:rpm/amazon/fontpackages-filesystem@1.44-8.amzn2?arch=noarch&distro=amazon-2%20%28Karoo%29",
      "type" : "library",
      "bom-ref" : "e13ee2a1-40a9-495b-a34e-8e695750af01"
    },
    {
      "name" : "freetype",
      "version" : "2.8-14.amzn2.1.1",
      "purl" : "pkg:rpm/amazon/freetype@2.8-14.amzn2.1.1?arch=x86_64&distro=amazon-2%20%28Karoo%29",
      "type" : "library",
      "bom-ref" : "8127ca6b-9d05-4b0e-bf56-48d149258ce6"
    },
    {
      "name" : "gawk",
      "version" : "4.0.2-4.amzn2.1.2",
      "purl" : "pkg:rpm/amazon/gawk@4.0.2-4.amzn2.1.2?arch=x86_64&distro=amazon-2%20%28Karoo%29",
      "type" : "library",
      "bom-ref" : "900ba76b-0bd1-42aa-b1a4-ff74661345ea"
    },
    {
      "name" : "gdbm",
      "version" : "1:1.13-6.amzn2.0.2",
      "purl" : "pkg:rpm/amazon/gdbm@1%3A1.13-6.amzn2.0.2?arch=x86_64&distro=amazon-2%20%28Karoo%29",
      "type" : "library",
      "bom-ref" : "02ff8f7e-144f-4812-af29-78fe52fd4510"
    },
    {
      "name" : "glib2",
      "version" : "2.56.1-9.amzn2.0.2",
      "purl" : "pkg:rpm/amazon/glib2@2.56.1-9.amzn2.0.2?arch=x86_64&distro=amazon-2%20%28Karoo%29",
      "type" : "library",
      "bom-ref" : "e853a7e3-a0c5-4bb3-846f-2714c0c9f81c"
    },
    {
      "name" : "glibc",
      "version" : "2.26-62.amzn2",
      "purl" : "pkg:rpm/amazon/glibc@2.26-62.amzn2?arch=x86_64&distro=amazon-2%20%28Karoo%29",
      "type" : "library",
      "bom-ref" : "f0b7c59a-c594-47e7-9663-ad1ab0b89c97"
    },
    {
      "name" : "glibc-common",
      "version" : "2.26-62.amzn2",
      "purl" : "pkg:rpm/amazon/glibc-common@2.26-62.amzn2?arch=x86_64&distro=amazon-2%20%28Karoo%29",
      "type" : "library",
      "bom-ref" : "bcba44c3-f11b-4cf8-b958-e44415842a8e"
    },
    {
      "name" : "glibc-langpack-en",
      "version" : "2.26-62.amzn2",
      "purl" : "pkg:rpm/amazon/glibc-langpack-en@2.26-62.amzn2?arch=x86_64&distro=amazon-2%20%28Karoo%29",
      "type" : "library",
      "bom-ref" : "750012bd-6ba9-47ae-a3c7-af9dd74eaf36"
    },
    {
      "name" : "glibc-minimal-langpack",
      "version" : "2.26-62.amzn2",
      "purl" : "pkg:rpm/amazon/glibc-minimal-langpack@2.26-62.amzn2?arch=x86_64&distro=amazon-2%20%28Karoo%29",
      "type" : "library",
      "bom-ref" : "c710e533-9e87-47e8-a113-3fcde66739f5"
    },
    {
      "name" : "gmp",
      "version" : "1:6.0.0-15.amzn2.0.2",
      "purl" : "pkg:rpm/amazon/gmp@1%3A6.0.0-15.amzn2.0.2?arch=x86_64&distro=amazon-2%20%28Karoo%29",
      "type" : "library",
      "bom-ref" : "43d14de5-5157-4e0f-aecd-75ddc818eed4"
    },
    {
      "name" : "gnupg2",
      "version" : "2.0.22-5.amzn2.0.5",
      "purl" : "pkg:rpm/amazon/gnupg2@2.0.22-5.amzn2.0.5?arch=x86_64&distro=amazon-2%20%28Karoo%29",
      "type" : "library",
      "bom-ref" : "edbf378c-06ab-4a8a-91ce-9e775730843d"
    },
    {
      "name" : "gpg-pubkey",
      "version" : "b04f24e3-5de94a19",
      "purl" : "pkg:rpm/amazon/gpg-pubkey@b04f24e3-5de94a19?arch=None&distro=amazon-2%20%28Karoo%29",
      "type" : "library",
      "bom-ref" : "e4bc1523-f7bb-44bc-a39c-2c97fede3bb4"
    },
    {
      "name" : "gpg-pubkey",
      "version" : "c87f5b1a-593863f8",
      "purl" : "pkg:rpm/amazon/gpg-pubkey@c87f5b1a-593863f8?arch=None&distro=amazon-2%20%28Karoo%29",
      "type" : "library",
      "bom-ref" : "d490a515-d931-431c-884f-2347598cf1d9"
    },
    {
      "name" : "gpgme",
      "version" : "1.3.2-5.amzn2.0.2",
      "purl" : "pkg:rpm/amazon/gpgme@1.3.2-5.amzn2.0.2?arch=x86_64&distro=amazon-2%20%28Karoo%29",
      "type" : "library",
      "bom-ref" : "c1cf2a90-d2ff-4e07-9e17-49ed06077c7e"
    },
    {
      "name" : "grep",
      "version" : "2.20-3.amzn2.0.2",
      "purl" : "pkg:rpm/amazon/grep@2.20-3.amzn2.0.2?arch=x86_64&distro=amazon-2%20%28Karoo%29",
      "type" : "library",
      "bom-ref" : "847b1d6e-e8f2-43ff-902d-358291061eec"
    },
    {
      "name" : "gzip",
      "version" : "1.5-10.amzn2.0.1",
      "purl" : "pkg:rpm/amazon/gzip@1.5-10.amzn2.0.1?arch=x86_64&distro=amazon-2%20%28Karoo%29",
      "type" : "library",
      "bom-ref" : "4d158e25-f08b-417d-9119-75182e058e72"
    },
    {
      "name" : "info",
      "version" : "5.1-5.amzn2",
      "purl" : "pkg:rpm/amazon/info@5.1-5.amzn2?arch=x86_64&distro=amazon-2%20%28Karoo%29",
      "type" : "library",
      "bom-ref" : "871d9e77-4ad2-4ca2-a453-dcea23025282"
    },
    {
      "name" : "java-1.8.0-amazon-corretto-devel",
      "version" : "1:1.8.0_362.b08-1",
      "purl" : "pkg:rpm/amazon/java-1.8.0-amazon-corretto-devel@1%3A1.8.0_362.b08-1?arch=x86_64&distro=amazon-2%20%28Karoo%29",
      "type" : "library",
      "bom-ref" : "9c42ce26-cfda-407b-952f-ad85032b75e1"
    },
    {
      "name" : "javax.annotation:javax.annotation-api",
      "version" : "1.3.2",
      "purl" : "pkg:maven/javax.annotation/javax.annotation-api@1.3.2",
      "type" : "library",
      "bom-ref" : "c64bce2a-7d4d-4443-a3b1-2cd7934cc7b7"
    },
    {
      "name" : "javax.servlet:javax.servlet-api",
      "version" : "3.1.0",
      "purl" : "pkg:maven/javax.servlet/javax.servlet-api@3.1.0",
      "type" : "library",
      "bom-ref" : "3deac25d-c424-4dad-ad6d-ab3cde5014da"
    },
    {
      "name" : "javax.transaction:javax.transaction-api",
      "version" : "1.3",
      "purl" : "pkg:maven/javax.transaction/javax.transaction-api@1.3",
      "type" : "library",
      "bom-ref" : "30c0f5f6-7da4-4772-b7db-c3dcc5c17df7"
    },
    {
      "name" : "javax.websocket:javax.websocket-api",
      "version" : "1.0",
      "purl" : "pkg:maven/javax.websocket/javax.websocket-api@1.0",
      "type" : "library",
      "bom-ref" : "256f5faf-0a56-4a64-a236-b8037ddd8d64"
    },
    {
      "name" : "keyutils-libs",
      "version" : "1.5.8-3.amzn2.0.2",
      "purl" : "pkg:rpm/amazon/keyutils-libs@1.5.8-3.amzn2.0.2?arch=x86_64&distro=amazon-2%20%28Karoo%29",
      "type" : "library",
      "bom-ref" : "a31d5429-f41e-458a-8b15-e00eca6b91c8"
    },
    {
      "name" : "krb5-libs",
      "version" : "1.15.1-55.amzn2.2.5",
      "purl" : "pkg:rpm/amazon/krb5-libs@1.15.1-55.amzn2.2.5?arch=x86_64&distro=amazon-2%20%28Karoo%29",
      "type" : "library",
      "bom-ref" : "7b7a844c-d0ec-4dd5-b6f8-3b7f69e37ea5"
    },
    {
      "name" : "libacl",
      "version" : "2.2.51-14.amzn2",
      "purl" : "pkg:rpm/amazon/libacl@2.2.51-14.amzn2?arch=x86_64&distro=amazon-2%20%28Karoo%29",
      "type" : "library",
      "bom-ref" : "322c3c59-7bed-4e5f-9840-cc3305d4c313"
    },
    {
      "name" : "libassuan",
      "version" : "2.1.0-3.amzn2.0.2",
      "purl" : "pkg:rpm/amazon/libassuan@2.1.0-3.amzn2.0.2?arch=x86_64&distro=amazon-2%20%28Karoo%29",
      "type" : "library",
      "bom-ref" : "a95f872c-c866-4afc-80ca-9372d1f461ae"
    },
    {
      "name" : "libattr",
      "version" : "2.4.46-12.amzn2.0.2",
      "purl" : "pkg:rpm/amazon/libattr@2.4.46-12.amzn2.0.2?arch=x86_64&distro=amazon-2%20%28Karoo%29",
      "type" : "library",
      "bom-ref" : "673d056d-5df6-4455-9a78-931ed159c6f5"
    },
    {
      "name" : "libblkid",
      "version" : "2.30.2-2.amzn2.0.11",
      "purl" : "pkg:rpm/amazon/libblkid@2.30.2-2.amzn2.0.11?arch=x86_64&distro=amazon-2%20%28Karoo%29",
      "type" : "library",
      "bom-ref" : "0c7afeba-42b0-4aa1-bf9c-209fa30c2a81"
    },
    {
      "name" : "libcap",
      "version" : "2.54-1.amzn2.0.1",
      "purl" : "pkg:rpm/amazon/libcap@2.54-1.amzn2.0.1?arch=x86_64&distro=amazon-2%20%28Karoo%29",
      "type" : "library",
      "bom-ref" : "46ed1657-7d72-4b77-8936-89be0e9ee0f5"
    },
    {
      "name" : "libcap-ng",
      "version" : "0.7.5-4.amzn2.0.4",
      "purl" : "pkg:rpm/amazon/libcap-ng@0.7.5-4.amzn2.0.4?arch=x86_64&distro=amazon-2%20%28Karoo%29",
      "type" : "library",
      "bom-ref" : "3d57b47a-b083-4346-96a4-b310766d63ab"
    },
    {
      "name" : "libcom_err",
      "version" : "1.42.9-19.amzn2.0.1",
      "purl" : "pkg:rpm/amazon/libcom_err@1.42.9-19.amzn2.0.1?arch=x86_64&distro=amazon-2%20%28Karoo%29",
      "type" : "library",
      "bom-ref" : "5a3912d1-0166-459b-a8f8-ebd6e0064a61"
    },
    {
      "name" : "libcrypt",
      "version" : "2.26-62.amzn2",
      "purl" : "pkg:rpm/amazon/libcrypt@2.26-62.amzn2?arch=x86_64&distro=amazon-2%20%28Karoo%29",
      "type" : "library",
      "bom-ref" : "95836882-6b44-4321-9d80-9072d3251ad8"
    },
    {
      "name" : "libcurl",
      "version" : "7.87.0-2.amzn2.0.1",
      "purl" : "pkg:rpm/amazon/libcurl@7.87.0-2.amzn2.0.1?arch=x86_64&distro=amazon-2%20%28Karoo%29",
      "type" : "library",
      "bom-ref" : "b19bd1ef-48f8-4d61-bca7-2bef742773ee"
    },
    {
      "name" : "libdb",
      "version" : "5.3.21-24.amzn2.0.3",
      "purl" : "pkg:rpm/amazon/libdb@5.3.21-24.amzn2.0.3?arch=x86_64&distro=amazon-2%20%28Karoo%29",
      "type" : "library",
      "bom-ref" : "0732e966-2244-4bad-886e-7c0fdcb68db0"
    },
    {
      "name" : "libdb-utils",
      "version" : "5.3.21-24.amzn2.0.3",
      "purl" : "pkg:rpm/amazon/libdb-utils@5.3.21-24.amzn2.0.3?arch=x86_64&distro=amazon-2%20%28Karoo%29",
      "type" : "library",
      "bom-ref" : "5b58938c-ab36-49cc-9be7-abfb5530587f"
    },
    {
      "name" : "libffi",
      "version" : "3.0.13-18.amzn2.0.2",
      "purl" : "pkg:rpm/amazon/libffi@3.0.13-18.amzn2.0.2?arch=x86_64&distro=amazon-2%20%28Karoo%29",
      "type" : "library",
      "bom-ref" : "c5623aef-cb25-47b6-ac95-fd3c77777bf7"
    },
    {
      "name" : "libgcc",
      "version" : "7.3.1-15.amzn2",
      "purl" : "pkg:rpm/amazon/libgcc@7.3.1-15.amzn2?arch=x86_64&distro=amazon-2%20%28Karoo%29",
      "type" : "library",
      "bom-ref" : "b8d70b0d-3793-4e86-8f66-c0c7b6c315de"
    },
    {
      "name" : "libgcrypt",
      "version" : "1.5.3-14.amzn2.0.3",
      "purl" : "pkg:rpm/amazon/libgcrypt@1.5.3-14.amzn2.0.3?arch=x86_64&distro=amazon-2%20%28Karoo%29",
      "type" : "library",
      "bom-ref" : "c37ac2b0-4c0a-4cf4-a057-582f6bec47fd"
    },
    {
      "name" : "libgpg-error",
      "version" : "1.12-3.amzn2.0.3",
      "purl" : "pkg:rpm/amazon/libgpg-error@1.12-3.amzn2.0.3?arch=x86_64&distro=amazon-2%20%28Karoo%29",
      "type" : "library",
      "bom-ref" : "7af17b7c-578f-48ea-b8a0-9c318a62d689"
    },
    {
      "name" : "libidn2",
      "version" : "2.3.0-1.amzn2",
      "purl" : "pkg:rpm/amazon/libidn2@2.3.0-1.amzn2?arch=x86_64&distro=amazon-2%20%28Karoo%29",
      "type" : "library",
      "bom-ref" : "9c8a1585-99fd-462b-8dca-03c3e9c6fd4b"
    },
    {
      "name" : "libmetalink",
      "version" : "0.1.3-13.amzn2",
      "purl" : "pkg:rpm/amazon/libmetalink@0.1.3-13.amzn2?arch=x86_64&distro=amazon-2%20%28Karoo%29",
      "type" : "library",
      "bom-ref" : "b0055ddb-1692-431f-b63f-c49c0f70c671"
    },
    {
      "name" : "libmount",
      "version" : "2.30.2-2.amzn2.0.11",
      "purl" : "pkg:rpm/amazon/libmount@2.30.2-2.amzn2.0.11?arch=x86_64&distro=amazon-2%20%28Karoo%29",
      "type" : "library",
      "bom-ref" : "f1172da8-8b10-4a4e-a192-26176806223c"
    },
    {
      "name" : "libnghttp2",
      "version" : "1.41.0-1.amzn2",
      "purl" : "pkg:rpm/amazon/libnghttp2@1.41.0-1.amzn2?arch=x86_64&distro=amazon-2%20%28Karoo%29",
      "type" : "library",
      "bom-ref" : "9e079724-5a2d-4c80-a813-6b1daefd9e51"
    },
    {
      "name" : "libpng",
      "version" : "2:1.5.13-8.amzn2.0.1",
      "purl" : "pkg:rpm/amazon/libpng@2%3A1.5.13-8.amzn2.0.1?arch=x86_64&distro=amazon-2%20%28Karoo%29",
      "type" : "library",
      "bom-ref" : "53bdf059-72b9-430a-92ec-576951adaa7a"
    },
    {
      "name" : "libselinux",
      "version" : "2.5-12.amzn2.0.2",
      "purl" : "pkg:rpm/amazon/libselinux@2.5-12.amzn2.0.2?arch=x86_64&distro=amazon-2%20%28Karoo%29",
      "type" : "library",
      "bom-ref" : "39d1521f-3902-40ce-8266-eef18608de88"
    },
    {
      "name" : "libsemanage",
      "version" : "2.5-11.amzn2",
      "purl" : "pkg:rpm/amazon/libsemanage@2.5-11.amzn2?arch=x86_64&distro=amazon-2%20%28Karoo%29",
      "type" : "library",
      "bom-ref" : "1ba8bbb6-1a99-42e0-a810-ee21d8a28c4c"
    },
    {
      "name" : "libsepol",
      "version" : "2.5-8.1.amzn2.0.2",
      "purl" : "pkg:rpm/amazon/libsepol@2.5-8.1.amzn2.0.2?arch=x86_64&distro=amazon-2%20%28Karoo%29",
      "type" : "library",
      "bom-ref" : "b8b379c0-9c83-4425-b251-c1b3318be7ff"
    },
    {
      "name" : "libssh2",
      "version" : "1.4.3-12.amzn2.2.3",
      "purl" : "pkg:rpm/amazon/libssh2@1.4.3-12.amzn2.2.3?arch=x86_64&distro=amazon-2%20%28Karoo%29",
      "type" : "library",
      "bom-ref" : "2f11cff0-992e-4f03-9133-a39d86f4f65b"
    },
    {
      "name" : "libstdc++",
      "version" : "7.3.1-15.amzn2",
      "purl" : "pkg:rpm/amazon/libstdc%20%20@7.3.1-15.amzn2?arch=x86_64&distro=amazon-2%20%28Karoo%29",
      "type" : "library",
      "bom-ref" : "fade4e2d-8493-458d-b67f-e001f880efeb"
    },
    {
      "name" : "libtasn1",
      "version" : "4.10-1.amzn2.0.3",
      "purl" : "pkg:rpm/amazon/libtasn1@4.10-1.amzn2.0.3?arch=x86_64&distro=amazon-2%20%28Karoo%29",
      "type" : "library",
      "bom-ref" : "a4d4a885-fe65-4445-99c4-10968d917326"
    },
    {
      "name" : "libunistring",
      "version" : "0.9.3-9.amzn2.0.2",
      "purl" : "pkg:rpm/amazon/libunistring@0.9.3-9.amzn2.0.2?arch=x86_64&distro=amazon-2%20%28Karoo%29",
      "type" : "library",
      "bom-ref" : "642ca790-cde2-4334-9312-8bbd0a3ca357"
    },
    {
      "name" : "libuuid",
      "version" : "2.30.2-2.amzn2.0.11",
      "purl" : "pkg:rpm/amazon/libuuid@2.30.2-2.amzn2.0.11?arch=x86_64&distro=amazon-2%20%28Karoo%29",
      "type" : "library",
      "bom-ref" : "cbbec8ae-0ced-4c03-97c4-694569dfd0b5"
    },
    {
      "name" : "libverto",
      "version" : "0.2.5-4.amzn2.0.2",
      "purl" : "pkg:rpm/amazon/libverto@0.2.5-4.amzn2.0.2?arch=x86_64&distro=amazon-2%20%28Karoo%29",
      "type" : "library",
      "bom-ref" : "3a2a8a13-2e99-4b7e-90a3-c83ef000e144"
    },
    {
      "name" : "libxml2",
      "version" : "2.9.1-6.amzn2.5.6",
      "purl" : "pkg:rpm/amazon/libxml2@2.9.1-6.amzn2.5.6?arch=x86_64&distro=amazon-2%20%28Karoo%29",
      "type" : "library",
      "bom-ref" : "1cefb9bf-2697-4023-b509-a57b0a5ad36b"
    },
    {
      "name" : "lua",
      "version" : "5.1.4-15.amzn2.0.2",
      "purl" : "pkg:rpm/amazon/lua@5.1.4-15.amzn2.0.2?arch=x86_64&distro=amazon-2%20%28Karoo%29",
      "type" : "library",
      "bom-ref" : "1a8f61a6-92fe-4c6b-b45f-a4402bb13aeb"
    },
    {
      "name" : "ncurses",
      "version" : "6.0-8.20170212.amzn2.1.4",
      "purl" : "pkg:rpm/amazon/ncurses@6.0-8.20170212.amzn2.1.4?arch=x86_64&distro=amazon-2%20%28Karoo%29",
      "type" : "library",
      "bom-ref" : "cd8b0169-7647-4db0-80e5-b04ff90deeba"
    },
    {
      "name" : "ncurses-base",
      "version" : "6.0-8.20170212.amzn2.1.4",
      "purl" : "pkg:rpm/amazon/ncurses-base@6.0-8.20170212.amzn2.1.4?arch=noarch&distro=amazon-2%20%28Karoo%29",
      "type" : "library",
      "bom-ref" : "8f52fae4-c911-4bd1-8ef9-fe33ca3e047f"
    },
    {
      "name" : "ncurses-libs",
      "version" : "6.0-8.20170212.amzn2.1.4",
      "purl" : "pkg:rpm/amazon/ncurses-libs@6.0-8.20170212.amzn2.1.4?arch=x86_64&distro=amazon-2%20%28Karoo%29",
      "type" : "library",
      "bom-ref" : "3253723c-9f6a-4555-8e3c-ff37c3156792"
    },
    {
      "name" : "nspr",
      "version" : "4.34.0-3.1.amzn2",
      "purl" : "pkg:rpm/amazon/nspr@4.34.0-3.1.amzn2?arch=x86_64&distro=amazon-2%20%28Karoo%29",
      "type" : "library",
      "bom-ref" : "ae838013-bec0-4776-b52a-be1ec6a4da13"
    },
    {
      "name" : "nss",
      "version" : "3.79.0-4.amzn2",
      "purl" : "pkg:rpm/amazon/nss@3.79.0-4.amzn2?arch=x86_64&distro=amazon-2%20%28Karoo%29",
      "type" : "library",
      "bom-ref" : "476ea683-3eae-47f6-9f5f-55300a2c19b3"
    },
    {
      "name" : "nss-pem",
      "version" : "1.0.3-5.amzn2",
      "purl" : "pkg:rpm/amazon/nss-pem@1.0.3-5.amzn2?arch=x86_64&distro=amazon-2%20%28Karoo%29",
      "type" : "library",
      "bom-ref" : "ffa57e23-7e7a-4d57-92f2-6e805a8883b1"
    },
    {
      "name" : "nss-softokn",
      "version" : "3.79.0-4.amzn2",
      "purl" : "pkg:rpm/amazon/nss-softokn@3.79.0-4.amzn2?arch=x86_64&distro=amazon-2%20%28Karoo%29",
      "type" : "library",
      "bom-ref" : "78fc0211-2d9f-44e4-a166-4e7b40e63579"
    },
    {
      "name" : "nss-softokn-freebl",
      "version" : "3.79.0-4.amzn2",
      "purl" : "pkg:rpm/amazon/nss-softokn-freebl@3.79.0-4.amzn2?arch=x86_64&distro=amazon-2%20%28Karoo%29",
      "type" : "library",
      "bom-ref" : "a2de701e-956f-4b73-a654-7817018da7c0"
    },
    {
      "name" : "nss-sysinit",
      "version" : "3.79.0-4.amzn2",
      "purl" : "pkg:rpm/amazon/nss-sysinit@3.79.0-4.amzn2?arch=x86_64&distro=amazon-2%20%28Karoo%29",
      "type" : "library",
      "bom-ref" : "5b1919f4-519a-4491-a0d3-30479bcbe966"
    },
    {
      "name" : "nss-tools",
      "version" : "3.79.0-4.amzn2",
      "purl" : "pkg:rpm/amazon/nss-tools@3.79.0-4.amzn2?arch=x86_64&distro=amazon-2%20%28Karoo%29",
      "type" : "library",
      "bom-ref" : "51134783-6b4c-4bf3-baee-a78a3edd26e8"
    },
    {
      "name" : "nss-util",
      "version" : "3.79.0-1.amzn2",
      "purl" : "pkg:rpm/amazon/nss-util@3.79.0-1.amzn2?arch=x86_64&distro=amazon-2%20%28Karoo%29",
      "type" : "library",
      "bom-ref" : "d5490ee1-36ea-4110-8a5e-bed2296f0f8d"
    },
    {
      "name" : "openldap",
      "version" : "2.4.44-23.amzn2.0.4",
      "purl" : "pkg:rpm/amazon/openldap@2.4.44-23.amzn2.0.4?arch=x86_64&distro=amazon-2%20%28Karoo%29",
      "type" : "library",
      "bom-ref" : "93da75df-e3b9-42c9-93b7-40bc86040c64"
    },
    {
      "name" : "openssl-libs",
      "version" : "1:1.0.2k-24.amzn2.0.6",
      "purl" : "pkg:rpm/amazon/openssl-libs@1%3A1.0.2k-24.amzn2.0.6?arch=x86_64&distro=amazon-2%20%28Karoo%29",
      "type" : "library",
      "bom-ref" : "ad0d401d-5947-4a12-b700-2067d359b02a"
    },
    {
      "name" : "org.apache.taglibs:taglibs-standard-impl",
      "version" : "1.2.5",
      "purl" : "pkg:maven/org.apache.taglibs/taglibs-standard-impl@1.2.5",
      "type" : "library",
      "bom-ref" : "8753b9d0-69d0-493f-9bf6-fc4c869106b5"
    },
    {
      "name" : "org.apache.taglibs:taglibs-standard-spec",
      "version" : "1.2.5",
      "purl" : "pkg:maven/org.apache.taglibs/taglibs-standard-spec@1.2.5",
      "type" : "library",
      "bom-ref" : "96244cf4-4291-47e4-bc70-f76852e42737"
    },
    {
      "name" : "org.eclipse.jdt:ecj",
      "version" : "3.19.0",
      "purl" : "pkg:maven/org.eclipse.jdt/ecj@3.19.0",
      "type" : "library",
      "bom-ref" : "5fe64bd5-3b68-45c4-ace0-fa896bbc0c63"
    },
    {
      "name" : "org.eclipse.jetty.fcgi:fcgi-client",
      "version" : "9.4.50.v20221201",
      "purl" : "pkg:maven/org.eclipse.jetty.fcgi/fcgi-client@9.4.50.v20221201",
      "type" : "library",
      "bom-ref" : "08b63e05-34da-4a75-b212-2e8fb4ebde53"
    },
    {
      "name" : "org.eclipse.jetty.fcgi:fcgi-server",
      "version" : "9.4.50.v20221201",
      "purl" : "pkg:maven/org.eclipse.jetty.fcgi/fcgi-server@9.4.50.v20221201",
      "type" : "library",
      "bom-ref" : "1bd4827f-85f7-426b-a972-85da79d0600f"
    },
    {
      "name" : "org.eclipse.jetty.gcloud:jetty-gcloud-session-manager",
      "version" : "9.4.50.v20221201",
      "purl" : "pkg:maven/org.eclipse.jetty.gcloud/jetty-gcloud-session-manager@9.4.50.v20221201",
      "type" : "library",
      "bom-ref" : "928938a8-25d1-4423-922a-a17bffc94c03"
    },
    {
      "name" : "org.eclipse.jetty.http2:http2-common",
      "version" : "9.4.50.v20221201",
      "purl" : "pkg:maven/org.eclipse.jetty.http2/http2-common@9.4.50.v20221201",
      "type" : "library",
      "bom-ref" : "6b583132-a1f8-462a-a12b-f4a7ff9d91d9"
    },
    {
      "name" : "org.eclipse.jetty.http2:http2-hpack",
      "version" : "9.4.50.v20221201",
      "purl" : "pkg:maven/org.eclipse.jetty.http2/http2-hpack@9.4.50.v20221201",
      "type" : "library",
      "bom-ref" : "736c402c-5bc9-4c68-ba03-ca33604ceca8"
    },
    {
      "name" : "org.eclipse.jetty.http2:http2-server",
      "version" : "9.4.50.v20221201",
      "purl" : "pkg:maven/org.eclipse.jetty.http2/http2-server@9.4.50.v20221201",
      "type" : "library",
      "bom-ref" : "969dbdaf-d918-4d00-bbd0-42337a9116ff"
    },
    {
      "name" : "org.eclipse.jetty.memcached:jetty-memcached-sessions",
      "version" : "9.4.50.v20221201",
      "purl" : "pkg:maven/org.eclipse.jetty.memcached/jetty-memcached-sessions@9.4.50.v20221201",
      "type" : "library",
      "bom-ref" : "8e9a500c-7639-474a-b2c7-656409d93725"
    },
    {
      "name" : "org.eclipse.jetty.orbit:javax.mail.glassfish",
      "version" : "1.4.1.v201005082020",
      "purl" : "pkg:maven/org.eclipse.jetty.orbit/javax.mail.glassfish@1.4.1.v201005082020",
      "type" : "library",
      "bom-ref" : "f8998a45-5c7c-4157-879d-377fea4ab936"
    },
    {
      "name" : "org.eclipse.jetty.orbit:javax.security.auth.message",
      "version" : "1.0.0.v201108011116",
      "purl" : "pkg:maven/org.eclipse.jetty.orbit/javax.security.auth.message@1.0.0.v201108011116",
      "type" : "library",
      "bom-ref" : "f4e4db0f-87ee-42ec-976b-70074822cd76"
    },
    {
      "name" : "org.eclipse.jetty.toolchain.setuid:jetty-setuid-java",
      "version" : "1.0.4",
      "purl" : "pkg:maven/org.eclipse.jetty.toolchain.setuid/jetty-setuid-java@1.0.4",
      "type" : "library",
      "bom-ref" : "832d7ff9-1372-40f3-8514-7c6ee65d52e0"
    },
    {
      "name" : "org.eclipse.jetty.toolchain:jetty-schemas",
      "version" : "3.1.M0",
      "purl" : "pkg:maven/org.eclipse.jetty.toolchain/jetty-schemas@3.1.M0",
      "type" : "library",
      "bom-ref" : "6df0200c-036a-4018-ae92-fa68dec29789"
    },
    {
      "name" : "org.eclipse.jetty.websocket:javax-websocket-client-impl",
      "version" : "9.4.50.v20221201",
      "purl" : "pkg:maven/org.eclipse.jetty.websocket/javax-websocket-client-impl@9.4.50.v20221201",
      "type" : "library",
      "bom-ref" : "446d9aac-5251-45f0-9aa6-2036e9169cb7"
    },
    {
      "name" : "org.eclipse.jetty.websocket:javax-websocket-server-impl",
      "version" : "9.4.50.v20221201",
      "purl" : "pkg:maven/org.eclipse.jetty.websocket/javax-websocket-server-impl@9.4.50.v20221201",
      "type" : "library",
      "bom-ref" : "5473396a-e625-4708-993b-585cacb50696"
    },
    {
      "name" : "org.eclipse.jetty.websocket:websocket-api",
      "version" : "9.4.50.v20221201",
      "purl" : "pkg:maven/org.eclipse.jetty.websocket/websocket-api@9.4.50.v20221201",
      "type" : "library",
      "bom-ref" : "0d1b4f78-1dc8-4121-a7f1-d3ce6924303b"
    },
    {
      "name" : "org.eclipse.jetty.websocket:websocket-client",
      "version" : "9.4.50.v20221201",
      "purl" : "pkg:maven/org.eclipse.jetty.websocket/websocket-client@9.4.50.v20221201",
      "type" : "library",
      "bom-ref" : "7cf5bedc-1bc3-4163-87ea-346f74a14701"
    },
    {
      "name" : "org.eclipse.jetty.websocket:websocket-common",
      "version" : "9.4.50.v20221201",
      "purl" : "pkg:maven/org.eclipse.jetty.websocket/websocket-common@9.4.50.v20221201",
      "type" : "library",
      "bom-ref" : "bea3b741-a783-4e0e-888d-b29ad3d62cde"
    },
    {
      "name" : "org.eclipse.jetty.websocket:websocket-server",
      "version" : "9.4.50.v20221201",
      "purl" : "pkg:maven/org.eclipse.jetty.websocket/websocket-server@9.4.50.v20221201",
      "type" : "library",
      "bom-ref" : "3d69b27b-3209-4b86-ba5c-ecc91fe066a4"
    },
    {
      "name" : "org.eclipse.jetty.websocket:websocket-servlet",
      "version" : "9.4.50.v20221201",
      "purl" : "pkg:maven/org.eclipse.jetty.websocket/websocket-servlet@9.4.50.v20221201",
      "type" : "library",
      "bom-ref" : "aab3e9fe-1d54-44d5-997d-379394b9dfe6"
    },
    {
      "name" : "org.eclipse.jetty:apache-jsp",
      "version" : "9.4.50.v20221201",
      "purl" : "pkg:maven/org.eclipse.jetty/apache-jsp@9.4.50.v20221201",
      "type" : "library",
      "bom-ref" : "47d8efb8-85dc-486c-a29c-a3aa89ff1174"
    },
    {
      "name" : "org.eclipse.jetty:infinispan-common",
      "version" : "9.4.50.v20221201",
      "purl" : "pkg:maven/org.eclipse.jetty/infinispan-common@9.4.50.v20221201",
      "type" : "library",
      "bom-ref" : "52074f4f-90b3-434b-9ee0-b16563448700"
    },
    {
      "name" : "org.eclipse.jetty:infinispan-embedded-query",
      "version" : "9.4.50.v20221201",
      "purl" : "pkg:maven/org.eclipse.jetty/infinispan-embedded-query@9.4.50.v20221201",
      "type" : "library",
      "bom-ref" : "f6cecf5a-edd9-4aa5-adc4-95697fa76431"
    },
    {
      "name" : "org.eclipse.jetty:infinispan-remote-query",
      "version" : "9.4.50.v20221201",
      "purl" : "pkg:maven/org.eclipse.jetty/infinispan-remote-query@9.4.50.v20221201",
      "type" : "library",
      "bom-ref" : "510d6c9c-90d0-4b9f-b5b1-62d01ca17f2e"
    },
    {
      "name" : "org.eclipse.jetty:jetty-alpn-conscrypt-server",
      "version" : "9.4.50.v20221201",
      "purl" : "pkg:maven/org.eclipse.jetty/jetty-alpn-conscrypt-server@9.4.50.v20221201",
      "type" : "library",
      "bom-ref" : "9dc0b610-c85c-4c55-b1d6-b02f04ac4691"
    },
    {
      "name" : "org.eclipse.jetty:jetty-alpn-java-server",
      "version" : "9.4.50.v20221201",
      "purl" : "pkg:maven/org.eclipse.jetty/jetty-alpn-java-server@9.4.50.v20221201",
      "type" : "library",
      "bom-ref" : "2bd41032-74b1-4f1c-b373-566e919b11bf"
    },
    {
      "name" : "org.eclipse.jetty:jetty-alpn-openjdk8-server",
      "version" : "9.4.50.v20221201",
      "purl" : "pkg:maven/org.eclipse.jetty/jetty-alpn-openjdk8-server@9.4.50.v20221201",
      "type" : "library",
      "bom-ref" : "7cd7fd43-fd21-4a86-b425-806c80739209"
    },
    {
      "name" : "org.eclipse.jetty:jetty-alpn-server",
      "version" : "9.4.50.v20221201",
      "purl" : "pkg:maven/org.eclipse.jetty/jetty-alpn-server@9.4.50.v20221201",
      "type" : "library",
      "bom-ref" : "6eecc0b5-55c8-46f4-ba8a-c30b8b056431"
    },
    {
      "name" : "org.eclipse.jetty:jetty-annotations",
      "version" : "9.4.50.v20221201",
      "purl" : "pkg:maven/org.eclipse.jetty/jetty-annotations@9.4.50.v20221201",
      "type" : "library",
      "bom-ref" : "3eacd0fc-3a47-4435-bb1f-e02d709e5373"
    },
    {
      "name" : "org.eclipse.jetty:jetty-cdi",
      "version" : "9.4.50.v20221201",
      "purl" : "pkg:maven/org.eclipse.jetty/jetty-cdi@9.4.50.v20221201",
      "type" : "library",
      "bom-ref" : "e7f6b1f9-0ddd-430b-a182-1ff7877f94e7"
    },
    {
      "name" : "org.eclipse.jetty:jetty-client",
      "version" : "9.4.50.v20221201",
      "purl" : "pkg:maven/org.eclipse.jetty/jetty-client@9.4.50.v20221201",
      "type" : "library",
      "bom-ref" : "517fef06-b5f2-4500-ae0e-cfce1002f630"
    },
    {
      "name" : "org.eclipse.jetty:jetty-continuation",
      "version" : "9.4.50.v20221201",
      "purl" : "pkg:maven/org.eclipse.jetty/jetty-continuation@9.4.50.v20221201",
      "type" : "library",
      "bom-ref" : "ca921324-1e6c-47f5-aa47-e6829ff2f1c2"
    },
    {
      "name" : "org.eclipse.jetty:jetty-deploy",
      "version" : "9.4.50.v20221201",
      "purl" : "pkg:maven/org.eclipse.jetty/jetty-deploy@9.4.50.v20221201",
      "type" : "library",
      "bom-ref" : "75739022-69d4-4faf-90f8-a8af96934078"
    },
    {
      "name" : "org.eclipse.jetty:jetty-hazelcast",
      "version" : "9.4.50.v20221201",
      "purl" : "pkg:maven/org.eclipse.jetty/jetty-hazelcast@9.4.50.v20221201",
      "type" : "library",
      "bom-ref" : "01b26923-7e1e-44c3-9d10-ab8c0e602f11"
    },
    {
      "name" : "org.eclipse.jetty:jetty-http",
      "version" : "9.4.50.v20221201",
      "purl" : "pkg:maven/org.eclipse.jetty/jetty-http@9.4.50.v20221201",
      "type" : "library",
      "bom-ref" : "944d4588-95c7-4efa-9463-9bfa3db87e53"
    },
    {
      "name" : "org.eclipse.jetty:jetty-io",
      "version" : "9.4.50.v20221201",
      "purl" : "pkg:maven/org.eclipse.jetty/jetty-io@9.4.50.v20221201",
      "type" : "library",
      "bom-ref" : "70debeeb-bb90-4569-8662-dfa029985c19"
    },
    {
      "name" : "org.eclipse.jetty:jetty-jaas",
      "version" : "9.4.50.v20221201",
      "purl" : "pkg:maven/org.eclipse.jetty/jetty-jaas@9.4.50.v20221201",
      "type" : "library",
      "bom-ref" : "5a19361c-841d-4dae-9631-587d3d8b98cd"
    },
    {
      "name" : "org.eclipse.jetty:jetty-jaspi",
      "version" : "9.4.50.v20221201",
      "purl" : "pkg:maven/org.eclipse.jetty/jetty-jaspi@9.4.50.v20221201",
      "type" : "library",
      "bom-ref" : "a18319d9-c9e4-4066-b93f-0f92051808e8"
    },
    {
      "name" : "org.eclipse.jetty:jetty-jmx",
      "version" : "9.4.50.v20221201",
      "purl" : "pkg:maven/org.eclipse.jetty/jetty-jmx@9.4.50.v20221201",
      "type" : "library",
      "bom-ref" : "45e82783-2d8e-42c4-a3d0-8e23d80b8c79"
    },
    {
      "name" : "org.eclipse.jetty:jetty-jndi",
      "version" : "9.4.50.v20221201",
      "purl" : "pkg:maven/org.eclipse.jetty/jetty-jndi@9.4.50.v20221201",
      "type" : "library",
      "bom-ref" : "126eaeae-c163-425f-baa2-548f75f1253a"
    },
    {
      "name" : "org.eclipse.jetty:jetty-nosql",
      "version" : "9.4.50.v20221201",
      "purl" : "pkg:maven/org.eclipse.jetty/jetty-nosql@9.4.50.v20221201",
      "type" : "library",
      "bom-ref" : "16ebde3e-67a9-4a60-ae03-626619adc778"
    },
    {
      "name" : "org.eclipse.jetty:jetty-openid",
      "version" : "9.4.50.v20221201",
      "purl" : "pkg:maven/org.eclipse.jetty/jetty-openid@9.4.50.v20221201",
      "type" : "library",
      "bom-ref" : "3fb7a68e-0daa-4bb2-b855-fc73cd12ef42"
    },
    {
      "name" : "org.eclipse.jetty:jetty-plus",
      "version" : "9.4.50.v20221201",
      "purl" : "pkg:maven/org.eclipse.jetty/jetty-plus@9.4.50.v20221201",
      "type" : "library",
      "bom-ref" : "8a7cf626-62b0-48ab-b02f-a97025ede419"
    },
    {
      "name" : "org.eclipse.jetty:jetty-proxy",
      "version" : "9.4.50.v20221201",
      "purl" : "pkg:maven/org.eclipse.jetty/jetty-proxy@9.4.50.v20221201",
      "type" : "library",
      "bom-ref" : "64bcb6e6-79f5-4b45-8ae6-9ea5cb363181"
    },
    {
      "name" : "org.eclipse.jetty:jetty-quickstart",
      "version" : "9.4.50.v20221201",
      "purl" : "pkg:maven/org.eclipse.jetty/jetty-quickstart@9.4.50.v20221201",
      "type" : "library",
      "bom-ref" : "180a0aa1-30b8-4fb5-ba39-1e2ed2b755c2"
    },
    {
      "name" : "org.eclipse.jetty:jetty-rewrite",
      "version" : "9.4.50.v20221201",
      "purl" : "pkg:maven/org.eclipse.jetty/jetty-rewrite@9.4.50.v20221201",
      "type" : "library",
      "bom-ref" : "f7a21420-db84-42e1-b642-6c4f9552105e"
    },
    {
      "name" : "org.eclipse.jetty:jetty-security",
      "version" : "9.4.50.v20221201",
      "purl" : "pkg:maven/org.eclipse.jetty/jetty-security@9.4.50.v20221201",
      "type" : "library",
      "bom-ref" : "6b673bdd-0ba7-4649-9efa-35dcd5fabe06"
    },
    {
      "name" : "org.eclipse.jetty:jetty-server",
      "version" : "9.4.50.v20221201",
      "purl" : "pkg:maven/org.eclipse.jetty/jetty-server@9.4.50.v20221201",
      "type" : "library",
      "bom-ref" : "707d551a-cb58-4ca5-bcd7-37bcc30ae3fc"
    },
    {
      "name" : "org.eclipse.jetty:jetty-servlet",
      "version" : "9.4.50.v20221201",
      "purl" : "pkg:maven/org.eclipse.jetty/jetty-servlet@9.4.50.v20221201",
      "type" : "library",
      "bom-ref" : "f68fee00-1c29-40b5-ab71-8da5a66867fd"
    },
    {
      "name" : "org.eclipse.jetty:jetty-servlets",
      "version" : "9.4.50.v20221201",
      "purl" : "pkg:maven/org.eclipse.jetty/jetty-servlets@9.4.50.v20221201",
      "type" : "library",
      "bom-ref" : "0b02af8e-e290-4452-98db-b174d1689cba"
    },
    {
      "name" : "org.eclipse.jetty:jetty-spring",
      "version" : "9.4.50.v20221201",
      "purl" : "pkg:maven/org.eclipse.jetty/jetty-spring@9.4.50.v20221201",
      "type" : "library",
      "bom-ref" : "dbcd99aa-547f-4932-9650-5b7c621643d6"
    },
    {
      "name" : "org.eclipse.jetty:jetty-start",
      "version" : "9.4.50.v20221201",
      "purl" : "pkg:maven/org.eclipse.jetty/jetty-start@9.4.50.v20221201",
      "type" : "library",
      "bom-ref" : "808e3e1a-c8f7-4589-b2aa-fa2dde8fde60"
    },
    {
      "name" : "org.eclipse.jetty:jetty-unixsocket",
      "version" : "9.4.50.v20221201",
      "purl" : "pkg:maven/org.eclipse.jetty/jetty-unixsocket@9.4.50.v20221201",
      "type" : "library",
      "bom-ref" : "efe15f5a-650e-4d73-ba75-24a1190f0972"
    },
    {
      "name" : "org.eclipse.jetty:jetty-util",
      "version" : "9.4.50.v20221201",
      "purl" : "pkg:maven/org.eclipse.jetty/jetty-util@9.4.50.v20221201",
      "type" : "library",
      "bom-ref" : "39e6f776-11ab-4e2e-9f8e-956e254acb94"
    },
    {
      "name" : "org.eclipse.jetty:jetty-util-ajax",
      "version" : "9.4.50.v20221201",
      "purl" : "pkg:maven/org.eclipse.jetty/jetty-util-ajax@9.4.50.v20221201",
      "type" : "library",
      "bom-ref" : "475fef08-a5d5-46f4-b586-6362571b9ec5"
    },
    {
      "name" : "org.eclipse.jetty:jetty-webapp",
      "version" : "9.4.50.v20221201",
      "purl" : "pkg:maven/org.eclipse.jetty/jetty-webapp@9.4.50.v20221201",
      "type" : "library",
      "bom-ref" : "0f8d0d8f-2fa9-431a-a195-fcd04a908e45"
    },
    {
      "name" : "org.eclipse.jetty:jetty-xml",
      "version" : "9.4.50.v20221201",
      "purl" : "pkg:maven/org.eclipse.jetty/jetty-xml@9.4.50.v20221201",
      "type" : "library",
      "bom-ref" : "868394ad-b0e2-4c9a-a87a-4688bcb2fae4"
    },
    {
      "name" : "org.mortbay.jasper:apache-el",
      "version" : "8.5.70",
      "purl" : "pkg:maven/org.mortbay.jasper/apache-el@8.5.70",
      "type" : "library",
      "bom-ref" : "532e409a-8181-48c6-b059-98ae21c0517f"
    },
    {
      "name" : "org.mortbay.jasper:apache-jsp",
      "version" : "8.5.70",
      "purl" : "pkg:maven/org.mortbay.jasper/apache-jsp@8.5.70",
      "type" : "library",
      "bom-ref" : "5c1a0b65-41a7-4b76-bb23-675470875cb6"
    },
    {
      "name" : "org.ow2.asm:asm",
      "version" : "9.4",
      "purl" : "pkg:maven/org.ow2.asm/asm@9.4",
      "type" : "library",
      "bom-ref" : "cdc985c0-709f-46c6-aab1-14a7665e11e0"
    },
    {
      "name" : "org.ow2.asm:asm-analysis",
      "version" : "9.4",
      "purl" : "pkg:maven/org.ow2.asm/asm-analysis@9.4",
      "type" : "library",
      "bom-ref" : "f8057926-8e3b-4d02-8347-2e8d89f21c80"
    },
    {
      "name" : "org.ow2.asm:asm-commons",
      "version" : "9.4",
      "purl" : "pkg:maven/org.ow2.asm/asm-commons@9.4",
      "type" : "library",
      "bom-ref" : "16995764-954a-4040-bde9-ef2cbcf900d6"
    },
    {
      "name" : "org.ow2.asm:asm-tree",
      "version" : "9.4",
      "purl" : "pkg:maven/org.ow2.asm/asm-tree@9.4",
      "type" : "library",
      "bom-ref" : "d398c9c0-fcd9-4374-ba27-117f7ef4f889"
    },
    {
      "name" : "p11-kit",
      "version" : "0.23.22-1.amzn2.0.1",
      "purl" : "pkg:rpm/amazon/p11-kit@0.23.22-1.amzn2.0.1?arch=x86_64&distro=amazon-2%20%28Karoo%29",
      "type" : "library",
      "bom-ref" : "07d59c7e-a46d-421d-90f3-4d1f70e07e36"
    },
    {
      "name" : "p11-kit-trust",
      "version" : "0.23.22-1.amzn2.0.1",
      "purl" : "pkg:rpm/amazon/p11-kit-trust@0.23.22-1.amzn2.0.1?arch=x86_64&distro=amazon-2%20%28Karoo%29",
      "type" : "library",
      "bom-ref" : "801dddc3-2f39-4e71-bf32-ebaf7f87ac8a"
    },
    {
      "name" : "pcre",
      "version" : "8.32-17.amzn2.0.2",
      "purl" : "pkg:rpm/amazon/pcre@8.32-17.amzn2.0.2?arch=x86_64&distro=amazon-2%20%28Karoo%29",
      "type" : "library",
      "bom-ref" : "be50e784-7180-49bd-92d1-f17282822e6d"
    },
    {
      "name" : "pinentry",
      "version" : "0.8.1-17.amzn2.0.2",
      "purl" : "pkg:rpm/amazon/pinentry@0.8.1-17.amzn2.0.2?arch=x86_64&distro=amazon-2%20%28Karoo%29",
      "type" : "library",
      "bom-ref" : "fefc6fe9-8956-412f-b8fc-0ba01c7760c9"
    },
    {
      "name" : "popt",
      "version" : "1.13-16.amzn2.0.2",
      "purl" : "pkg:rpm/amazon/popt@1.13-16.amzn2.0.2?arch=x86_64&distro=amazon-2%20%28Karoo%29",
      "type" : "library",
      "bom-ref" : "75f85a91-0b2f-47d2-bbdd-21b620643d47"
    },
    {
      "name" : "pth",
      "version" : "2.0.7-23.amzn2.0.2",
      "purl" : "pkg:rpm/amazon/pth@2.0.7-23.amzn2.0.2?arch=x86_64&distro=amazon-2%20%28Karoo%29",
      "type" : "library",
      "bom-ref" : "7c6bae41-7c52-45bd-9fb6-aac9322ca6a9"
    },
    {
      "name" : "pygpgme",
      "version" : "0.3-9.amzn2.0.3",
      "purl" : "pkg:rpm/amazon/pygpgme@0.3-9.amzn2.0.3?arch=x86_64&distro=amazon-2%20%28Karoo%29",
      "type" : "library",
      "bom-ref" : "da3c5623-ca95-491a-bb16-197e963af8df"
    },
    {
      "name" : "pyliblzma",
      "version" : "0.5.3-25.amzn2",
      "purl" : "pkg:rpm/amazon/pyliblzma@0.5.3-25.amzn2?arch=x86_64&distro=amazon-2%20%28Karoo%29",
      "type" : "library",
      "bom-ref" : "a2db0d39-fbe8-4cd9-ae1a-08df32c476e9"
    },
    {
      "name" : "python",
      "version" : "2.7.18-1.amzn2.0.5",
      "purl" : "pkg:rpm/amazon/python@2.7.18-1.amzn2.0.5?arch=x86_64&distro=amazon-2%20%28Karoo%29",
      "type" : "library",
      "bom-ref" : "e9329545-e68b-4f42-ba4e-af02ce59a3a6"
    },
    {
      "name" : "python-iniparse",
      "version" : "0.4-9.amzn2",
      "purl" : "pkg:rpm/amazon/python-iniparse@0.4-9.amzn2?arch=noarch&distro=amazon-2%20%28Karoo%29",
      "type" : "library",
      "bom-ref" : "4a219b81-6801-4b4d-8216-7ca955a5597b"
    },
    {
      "name" : "python-libs",
      "version" : "2.7.18-1.amzn2.0.5",
      "purl" : "pkg:rpm/amazon/python-libs@2.7.18-1.amzn2.0.5?arch=x86_64&distro=amazon-2%20%28Karoo%29",
      "type" : "library",
      "bom-ref" : "05f8783e-4b1d-4ff7-b772-edaa600c625e"
    },
    {
      "name" : "python-pycurl",
      "version" : "7.19.0-19.amzn2.0.2",
      "purl" : "pkg:rpm/amazon/python-pycurl@7.19.0-19.amzn2.0.2?arch=x86_64&distro=amazon-2%20%28Karoo%29",
      "type" : "library",
      "bom-ref" : "47bb3a3f-f8d7-49b9-8960-f48e30d0c56f"
    },
    {
      "name" : "python-urlgrabber",
      "version" : "3.10-9.amzn2.0.1",
      "purl" : "pkg:rpm/amazon/python-urlgrabber@3.10-9.amzn2.0.1?arch=noarch&distro=amazon-2%20%28Karoo%29",
      "type" : "library",
      "bom-ref" : "3557b253-dacb-448f-89fe-d9f5c0c86419"
    },
    {
      "name" : "python2-rpm",
      "version" : "4.11.3-48.amzn2.0.2",
      "purl" : "pkg:rpm/amazon/python2-rpm@4.11.3-48.amzn2.0.2?arch=x86_64&distro=amazon-2%20%28Karoo%29",
      "type" : "library",
      "bom-ref" : "0a554ba1-e35a-4bb8-bcf1-e6f459c952a4"
    },
    {
      "name" : "pyxattr",
      "version" : "0.5.1-5.amzn2.0.2",
      "purl" : "pkg:rpm/amazon/pyxattr@0.5.1-5.amzn2.0.2?arch=x86_64&distro=amazon-2%20%28Karoo%29",
      "type" : "library",
      "bom-ref" : "3eda18a4-825c-43b4-9316-bb8660b98977"
    },
    {
      "name" : "readline",
      "version" : "6.2-10.amzn2.0.2",
      "purl" : "pkg:rpm/amazon/readline@6.2-10.amzn2.0.2?arch=x86_64&distro=amazon-2%20%28Karoo%29",
      "type" : "library",
      "bom-ref" : "4e1af691-c3a9-4265-9617-76797d9b961a"
    },
    {
      "name" : "rpm",
      "version" : "4.11.3-48.amzn2.0.2",
      "purl" : "pkg:rpm/amazon/rpm@4.11.3-48.amzn2.0.2?arch=x86_64&distro=amazon-2%20%28Karoo%29",
      "type" : "library",
      "bom-ref" : "646b41b4-ecb1-43a0-a6d8-045c2730a419"
    },
    {
      "name" : "rpm-build-libs",
      "version" : "4.11.3-48.amzn2.0.2",
      "purl" : "pkg:rpm/amazon/rpm-build-libs@4.11.3-48.amzn2.0.2?arch=x86_64&distro=amazon-2%20%28Karoo%29",
      "type" : "library",
      "bom-ref" : "a5a9b323-8259-41a0-bfc8-ac6fc9479f46"
    },
    {
      "name" : "rpm-libs",
      "version" : "4.11.3-48.amzn2.0.2",
      "purl" : "pkg:rpm/amazon/rpm-libs@4.11.3-48.amzn2.0.2?arch=x86_64&distro=amazon-2%20%28Karoo%29",
      "type" : "library",
      "bom-ref" : "4a7d6f3a-4657-4128-9088-a8870254508b"
    },
    {
      "name" : "sed",
      "version" : "4.2.2-5.amzn2.0.2",
      "purl" : "pkg:rpm/amazon/sed@4.2.2-5.amzn2.0.2?arch=x86_64&distro=amazon-2%20%28Karoo%29",
      "type" : "library",
      "bom-ref" : "aadea81f-f93e-4a1d-b826-1420943a31d7"
    },
    {
      "name" : "setup",
      "version" : "2.8.71-10.amzn2.0.1",
      "purl" : "pkg:rpm/amazon/setup@2.8.71-10.amzn2.0.1?arch=noarch&distro=amazon-2%20%28Karoo%29",
      "type" : "library",
      "bom-ref" : "0d8fe1bf-88f9-496a-808b-474ab3a9382a"
    },
    {
      "name" : "shadow-utils",
      "version" : "2:4.1.5.1-24.amzn2.0.2",
      "purl" : "pkg:rpm/amazon/shadow-utils@2%3A4.1.5.1-24.amzn2.0.2?arch=x86_64&distro=amazon-2%20%28Karoo%29",
      "type" : "library",
      "bom-ref" : "1874081b-d133-4cb7-bbb0-5cae6b7fd989"
    },
    {
      "name" : "shared-mime-info",
      "version" : "1.8-4.amzn2",
      "purl" : "pkg:rpm/amazon/shared-mime-info@1.8-4.amzn2?arch=x86_64&distro=amazon-2%20%28Karoo%29",
      "type" : "library",
      "bom-ref" : "3e2902f0-6bdc-48d0-9c20-44749ad7d667"
    },
    {
      "name" : "sqlite",
      "version" : "3.7.17-8.amzn2.1.2",
      "purl" : "pkg:rpm/amazon/sqlite@3.7.17-8.amzn2.1.2?arch=x86_64&distro=amazon-2%20%28Karoo%29",
      "type" : "library",
      "bom-ref" : "f738048e-4070-413f-a48b-9a9d5134a01f"
    },
    {
      "name" : "system-release",
      "version" : "1:2-14.amzn2",
      "purl" : "pkg:rpm/amazon/system-release@1%3A2-14.amzn2?arch=x86_64&distro=amazon-2%20%28Karoo%29",
      "type" : "library",
      "bom-ref" : "972c4214-0e47-4e88-9e09-238766b90917"
    },
    {
      "name" : "tar",
      "version" : "2:1.26-35.amzn2",
      "purl" : "pkg:rpm/amazon/tar@2%3A1.26-35.amzn2?arch=x86_64&distro=amazon-2%20%28Karoo%29",
      "type" : "library",
      "bom-ref" : "bf0b08bb-4398-4b26-b0df-a99f01e97703"
    },
    {
      "name" : "tzdata",
      "version" : "2022g-1.amzn2.0.2",
      "purl" : "pkg:rpm/amazon/tzdata@2022g-1.amzn2.0.2?arch=noarch&distro=amazon-2%20%28Karoo%29",
      "type" : "library",
      "bom-ref" : "fe7d187c-8f8e-4317-916b-5849878094ae"
    },
    {
      "name" : "ustr",
      "version" : "1.0.4-16.amzn2.0.3",
      "purl" : "pkg:rpm/amazon/ustr@1.0.4-16.amzn2.0.3?arch=x86_64&distro=amazon-2%20%28Karoo%29",
      "type" : "library",
      "bom-ref" : "27b9c408-b2b3-411a-8d99-849820e7a1ee"
    },
    {
      "name" : "vim-data",
      "version" : "2:9.0.1160-1.amzn2.0.1",
      "purl" : "pkg:rpm/amazon/vim-data@2%3A9.0.1160-1.amzn2.0.1?arch=noarch&distro=amazon-2%20%28Karoo%29",
      "type" : "library",
      "bom-ref" : "79c78d23-e498-4186-8c6b-be87477cd7df"
    },
    {
      "name" : "vim-minimal",
      "version" : "2:9.0.1160-1.amzn2.0.1",
      "purl" : "pkg:rpm/amazon/vim-minimal@2%3A9.0.1160-1.amzn2.0.1?arch=x86_64&distro=amazon-2%20%28Karoo%29",
      "type" : "library",
      "bom-ref" : "d9075b59-2d9e-464c-b82a-d6603135cafb"
    },
    {
      "name" : "xz",
      "version" : "5.2.2-1.amzn2.0.3",
      "purl" : "pkg:rpm/amazon/xz@5.2.2-1.amzn2.0.3?arch=x86_64&distro=amazon-2%20%28Karoo%29",
      "type" : "library",
      "bom-ref" : "075bc401-2e2a-4d86-96b8-35ee25ea9848"
    },
    {
      "name" : "xz-libs",
      "version" : "5.2.2-1.amzn2.0.3",
      "purl" : "pkg:rpm/amazon/xz-libs@5.2.2-1.amzn2.0.3?arch=x86_64&distro=amazon-2%20%28Karoo%29",
      "type" : "library",
      "bom-ref" : "a69abdf9-1312-4a8e-a015-5d5a60b0826c"
    },
    {
      "name" : "yum",
      "version" : "3.4.3-158.amzn2.0.6",
      "purl" : "pkg:rpm/amazon/yum@3.4.3-158.amzn2.0.6?arch=noarch&distro=amazon-2%20%28Karoo%29",
      "type" : "library",
      "bom-ref" : "88d5df78-3db3-46d7-866e-0fec45833da8"
    },
    {
      "name" : "yum-metadata-parser",
      "version" : "1.1.4-10.amzn2.0.2",
      "purl" : "pkg:rpm/amazon/yum-metadata-parser@1.1.4-10.amzn2.0.2?arch=x86_64&distro=amazon-2%20%28Karoo%29",
      "type" : "library",
      "bom-ref" : "549d6435-516c-4f95-9348-2693b82eb33b"
    },
    {
      "name" : "yum-plugin-ovl",
      "version" : "1.1.31-46.amzn2.0.1",
      "purl" : "pkg:rpm/amazon/yum-plugin-ovl@1.1.31-46.amzn2.0.1?arch=noarch&distro=amazon-2%20%28Karoo%29",
      "type" : "library",
      "bom-ref" : "c9f36d12-e7bf-4e5e-8ca7-f5dbe129d7cf"
    },
    {
      "name" : "yum-plugin-priorities",
      "version" : "1.1.31-46.amzn2.0.1",
      "purl" : "pkg:rpm/amazon/yum-plugin-priorities@1.1.31-46.amzn2.0.1?arch=noarch&distro=amazon-2%20%28Karoo%29",
      "type" : "library",
      "bom-ref" : "aa0789e9-dcef-4e28-a7ec-665e6f5e6174"
    },
    {
      "name" : "zlib",
      "version" : "1.2.7-19.amzn2.0.2",
      "purl" : "pkg:rpm/amazon/zlib@1.2.7-19.amzn2.0.2?arch=x86_64&distro=amazon-2%20%28Karoo%29",
      "type" : "library",
      "bom-ref" : "ab506461-8c8d-4074-9738-671711545da5"
    }
  ],
  "dependencies" : [
    {
      "ref" : "05a80cca-27d6-4c5d-aa75-3ee2d97f08b3",
      "dependsOn" : [
        "a834f645-af73-480e-9755-f6cdf37a5010",
        "8e9a500c-7639-474a-b2c7-656409d93725",
        "16ebde3e-67a9-4a60-ae03-626619adc778",
        "8753b9d0-69d0-493f-9bf6-fc4c869106b5",
        "96244cf4-4291-47e4-bc70-f76852e42737",
        "6eecc0b5-55c8-46f4-ba8a-c30b8b056431",
        "e7f6b1f9-0ddd-430b-a182-1ff7877f94e7",
        "517fef06-b5f2-4500-ae0e-cfce1002f630",
        "5a19361c-841d-4dae-9631-587d3d8b98cd",
        "a18319d9-c9e4-4066-b93f-0f92051808e8",
        "f7a21420-db84-42e1-b642-6c4f9552105e",
        "707d551a-cb58-4ca5-bcd7-37bcc30ae3fc",
        "39e6f776-11ab-4e2e-9f8e-956e254acb94",
        "0f8d0d8f-2fa9-431a-a195-fcd04a908e45",
        "510d6c9c-90d0-4b9f-b5b1-62d01ca17f2e",
        "ca921324-1e6c-47f5-aa47-e6829ff2f1c2",
        "75739022-69d4-4faf-90f8-a8af96934078",
        "6df0200c-036a-4018-ae92-fa68dec29789",
        "30c0f5f6-7da4-4772-b7db-c3dcc5c17df7",
        "3d69b27b-3209-4b86-ba5c-ecc91fe066a4",
        "aab3e9fe-1d54-44d5-997d-379394b9dfe6",
        "446d9aac-5251-45f0-9aa6-2036e9169cb7",
        "5473396a-e625-4708-993b-585cacb50696",
        "256f5faf-0a56-4a64-a236-b8037ddd8d64",
        "0d1b4f78-1dc8-4121-a7f1-d3ce6924303b",
        "7cf5bedc-1bc3-4163-87ea-346f74a14701",
        "bea3b741-a783-4e0e-888d-b29ad3d62cde",
        "6b583132-a1f8-462a-a12b-f4a7ff9d91d9",
        "736c402c-5bc9-4c68-ba03-ca33604ceca8",
        "969dbdaf-d918-4d00-bbd0-42337a9116ff",
        "7cd7fd43-fd21-4a86-b425-806c80739209",
        "3eacd0fc-3a47-4435-bb1f-e02d709e5373",
        "45e82783-2d8e-42c4-a3d0-8e23d80b8c79",
        "3fb7a68e-0daa-4bb2-b855-fc73cd12ef42",
        "832d7ff9-1372-40f3-8514-7c6ee65d52e0",
        "5c1a0b65-41a7-4b76-bb23-675470875cb6",
        "5fe64bd5-3b68-45c4-ace0-fa896bbc0c63",
        "47d8efb8-85dc-486c-a29c-a3aa89ff1174",
        "532e409a-8181-48c6-b059-98ae21c0517f",
        "01b26923-7e1e-44c3-9d10-ab8c0e602f11",
        "475fef08-a5d5-46f4-b586-6362571b9ec5",
        "2bd41032-74b1-4f1c-b373-566e919b11bf",
        "70debeeb-bb90-4569-8662-dfa029985c19",
        "cdc985c0-709f-46c6-aab1-14a7665e11e0",
        "f8057926-8e3b-4d02-8347-2e8d89f21c80",
        "16995764-954a-4040-bde9-ef2cbcf900d6",
        "d398c9c0-fcd9-4374-ba27-117f7ef4f889",
        "c64bce2a-7d4d-4443-a3b1-2cd7934cc7b7",
        "8a7cf626-62b0-48ab-b02f-a97025ede419",
        "180a0aa1-30b8-4fb5-ba39-1e2ed2b755c2",
        "6b673bdd-0ba7-4649-9efa-35dcd5fabe06",
        "868394ad-b0e2-4c9a-a87a-4688bcb2fae4",
        "08b63e05-34da-4a75-b212-2e8fb4ebde53",
        "1bd4827f-85f7-426b-a972-85da79d0600f",
        "f6cecf5a-edd9-4aa5-adc4-95697fa76431",
        "9dc0b610-c85c-4c55-b1d6-b02f04ac4691",
        "944d4588-95c7-4efa-9463-9bfa3db87e53",
        "126eaeae-c163-425f-baa2-548f75f1253a",
        "64bcb6e6-79f5-4b45-8ae6-9ea5cb363181",
        "f8998a45-5c7c-4157-879d-377fea4ab936",
        "3deac25d-c424-4dad-ad6d-ab3cde5014da",
        "dbcd99aa-547f-4932-9650-5b7c621643d6",
        "52074f4f-90b3-434b-9ee0-b16563448700",
        "f4e4db0f-87ee-42ec-976b-70074822cd76",
        "928938a8-25d1-4423-922a-a17bffc94c03",
        "f68fee00-1c29-40b5-ab71-8da5a66867fd",
        "0b02af8e-e290-4452-98db-b174d1689cba",
        "efe15f5a-650e-4d73-ba75-24a1190f0972",
        "808e3e1a-c8f7-4589-b2aa-fa2dde8fde60"
      ]
    },
    {
      "ref" : "a834f645-af73-480e-9755-f6cdf37a5010",
      "dependsOn" : [
        "1e3621a1-ceba-4f8a-bb43-021fd580f60b",
        "1a61cff3-2575-47c4-bddf-d1e098dfe05c",
        "b9be1e20-70f1-4de6-8b28-7957c76fae54",
        "ceb9c4f9-cb71-4075-be21-e7efe97d2036",
        "1db296ab-a049-4443-982c-0a2a8fb081d9",
        "765e9257-b716-4816-8229-2ad609399433",
        "ac8c07bb-75bb-4fc3-af5b-a3f9ead4abe5",
        "01a8715c-aef2-4b3c-9acc-5562db003c09",
        "aae1e38d-a892-40af-b424-ad72f5086533",
        "1f7331d7-9614-4a5e-beb1-c0e54e4d1140",
        "6fc2c68c-9d39-4f98-a978-82d5fca957fd",
        "1ee89a43-f336-45c2-a58c-0c2815fc1edb",
        "98a32e92-1ec6-4083-8c67-b928aff6fa70",
        "34cdc0a1-292a-48f6-8b08-22c56962ab1f",
        "e94476a0-d381-4d1e-8b3b-9ddac4b27223",
        "5b0af0b8-79a7-41f5-9963-81cb3de5391a",
        "8fe00265-84bc-451c-ad8c-a010888fe2ae",
        "93497403-3342-4174-a53f-e136193b6421",
        "14547c26-21f0-4825-9d5a-ac1b708c991a",
        "1c1def82-fbef-47da-90d8-2962a590a59f",
        "e13ee2a1-40a9-495b-a34e-8e695750af01",
        "8127ca6b-9d05-4b0e-bf56-48d149258ce6",
        "900ba76b-0bd1-42aa-b1a4-ff74661345ea",
        "02ff8f7e-144f-4812-af29-78fe52fd4510",
        "e853a7e3-a0c5-4bb3-846f-2714c0c9f81c",
        "f0b7c59a-c594-47e7-9663-ad1ab0b89c97",
        "bcba44c3-f11b-4cf8-b958-e44415842a8e",
        "750012bd-6ba9-47ae-a3c7-af9dd74eaf36",
        "c710e533-9e87-47e8-a113-3fcde66739f5",
        "43d14de5-5157-4e0f-aecd-75ddc818eed4",
        "edbf378c-06ab-4a8a-91ce-9e775730843d",
        "e4bc1523-f7bb-44bc-a39c-2c97fede3bb4",
        "d490a515-d931-431c-884f-2347598cf1d9",
        "c1cf2a90-d2ff-4e07-9e17-49ed06077c7e",
        "847b1d6e-e8f2-43ff-902d-358291061eec",
        "4d158e25-f08b-417d-9119-75182e058e72",
        "871d9e77-4ad2-4ca2-a453-dcea23025282",
        "9c42ce26-cfda-407b-952f-ad85032b75e1",
        "a31d5429-f41e-458a-8b15-e00eca6b91c8",
        "7b7a844c-d0ec-4dd5-b6f8-3b7f69e37ea5",
        "322c3c59-7bed-4e5f-9840-cc3305d4c313",
        "a95f872c-c866-4afc-80ca-9372d1f461ae",
        "673d056d-5df6-4455-9a78-931ed159c6f5",
        "0c7afeba-42b0-4aa1-bf9c-209fa30c2a81",
        "46ed1657-7d72-4b77-8936-89be0e9ee0f5",
        "3d57b47a-b083-4346-96a4-b310766d63ab",
        "5a3912d1-0166-459b-a8f8-ebd6e0064a61",
        "95836882-6b44-4321-9d80-9072d3251ad8",
        "b19bd1ef-48f8-4d61-bca7-2bef742773ee",
        "0732e966-2244-4bad-886e-7c0fdcb68db0",
        "5b58938c-ab36-49cc-9be7-abfb5530587f",
        "c5623aef-cb25-47b6-ac95-fd3c77777bf7",
        "b8d70b0d-3793-4e86-8f66-c0c7b6c315de",
        "c37ac2b0-4c0a-4cf4-a057-582f6bec47fd",
        "7af17b7c-578f-48ea-b8a0-9c318a62d689",
        "9c8a1585-99fd-462b-8dca-03c3e9c6fd4b",
        "b0055ddb-1692-431f-b63f-c49c0f70c671",
        "f1172da8-8b10-4a4e-a192-26176806223c",
        "9e079724-5a2d-4c80-a813-6b1daefd9e51",
        "53bdf059-72b9-430a-92ec-576951adaa7a",
        "39d1521f-3902-40ce-8266-eef18608de88",
        "1ba8bbb6-1a99-42e0-a810-ee21d8a28c4c",
        "b8b379c0-9c83-4425-b251-c1b3318be7ff",
        "2f11cff0-992e-4f03-9133-a39d86f4f65b",
        "fade4e2d-8493-458d-b67f-e001f880efeb",
        "a4d4a885-fe65-4445-99c4-10968d917326",
        "642ca790-cde2-4334-9312-8bbd0a3ca357",
        "cbbec8ae-0ced-4c03-97c4-694569dfd0b5",
        "3a2a8a13-2e99-4b7e-90a3-c83ef000e144",
        "1cefb9bf-2697-4023-b509-a57b0a5ad36b",
        "1a8f61a6-92fe-4c6b-b45f-a4402bb13aeb",
        "cd8b0169-7647-4db0-80e5-b04ff90deeba",
        "8f52fae4-c911-4bd1-8ef9-fe33ca3e047f",
        "3253723c-9f6a-4555-8e3c-ff37c3156792",
        "ae838013-bec0-4776-b52a-be1ec6a4da13",
        "476ea683-3eae-47f6-9f5f-55300a2c19b3",
        "ffa57e23-7e7a-4d57-92f2-6e805a8883b1",
        "78fc0211-2d9f-44e4-a166-4e7b40e63579",
        "a2de701e-956f-4b73-a654-7817018da7c0",
        "5b1919f4-519a-4491-a0d3-30479bcbe966",
        "51134783-6b4c-4bf3-baee-a78a3edd26e8",
        "d5490ee1-36ea-4110-8a5e-bed2296f0f8d",
        "93da75df-e3b9-42c9-93b7-40bc86040c64",
        "ad0d401d-5947-4a12-b700-2067d359b02a",
        "07d59c7e-a46d-421d-90f3-4d1f70e07e36",
        "801dddc3-2f39-4e71-bf32-ebaf7f87ac8a",
        "be50e784-7180-49bd-92d1-f17282822e6d",
        "fefc6fe9-8956-412f-b8fc-0ba01c7760c9",
        "75f85a91-0b2f-47d2-bbdd-21b620643d47",
        "7c6bae41-7c52-45bd-9fb6-aac9322ca6a9",
        "da3c5623-ca95-491a-bb16-197e963af8df",
        "a2db0d39-fbe8-4cd9-ae1a-08df32c476e9",
        "e9329545-e68b-4f42-ba4e-af02ce59a3a6",
        "4a219b81-6801-4b4d-8216-7ca955a5597b",
        "05f8783e-4b1d-4ff7-b772-edaa600c625e",
        "47bb3a3f-f8d7-49b9-8960-f48e30d0c56f",
        "3557b253-dacb-448f-89fe-d9f5c0c86419",
        "0a554ba1-e35a-4bb8-bcf1-e6f459c952a4",
        "3eda18a4-825c-43b4-9316-bb8660b98977",
        "4e1af691-c3a9-4265-9617-76797d9b961a",
        "646b41b4-ecb1-43a0-a6d8-045c2730a419",
        "a5a9b323-8259-41a0-bfc8-ac6fc9479f46",
        "4a7d6f3a-4657-4128-9088-a8870254508b",
        "aadea81f-f93e-4a1d-b826-1420943a31d7",
        "0d8fe1bf-88f9-496a-808b-474ab3a9382a",
        "1874081b-d133-4cb7-bbb0-5cae6b7fd989",
        "3e2902f0-6bdc-48d0-9c20-44749ad7d667",
        "f738048e-4070-413f-a48b-9a9d5134a01f",
        "972c4214-0e47-4e88-9e09-238766b90917",
        "bf0b08bb-4398-4b26-b0df-a99f01e97703",
        "fe7d187c-8f8e-4317-916b-5849878094ae",
        "27b9c408-b2b3-411a-8d99-849820e7a1ee",
        "79c78d23-e498-4186-8c6b-be87477cd7df",
        "d9075b59-2d9e-464c-b82a-d6603135cafb",
        "075bc401-2e2a-4d86-96b8-35ee25ea9848",
        "a69abdf9-1312-4a8e-a015-5d5a60b0826c",
        "88d5df78-3db3-46d7-866e-0fec45833da8",
        "549d6435-516c-4f95-9348-2693b82eb33b",
        "c9f36d12-e7bf-4e5e-8ca7-f5dbe129d7cf",
        "aa0789e9-dcef-4e28-a7ec-665e6f5e6174",
        "ab506461-8c8d-4074-9738-671711545da5"
      ]
    },
    {
      "ref" : "1e3621a1-ceba-4f8a-bb43-021fd580f60b",
      "dependsOn" : [ ]
    },
    {
      "ref" : "1a61cff3-2575-47c4-bddf-d1e098dfe05c",
      "dependsOn" : [ ]
    },
    {
      "ref" : "b9be1e20-70f1-4de6-8b28-7957c76fae54",
      "dependsOn" : [ ]
    },
    {
      "ref" : "ceb9c4f9-cb71-4075-be21-e7efe97d2036",
      "dependsOn" : [ ]
    },
    {
      "ref" : "1db296ab-a049-4443-982c-0a2a8fb081d9",
      "dependsOn" : [ ]
    },
    {
      "ref" : "765e9257-b716-4816-8229-2ad609399433",
      "dependsOn" : [ ]
    },
    {
      "ref" : "ac8c07bb-75bb-4fc3-af5b-a3f9ead4abe5",
      "dependsOn" : [ ]
    },
    {
      "ref" : "01a8715c-aef2-4b3c-9acc-5562db003c09",
      "dependsOn" : [ ]
    },
    {
      "ref" : "aae1e38d-a892-40af-b424-ad72f5086533",
      "dependsOn" : [ ]
    },
    {
      "ref" : "1f7331d7-9614-4a5e-beb1-c0e54e4d1140",
      "dependsOn" : [ ]
    },
    {
      "ref" : "6fc2c68c-9d39-4f98-a978-82d5fca957fd",
      "dependsOn" : [ ]
    },
    {
      "ref" : "1ee89a43-f336-45c2-a58c-0c2815fc1edb",
      "dependsOn" : [ ]
    },
    {
      "ref" : "98a32e92-1ec6-4083-8c67-b928aff6fa70",
      "dependsOn" : [ ]
    },
    {
      "ref" : "34cdc0a1-292a-48f6-8b08-22c56962ab1f",
      "dependsOn" : [ ]
    },
    {
      "ref" : "e94476a0-d381-4d1e-8b3b-9ddac4b27223",
      "dependsOn" : [ ]
    },
    {
      "ref" : "5b0af0b8-79a7-41f5-9963-81cb3de5391a",
      "dependsOn" : [ ]
    },
    {
      "ref" : "8fe00265-84bc-451c-ad8c-a010888fe2ae",
      "dependsOn" : [ ]
    },
    {
      "ref" : "93497403-3342-4174-a53f-e136193b6421",
      "dependsOn" : [ ]
    },
    {
      "ref" : "14547c26-21f0-4825-9d5a-ac1b708c991a",
      "dependsOn" : [ ]
    },
    {
      "ref" : "1c1def82-fbef-47da-90d8-2962a590a59f",
      "dependsOn" : [ ]
    },
    {
      "ref" : "e13ee2a1-40a9-495b-a34e-8e695750af01",
      "dependsOn" : [ ]
    },
    {
      "ref" : "8127ca6b-9d05-4b0e-bf56-48d149258ce6",
      "dependsOn" : [ ]
    },
    {
      "ref" : "900ba76b-0bd1-42aa-b1a4-ff74661345ea",
      "dependsOn" : [ ]
    },
    {
      "ref" : "02ff8f7e-144f-4812-af29-78fe52fd4510",
      "dependsOn" : [ ]
    },
    {
      "ref" : "e853a7e3-a0c5-4bb3-846f-2714c0c9f81c",
      "dependsOn" : [ ]
    },
    {
      "ref" : "f0b7c59a-c594-47e7-9663-ad1ab0b89c97",
      "dependsOn" : [ ]
    },
    {
      "ref" : "bcba44c3-f11b-4cf8-b958-e44415842a8e",
      "dependsOn" : [ ]
    },
    {
      "ref" : "750012bd-6ba9-47ae-a3c7-af9dd74eaf36",
      "dependsOn" : [ ]
    },
    {
      "ref" : "c710e533-9e87-47e8-a113-3fcde66739f5",
      "dependsOn" : [ ]
    },
    {
      "ref" : "43d14de5-5157-4e0f-aecd-75ddc818eed4",
      "dependsOn" : [ ]
    },
    {
      "ref" : "edbf378c-06ab-4a8a-91ce-9e775730843d",
      "dependsOn" : [ ]
    },
    {
      "ref" : "e4bc1523-f7bb-44bc-a39c-2c97fede3bb4",
      "dependsOn" : [ ]
    },
    {
      "ref" : "d490a515-d931-431c-884f-2347598cf1d9",
      "dependsOn" : [ ]
    },
    {
      "ref" : "c1cf2a90-d2ff-4e07-9e17-49ed06077c7e",
      "dependsOn" : [ ]
    },
    {
      "ref" : "847b1d6e-e8f2-43ff-902d-358291061eec",
      "dependsOn" : [ ]
    },
    {
      "ref" : "4d158e25-f08b-417d-9119-75182e058e72",
      "dependsOn" : [ ]
    },
    {
      "ref" : "871d9e77-4ad2-4ca2-a453-dcea23025282",
      "dependsOn" : [ ]
    },
    {
      "ref" : "9c42ce26-cfda-407b-952f-ad85032b75e1",
      "dependsOn" : [ ]
    },
    {
      "ref" : "c64bce2a-7d4d-4443-a3b1-2cd7934cc7b7",
      "dependsOn" : [ ]
    },
    {
      "ref" : "3deac25d-c424-4dad-ad6d-ab3cde5014da",
      "dependsOn" : [ ]
    },
    {
      "ref" : "30c0f5f6-7da4-4772-b7db-c3dcc5c17df7",
      "dependsOn" : [ ]
    },
    {
      "ref" : "256f5faf-0a56-4a64-a236-b8037ddd8d64",
      "dependsOn" : [ ]
    },
    {
      "ref" : "a31d5429-f41e-458a-8b15-e00eca6b91c8",
      "dependsOn" : [ ]
    },
    {
      "ref" : "7b7a844c-d0ec-4dd5-b6f8-3b7f69e37ea5",
      "dependsOn" : [ ]
    },
    {
      "ref" : "322c3c59-7bed-4e5f-9840-cc3305d4c313",
      "dependsOn" : [ ]
    },
    {
      "ref" : "a95f872c-c866-4afc-80ca-9372d1f461ae",
      "dependsOn" : [ ]
    },
    {
      "ref" : "673d056d-5df6-4455-9a78-931ed159c6f5",
      "dependsOn" : [ ]
    },
    {
      "ref" : "0c7afeba-42b0-4aa1-bf9c-209fa30c2a81",
      "dependsOn" : [ ]
    },
    {
      "ref" : "46ed1657-7d72-4b77-8936-89be0e9ee0f5",
      "dependsOn" : [ ]
    },
    {
      "ref" : "3d57b47a-b083-4346-96a4-b310766d63ab",
      "dependsOn" : [ ]
    },
    {
      "ref" : "5a3912d1-0166-459b-a8f8-ebd6e0064a61",
      "dependsOn" : [ ]
    },
    {
      "ref" : "95836882-6b44-4321-9d80-9072d3251ad8",
      "dependsOn" : [ ]
    },
    {
      "ref" : "b19bd1ef-48f8-4d61-bca7-2bef742773ee",
      "dependsOn" : [ ]
    },
    {
      "ref" : "0732e966-2244-4bad-886e-7c0fdcb68db0",
      "dependsOn" : [ ]
    },
    {
      "ref" : "5b58938c-ab36-49cc-9be7-abfb5530587f",
      "dependsOn" : [ ]
    },
    {
      "ref" : "c5623aef-cb25-47b6-ac95-fd3c77777bf7",
      "dependsOn" : [ ]
    },
    {
      "ref" : "b8d70b0d-3793-4e86-8f66-c0c7b6c315de",
      "dependsOn" : [ ]
    },
    {
      "ref" : "c37ac2b0-4c0a-4cf4-a057-582f6bec47fd",
      "dependsOn" : [ ]
    },
    {
      "ref" : "7af17b7c-578f-48ea-b8a0-9c318a62d689",
      "dependsOn" : [ ]
    },
    {
      "ref" : "9c8a1585-99fd-462b-8dca-03c3e9c6fd4b",
      "dependsOn" : [ ]
    },
    {
      "ref" : "b0055ddb-1692-431f-b63f-c49c0f70c671",
      "dependsOn" : [ ]
    },
    {
      "ref" : "f1172da8-8b10-4a4e-a192-26176806223c",
      "dependsOn" : [ ]
    },
    {
      "ref" : "9e079724-5a2d-4c80-a813-6b1daefd9e51",
      "dependsOn" : [ ]
    },
    {
      "ref" : "53bdf059-72b9-430a-92ec-576951adaa7a",
      "dependsOn" : [ ]
    },
    {
      "ref" : "39d1521f-3902-40ce-8266-eef18608de88",
      "dependsOn" : [ ]
    },
    {
      "ref" : "1ba8bbb6-1a99-42e0-a810-ee21d8a28c4c",
      "dependsOn" : [ ]
    },
    {
      "ref" : "b8b379c0-9c83-4425-b251-c1b3318be7ff",
      "dependsOn" : [ ]
    },
    {
      "ref" : "2f11cff0-992e-4f03-9133-a39d86f4f65b",
      "dependsOn" : [ ]
    },
    {
      "ref" : "fade4e2d-8493-458d-b67f-e001f880efeb",
      "dependsOn" : [ ]
    },
    {
      "ref" : "a4d4a885-fe65-4445-99c4-10968d917326",
      "dependsOn" : [ ]
    },
    {
      "ref" : "642ca790-cde2-4334-9312-8bbd0a3ca357",
      "dependsOn" : [ ]
    },
    {
      "ref" : "cbbec8ae-0ced-4c03-97c4-694569dfd0b5",
      "dependsOn" : [ ]
    },
    {
      "ref" : "3a2a8a13-2e99-4b7e-90a3-c83ef000e144",
      "dependsOn" : [ ]
    },
    {
      "ref" : "1cefb9bf-2697-4023-b509-a57b0a5ad36b",
      "dependsOn" : [ ]
    },
    {
      "ref" : "1a8f61a6-92fe-4c6b-b45f-a4402bb13aeb",
      "dependsOn" : [ ]
    },
    {
      "ref" : "cd8b0169-7647-4db0-80e5-b04ff90deeba",
      "dependsOn" : [ ]
    },
    {
      "ref" : "8f52fae4-c911-4bd1-8ef9-fe33ca3e047f",
      "dependsOn" : [ ]
    },
    {
      "ref" : "3253723c-9f6a-4555-8e3c-ff37c3156792",
      "dependsOn" : [ ]
    },
    {
      "ref" : "ae838013-bec0-4776-b52a-be1ec6a4da13",
      "dependsOn" : [ ]
    },
    {
      "ref" : "476ea683-3eae-47f6-9f5f-55300a2c19b3",
      "dependsOn" : [ ]
    },
    {
      "ref" : "ffa57e23-7e7a-4d57-92f2-6e805a8883b1",
      "dependsOn" : [ ]
    },
    {
      "ref" : "78fc0211-2d9f-44e4-a166-4e7b40e63579",
      "dependsOn" : [ ]
    },
    {
      "ref" : "a2de701e-956f-4b73-a654-7817018da7c0",
      "dependsOn" : [ ]
    },
    {
      "ref" : "5b1919f4-519a-4491-a0d3-30479bcbe966",
      "dependsOn" : [ ]
    },
    {
      "ref" : "51134783-6b4c-4bf3-baee-a78a3edd26e8",
      "dependsOn" : [ ]
    },
    {
      "ref" : "d5490ee1-36ea-4110-8a5e-bed2296f0f8d",
      "dependsOn" : [ ]
    },
    {
      "ref" : "93da75df-e3b9-42c9-93b7-40bc86040c64",
      "dependsOn" : [ ]
    },
    {
      "ref" : "ad0d401d-5947-4a12-b700-2067d359b02a",
      "dependsOn" : [ ]
    },
    {
      "ref" : "8753b9d0-69d0-493f-9bf6-fc4c869106b5",
      "dependsOn" : [ ]
    },
    {
      "ref" : "96244cf4-4291-47e4-bc70-f76852e42737",
      "dependsOn" : [ ]
    },
    {
      "ref" : "5fe64bd5-3b68-45c4-ace0-fa896bbc0c63",
      "dependsOn" : [ ]
    },
    {
      "ref" : "08b63e05-34da-4a75-b212-2e8fb4ebde53",
      "dependsOn" : [ ]
    },
    {
      "ref" : "1bd4827f-85f7-426b-a972-85da79d0600f",
      "dependsOn" : [ ]
    },
    {
      "ref" : "928938a8-25d1-4423-922a-a17bffc94c03",
      "dependsOn" : [ ]
    },
    {
      "ref" : "6b583132-a1f8-462a-a12b-f4a7ff9d91d9",
      "dependsOn" : [ ]
    },
    {
      "ref" : "736c402c-5bc9-4c68-ba03-ca33604ceca8",
      "dependsOn" : [ ]
    },
    {
      "ref" : "969dbdaf-d918-4d00-bbd0-42337a9116ff",
      "dependsOn" : [ ]
    },
    {
      "ref" : "8e9a500c-7639-474a-b2c7-656409d93725",
      "dependsOn" : [ ]
    },
    {
      "ref" : "f8998a45-5c7c-4157-879d-377fea4ab936",
      "dependsOn" : [ ]
    },
    {
      "ref" : "f4e4db0f-87ee-42ec-976b-70074822cd76",
      "dependsOn" : [ ]
    },
    {
      "ref" : "832d7ff9-1372-40f3-8514-7c6ee65d52e0",
      "dependsOn" : [ ]
    },
    {
      "ref" : "6df0200c-036a-4018-ae92-fa68dec29789",
      "dependsOn" : [ ]
    },
    {
      "ref" : "446d9aac-5251-45f0-9aa6-2036e9169cb7",
      "dependsOn" : [ ]
    },
    {
      "ref" : "5473396a-e625-4708-993b-585cacb50696",
      "dependsOn" : [ ]
    },
    {
      "ref" : "0d1b4f78-1dc8-4121-a7f1-d3ce6924303b",
      "dependsOn" : [ ]
    },
    {
      "ref" : "7cf5bedc-1bc3-4163-87ea-346f74a14701",
      "dependsOn" : [ ]
    },
    {
      "ref" : "bea3b741-a783-4e0e-888d-b29ad3d62cde",
      "dependsOn" : [ ]
    },
    {
      "ref" : "3d69b27b-3209-4b86-ba5c-ecc91fe066a4",
      "dependsOn" : [ ]
    },
    {
      "ref" : "aab3e9fe-1d54-44d5-997d-379394b9dfe6",
      "dependsOn" : [ ]
    },
    {
      "ref" : "47d8efb8-85dc-486c-a29c-a3aa89ff1174",
      "dependsOn" : [ ]
    },
    {
      "ref" : "52074f4f-90b3-434b-9ee0-b16563448700",
      "dependsOn" : [ ]
    },
    {
      "ref" : "f6cecf5a-edd9-4aa5-adc4-95697fa76431",
      "dependsOn" : [ ]
    },
    {
      "ref" : "510d6c9c-90d0-4b9f-b5b1-62d01ca17f2e",
      "dependsOn" : [ ]
    },
    {
      "ref" : "9dc0b610-c85c-4c55-b1d6-b02f04ac4691",
      "dependsOn" : [ ]
    },
    {
      "ref" : "2bd41032-74b1-4f1c-b373-566e919b11bf",
      "dependsOn" : [ ]
    },
    {
      "ref" : "7cd7fd43-fd21-4a86-b425-806c80739209",
      "dependsOn" : [ ]
    },
    {
      "ref" : "6eecc0b5-55c8-46f4-ba8a-c30b8b056431",
      "dependsOn" : [ ]
    },
    {
      "ref" : "3eacd0fc-3a47-4435-bb1f-e02d709e5373",
      "dependsOn" : [ ]
    },
    {
      "ref" : "e7f6b1f9-0ddd-430b-a182-1ff7877f94e7",
      "dependsOn" : [ ]
    },
    {
      "ref" : "517fef06-b5f2-4500-ae0e-cfce1002f630",
      "dependsOn" : [ ]
    },
    {
      "ref" : "ca921324-1e6c-47f5-aa47-e6829ff2f1c2",
      "dependsOn" : [ ]
    },
    {
      "ref" : "75739022-69d4-4faf-90f8-a8af96934078",
      "dependsOn" : [ ]
    },
    {
      "ref" : "01b26923-7e1e-44c3-9d10-ab8c0e602f11",
      "dependsOn" : [ ]
    },
    {
      "ref" : "944d4588-95c7-4efa-9463-9bfa3db87e53",
      "dependsOn" : [ ]
    },
    {
      "ref" : "70debeeb-bb90-4569-8662-dfa029985c19",
      "dependsOn" : [ ]
    },
    {
      "ref" : "5a19361c-841d-4dae-9631-587d3d8b98cd",
      "dependsOn" : [ ]
    },
    {
      "ref" : "a18319d9-c9e4-4066-b93f-0f92051808e8",
      "dependsOn" : [ ]
    },
    {
      "ref" : "45e82783-2d8e-42c4-a3d0-8e23d80b8c79",
      "dependsOn" : [ ]
    },
    {
      "ref" : "126eaeae-c163-425f-baa2-548f75f1253a",
      "dependsOn" : [ ]
    },
    {
      "ref" : "16ebde3e-67a9-4a60-ae03-626619adc778",
      "dependsOn" : [ ]
    },
    {
      "ref" : "3fb7a68e-0daa-4bb2-b855-fc73cd12ef42",
      "dependsOn" : [ ]
    },
    {
      "ref" : "8a7cf626-62b0-48ab-b02f-a97025ede419",
      "dependsOn" : [ ]
    },
    {
      "ref" : "64bcb6e6-79f5-4b45-8ae6-9ea5cb363181",
      "dependsOn" : [ ]
    },
    {
      "ref" : "180a0aa1-30b8-4fb5-ba39-1e2ed2b755c2",
      "dependsOn" : [ ]
    },
    {
      "ref" : "f7a21420-db84-42e1-b642-6c4f9552105e",
      "dependsOn" : [ ]
    },
    {
      "ref" : "6b673bdd-0ba7-4649-9efa-35dcd5fabe06",
      "dependsOn" : [ ]
    },
    {
      "ref" : "707d551a-cb58-4ca5-bcd7-37bcc30ae3fc",
      "dependsOn" : [ ]
    },
    {
      "ref" : "f68fee00-1c29-40b5-ab71-8da5a66867fd",
      "dependsOn" : [ ]
    },
    {
      "ref" : "0b02af8e-e290-4452-98db-b174d1689cba",
      "dependsOn" : [ ]
    },
    {
      "ref" : "dbcd99aa-547f-4932-9650-5b7c621643d6",
      "dependsOn" : [ ]
    },
    {
      "ref" : "808e3e1a-c8f7-4589-b2aa-fa2dde8fde60",
      "dependsOn" : [ ]
    },
    {
      "ref" : "efe15f5a-650e-4d73-ba75-24a1190f0972",
      "dependsOn" : [ ]
    },
    {
      "ref" : "39e6f776-11ab-4e2e-9f8e-956e254acb94",
      "dependsOn" : [ ]
    },
    {
      "ref" : "475fef08-a5d5-46f4-b586-6362571b9ec5",
      "dependsOn" : [ ]
    },
    {
      "ref" : "0f8d0d8f-2fa9-431a-a195-fcd04a908e45",
      "dependsOn" : [ ]
    },
    {
      "ref" : "868394ad-b0e2-4c9a-a87a-4688bcb2fae4",
      "dependsOn" : [ ]
    },
    {
      "ref" : "532e409a-8181-48c6-b059-98ae21c0517f",
      "dependsOn" : [ ]
    },
    {
      "ref" : "5c1a0b65-41a7-4b76-bb23-675470875cb6",
      "dependsOn" : [ ]
    },
    {
      "ref" : "cdc985c0-709f-46c6-aab1-14a7665e11e0",
      "dependsOn" : [ ]
    },
    {
      "ref" : "f8057926-8e3b-4d02-8347-2e8d89f21c80",
      "dependsOn" : [ ]
    },
    {
      "ref" : "16995764-954a-4040-bde9-ef2cbcf900d6",
      "dependsOn" : [ ]
    },
    {
      "ref" : "d398c9c0-fcd9-4374-ba27-117f7ef4f889",
      "dependsOn" : [ ]
    },
    {
      "ref" : "07d59c7e-a46d-421d-90f3-4d1f70e07e36",
      "dependsOn" : [ ]
    },
    {
      "ref" : "801dddc3-2f39-4e71-bf32-ebaf7f87ac8a",
      "dependsOn" : [ ]
    },
    {
      "ref" : "be50e784-7180-49bd-92d1-f17282822e6d",
      "dependsOn" : [ ]
    },
    {
      "ref" : "fefc6fe9-8956-412f-b8fc-0ba01c7760c9",
      "dependsOn" : [ ]
    },
    {
      "ref" : "75f85a91-0b2f-47d2-bbdd-21b620643d47",
      "dependsOn" : [ ]
    },
    {
      "ref" : "7c6bae41-7c52-45bd-9fb6-aac9322ca6a9",
      "dependsOn" : [ ]
    },
    {
      "ref" : "da3c5623-ca95-491a-bb16-197e963af8df",
      "dependsOn" : [ ]
    },
    {
      "ref" : "a2db0d39-fbe8-4cd9-ae1a-08df32c476e9",
      "dependsOn" : [ ]
    },
    {
      "ref" : "e9329545-e68b-4f42-ba4e-af02ce59a3a6",
      "dependsOn" : [ ]
    },
    {
      "ref" : "4a219b81-6801-4b4d-8216-7ca955a5597b",
      "dependsOn" : [ ]
    },
    {
      "ref" : "05f8783e-4b1d-4ff7-b772-edaa600c625e",
      "dependsOn" : [ ]
    },
    {
      "ref" : "47bb3a3f-f8d7-49b9-8960-f48e30d0c56f",
      "dependsOn" : [ ]
    },
    {
      "ref" : "3557b253-dacb-448f-89fe-d9f5c0c86419",
      "dependsOn" : [ ]
    },
    {
      "ref" : "0a554ba1-e35a-4bb8-bcf1-e6f459c952a4",
      "dependsOn" : [ ]
    },
    {
      "ref" : "3eda18a4-825c-43b4-9316-bb8660b98977",
      "dependsOn" : [ ]
    },
    {
      "ref" : "4e1af691-c3a9-4265-9617-76797d9b961a",
      "dependsOn" : [ ]
    },
    {
      "ref" : "646b41b4-ecb1-43a0-a6d8-045c2730a419",
      "dependsOn" : [ ]
    },
    {
      "ref" : "a5a9b323-8259-41a0-bfc8-ac6fc9479f46",
      "dependsOn" : [ ]
    },
    {
      "ref" : "4a7d6f3a-4657-4128-9088-a8870254508b",
      "dependsOn" : [ ]
    },
    {
      "ref" : "aadea81f-f93e-4a1d-b826-1420943a31d7",
      "dependsOn" : [ ]
    },
    {
      "ref" : "0d8fe1bf-88f9-496a-808b-474ab3a9382a",
      "dependsOn" : [ ]
    },
    {
      "ref" : "1874081b-d133-4cb7-bbb0-5cae6b7fd989",
      "dependsOn" : [ ]
    },
    {
      "ref" : "3e2902f0-6bdc-48d0-9c20-44749ad7d667",
      "dependsOn" : [ ]
    },
    {
      "ref" : "f738048e-4070-413f-a48b-9a9d5134a01f",
      "dependsOn" : [ ]
    },
    {
      "ref" : "972c4214-0e47-4e88-9e09-238766b90917",
      "dependsOn" : [ ]
    },
    {
      "ref" : "bf0b08bb-4398-4b26-b0df-a99f01e97703",
      "dependsOn" : [ ]
    },
    {
      "ref" : "fe7d187c-8f8e-4317-916b-5849878094ae",
      "dependsOn" : [ ]
    },
    {
      "ref" : "27b9c408-b2b3-411a-8d99-849820e7a1ee",
      "dependsOn" : [ ]
    },
    {
      "ref" : "79c78d23-e498-4186-8c6b-be87477cd7df",
      "dependsOn" : [ ]
    },
    {
      "ref" : "d9075b59-2d9e-464c-b82a-d6603135cafb",
      "dependsOn" : [ ]
    },
    {
      "ref" : "075bc401-2e2a-4d86-96b8-35ee25ea9848",
      "dependsOn" : [ ]
    },
    {
      "ref" : "a69abdf9-1312-4a8e-a015-5d5a60b0826c",
      "dependsOn" : [ ]
    },
    {
      "ref" : "88d5df78-3db3-46d7-866e-0fec45833da8",
      "dependsOn" : [ ]
    },
    {
      "ref" : "549d6435-516c-4f95-9348-2693b82eb33b",
      "dependsOn" : [ ]
    },
    {
      "ref" : "c9f36d12-e7bf-4e5e-8ca7-f5dbe129d7cf",
      "dependsOn" : [ ]
    },
    {
      "ref" : "aa0789e9-dcef-4e28-a7ec-665e6f5e6174",
      "dependsOn" : [ ]
    },
    {
      "ref" : "ab506461-8c8d-4074-9738-671711545da5",
      "dependsOn" : [ ]
    }
  ],
  "vulnerabilities" : [
    {
      "bom-ref" : "5ce38068-e708-4258-bd86-c9e5e76b5cd0",
      "id" : "CVE-2023-26048",
      "source" : {
        "name" : "NVD",
        "url" : "https://nvd.nist.gov/"
      },
      "ratings" : [
        {
          "source" : {
            "name" : "NVD",
            "url" : "https://nvd.nist.gov/"
          },
          "score" : 5.3,
          "severity" : "medium",
          "method" : "CVSSv3",
          "vector" : "CVSS:3.0/AV:N/AC:L/PR:N/UI:N/S:U/C:N/I:N/A:L"
        }
      ],
      "cwes" : [
        770
      ],
      "description" : "Jetty is a java based web server and servlet engine. In affected versions servlets with multipart support (e.g. annotated with `@MultipartConfig`) that call `HttpServletRequest.getParameter()` or `HttpServletRequest.getParts()` may cause `OutOfMemoryError` when the client sends a multipart request with a part that has a name but no filename and very large content. This happens even with the default settings of `fileSizeThreshold=0` which should stream the whole part content to disk. An attacker client may send a large multipart request and cause the server to throw `OutOfMemoryError`. However, the server may be able to recover after the `OutOfMemoryError` and continue its service -- although it may take some time. This issue has been patched in versions 9.4.51, 10.0.14, and 11.0.14. Users are advised to upgrade. Users unable to upgrade may set the multipart parameter `maxRequestSize` which must be set to a non-negative value, so the whole multipart content is limited (although still read into memory).",
      "published" : "2023-04-18T21:15:00Z",
      "updated" : "2023-05-26T20:15:00Z",
      "affects" : [
        {
          "ref" : "707d551a-cb58-4ca5-bcd7-37bcc30ae3fc"
        }
      ]
    },
    {
      "bom-ref" : "b739eed4-806c-4c91-93ba-d05e32727d8c",
      "id" : "CVE-2023-26049",
      "source" : {
        "name" : "NVD",
        "url" : "https://nvd.nist.gov/"
      },
      "ratings" : [
        {
          "source" : {
            "name" : "NVD",
            "url" : "https://nvd.nist.gov/"
          },
          "score" : 5.3,
          "severity" : "medium",
          "method" : "CVSSv3",
          "vector" : "CVSS:3.0/AV:N/AC:L/PR:N/UI:N/S:U/C:L/I:N/A:N"
        }
      ],
      "description" : "Jetty is a java based web server and servlet engine. Nonstandard cookie parsing in Jetty may allow an attacker to smuggle cookies within other cookies, or otherwise perform unintended behavior by tampering with the cookie parsing mechanism. If Jetty sees a cookie VALUE that starts with `\"` (double quote), it will continue to read the cookie string until it sees a closing quote -- even if a semicolon is encountered. So, a cookie header such as: `DISPLAY_LANGUAGE=\"b; JSESSIONID=1337; c=d\"` will be parsed as one cookie, with the name DISPLAY_LANGUAGE and a value of b; JSESSIONID=1337; c=d instead of 3 separate cookies. This has security implications because if, say, JSESSIONID is an HttpOnly cookie, and the DISPLAY_LANGUAGE cookie value is rendered on the page, an attacker can smuggle the JSESSIONID cookie into the DISPLAY_LANGUAGE cookie and thereby exfiltrate it. This is significant when an intermediary is enacting some policy based on cookies, so a smuggled cookie can bypass that policy yet still be seen by the Jetty server or its logging system. This issue has been addressed in versions 9.4.51, 10.0.14, 11.0.14, and 12.0.0.beta0 and users are advised to upgrade. There are no known workarounds for this issue.",
      "published" : "2023-04-18T21:15:00Z",
      "updated" : "2023-05-26T20:15:00Z",
      "affects" : [
        {
          "ref" : "707d551a-cb58-4ca5-bcd7-37bcc30ae3fc"
        }
      ]
    },
    {
      "bom-ref" : "5ce38068-e708-4258-bd86-c9e5e76b5cd0",
      "id" : "CVE-2023-26048",
      "source" : {
        "name" : "NVD",
        "url" : "https://nvd.nist.gov/"
      },
      "ratings" : [
        {
          "source" : {
            "name" : "NVD",
            "url" : "https://nvd.nist.gov/"
          },
          "score" : 5.3,
          "severity" : "medium",
          "method" : "CVSSv3",
          "vector" : "CVSS:3.0/AV:N/AC:L/PR:N/UI:N/S:U/C:N/I:N/A:L"
        }
      ],
      "cwes" : [
        770
      ],
      "description" : "Jetty is a java based web server and servlet engine. In affected versions servlets with multipart support (e.g. annotated with `@MultipartConfig`) that call `HttpServletRequest.getParameter()` or `HttpServletRequest.getParts()` may cause `OutOfMemoryError` when the client sends a multipart request with a part that has a name but no filename and very large content. This happens even with the default settings of `fileSizeThreshold=0` which should stream the whole part content to disk. An attacker client may send a large multipart request and cause the server to throw `OutOfMemoryError`. However, the server may be able to recover after the `OutOfMemoryError` and continue its service -- although it may take some time. This issue has been patched in versions 9.4.51, 10.0.14, and 11.0.14. Users are advised to upgrade. Users unable to upgrade may set the multipart parameter `maxRequestSize` which must be set to a non-negative value, so the whole multipart content is limited (although still read into memory).",
      "published" : "2023-04-18T21:15:00Z",
      "updated" : "2023-05-26T20:15:00Z",
      "affects" : [
        {
          "ref" : "39e6f776-11ab-4e2e-9f8e-956e254acb94"
        }
      ]
    },
    {
      "bom-ref" : "5ce38068-e708-4258-bd86-c9e5e76b5cd0",
      "id" : "CVE-2023-26048",
      "source" : {
        "name" : "NVD",
        "url" : "https://nvd.nist.gov/"
      },
      "ratings" : [
        {
          "source" : {
            "name" : "NVD",
            "url" : "https://nvd.nist.gov/"
          },
          "score" : 5.3,
          "severity" : "medium",
          "method" : "CVSSv3",
          "vector" : "CVSS:3.0/AV:N/AC:L/PR:N/UI:N/S:U/C:N/I:N/A:L"
        }
      ],
      "cwes" : [
        770
      ],
      "description" : "Jetty is a java based web server and servlet engine. In affected versions servlets with multipart support (e.g. annotated with `@MultipartConfig`) that call `HttpServletRequest.getParameter()` or `HttpServletRequest.getParts()` may cause `OutOfMemoryError` when the client sends a multipart request with a part that has a name but no filename and very large content. This happens even with the default settings of `fileSizeThreshold=0` which should stream the whole part content to disk. An attacker client may send a large multipart request and cause the server to throw `OutOfMemoryError`. However, the server may be able to recover after the `OutOfMemoryError` and continue its service -- although it may take some time. This issue has been patched in versions 9.4.51, 10.0.14, and 11.0.14. Users are advised to upgrade. Users unable to upgrade may set the multipart parameter `maxRequestSize` which must be set to a non-negative value, so the whole multipart content is limited (although still read into memory).",
      "published" : "2023-04-18T21:15:00Z",
      "updated" : "2023-05-26T20:15:00Z",
      "affects" : [
        {
          "ref" : "944d4588-95c7-4efa-9463-9bfa3db87e53"
        }
      ]
    }
  ]
}