{
  "bomFormat" : "CycloneDX",
  "specVersion" : "1.4",
  "serialNumber" : "urn:uuid:d83d5bc4-4c88-44af-b695-115715692aff",
  "version" : 1,
  "metadata" : {
    "timestamp" : "2023-07-03T15:12:34Z",
    "tools" : [
      {
        "vendor" : "OWASP",
        "name" : "Dependency-Track",
        "version" : "4.8.2"
      }
    ],
    "component" : {
      "name" : "maven-amazoncorretto",
      "version" : "SNAPSHOT",
      "type" : "application",
      "bom-ref" : "ed5fc08f-2597-4cdf-94bc-5e06872b0110"
    }
  },
  "components" : [
    {
      "name" : "amazon",
      "version" : "2 (Karoo)",
      "type" : "operating-system",
      "bom-ref" : "16bf7d51-f4e7-4c8c-9b9d-028fdfba3d59"
    },
    {
      "name" : "amazon-linux-extras",
      "version" : "2.0.1-1.amzn2",
      "purl" : "pkg:rpm/amazon/amazon-linux-extras@2.0.1-1.amzn2?arch=noarch&distro=amazon-2%20%28Karoo%29",
      "type" : "library",
      "bom-ref" : "20a9087f-c400-43e6-8811-12c9af71f62a"
    },
    {
      "name" : "aopalliance:aopalliance",
      "version" : "1.0",
      "purl" : "pkg:maven/aopalliance/aopalliance@1.0",
      "type" : "library",
      "bom-ref" : "aabc7158-9504-4f98-9884-c460469bbadb"
    },
    {
      "name" : "basesystem",
      "version" : "10.0-7.amzn2.0.1",
      "purl" : "pkg:rpm/amazon/basesystem@10.0-7.amzn2.0.1?arch=noarch&distro=amazon-2%20%28Karoo%29",
      "type" : "library",
      "bom-ref" : "a568541c-d759-49e0-a3c5-b06f020b0dc4"
    },
    {
      "name" : "bash",
      "version" : "4.2.46-34.amzn2",
      "purl" : "pkg:rpm/amazon/bash@4.2.46-34.amzn2?arch=x86_64&distro=amazon-2%20%28Karoo%29",
      "type" : "library",
      "bom-ref" : "dfd58731-a178-46d5-9825-c411d6d94a88"
    },
    {
      "name" : "bzip2-libs",
      "version" : "1.0.6-13.amzn2.0.3",
      "purl" : "pkg:rpm/amazon/bzip2-libs@1.0.6-13.amzn2.0.3?arch=x86_64&distro=amazon-2%20%28Karoo%29",
      "type" : "library",
      "bom-ref" : "a07da9e0-02fb-404a-8045-059434d0a589"
    },
    {
      "name" : "ca-certificates",
      "version" : "2021.2.50-72.amzn2.0.4",
      "purl" : "pkg:rpm/amazon/ca-certificates@2021.2.50-72.amzn2.0.4?arch=noarch&distro=amazon-2%20%28Karoo%29",
      "type" : "library",
      "bom-ref" : "3c35cc63-9345-413d-922f-80821f70612d"
    },
    {
      "name" : "chkconfig",
      "version" : "1.7.4-1.amzn2.0.2",
      "purl" : "pkg:rpm/amazon/chkconfig@1.7.4-1.amzn2.0.2?arch=x86_64&distro=amazon-2%20%28Karoo%29",
      "type" : "library",
      "bom-ref" : "d936006d-c83a-475f-a78f-6f3cb9b20744"
    },
    {
      "name" : "com.google.guava:failureaccess",
      "version" : "1.0.1",
      "purl" : "pkg:maven/com.google.guava/failureaccess@1.0.1",
      "type" : "library",
      "bom-ref" : "6b21547d-766f-4508-843b-b06784ab8830"
    },
    {
      "name" : "com.google.guava:guava",
      "version" : "30.1-jre",
      "purl" : "pkg:maven/com.google.guava/guava@30.1-jre",
      "type" : "library",
      "bom-ref" : "41ce4964-46c7-42d2-a7fe-e1fbe6e4cd85"
    },
    {
      "name" : "com.google.inject:guice",
      "version" : "5.1.0",
      "purl" : "pkg:maven/com.google.inject/guice@5.1.0",
      "type" : "library",
      "bom-ref" : "bf0aff80-f20e-48b8-973f-260d320a0ce0"
    },
    {
      "name" : "commons-cli:commons-cli",
      "version" : "1.4",
      "purl" : "pkg:maven/commons-cli/commons-cli@1.4",
      "type" : "library",
      "bom-ref" : "15901537-316d-442d-9a59-04d72c79b098"
    },
    {
      "name" : "commons-codec:commons-codec",
      "version" : "1.11",
      "purl" : "pkg:maven/commons-codec/commons-codec@1.11",
      "type" : "library",
      "bom-ref" : "5db55f8f-5423-4ff3-b3cd-1013be7e05f8"
    },
    {
      "name" : "coreutils",
      "version" : "8.22-24.amzn2",
      "purl" : "pkg:rpm/amazon/coreutils@8.22-24.amzn2?arch=x86_64&distro=amazon-2%20%28Karoo%29",
      "type" : "library",
      "bom-ref" : "aa6d1ae1-7def-460f-a1cc-b36271d00ea8"
    },
    {
      "name" : "cpio",
      "version" : "2.11-28.amzn2",
      "purl" : "pkg:rpm/amazon/cpio@2.11-28.amzn2?arch=x86_64&distro=amazon-2%20%28Karoo%29",
      "type" : "library",
      "bom-ref" : "7a653ed2-e23c-4a67-bbf4-d46343753c57"
    },
    {
      "name" : "curl",
      "version" : "7.87.0-2.amzn2.0.1",
      "purl" : "pkg:rpm/amazon/curl@7.87.0-2.amzn2.0.1?arch=x86_64&distro=amazon-2%20%28Karoo%29",
      "type" : "library",
      "bom-ref" : "abb0fd7e-cbea-4db4-a98e-f56da4a9d7a0"
    },
    {
      "name" : "cyrus-sasl-lib",
      "version" : "2.1.26-24.amzn2",
      "purl" : "pkg:rpm/amazon/cyrus-sasl-lib@2.1.26-24.amzn2?arch=x86_64&distro=amazon-2%20%28Karoo%29",
      "type" : "library",
      "bom-ref" : "bbae5697-1279-40bb-a112-7ff8995b7148"
    },
    {
      "name" : "dejavu-fonts-common",
      "version" : "2.33-6.amzn2",
      "purl" : "pkg:rpm/amazon/dejavu-fonts-common@2.33-6.amzn2?arch=noarch&distro=amazon-2%20%28Karoo%29",
      "type" : "library",
      "bom-ref" : "9f9b6e6c-a65b-45b6-84c9-61b7576ed379"
    },
    {
      "name" : "dejavu-sans-fonts",
      "version" : "2.33-6.amzn2",
      "purl" : "pkg:rpm/amazon/dejavu-sans-fonts@2.33-6.amzn2?arch=noarch&distro=amazon-2%20%28Karoo%29",
      "type" : "library",
      "bom-ref" : "57ffd1d4-eba6-49fe-ab8f-994429a3d3b2"
    },
    {
      "name" : "diffutils",
      "version" : "3.3-5.amzn2",
      "purl" : "pkg:rpm/amazon/diffutils@3.3-5.amzn2?arch=x86_64&distro=amazon-2%20%28Karoo%29",
      "type" : "library",
      "bom-ref" : "515e7887-eeea-4453-af2f-2c3739db6a81"
    },
    {
      "name" : "elfutils-libelf",
      "version" : "0.176-2.amzn2",
      "purl" : "pkg:rpm/amazon/elfutils-libelf@0.176-2.amzn2?arch=x86_64&distro=amazon-2%20%28Karoo%29",
      "type" : "library",
      "bom-ref" : "f98556fa-fa03-4237-bf7b-229b4be31a1b"
    },
    {
      "name" : "expat",
      "version" : "2.1.0-15.amzn2.0.2",
      "purl" : "pkg:rpm/amazon/expat@2.1.0-15.amzn2.0.2?arch=x86_64&distro=amazon-2%20%28Karoo%29",
      "type" : "library",
      "bom-ref" : "31bf7e3c-1086-4d44-8c8b-d501ebd69880"
    },
    {
      "name" : "file-libs",
      "version" : "5.11-36.amzn2.0.1",
      "purl" : "pkg:rpm/amazon/file-libs@5.11-36.amzn2.0.1?arch=x86_64&distro=amazon-2%20%28Karoo%29",
      "type" : "library",
      "bom-ref" : "e3510a69-e561-4a8a-8eed-a5c77b091c4e"
    },
    {
      "name" : "filesystem",
      "version" : "3.2-25.amzn2.0.4",
      "purl" : "pkg:rpm/amazon/filesystem@3.2-25.amzn2.0.4?arch=x86_64&distro=amazon-2%20%28Karoo%29",
      "type" : "library",
      "bom-ref" : "6c5e26b5-7fab-4859-9582-9804ca3c3f22"
    },
    {
      "name" : "findutils",
      "version" : "1:4.5.11-6.amzn2",
      "purl" : "pkg:rpm/amazon/findutils@1%3A4.5.11-6.amzn2?arch=x86_64&distro=amazon-2%20%28Karoo%29",
      "type" : "library",
      "bom-ref" : "bef51a7d-6e52-476b-8c82-1efd0fc7552d"
    },
    {
      "name" : "fontconfig",
      "version" : "2.13.0-4.3.amzn2",
      "purl" : "pkg:rpm/amazon/fontconfig@2.13.0-4.3.amzn2?arch=x86_64&distro=amazon-2%20%28Karoo%29",
      "type" : "library",
      "bom-ref" : "2a6add9b-b8e8-4ce1-be76-2b257c94c4e2"
    },
    {
      "name" : "fontpackages-filesystem",
      "version" : "1.44-8.amzn2",
      "purl" : "pkg:rpm/amazon/fontpackages-filesystem@1.44-8.amzn2?arch=noarch&distro=amazon-2%20%28Karoo%29",
      "type" : "library",
      "bom-ref" : "65ffaa58-2934-48d2-a1e5-aeb26f2271a7"
    },
    {
      "name" : "freetype",
      "version" : "2.8-14.amzn2.1.1",
      "purl" : "pkg:rpm/amazon/freetype@2.8-14.amzn2.1.1?arch=x86_64&distro=amazon-2%20%28Karoo%29",
      "type" : "library",
      "bom-ref" : "8bf6e129-599b-4ec1-ab8e-e2669a3e0e14"
    },
    {
      "name" : "gawk",
      "version" : "4.0.2-4.amzn2.1.2",
      "purl" : "pkg:rpm/amazon/gawk@4.0.2-4.amzn2.1.2?arch=x86_64&distro=amazon-2%20%28Karoo%29",
      "type" : "library",
      "bom-ref" : "ea40ea78-9e7e-47d4-9418-22bd8d36c57a"
    },
    {
      "name" : "gdbm",
      "version" : "1:1.13-6.amzn2.0.2",
      "purl" : "pkg:rpm/amazon/gdbm@1%3A1.13-6.amzn2.0.2?arch=x86_64&distro=amazon-2%20%28Karoo%29",
      "type" : "library",
      "bom-ref" : "336b4258-9ab8-4de0-8401-36e0c0380ddb"
    },
    {
      "name" : "glib2",
      "version" : "2.56.1-9.amzn2.0.2",
      "purl" : "pkg:rpm/amazon/glib2@2.56.1-9.amzn2.0.2?arch=x86_64&distro=amazon-2%20%28Karoo%29",
      "type" : "library",
      "bom-ref" : "e00452d4-6aad-4416-98ec-03e7f64d5929"
    },
    {
      "name" : "glibc",
      "version" : "2.26-62.amzn2",
      "purl" : "pkg:rpm/amazon/glibc@2.26-62.amzn2?arch=x86_64&distro=amazon-2%20%28Karoo%29",
      "type" : "library",
      "bom-ref" : "d94f9d36-43ce-4e87-882d-54ef1600b94f"
    },
    {
      "name" : "glibc-common",
      "version" : "2.26-62.amzn2",
      "purl" : "pkg:rpm/amazon/glibc-common@2.26-62.amzn2?arch=x86_64&distro=amazon-2%20%28Karoo%29",
      "type" : "library",
      "bom-ref" : "842a7ff4-2023-4f22-bb93-7115cde34ffb"
    },
    {
      "name" : "glibc-langpack-en",
      "version" : "2.26-62.amzn2",
      "purl" : "pkg:rpm/amazon/glibc-langpack-en@2.26-62.amzn2?arch=x86_64&distro=amazon-2%20%28Karoo%29",
      "type" : "library",
      "bom-ref" : "a5aee234-0f57-4b7d-9515-505a7560e331"
    },
    {
      "name" : "glibc-minimal-langpack",
      "version" : "2.26-62.amzn2",
      "purl" : "pkg:rpm/amazon/glibc-minimal-langpack@2.26-62.amzn2?arch=x86_64&distro=amazon-2%20%28Karoo%29",
      "type" : "library",
      "bom-ref" : "66271bec-285b-4150-b02d-fc71486bd3b4"
    },
    {
      "name" : "gmp",
      "version" : "1:6.0.0-15.amzn2.0.2",
      "purl" : "pkg:rpm/amazon/gmp@1%3A6.0.0-15.amzn2.0.2?arch=x86_64&distro=amazon-2%20%28Karoo%29",
      "type" : "library",
      "bom-ref" : "e35da8ac-ab11-44ad-8495-fa5cce1e9c9e"
    },
    {
      "name" : "gnupg2",
      "version" : "2.0.22-5.amzn2.0.5",
      "purl" : "pkg:rpm/amazon/gnupg2@2.0.22-5.amzn2.0.5?arch=x86_64&distro=amazon-2%20%28Karoo%29",
      "type" : "library",
      "bom-ref" : "f151807b-4fd6-43b1-b233-fba57305f8a7"
    },
    {
      "name" : "gpg-pubkey",
      "version" : "b04f24e3-5de94a19",
      "purl" : "pkg:rpm/amazon/gpg-pubkey@b04f24e3-5de94a19?arch=None&distro=amazon-2%20%28Karoo%29",
      "type" : "library",
      "bom-ref" : "15ef9b97-e0c3-4a92-af89-6af1fb1ca364"
    },
    {
      "name" : "gpg-pubkey",
      "version" : "c87f5b1a-593863f8",
      "purl" : "pkg:rpm/amazon/gpg-pubkey@c87f5b1a-593863f8?arch=None&distro=amazon-2%20%28Karoo%29",
      "type" : "library",
      "bom-ref" : "6e4ad1fc-35f7-47cb-a2dd-fe880e9dac5e"
    },
    {
      "name" : "gpgme",
      "version" : "1.3.2-5.amzn2.0.2",
      "purl" : "pkg:rpm/amazon/gpgme@1.3.2-5.amzn2.0.2?arch=x86_64&distro=amazon-2%20%28Karoo%29",
      "type" : "library",
      "bom-ref" : "fbff8826-307b-4ed7-991b-0f0cbabb161b"
    },
    {
      "name" : "grep",
      "version" : "2.20-3.amzn2.0.2",
      "purl" : "pkg:rpm/amazon/grep@2.20-3.amzn2.0.2?arch=x86_64&distro=amazon-2%20%28Karoo%29",
      "type" : "library",
      "bom-ref" : "da827b87-8307-49e0-9f44-0d544d58eb8e"
    },
    {
      "name" : "gzip",
      "version" : "1.5-10.amzn2.0.1",
      "purl" : "pkg:rpm/amazon/gzip@1.5-10.amzn2.0.1?arch=x86_64&distro=amazon-2%20%28Karoo%29",
      "type" : "library",
      "bom-ref" : "7f49017c-dea6-4a2b-93a3-f428029cb09f"
    },
    {
      "name" : "info",
      "version" : "5.1-5.amzn2",
      "purl" : "pkg:rpm/amazon/info@5.1-5.amzn2?arch=x86_64&distro=amazon-2%20%28Karoo%29",
      "type" : "library",
      "bom-ref" : "1dba197c-bd19-4a71-a396-f1b20a20d27b"
    },
    {
      "name" : "java-11-amazon-corretto-devel",
      "version" : "1:11.0.18.10-1",
      "purl" : "pkg:rpm/amazon/java-11-amazon-corretto-devel@1%3A11.0.18.10-1?arch=x86_64&distro=amazon-2%20%28Karoo%29",
      "type" : "library",
      "bom-ref" : "788f9158-b0ca-489a-9e71-fa043e963e66"
    },
    {
      "name" : "javax.annotation:javax.annotation-api",
      "version" : "1.3.2",
      "purl" : "pkg:maven/javax.annotation/javax.annotation-api@1.3.2",
      "type" : "library",
      "bom-ref" : "e3412f06-872d-4697-b4b9-0a826398bd6b"
    },
    {
      "name" : "javax.inject:javax.inject",
      "version" : "1",
      "purl" : "pkg:maven/javax.inject/javax.inject@1",
      "type" : "library",
      "bom-ref" : "5b9f3ee6-44ab-4c38-9f38-52030bf5c0dc"
    },
    {
      "name" : "keyutils-libs",
      "version" : "1.5.8-3.amzn2.0.2",
      "purl" : "pkg:rpm/amazon/keyutils-libs@1.5.8-3.amzn2.0.2?arch=x86_64&distro=amazon-2%20%28Karoo%29",
      "type" : "library",
      "bom-ref" : "114775ef-8268-4427-b755-103d65d22b91"
    },
    {
      "name" : "krb5-libs",
      "version" : "1.15.1-55.amzn2.2.5",
      "purl" : "pkg:rpm/amazon/krb5-libs@1.15.1-55.amzn2.2.5?arch=x86_64&distro=amazon-2%20%28Karoo%29",
      "type" : "library",
      "bom-ref" : "af28ee9c-77d5-4318-a874-0b306d36aea2"
    },
    {
      "name" : "libacl",
      "version" : "2.2.51-14.amzn2",
      "purl" : "pkg:rpm/amazon/libacl@2.2.51-14.amzn2?arch=x86_64&distro=amazon-2%20%28Karoo%29",
      "type" : "library",
      "bom-ref" : "0edc2bfe-6e2b-4091-87c5-6fdfda413a7d"
    },
    {
      "name" : "libassuan",
      "version" : "2.1.0-3.amzn2.0.2",
      "purl" : "pkg:rpm/amazon/libassuan@2.1.0-3.amzn2.0.2?arch=x86_64&distro=amazon-2%20%28Karoo%29",
      "type" : "library",
      "bom-ref" : "c806cbd5-8b15-407c-b047-7c866868ac20"
    },
    {
      "name" : "libattr",
      "version" : "2.4.46-12.amzn2.0.2",
      "purl" : "pkg:rpm/amazon/libattr@2.4.46-12.amzn2.0.2?arch=x86_64&distro=amazon-2%20%28Karoo%29",
      "type" : "library",
      "bom-ref" : "afdadfdb-bb71-4af6-a63c-a91452e0fb71"
    },
    {
      "name" : "libblkid",
      "version" : "2.30.2-2.amzn2.0.11",
      "purl" : "pkg:rpm/amazon/libblkid@2.30.2-2.amzn2.0.11?arch=x86_64&distro=amazon-2%20%28Karoo%29",
      "type" : "library",
      "bom-ref" : "88218047-f5c6-4765-a437-297d94ae7ee4"
    },
    {
      "name" : "libcap",
      "version" : "2.54-1.amzn2.0.1",
      "purl" : "pkg:rpm/amazon/libcap@2.54-1.amzn2.0.1?arch=x86_64&distro=amazon-2%20%28Karoo%29",
      "type" : "library",
      "bom-ref" : "7ce82f1e-a5a4-4d60-b1b1-f01ea00189c8"
    },
    {
      "name" : "libcom_err",
      "version" : "1.42.9-19.amzn2.0.1",
      "purl" : "pkg:rpm/amazon/libcom_err@1.42.9-19.amzn2.0.1?arch=x86_64&distro=amazon-2%20%28Karoo%29",
      "type" : "library",
      "bom-ref" : "56ec1e92-0f85-4ae7-8537-bc7219526a16"
    },
    {
      "name" : "libcrypt",
      "version" : "2.26-62.amzn2",
      "purl" : "pkg:rpm/amazon/libcrypt@2.26-62.amzn2?arch=x86_64&distro=amazon-2%20%28Karoo%29",
      "type" : "library",
      "bom-ref" : "5a87763d-3f24-4ac7-b534-584cc03d0d8e"
    },
    {
      "name" : "libcurl",
      "version" : "7.87.0-2.amzn2.0.1",
      "purl" : "pkg:rpm/amazon/libcurl@7.87.0-2.amzn2.0.1?arch=x86_64&distro=amazon-2%20%28Karoo%29",
      "type" : "library",
      "bom-ref" : "e4ebcb69-6e4b-49bb-8d5c-0cd15e25ac0f"
    },
    {
      "name" : "libdb",
      "version" : "5.3.21-24.amzn2.0.3",
      "purl" : "pkg:rpm/amazon/libdb@5.3.21-24.amzn2.0.3?arch=x86_64&distro=amazon-2%20%28Karoo%29",
      "type" : "library",
      "bom-ref" : "c8154905-091a-4a36-8a85-1f00332b2ef9"
    },
    {
      "name" : "libdb-utils",
      "version" : "5.3.21-24.amzn2.0.3",
      "purl" : "pkg:rpm/amazon/libdb-utils@5.3.21-24.amzn2.0.3?arch=x86_64&distro=amazon-2%20%28Karoo%29",
      "type" : "library",
      "bom-ref" : "72b271a9-9c30-4d1a-96b1-f3ffee5b02d7"
    },
    {
      "name" : "libffi",
      "version" : "3.0.13-18.amzn2.0.2",
      "purl" : "pkg:rpm/amazon/libffi@3.0.13-18.amzn2.0.2?arch=x86_64&distro=amazon-2%20%28Karoo%29",
      "type" : "library",
      "bom-ref" : "47adace7-00c4-46e2-b117-9bd004c224bd"
    },
    {
      "name" : "libgcc",
      "version" : "7.3.1-15.amzn2",
      "purl" : "pkg:rpm/amazon/libgcc@7.3.1-15.amzn2?arch=x86_64&distro=amazon-2%20%28Karoo%29",
      "type" : "library",
      "bom-ref" : "3cc6d548-1650-4ee5-b918-a950db6c1931"
    },
    {
      "name" : "libgcrypt",
      "version" : "1.5.3-14.amzn2.0.3",
      "purl" : "pkg:rpm/amazon/libgcrypt@1.5.3-14.amzn2.0.3?arch=x86_64&distro=amazon-2%20%28Karoo%29",
      "type" : "library",
      "bom-ref" : "5ceb852d-8b11-4ec1-9d2c-788907ad38cf"
    },
    {
      "name" : "libgpg-error",
      "version" : "1.12-3.amzn2.0.3",
      "purl" : "pkg:rpm/amazon/libgpg-error@1.12-3.amzn2.0.3?arch=x86_64&distro=amazon-2%20%28Karoo%29",
      "type" : "library",
      "bom-ref" : "2f77522c-92c6-4f45-b403-5c66fea6ddad"
    },
    {
      "name" : "libidn2",
      "version" : "2.3.0-1.amzn2",
      "purl" : "pkg:rpm/amazon/libidn2@2.3.0-1.amzn2?arch=x86_64&distro=amazon-2%20%28Karoo%29",
      "type" : "library",
      "bom-ref" : "6fb84861-9c85-46d3-8e6b-0890cad2ff6c"
    },
    {
      "name" : "libmetalink",
      "version" : "0.1.3-13.amzn2",
      "purl" : "pkg:rpm/amazon/libmetalink@0.1.3-13.amzn2?arch=x86_64&distro=amazon-2%20%28Karoo%29",
      "type" : "library",
      "bom-ref" : "93accd48-94fc-4f12-9d5e-0ff094ff450f"
    },
    {
      "name" : "libmount",
      "version" : "2.30.2-2.amzn2.0.11",
      "purl" : "pkg:rpm/amazon/libmount@2.30.2-2.amzn2.0.11?arch=x86_64&distro=amazon-2%20%28Karoo%29",
      "type" : "library",
      "bom-ref" : "d77d244e-1105-49ad-b29d-a42192b5e6dd"
    },
    {
      "name" : "libnghttp2",
      "version" : "1.41.0-1.amzn2",
      "purl" : "pkg:rpm/amazon/libnghttp2@1.41.0-1.amzn2?arch=x86_64&distro=amazon-2%20%28Karoo%29",
      "type" : "library",
      "bom-ref" : "6499cf07-d7ad-4350-a6b6-8b1a1714d9b1"
    },
    {
      "name" : "libpng",
      "version" : "2:1.5.13-8.amzn2.0.1",
      "purl" : "pkg:rpm/amazon/libpng@2%3A1.5.13-8.amzn2.0.1?arch=x86_64&distro=amazon-2%20%28Karoo%29",
      "type" : "library",
      "bom-ref" : "4d65ec7e-908a-4229-94a7-1fc5aa34b8b9"
    },
    {
      "name" : "libselinux",
      "version" : "2.5-12.amzn2.0.2",
      "purl" : "pkg:rpm/amazon/libselinux@2.5-12.amzn2.0.2?arch=x86_64&distro=amazon-2%20%28Karoo%29",
      "type" : "library",
      "bom-ref" : "8f1bc741-85b4-4cbe-937d-47cf0b5cd07a"
    },
    {
      "name" : "libsepol",
      "version" : "2.5-8.1.amzn2.0.2",
      "purl" : "pkg:rpm/amazon/libsepol@2.5-8.1.amzn2.0.2?arch=x86_64&distro=amazon-2%20%28Karoo%29",
      "type" : "library",
      "bom-ref" : "75a5f43d-da9f-4d3b-9aea-d43077efb725"
    },
    {
      "name" : "libssh2",
      "version" : "1.4.3-12.amzn2.2.3",
      "purl" : "pkg:rpm/amazon/libssh2@1.4.3-12.amzn2.2.3?arch=x86_64&distro=amazon-2%20%28Karoo%29",
      "type" : "library",
      "bom-ref" : "814b56b3-462f-458b-b2d9-fc1118ecabe8"
    },
    {
      "name" : "libstdc++",
      "version" : "7.3.1-15.amzn2",
      "purl" : "pkg:rpm/amazon/libstdc%20%20@7.3.1-15.amzn2?arch=x86_64&distro=amazon-2%20%28Karoo%29",
      "type" : "library",
      "bom-ref" : "49210e8c-65d3-436f-80fa-257124dd1b73"
    },
    {
      "name" : "libtasn1",
      "version" : "4.10-1.amzn2.0.3",
      "purl" : "pkg:rpm/amazon/libtasn1@4.10-1.amzn2.0.3?arch=x86_64&distro=amazon-2%20%28Karoo%29",
      "type" : "library",
      "bom-ref" : "303ab57a-c3e9-4c03-8516-3002bd415d6b"
    },
    {
      "name" : "libunistring",
      "version" : "0.9.3-9.amzn2.0.2",
      "purl" : "pkg:rpm/amazon/libunistring@0.9.3-9.amzn2.0.2?arch=x86_64&distro=amazon-2%20%28Karoo%29",
      "type" : "library",
      "bom-ref" : "052b6488-80c4-49e7-a167-8ab518f485df"
    },
    {
      "name" : "libuuid",
      "version" : "2.30.2-2.amzn2.0.11",
      "purl" : "pkg:rpm/amazon/libuuid@2.30.2-2.amzn2.0.11?arch=x86_64&distro=amazon-2%20%28Karoo%29",
      "type" : "library",
      "bom-ref" : "ca978a32-e991-4d9d-8054-854e96a0cc83"
    },
    {
      "name" : "libverto",
      "version" : "0.2.5-4.amzn2.0.2",
      "purl" : "pkg:rpm/amazon/libverto@0.2.5-4.amzn2.0.2?arch=x86_64&distro=amazon-2%20%28Karoo%29",
      "type" : "library",
      "bom-ref" : "b003d83c-0ed4-4c21-9e26-d9f2697d3679"
    },
    {
      "name" : "libxml2",
      "version" : "2.9.1-6.amzn2.5.6",
      "purl" : "pkg:rpm/amazon/libxml2@2.9.1-6.amzn2.5.6?arch=x86_64&distro=amazon-2%20%28Karoo%29",
      "type" : "library",
      "bom-ref" : "22416d22-dad4-4628-b7f3-d41abbca0f2d"
    },
    {
      "name" : "lua",
      "version" : "5.1.4-15.amzn2.0.2",
      "purl" : "pkg:rpm/amazon/lua@5.1.4-15.amzn2.0.2?arch=x86_64&distro=amazon-2%20%28Karoo%29",
      "type" : "library",
      "bom-ref" : "c3578c66-1dea-4f90-9b44-b45208908259"
    },
    {
      "name" : "ncurses",
      "version" : "6.0-8.20170212.amzn2.1.4",
      "purl" : "pkg:rpm/amazon/ncurses@6.0-8.20170212.amzn2.1.4?arch=x86_64&distro=amazon-2%20%28Karoo%29",
      "type" : "library",
      "bom-ref" : "165ee485-426b-4a5e-adc1-d3e0d2f668a8"
    },
    {
      "name" : "ncurses-base",
      "version" : "6.0-8.20170212.amzn2.1.4",
      "purl" : "pkg:rpm/amazon/ncurses-base@6.0-8.20170212.amzn2.1.4?arch=noarch&distro=amazon-2%20%28Karoo%29",
      "type" : "library",
      "bom-ref" : "4c14833f-6c3d-4eb1-8d09-7ed55d24b418"
    },
    {
      "name" : "ncurses-libs",
      "version" : "6.0-8.20170212.amzn2.1.4",
      "purl" : "pkg:rpm/amazon/ncurses-libs@6.0-8.20170212.amzn2.1.4?arch=x86_64&distro=amazon-2%20%28Karoo%29",
      "type" : "library",
      "bom-ref" : "4f39ad9c-27b1-4e8a-a583-cbe2046e16d6"
    },
    {
      "name" : "nspr",
      "version" : "4.34.0-3.1.amzn2",
      "purl" : "pkg:rpm/amazon/nspr@4.34.0-3.1.amzn2?arch=x86_64&distro=amazon-2%20%28Karoo%29",
      "type" : "library",
      "bom-ref" : "0b2c0a78-a536-4483-b68b-e2d9904f2379"
    },
    {
      "name" : "nss",
      "version" : "3.79.0-4.amzn2",
      "purl" : "pkg:rpm/amazon/nss@3.79.0-4.amzn2?arch=x86_64&distro=amazon-2%20%28Karoo%29",
      "type" : "library",
      "bom-ref" : "ecf1de15-72dc-4832-bc84-7146afd42996"
    },
    {
      "name" : "nss-pem",
      "version" : "1.0.3-5.amzn2",
      "purl" : "pkg:rpm/amazon/nss-pem@1.0.3-5.amzn2?arch=x86_64&distro=amazon-2%20%28Karoo%29",
      "type" : "library",
      "bom-ref" : "db1c68b8-ba79-468f-a0b0-040be1149e5d"
    },
    {
      "name" : "nss-softokn",
      "version" : "3.79.0-4.amzn2",
      "purl" : "pkg:rpm/amazon/nss-softokn@3.79.0-4.amzn2?arch=x86_64&distro=amazon-2%20%28Karoo%29",
      "type" : "library",
      "bom-ref" : "38454089-9a5c-48a0-8afd-4292274c36f5"
    },
    {
      "name" : "nss-softokn-freebl",
      "version" : "3.79.0-4.amzn2",
      "purl" : "pkg:rpm/amazon/nss-softokn-freebl@3.79.0-4.amzn2?arch=x86_64&distro=amazon-2%20%28Karoo%29",
      "type" : "library",
      "bom-ref" : "5dbeb30c-53af-4867-978e-0b990783ae84"
    },
    {
      "name" : "nss-sysinit",
      "version" : "3.79.0-4.amzn2",
      "purl" : "pkg:rpm/amazon/nss-sysinit@3.79.0-4.amzn2?arch=x86_64&distro=amazon-2%20%28Karoo%29",
      "type" : "library",
      "bom-ref" : "d7220cbb-a717-4fe7-9a6d-5bd149683a65"
    },
    {
      "name" : "nss-tools",
      "version" : "3.79.0-4.amzn2",
      "purl" : "pkg:rpm/amazon/nss-tools@3.79.0-4.amzn2?arch=x86_64&distro=amazon-2%20%28Karoo%29",
      "type" : "library",
      "bom-ref" : "49a8b44b-7d07-49d4-872c-434a8dc37306"
    },
    {
      "name" : "nss-util",
      "version" : "3.79.0-1.amzn2",
      "purl" : "pkg:rpm/amazon/nss-util@3.79.0-1.amzn2?arch=x86_64&distro=amazon-2%20%28Karoo%29",
      "type" : "library",
      "bom-ref" : "433efdcd-8162-4deb-a2ff-1e97e243123d"
    },
    {
      "name" : "openldap",
      "version" : "2.4.44-23.amzn2.0.4",
      "purl" : "pkg:rpm/amazon/openldap@2.4.44-23.amzn2.0.4?arch=x86_64&distro=amazon-2%20%28Karoo%29",
      "type" : "library",
      "bom-ref" : "fa2a9731-c53d-4461-8198-9f805b7543fa"
    },
    {
      "name" : "openssl-libs",
      "version" : "1:1.0.2k-24.amzn2.0.6",
      "purl" : "pkg:rpm/amazon/openssl-libs@1%3A1.0.2k-24.amzn2.0.6?arch=x86_64&distro=amazon-2%20%28Karoo%29",
      "type" : "library",
      "bom-ref" : "ed8ef4bd-2d8a-43cb-b5e9-a12285688573"
    },
    {
      "name" : "org.apache.commons:commons-lang3",
      "version" : "3.8.1",
      "purl" : "pkg:maven/org.apache.commons/commons-lang3@3.8.1",
      "type" : "library",
      "bom-ref" : "2a042194-abd4-40f8-9553-158d733bef5f"
    },
    {
      "name" : "org.apache.httpcomponents:httpclient",
      "version" : "4.5.14",
      "purl" : "pkg:maven/org.apache.httpcomponents/httpclient@4.5.14",
      "type" : "library",
      "bom-ref" : "4493996d-5574-4000-a46b-954c023e6a3c"
    },
    {
      "name" : "org.apache.httpcomponents:httpcore",
      "version" : "4.4.15",
      "purl" : "pkg:maven/org.apache.httpcomponents/httpcore@4.4.15",
      "type" : "library",
      "bom-ref" : "7499afed-2497-46d4-8fb1-14d505ac963b"
    },
    {
      "name" : "org.apache.maven.resolver:maven-resolver-api",
      "version" : "1.9.4",
      "purl" : "pkg:maven/org.apache.maven.resolver/maven-resolver-api@1.9.4",
      "type" : "library",
      "bom-ref" : "f2a3b2b5-3449-492a-aaa6-17b859e35cd4"
    },
    {
      "name" : "org.apache.maven.resolver:maven-resolver-connector-basic",
      "version" : "1.9.4",
      "purl" : "pkg:maven/org.apache.maven.resolver/maven-resolver-connector-basic@1.9.4",
      "type" : "library",
      "bom-ref" : "92f22b27-65d6-46e6-acd2-cbf8eb92bf1f"
    },
    {
      "name" : "org.apache.maven.resolver:maven-resolver-impl",
      "version" : "1.9.4",
      "purl" : "pkg:maven/org.apache.maven.resolver/maven-resolver-impl@1.9.4",
      "type" : "library",
      "bom-ref" : "b57664c3-bb27-4a26-981e-6da091252215"
    },
    {
      "name" : "org.apache.maven.resolver:maven-resolver-named-locks",
      "version" : "1.9.4",
      "purl" : "pkg:maven/org.apache.maven.resolver/maven-resolver-named-locks@1.9.4",
      "type" : "library",
      "bom-ref" : "9e74ed92-c56f-4303-8f5d-96a6f968f71f"
    },
    {
      "name" : "org.apache.maven.resolver:maven-resolver-spi",
      "version" : "1.9.4",
      "purl" : "pkg:maven/org.apache.maven.resolver/maven-resolver-spi@1.9.4",
      "type" : "library",
      "bom-ref" : "53f2fd0c-caa7-4860-9e38-5197ac729eb5"
    },
    {
      "name" : "org.apache.maven.resolver:maven-resolver-transport-file",
      "version" : "1.9.4",
      "purl" : "pkg:maven/org.apache.maven.resolver/maven-resolver-transport-file@1.9.4",
      "type" : "library",
      "bom-ref" : "edf0831d-f2de-407a-88d3-5757663f1f68"
    },
    {
      "name" : "org.apache.maven.resolver:maven-resolver-transport-http",
      "version" : "1.9.4",
      "purl" : "pkg:maven/org.apache.maven.resolver/maven-resolver-transport-http@1.9.4",
      "type" : "library",
      "bom-ref" : "94efccbf-dce5-450c-9a93-d0696590af17"
    },
    {
      "name" : "org.apache.maven.resolver:maven-resolver-transport-wagon",
      "version" : "1.9.4",
      "purl" : "pkg:maven/org.apache.maven.resolver/maven-resolver-transport-wagon@1.9.4",
      "type" : "library",
      "bom-ref" : "591e359a-4ec0-49e8-8869-191cffd4d182"
    },
    {
      "name" : "org.apache.maven.resolver:maven-resolver-util",
      "version" : "1.9.4",
      "purl" : "pkg:maven/org.apache.maven.resolver/maven-resolver-util@1.9.4",
      "type" : "library",
      "bom-ref" : "76ef6a13-53c4-4880-a2f7-b53ac7f20b0b"
    },
    {
      "name" : "org.apache.maven.shared:maven-shared-utils",
      "version" : "3.3.4",
      "purl" : "pkg:maven/org.apache.maven.shared/maven-shared-utils@3.3.4",
      "type" : "library",
      "bom-ref" : "6f22658d-ab69-4ccb-9410-8f90243ef508"
    },
    {
      "name" : "org.apache.maven.wagon:wagon-file",
      "version" : "3.5.3",
      "purl" : "pkg:maven/org.apache.maven.wagon/wagon-file@3.5.3",
      "type" : "library",
      "bom-ref" : "c5e3cb3a-acb0-4f2f-b4a1-5becc9fda2aa"
    },
    {
      "name" : "org.apache.maven.wagon:wagon-http",
      "version" : "3.5.3",
      "purl" : "pkg:maven/org.apache.maven.wagon/wagon-http@3.5.3",
      "type" : "library",
      "bom-ref" : "77b2ac96-260b-431f-9bf3-03837a1d073e"
    },
    {
      "name" : "org.apache.maven.wagon:wagon-http-shared",
      "version" : "3.5.3",
      "purl" : "pkg:maven/org.apache.maven.wagon/wagon-http-shared@3.5.3",
      "type" : "library",
      "bom-ref" : "daf6a8fb-1344-46a1-b240-a282a66442ce"
    },
    {
      "name" : "org.apache.maven.wagon:wagon-provider-api",
      "version" : "3.5.3",
      "purl" : "pkg:maven/org.apache.maven.wagon/wagon-provider-api@3.5.3",
      "type" : "library",
      "bom-ref" : "8e9b20ac-9355-4037-8a5f-c526da1c9509"
    },
    {
      "name" : "org.apache.maven:maven-artifact",
      "version" : "3.9.0",
      "purl" : "pkg:maven/org.apache.maven/maven-artifact@3.9.0",
      "type" : "library",
      "bom-ref" : "31002221-e6fd-475d-8f19-5631d5b8bb0d"
    },
    {
      "name" : "org.apache.maven:maven-builder-support",
      "version" : "3.9.0",
      "purl" : "pkg:maven/org.apache.maven/maven-builder-support@3.9.0",
      "type" : "library",
      "bom-ref" : "baebff5c-8bd2-4f70-8781-2418ac25a7dd"
    },
    {
      "name" : "org.apache.maven:maven-compat",
      "version" : "3.9.0",
      "purl" : "pkg:maven/org.apache.maven/maven-compat@3.9.0",
      "type" : "library",
      "bom-ref" : "c4d35cff-1b15-4e66-af93-1fd9189498bf"
    },
    {
      "name" : "org.apache.maven:maven-core",
      "version" : "3.9.0",
      "purl" : "pkg:maven/org.apache.maven/maven-core@3.9.0",
      "type" : "library",
      "bom-ref" : "cb038f55-2524-44cf-8263-f11024371e88"
    },
    {
      "name" : "org.apache.maven:maven-embedder",
      "version" : "3.9.0",
      "purl" : "pkg:maven/org.apache.maven/maven-embedder@3.9.0",
      "type" : "library",
      "bom-ref" : "79f5b41f-8e30-4fa0-a984-d53414996fbf"
    },
    {
      "name" : "org.apache.maven:maven-model",
      "version" : "3.9.0",
      "purl" : "pkg:maven/org.apache.maven/maven-model@3.9.0",
      "type" : "library",
      "bom-ref" : "3d5bbd69-bcce-4880-ba26-01b6e4a72382"
    },
    {
      "name" : "org.apache.maven:maven-model-builder",
      "version" : "3.9.0",
      "purl" : "pkg:maven/org.apache.maven/maven-model-builder@3.9.0",
      "type" : "library",
      "bom-ref" : "0c264370-71df-418a-9986-8bf353d2b565"
    },
    {
      "name" : "org.apache.maven:maven-plugin-api",
      "version" : "3.9.0",
      "purl" : "pkg:maven/org.apache.maven/maven-plugin-api@3.9.0",
      "type" : "library",
      "bom-ref" : "797a37a0-0221-4abd-9c3d-a1fefc3269fb"
    },
    {
      "name" : "org.apache.maven:maven-repository-metadata",
      "version" : "3.9.0",
      "purl" : "pkg:maven/org.apache.maven/maven-repository-metadata@3.9.0",
      "type" : "library",
      "bom-ref" : "9bc4b029-aaef-4018-be41-c673dda7b64e"
    },
    {
      "name" : "org.apache.maven:maven-resolver-provider",
      "version" : "3.9.0",
      "purl" : "pkg:maven/org.apache.maven/maven-resolver-provider@3.9.0",
      "type" : "library",
      "bom-ref" : "918e5cd1-965c-4ca3-8c81-ae8b5bd95f17"
    },
    {
      "name" : "org.apache.maven:maven-settings",
      "version" : "3.9.0",
      "purl" : "pkg:maven/org.apache.maven/maven-settings@3.9.0",
      "type" : "library",
      "bom-ref" : "8ecc4196-c09e-438c-8793-da374ba2e8a9"
    },
    {
      "name" : "org.apache.maven:maven-settings-builder",
      "version" : "3.9.0",
      "purl" : "pkg:maven/org.apache.maven/maven-settings-builder@3.9.0",
      "type" : "library",
      "bom-ref" : "b44ad2f8-ef0a-449c-a12e-20c55150187f"
    },
    {
      "name" : "org.apache.maven:maven-slf4j-provider",
      "version" : "3.9.0",
      "purl" : "pkg:maven/org.apache.maven/maven-slf4j-provider@3.9.0",
      "type" : "library",
      "bom-ref" : "1b692fca-513d-40b8-8696-3813758a63e2"
    },
    {
      "name" : "org.codehaus.plexus:plexus-cipher",
      "version" : "2.0",
      "purl" : "pkg:maven/org.codehaus.plexus/plexus-cipher@2.0",
      "type" : "library",
      "bom-ref" : "7932b93d-e8ee-488b-afff-39da057f2f48"
    },
    {
      "name" : "org.codehaus.plexus:plexus-classworlds",
      "version" : "2.6.0",
      "purl" : "pkg:maven/org.codehaus.plexus/plexus-classworlds@2.6.0",
      "type" : "library",
      "bom-ref" : "6d645d8f-414b-4aa4-b5aa-0143992b830b"
    },
    {
      "name" : "org.codehaus.plexus:plexus-component-annotations",
      "version" : "2.1.0",
      "purl" : "pkg:maven/org.codehaus.plexus/plexus-component-annotations@2.1.0",
      "type" : "library",
      "bom-ref" : "a469be39-409e-4e5b-a0e8-6227c5f2793d"
    },
    {
      "name" : "org.codehaus.plexus:plexus-interpolation",
      "version" : "1.26",
      "purl" : "pkg:maven/org.codehaus.plexus/plexus-interpolation@1.26",
      "type" : "library",
      "bom-ref" : "36987769-c072-43b4-85db-3620c563ad31"
    },
    {
      "name" : "org.codehaus.plexus:plexus-sec-dispatcher",
      "version" : "2.0",
      "purl" : "pkg:maven/org.codehaus.plexus/plexus-sec-dispatcher@2.0",
      "type" : "library",
      "bom-ref" : "6a408dc5-76a5-463e-b420-a58ffcf2dccb"
    },
    {
      "name" : "org.codehaus.plexus:plexus-utils",
      "version" : "3.4.2",
      "purl" : "pkg:maven/org.codehaus.plexus/plexus-utils@3.4.2",
      "type" : "library",
      "bom-ref" : "c61a2a69-5236-4b5b-b350-c870ee3ff58a"
    },
    {
      "name" : "org.eclipse.sisu:org.eclipse.sisu.inject",
      "version" : "0.3.5",
      "purl" : "pkg:maven/org.eclipse.sisu/org.eclipse.sisu.inject@0.3.5",
      "type" : "library",
      "bom-ref" : "12ed2423-a183-44ba-bcb4-40a4aec33fda"
    },
    {
      "name" : "org.eclipse.sisu:org.eclipse.sisu.plexus",
      "version" : "0.3.5",
      "purl" : "pkg:maven/org.eclipse.sisu/org.eclipse.sisu.plexus@0.3.5",
      "type" : "library",
      "bom-ref" : "09eee3c1-7353-4792-8500-42d860b6746c"
    },
    {
      "name" : "org.fusesource.jansi:jansi",
      "version" : "2.4.0",
      "purl" : "pkg:maven/org.fusesource.jansi/jansi@2.4.0",
      "type" : "library",
      "bom-ref" : "4ce27adf-d0da-478c-ba4d-567771319b58"
    },
    {
      "name" : "org.slf4j:jcl-over-slf4j",
      "version" : "1.7.36",
      "purl" : "pkg:maven/org.slf4j/jcl-over-slf4j@1.7.36",
      "type" : "library",
      "bom-ref" : "69bfdd59-ef25-403b-b2eb-633d5ba88d70"
    },
    {
      "name" : "org.slf4j:slf4j-api",
      "version" : "1.7.36",
      "purl" : "pkg:maven/org.slf4j/slf4j-api@1.7.36",
      "type" : "library",
      "bom-ref" : "9d66ac0c-2fe4-419d-8f5d-a9d011f7f2bb"
    },
    {
      "name" : "p11-kit",
      "version" : "0.23.22-1.amzn2.0.1",
      "purl" : "pkg:rpm/amazon/p11-kit@0.23.22-1.amzn2.0.1?arch=x86_64&distro=amazon-2%20%28Karoo%29",
      "type" : "library",
      "bom-ref" : "195b4bee-ceee-4d1d-ba26-52681e4bc176"
    },
    {
      "name" : "p11-kit-trust",
      "version" : "0.23.22-1.amzn2.0.1",
      "purl" : "pkg:rpm/amazon/p11-kit-trust@0.23.22-1.amzn2.0.1?arch=x86_64&distro=amazon-2%20%28Karoo%29",
      "type" : "library",
      "bom-ref" : "123739a9-063c-4918-a49e-8f3e52f6eb60"
    },
    {
      "name" : "pcre",
      "version" : "8.32-17.amzn2.0.2",
      "purl" : "pkg:rpm/amazon/pcre@8.32-17.amzn2.0.2?arch=x86_64&distro=amazon-2%20%28Karoo%29",
      "type" : "library",
      "bom-ref" : "dbf0c1b6-56a0-4ac7-8297-f90c26d4a038"
    },
    {
      "name" : "pinentry",
      "version" : "0.8.1-17.amzn2.0.2",
      "purl" : "pkg:rpm/amazon/pinentry@0.8.1-17.amzn2.0.2?arch=x86_64&distro=amazon-2%20%28Karoo%29",
      "type" : "library",
      "bom-ref" : "ecf01b85-e913-4911-8db5-526d3e6e2fb1"
    },
    {
      "name" : "popt",
      "version" : "1.13-16.amzn2.0.2",
      "purl" : "pkg:rpm/amazon/popt@1.13-16.amzn2.0.2?arch=x86_64&distro=amazon-2%20%28Karoo%29",
      "type" : "library",
      "bom-ref" : "008ad9da-86c1-48d6-9054-8f03748e22f3"
    },
    {
      "name" : "pth",
      "version" : "2.0.7-23.amzn2.0.2",
      "purl" : "pkg:rpm/amazon/pth@2.0.7-23.amzn2.0.2?arch=x86_64&distro=amazon-2%20%28Karoo%29",
      "type" : "library",
      "bom-ref" : "83a12a2f-db31-4b8b-88f1-96ca064abeec"
    },
    {
      "name" : "pygpgme",
      "version" : "0.3-9.amzn2.0.3",
      "purl" : "pkg:rpm/amazon/pygpgme@0.3-9.amzn2.0.3?arch=x86_64&distro=amazon-2%20%28Karoo%29",
      "type" : "library",
      "bom-ref" : "b86c2c8e-3050-483e-b9e8-7ec8a4f1b377"
    },
    {
      "name" : "pyliblzma",
      "version" : "0.5.3-25.amzn2",
      "purl" : "pkg:rpm/amazon/pyliblzma@0.5.3-25.amzn2?arch=x86_64&distro=amazon-2%20%28Karoo%29",
      "type" : "library",
      "bom-ref" : "0db3c786-76bb-4a11-8966-3272a6ac4a74"
    },
    {
      "name" : "python",
      "version" : "2.7.18-1.amzn2.0.5",
      "purl" : "pkg:rpm/amazon/python@2.7.18-1.amzn2.0.5?arch=x86_64&distro=amazon-2%20%28Karoo%29",
      "type" : "library",
      "bom-ref" : "1d589a0b-a078-416a-8287-328904cc56e3"
    },
    {
      "name" : "python-iniparse",
      "version" : "0.4-9.amzn2",
      "purl" : "pkg:rpm/amazon/python-iniparse@0.4-9.amzn2?arch=noarch&distro=amazon-2%20%28Karoo%29",
      "type" : "library",
      "bom-ref" : "0dd9c0d9-eb0e-445c-8c31-8d59b552e7ab"
    },
    {
      "name" : "python-libs",
      "version" : "2.7.18-1.amzn2.0.5",
      "purl" : "pkg:rpm/amazon/python-libs@2.7.18-1.amzn2.0.5?arch=x86_64&distro=amazon-2%20%28Karoo%29",
      "type" : "library",
      "bom-ref" : "028a3fb8-36e0-4c98-bd17-8ad02a7d90d7"
    },
    {
      "name" : "python-pycurl",
      "version" : "7.19.0-19.amzn2.0.2",
      "purl" : "pkg:rpm/amazon/python-pycurl@7.19.0-19.amzn2.0.2?arch=x86_64&distro=amazon-2%20%28Karoo%29",
      "type" : "library",
      "bom-ref" : "27b03cc1-97eb-4f03-be15-928c3557cfbc"
    },
    {
      "name" : "python-urlgrabber",
      "version" : "3.10-9.amzn2.0.1",
      "purl" : "pkg:rpm/amazon/python-urlgrabber@3.10-9.amzn2.0.1?arch=noarch&distro=amazon-2%20%28Karoo%29",
      "type" : "library",
      "bom-ref" : "8ce7dc6f-8c3b-4d14-b169-5662a9b0d599"
    },
    {
      "name" : "python2-rpm",
      "version" : "4.11.3-48.amzn2.0.2",
      "purl" : "pkg:rpm/amazon/python2-rpm@4.11.3-48.amzn2.0.2?arch=x86_64&distro=amazon-2%20%28Karoo%29",
      "type" : "library",
      "bom-ref" : "a9322f61-835e-48a3-beda-ea290ad0d5ec"
    },
    {
      "name" : "pyxattr",
      "version" : "0.5.1-5.amzn2.0.2",
      "purl" : "pkg:rpm/amazon/pyxattr@0.5.1-5.amzn2.0.2?arch=x86_64&distro=amazon-2%20%28Karoo%29",
      "type" : "library",
      "bom-ref" : "b1adc7e1-9eb3-4544-9e54-b4894998705d"
    },
    {
      "name" : "readline",
      "version" : "6.2-10.amzn2.0.2",
      "purl" : "pkg:rpm/amazon/readline@6.2-10.amzn2.0.2?arch=x86_64&distro=amazon-2%20%28Karoo%29",
      "type" : "library",
      "bom-ref" : "a336d0a9-6ec3-43aa-9ef9-b034233ce471"
    },
    {
      "name" : "rpm",
      "version" : "4.11.3-48.amzn2.0.2",
      "purl" : "pkg:rpm/amazon/rpm@4.11.3-48.amzn2.0.2?arch=x86_64&distro=amazon-2%20%28Karoo%29",
      "type" : "library",
      "bom-ref" : "36154909-b123-4762-b099-0e0e3890350a"
    },
    {
      "name" : "rpm-build-libs",
      "version" : "4.11.3-48.amzn2.0.2",
      "purl" : "pkg:rpm/amazon/rpm-build-libs@4.11.3-48.amzn2.0.2?arch=x86_64&distro=amazon-2%20%28Karoo%29",
      "type" : "library",
      "bom-ref" : "e4c44f4e-e2a3-410d-8df8-0572b846ddab"
    },
    {
      "name" : "rpm-libs",
      "version" : "4.11.3-48.amzn2.0.2",
      "purl" : "pkg:rpm/amazon/rpm-libs@4.11.3-48.amzn2.0.2?arch=x86_64&distro=amazon-2%20%28Karoo%29",
      "type" : "library",
      "bom-ref" : "4e27089a-f611-4936-9cde-e46a28322b99"
    },
    {
      "name" : "sed",
      "version" : "4.2.2-5.amzn2.0.2",
      "purl" : "pkg:rpm/amazon/sed@4.2.2-5.amzn2.0.2?arch=x86_64&distro=amazon-2%20%28Karoo%29",
      "type" : "library",
      "bom-ref" : "267acc9e-8d97-443a-9c36-6cc1dfda6b18"
    },
    {
      "name" : "setup",
      "version" : "2.8.71-10.amzn2.0.1",
      "purl" : "pkg:rpm/amazon/setup@2.8.71-10.amzn2.0.1?arch=noarch&distro=amazon-2%20%28Karoo%29",
      "type" : "library",
      "bom-ref" : "b2ebf8f1-7b7d-4a26-b5b9-e81ed1dfa0d7"
    },
    {
      "name" : "shared-mime-info",
      "version" : "1.8-4.amzn2",
      "purl" : "pkg:rpm/amazon/shared-mime-info@1.8-4.amzn2?arch=x86_64&distro=amazon-2%20%28Karoo%29",
      "type" : "library",
      "bom-ref" : "531d39f0-089c-4f85-a872-b333ef1e0d9f"
    },
    {
      "name" : "sqlite",
      "version" : "3.7.17-8.amzn2.1.2",
      "purl" : "pkg:rpm/amazon/sqlite@3.7.17-8.amzn2.1.2?arch=x86_64&distro=amazon-2%20%28Karoo%29",
      "type" : "library",
      "bom-ref" : "76905fe4-d403-46f4-82cf-e9c5c4c5aaad"
    },
    {
      "name" : "system-release",
      "version" : "1:2-14.amzn2",
      "purl" : "pkg:rpm/amazon/system-release@1%3A2-14.amzn2?arch=x86_64&distro=amazon-2%20%28Karoo%29",
      "type" : "library",
      "bom-ref" : "ca17cecc-ece2-467f-acbb-f814255b3702"
    },
    {
      "name" : "tar",
      "version" : "2:1.26-35.amzn2",
      "purl" : "pkg:rpm/amazon/tar@2%3A1.26-35.amzn2?arch=x86_64&distro=amazon-2%20%28Karoo%29",
      "type" : "library",
      "bom-ref" : "b6578f22-4e2c-4740-b872-1fd866c0ac6c"
    },
    {
      "name" : "tzdata",
      "version" : "2022f-1.amzn2.0.1",
      "purl" : "pkg:rpm/amazon/tzdata@2022f-1.amzn2.0.1?arch=noarch&distro=amazon-2%20%28Karoo%29",
      "type" : "library",
      "bom-ref" : "a83f11ad-3f5a-4bc7-9771-e77193a6ebb7"
    },
    {
      "name" : "vim-data",
      "version" : "2:9.0.1160-1.amzn2.0.1",
      "purl" : "pkg:rpm/amazon/vim-data@2%3A9.0.1160-1.amzn2.0.1?arch=noarch&distro=amazon-2%20%28Karoo%29",
      "type" : "library",
      "bom-ref" : "2fb76c9f-dc76-446b-a4b3-3f2c021f8738"
    },
    {
      "name" : "vim-minimal",
      "version" : "2:9.0.1160-1.amzn2.0.1",
      "purl" : "pkg:rpm/amazon/vim-minimal@2%3A9.0.1160-1.amzn2.0.1?arch=x86_64&distro=amazon-2%20%28Karoo%29",
      "type" : "library",
      "bom-ref" : "da765c6a-38f7-4e82-b5a5-dd2ecf18e404"
    },
    {
      "name" : "which",
      "version" : "2.20-7.amzn2.0.2",
      "purl" : "pkg:rpm/amazon/which@2.20-7.amzn2.0.2?arch=x86_64&distro=amazon-2%20%28Karoo%29",
      "type" : "library",
      "bom-ref" : "29b9f36d-3f8d-409c-8843-ce5f85712b0f"
    },
    {
      "name" : "xz-libs",
      "version" : "5.2.2-1.amzn2.0.3",
      "purl" : "pkg:rpm/amazon/xz-libs@5.2.2-1.amzn2.0.3?arch=x86_64&distro=amazon-2%20%28Karoo%29",
      "type" : "library",
      "bom-ref" : "129a3d6d-42de-4ad1-b517-615d8efecdc2"
    },
    {
      "name" : "yum",
      "version" : "3.4.3-158.amzn2.0.6",
      "purl" : "pkg:rpm/amazon/yum@3.4.3-158.amzn2.0.6?arch=noarch&distro=amazon-2%20%28Karoo%29",
      "type" : "library",
      "bom-ref" : "3b02306c-ecdd-4b99-af09-d706d1361923"
    },
    {
      "name" : "yum-metadata-parser",
      "version" : "1.1.4-10.amzn2.0.2",
      "purl" : "pkg:rpm/amazon/yum-metadata-parser@1.1.4-10.amzn2.0.2?arch=x86_64&distro=amazon-2%20%28Karoo%29",
      "type" : "library",
      "bom-ref" : "fb87e16b-00ad-450f-9480-949c47406e3c"
    },
    {
      "name" : "yum-plugin-ovl",
      "version" : "1.1.31-46.amzn2.0.1",
      "purl" : "pkg:rpm/amazon/yum-plugin-ovl@1.1.31-46.amzn2.0.1?arch=noarch&distro=amazon-2%20%28Karoo%29",
      "type" : "library",
      "bom-ref" : "14aea2be-b595-4e79-8a17-53d5eac5545c"
    },
    {
      "name" : "yum-plugin-priorities",
      "version" : "1.1.31-46.amzn2.0.1",
      "purl" : "pkg:rpm/amazon/yum-plugin-priorities@1.1.31-46.amzn2.0.1?arch=noarch&distro=amazon-2%20%28Karoo%29",
      "type" : "library",
      "bom-ref" : "95623d2d-0b83-486d-905f-5fe5e6c6d5f3"
    },
    {
      "name" : "zlib",
      "version" : "1.2.7-19.amzn2.0.2",
      "purl" : "pkg:rpm/amazon/zlib@1.2.7-19.amzn2.0.2?arch=x86_64&distro=amazon-2%20%28Karoo%29",
      "type" : "library",
      "bom-ref" : "8f3a59eb-2ab2-4d56-b03e-ad168c2b66bd"
    }
  ],
  "dependencies" : [
    {
      "ref" : "ed5fc08f-2597-4cdf-94bc-5e06872b0110",
      "dependsOn" : [
        "16bf7d51-f4e7-4c8c-9b9d-028fdfba3d59",
        "6d645d8f-414b-4aa4-b5aa-0143992b830b",
        "2a042194-abd4-40f8-9553-158d733bef5f",
        "cb038f55-2524-44cf-8263-f11024371e88",
        "8e9b20ac-9355-4037-8a5f-c526da1c9509",
        "6a408dc5-76a5-463e-b420-a58ffcf2dccb",
        "7499afed-2497-46d4-8fb1-14d505ac963b",
        "69bfdd59-ef25-403b-b2eb-633d5ba88d70",
        "3d5bbd69-bcce-4880-ba26-01b6e4a72382",
        "797a37a0-0221-4abd-9c3d-a1fefc3269fb",
        "edf0831d-f2de-407a-88d3-5757663f1f68",
        "36987769-c072-43b4-85db-3620c563ad31",
        "c4d35cff-1b15-4e66-af93-1fd9189498bf",
        "92f22b27-65d6-46e6-acd2-cbf8eb92bf1f",
        "6f22658d-ab69-4ccb-9410-8f90243ef508",
        "c5e3cb3a-acb0-4f2f-b4a1-5becc9fda2aa",
        "daf6a8fb-1344-46a1-b240-a282a66442ce",
        "aabc7158-9504-4f98-9884-c460469bbadb",
        "5b9f3ee6-44ab-4c38-9f38-52030bf5c0dc",
        "79f5b41f-8e30-4fa0-a984-d53414996fbf",
        "b44ad2f8-ef0a-449c-a12e-20c55150187f",
        "9d66ac0c-2fe4-419d-8f5d-a9d011f7f2bb",
        "77b2ac96-260b-431f-9bf3-03837a1d073e",
        "1b692fca-513d-40b8-8696-3813758a63e2",
        "c61a2a69-5236-4b5b-b350-c870ee3ff58a",
        "bf0aff80-f20e-48b8-973f-260d320a0ce0",
        "4493996d-5574-4000-a46b-954c023e6a3c",
        "31002221-e6fd-475d-8f19-5631d5b8bb0d",
        "baebff5c-8bd2-4f70-8781-2418ac25a7dd",
        "f2a3b2b5-3449-492a-aaa6-17b859e35cd4",
        "b57664c3-bb27-4a26-981e-6da091252215",
        "6b21547d-766f-4508-843b-b06784ab8830",
        "e3412f06-872d-4697-b4b9-0a826398bd6b",
        "918e5cd1-965c-4ca3-8c81-ae8b5bd95f17",
        "8ecc4196-c09e-438c-8793-da374ba2e8a9",
        "12ed2423-a183-44ba-bcb4-40a4aec33fda",
        "09eee3c1-7353-4792-8500-42d860b6746c",
        "15901537-316d-442d-9a59-04d72c79b098",
        "9bc4b029-aaef-4018-be41-c673dda7b64e",
        "53f2fd0c-caa7-4860-9e38-5197ac729eb5",
        "591e359a-4ec0-49e8-8869-191cffd4d182",
        "76ef6a13-53c4-4880-a2f7-b53ac7f20b0b",
        "a469be39-409e-4e5b-a0e8-6227c5f2793d",
        "7932b93d-e8ee-488b-afff-39da057f2f48",
        "5db55f8f-5423-4ff3-b3cd-1013be7e05f8",
        "41ce4964-46c7-42d2-a7fe-e1fbe6e4cd85",
        "4ce27adf-d0da-478c-ba4d-567771319b58",
        "0c264370-71df-418a-9986-8bf353d2b565",
        "9e74ed92-c56f-4303-8f5d-96a6f968f71f",
        "94efccbf-dce5-450c-9a93-d0696590af17"
      ]
    },
    {
      "ref" : "16bf7d51-f4e7-4c8c-9b9d-028fdfba3d59",
      "dependsOn" : [
        "20a9087f-c400-43e6-8811-12c9af71f62a",
        "a568541c-d759-49e0-a3c5-b06f020b0dc4",
        "dfd58731-a178-46d5-9825-c411d6d94a88",
        "a07da9e0-02fb-404a-8045-059434d0a589",
        "3c35cc63-9345-413d-922f-80821f70612d",
        "d936006d-c83a-475f-a78f-6f3cb9b20744",
        "aa6d1ae1-7def-460f-a1cc-b36271d00ea8",
        "7a653ed2-e23c-4a67-bbf4-d46343753c57",
        "abb0fd7e-cbea-4db4-a98e-f56da4a9d7a0",
        "bbae5697-1279-40bb-a112-7ff8995b7148",
        "9f9b6e6c-a65b-45b6-84c9-61b7576ed379",
        "57ffd1d4-eba6-49fe-ab8f-994429a3d3b2",
        "515e7887-eeea-4453-af2f-2c3739db6a81",
        "f98556fa-fa03-4237-bf7b-229b4be31a1b",
        "31bf7e3c-1086-4d44-8c8b-d501ebd69880",
        "e3510a69-e561-4a8a-8eed-a5c77b091c4e",
        "6c5e26b5-7fab-4859-9582-9804ca3c3f22",
        "bef51a7d-6e52-476b-8c82-1efd0fc7552d",
        "2a6add9b-b8e8-4ce1-be76-2b257c94c4e2",
        "65ffaa58-2934-48d2-a1e5-aeb26f2271a7",
        "8bf6e129-599b-4ec1-ab8e-e2669a3e0e14",
        "ea40ea78-9e7e-47d4-9418-22bd8d36c57a",
        "336b4258-9ab8-4de0-8401-36e0c0380ddb",
        "e00452d4-6aad-4416-98ec-03e7f64d5929",
        "d94f9d36-43ce-4e87-882d-54ef1600b94f",
        "842a7ff4-2023-4f22-bb93-7115cde34ffb",
        "a5aee234-0f57-4b7d-9515-505a7560e331",
        "66271bec-285b-4150-b02d-fc71486bd3b4",
        "e35da8ac-ab11-44ad-8495-fa5cce1e9c9e",
        "f151807b-4fd6-43b1-b233-fba57305f8a7",
        "15ef9b97-e0c3-4a92-af89-6af1fb1ca364",
        "6e4ad1fc-35f7-47cb-a2dd-fe880e9dac5e",
        "fbff8826-307b-4ed7-991b-0f0cbabb161b",
        "da827b87-8307-49e0-9f44-0d544d58eb8e",
        "7f49017c-dea6-4a2b-93a3-f428029cb09f",
        "1dba197c-bd19-4a71-a396-f1b20a20d27b",
        "788f9158-b0ca-489a-9e71-fa043e963e66",
        "114775ef-8268-4427-b755-103d65d22b91",
        "af28ee9c-77d5-4318-a874-0b306d36aea2",
        "0edc2bfe-6e2b-4091-87c5-6fdfda413a7d",
        "c806cbd5-8b15-407c-b047-7c866868ac20",
        "afdadfdb-bb71-4af6-a63c-a91452e0fb71",
        "88218047-f5c6-4765-a437-297d94ae7ee4",
        "7ce82f1e-a5a4-4d60-b1b1-f01ea00189c8",
        "56ec1e92-0f85-4ae7-8537-bc7219526a16",
        "5a87763d-3f24-4ac7-b534-584cc03d0d8e",
        "e4ebcb69-6e4b-49bb-8d5c-0cd15e25ac0f",
        "c8154905-091a-4a36-8a85-1f00332b2ef9",
        "72b271a9-9c30-4d1a-96b1-f3ffee5b02d7",
        "47adace7-00c4-46e2-b117-9bd004c224bd",
        "3cc6d548-1650-4ee5-b918-a950db6c1931",
        "5ceb852d-8b11-4ec1-9d2c-788907ad38cf",
        "2f77522c-92c6-4f45-b403-5c66fea6ddad",
        "6fb84861-9c85-46d3-8e6b-0890cad2ff6c",
        "93accd48-94fc-4f12-9d5e-0ff094ff450f",
        "d77d244e-1105-49ad-b29d-a42192b5e6dd",
        "6499cf07-d7ad-4350-a6b6-8b1a1714d9b1",
        "4d65ec7e-908a-4229-94a7-1fc5aa34b8b9",
        "8f1bc741-85b4-4cbe-937d-47cf0b5cd07a",
        "75a5f43d-da9f-4d3b-9aea-d43077efb725",
        "814b56b3-462f-458b-b2d9-fc1118ecabe8",
        "49210e8c-65d3-436f-80fa-257124dd1b73",
        "303ab57a-c3e9-4c03-8516-3002bd415d6b",
        "052b6488-80c4-49e7-a167-8ab518f485df",
        "ca978a32-e991-4d9d-8054-854e96a0cc83",
        "b003d83c-0ed4-4c21-9e26-d9f2697d3679",
        "22416d22-dad4-4628-b7f3-d41abbca0f2d",
        "c3578c66-1dea-4f90-9b44-b45208908259",
        "165ee485-426b-4a5e-adc1-d3e0d2f668a8",
        "4c14833f-6c3d-4eb1-8d09-7ed55d24b418",
        "4f39ad9c-27b1-4e8a-a583-cbe2046e16d6",
        "0b2c0a78-a536-4483-b68b-e2d9904f2379",
        "ecf1de15-72dc-4832-bc84-7146afd42996",
        "db1c68b8-ba79-468f-a0b0-040be1149e5d",
        "38454089-9a5c-48a0-8afd-4292274c36f5",
        "5dbeb30c-53af-4867-978e-0b990783ae84",
        "d7220cbb-a717-4fe7-9a6d-5bd149683a65",
        "49a8b44b-7d07-49d4-872c-434a8dc37306",
        "433efdcd-8162-4deb-a2ff-1e97e243123d",
        "fa2a9731-c53d-4461-8198-9f805b7543fa",
        "ed8ef4bd-2d8a-43cb-b5e9-a12285688573",
        "195b4bee-ceee-4d1d-ba26-52681e4bc176",
        "123739a9-063c-4918-a49e-8f3e52f6eb60",
        "dbf0c1b6-56a0-4ac7-8297-f90c26d4a038",
        "ecf01b85-e913-4911-8db5-526d3e6e2fb1",
        "008ad9da-86c1-48d6-9054-8f03748e22f3",
        "83a12a2f-db31-4b8b-88f1-96ca064abeec",
        "b86c2c8e-3050-483e-b9e8-7ec8a4f1b377",
        "0db3c786-76bb-4a11-8966-3272a6ac4a74",
        "1d589a0b-a078-416a-8287-328904cc56e3",
        "0dd9c0d9-eb0e-445c-8c31-8d59b552e7ab",
        "028a3fb8-36e0-4c98-bd17-8ad02a7d90d7",
        "27b03cc1-97eb-4f03-be15-928c3557cfbc",
        "8ce7dc6f-8c3b-4d14-b169-5662a9b0d599",
        "a9322f61-835e-48a3-beda-ea290ad0d5ec",
        "b1adc7e1-9eb3-4544-9e54-b4894998705d",
        "a336d0a9-6ec3-43aa-9ef9-b034233ce471",
        "36154909-b123-4762-b099-0e0e3890350a",
        "e4c44f4e-e2a3-410d-8df8-0572b846ddab",
        "4e27089a-f611-4936-9cde-e46a28322b99",
        "267acc9e-8d97-443a-9c36-6cc1dfda6b18",
        "b2ebf8f1-7b7d-4a26-b5b9-e81ed1dfa0d7",
        "531d39f0-089c-4f85-a872-b333ef1e0d9f",
        "76905fe4-d403-46f4-82cf-e9c5c4c5aaad",
        "ca17cecc-ece2-467f-acbb-f814255b3702",
        "b6578f22-4e2c-4740-b872-1fd866c0ac6c",
        "a83f11ad-3f5a-4bc7-9771-e77193a6ebb7",
        "2fb76c9f-dc76-446b-a4b3-3f2c021f8738",
        "da765c6a-38f7-4e82-b5a5-dd2ecf18e404",
        "29b9f36d-3f8d-409c-8843-ce5f85712b0f",
        "129a3d6d-42de-4ad1-b517-615d8efecdc2",
        "3b02306c-ecdd-4b99-af09-d706d1361923",
        "fb87e16b-00ad-450f-9480-949c47406e3c",
        "14aea2be-b595-4e79-8a17-53d5eac5545c",
        "95623d2d-0b83-486d-905f-5fe5e6c6d5f3",
        "8f3a59eb-2ab2-4d56-b03e-ad168c2b66bd"
      ]
    },
    {
      "ref" : "20a9087f-c400-43e6-8811-12c9af71f62a",
      "dependsOn" : [ ]
    },
    {
      "ref" : "aabc7158-9504-4f98-9884-c460469bbadb",
      "dependsOn" : [ ]
    },
    {
      "ref" : "a568541c-d759-49e0-a3c5-b06f020b0dc4",
      "dependsOn" : [ ]
    },
    {
      "ref" : "dfd58731-a178-46d5-9825-c411d6d94a88",
      "dependsOn" : [ ]
    },
    {
      "ref" : "a07da9e0-02fb-404a-8045-059434d0a589",
      "dependsOn" : [ ]
    },
    {
      "ref" : "3c35cc63-9345-413d-922f-80821f70612d",
      "dependsOn" : [ ]
    },
    {
      "ref" : "d936006d-c83a-475f-a78f-6f3cb9b20744",
      "dependsOn" : [ ]
    },
    {
      "ref" : "6b21547d-766f-4508-843b-b06784ab8830",
      "dependsOn" : [ ]
    },
    {
      "ref" : "41ce4964-46c7-42d2-a7fe-e1fbe6e4cd85",
      "dependsOn" : [ ]
    },
    {
      "ref" : "bf0aff80-f20e-48b8-973f-260d320a0ce0",
      "dependsOn" : [ ]
    },
    {
      "ref" : "15901537-316d-442d-9a59-04d72c79b098",
      "dependsOn" : [ ]
    },
    {
      "ref" : "5db55f8f-5423-4ff3-b3cd-1013be7e05f8",
      "dependsOn" : [ ]
    },
    {
      "ref" : "aa6d1ae1-7def-460f-a1cc-b36271d00ea8",
      "dependsOn" : [ ]
    },
    {
      "ref" : "7a653ed2-e23c-4a67-bbf4-d46343753c57",
      "dependsOn" : [ ]
    },
    {
      "ref" : "abb0fd7e-cbea-4db4-a98e-f56da4a9d7a0",
      "dependsOn" : [ ]
    },
    {
      "ref" : "bbae5697-1279-40bb-a112-7ff8995b7148",
      "dependsOn" : [ ]
    },
    {
      "ref" : "9f9b6e6c-a65b-45b6-84c9-61b7576ed379",
      "dependsOn" : [ ]
    },
    {
      "ref" : "57ffd1d4-eba6-49fe-ab8f-994429a3d3b2",
      "dependsOn" : [ ]
    },
    {
      "ref" : "515e7887-eeea-4453-af2f-2c3739db6a81",
      "dependsOn" : [ ]
    },
    {
      "ref" : "f98556fa-fa03-4237-bf7b-229b4be31a1b",
      "dependsOn" : [ ]
    },
    {
      "ref" : "31bf7e3c-1086-4d44-8c8b-d501ebd69880",
      "dependsOn" : [ ]
    },
    {
      "ref" : "e3510a69-e561-4a8a-8eed-a5c77b091c4e",
      "dependsOn" : [ ]
    },
    {
      "ref" : "6c5e26b5-7fab-4859-9582-9804ca3c3f22",
      "dependsOn" : [ ]
    },
    {
      "ref" : "bef51a7d-6e52-476b-8c82-1efd0fc7552d",
      "dependsOn" : [ ]
    },
    {
      "ref" : "2a6add9b-b8e8-4ce1-be76-2b257c94c4e2",
      "dependsOn" : [ ]
    },
    {
      "ref" : "65ffaa58-2934-48d2-a1e5-aeb26f2271a7",
      "dependsOn" : [ ]
    },
    {
      "ref" : "8bf6e129-599b-4ec1-ab8e-e2669a3e0e14",
      "dependsOn" : [ ]
    },
    {
      "ref" : "ea40ea78-9e7e-47d4-9418-22bd8d36c57a",
      "dependsOn" : [ ]
    },
    {
      "ref" : "336b4258-9ab8-4de0-8401-36e0c0380ddb",
      "dependsOn" : [ ]
    },
    {
      "ref" : "e00452d4-6aad-4416-98ec-03e7f64d5929",
      "dependsOn" : [ ]
    },
    {
      "ref" : "d94f9d36-43ce-4e87-882d-54ef1600b94f",
      "dependsOn" : [ ]
    },
    {
      "ref" : "842a7ff4-2023-4f22-bb93-7115cde34ffb",
      "dependsOn" : [ ]
    },
    {
      "ref" : "a5aee234-0f57-4b7d-9515-505a7560e331",
      "dependsOn" : [ ]
    },
    {
      "ref" : "66271bec-285b-4150-b02d-fc71486bd3b4",
      "dependsOn" : [ ]
    },
    {
      "ref" : "e35da8ac-ab11-44ad-8495-fa5cce1e9c9e",
      "dependsOn" : [ ]
    },
    {
      "ref" : "f151807b-4fd6-43b1-b233-fba57305f8a7",
      "dependsOn" : [ ]
    },
    {
      "ref" : "15ef9b97-e0c3-4a92-af89-6af1fb1ca364",
      "dependsOn" : [ ]
    },
    {
      "ref" : "6e4ad1fc-35f7-47cb-a2dd-fe880e9dac5e",
      "dependsOn" : [ ]
    },
    {
      "ref" : "fbff8826-307b-4ed7-991b-0f0cbabb161b",
      "dependsOn" : [ ]
    },
    {
      "ref" : "da827b87-8307-49e0-9f44-0d544d58eb8e",
      "dependsOn" : [ ]
    },
    {
      "ref" : "7f49017c-dea6-4a2b-93a3-f428029cb09f",
      "dependsOn" : [ ]
    },
    {
      "ref" : "1dba197c-bd19-4a71-a396-f1b20a20d27b",
      "dependsOn" : [ ]
    },
    {
      "ref" : "788f9158-b0ca-489a-9e71-fa043e963e66",
      "dependsOn" : [ ]
    },
    {
      "ref" : "e3412f06-872d-4697-b4b9-0a826398bd6b",
      "dependsOn" : [ ]
    },
    {
      "ref" : "5b9f3ee6-44ab-4c38-9f38-52030bf5c0dc",
      "dependsOn" : [ ]
    },
    {
      "ref" : "114775ef-8268-4427-b755-103d65d22b91",
      "dependsOn" : [ ]
    },
    {
      "ref" : "af28ee9c-77d5-4318-a874-0b306d36aea2",
      "dependsOn" : [ ]
    },
    {
      "ref" : "0edc2bfe-6e2b-4091-87c5-6fdfda413a7d",
      "dependsOn" : [ ]
    },
    {
      "ref" : "c806cbd5-8b15-407c-b047-7c866868ac20",
      "dependsOn" : [ ]
    },
    {
      "ref" : "afdadfdb-bb71-4af6-a63c-a91452e0fb71",
      "dependsOn" : [ ]
    },
    {
      "ref" : "88218047-f5c6-4765-a437-297d94ae7ee4",
      "dependsOn" : [ ]
    },
    {
      "ref" : "7ce82f1e-a5a4-4d60-b1b1-f01ea00189c8",
      "dependsOn" : [ ]
    },
    {
      "ref" : "56ec1e92-0f85-4ae7-8537-bc7219526a16",
      "dependsOn" : [ ]
    },
    {
      "ref" : "5a87763d-3f24-4ac7-b534-584cc03d0d8e",
      "dependsOn" : [ ]
    },
    {
      "ref" : "e4ebcb69-6e4b-49bb-8d5c-0cd15e25ac0f",
      "dependsOn" : [ ]
    },
    {
      "ref" : "c8154905-091a-4a36-8a85-1f00332b2ef9",
      "dependsOn" : [ ]
    },
    {
      "ref" : "72b271a9-9c30-4d1a-96b1-f3ffee5b02d7",
      "dependsOn" : [ ]
    },
    {
      "ref" : "47adace7-00c4-46e2-b117-9bd004c224bd",
      "dependsOn" : [ ]
    },
    {
      "ref" : "3cc6d548-1650-4ee5-b918-a950db6c1931",
      "dependsOn" : [ ]
    },
    {
      "ref" : "5ceb852d-8b11-4ec1-9d2c-788907ad38cf",
      "dependsOn" : [ ]
    },
    {
      "ref" : "2f77522c-92c6-4f45-b403-5c66fea6ddad",
      "dependsOn" : [ ]
    },
    {
      "ref" : "6fb84861-9c85-46d3-8e6b-0890cad2ff6c",
      "dependsOn" : [ ]
    },
    {
      "ref" : "93accd48-94fc-4f12-9d5e-0ff094ff450f",
      "dependsOn" : [ ]
    },
    {
      "ref" : "d77d244e-1105-49ad-b29d-a42192b5e6dd",
      "dependsOn" : [ ]
    },
    {
      "ref" : "6499cf07-d7ad-4350-a6b6-8b1a1714d9b1",
      "dependsOn" : [ ]
    },
    {
      "ref" : "4d65ec7e-908a-4229-94a7-1fc5aa34b8b9",
      "dependsOn" : [ ]
    },
    {
      "ref" : "8f1bc741-85b4-4cbe-937d-47cf0b5cd07a",
      "dependsOn" : [ ]
    },
    {
      "ref" : "75a5f43d-da9f-4d3b-9aea-d43077efb725",
      "dependsOn" : [ ]
    },
    {
      "ref" : "814b56b3-462f-458b-b2d9-fc1118ecabe8",
      "dependsOn" : [ ]
    },
    {
      "ref" : "49210e8c-65d3-436f-80fa-257124dd1b73",
      "dependsOn" : [ ]
    },
    {
      "ref" : "303ab57a-c3e9-4c03-8516-3002bd415d6b",
      "dependsOn" : [ ]
    },
    {
      "ref" : "052b6488-80c4-49e7-a167-8ab518f485df",
      "dependsOn" : [ ]
    },
    {
      "ref" : "ca978a32-e991-4d9d-8054-854e96a0cc83",
      "dependsOn" : [ ]
    },
    {
      "ref" : "b003d83c-0ed4-4c21-9e26-d9f2697d3679",
      "dependsOn" : [ ]
    },
    {
      "ref" : "22416d22-dad4-4628-b7f3-d41abbca0f2d",
      "dependsOn" : [ ]
    },
    {
      "ref" : "c3578c66-1dea-4f90-9b44-b45208908259",
      "dependsOn" : [ ]
    },
    {
      "ref" : "165ee485-426b-4a5e-adc1-d3e0d2f668a8",
      "dependsOn" : [ ]
    },
    {
      "ref" : "4c14833f-6c3d-4eb1-8d09-7ed55d24b418",
      "dependsOn" : [ ]
    },
    {
      "ref" : "4f39ad9c-27b1-4e8a-a583-cbe2046e16d6",
      "dependsOn" : [ ]
    },
    {
      "ref" : "0b2c0a78-a536-4483-b68b-e2d9904f2379",
      "dependsOn" : [ ]
    },
    {
      "ref" : "ecf1de15-72dc-4832-bc84-7146afd42996",
      "dependsOn" : [ ]
    },
    {
      "ref" : "db1c68b8-ba79-468f-a0b0-040be1149e5d",
      "dependsOn" : [ ]
    },
    {
      "ref" : "38454089-9a5c-48a0-8afd-4292274c36f5",
      "dependsOn" : [ ]
    },
    {
      "ref" : "5dbeb30c-53af-4867-978e-0b990783ae84",
      "dependsOn" : [ ]
    },
    {
      "ref" : "d7220cbb-a717-4fe7-9a6d-5bd149683a65",
      "dependsOn" : [ ]
    },
    {
      "ref" : "49a8b44b-7d07-49d4-872c-434a8dc37306",
      "dependsOn" : [ ]
    },
    {
      "ref" : "433efdcd-8162-4deb-a2ff-1e97e243123d",
      "dependsOn" : [ ]
    },
    {
      "ref" : "fa2a9731-c53d-4461-8198-9f805b7543fa",
      "dependsOn" : [ ]
    },
    {
      "ref" : "ed8ef4bd-2d8a-43cb-b5e9-a12285688573",
      "dependsOn" : [ ]
    },
    {
      "ref" : "2a042194-abd4-40f8-9553-158d733bef5f",
      "dependsOn" : [ ]
    },
    {
      "ref" : "4493996d-5574-4000-a46b-954c023e6a3c",
      "dependsOn" : [ ]
    },
    {
      "ref" : "7499afed-2497-46d4-8fb1-14d505ac963b",
      "dependsOn" : [ ]
    },
    {
      "ref" : "f2a3b2b5-3449-492a-aaa6-17b859e35cd4",
      "dependsOn" : [ ]
    },
    {
      "ref" : "92f22b27-65d6-46e6-acd2-cbf8eb92bf1f",
      "dependsOn" : [ ]
    },
    {
      "ref" : "b57664c3-bb27-4a26-981e-6da091252215",
      "dependsOn" : [ ]
    },
    {
      "ref" : "9e74ed92-c56f-4303-8f5d-96a6f968f71f",
      "dependsOn" : [ ]
    },
    {
      "ref" : "53f2fd0c-caa7-4860-9e38-5197ac729eb5",
      "dependsOn" : [ ]
    },
    {
      "ref" : "edf0831d-f2de-407a-88d3-5757663f1f68",
      "dependsOn" : [ ]
    },
    {
      "ref" : "94efccbf-dce5-450c-9a93-d0696590af17",
      "dependsOn" : [ ]
    },
    {
      "ref" : "591e359a-4ec0-49e8-8869-191cffd4d182",
      "dependsOn" : [ ]
    },
    {
      "ref" : "76ef6a13-53c4-4880-a2f7-b53ac7f20b0b",
      "dependsOn" : [ ]
    },
    {
      "ref" : "6f22658d-ab69-4ccb-9410-8f90243ef508",
      "dependsOn" : [ ]
    },
    {
      "ref" : "c5e3cb3a-acb0-4f2f-b4a1-5becc9fda2aa",
      "dependsOn" : [ ]
    },
    {
      "ref" : "77b2ac96-260b-431f-9bf3-03837a1d073e",
      "dependsOn" : [ ]
    },
    {
      "ref" : "daf6a8fb-1344-46a1-b240-a282a66442ce",
      "dependsOn" : [ ]
    },
    {
      "ref" : "8e9b20ac-9355-4037-8a5f-c526da1c9509",
      "dependsOn" : [ ]
    },
    {
      "ref" : "31002221-e6fd-475d-8f19-5631d5b8bb0d",
      "dependsOn" : [ ]
    },
    {
      "ref" : "baebff5c-8bd2-4f70-8781-2418ac25a7dd",
      "dependsOn" : [ ]
    },
    {
      "ref" : "c4d35cff-1b15-4e66-af93-1fd9189498bf",
      "dependsOn" : [ ]
    },
    {
      "ref" : "cb038f55-2524-44cf-8263-f11024371e88",
      "dependsOn" : [ ]
    },
    {
      "ref" : "79f5b41f-8e30-4fa0-a984-d53414996fbf",
      "dependsOn" : [ ]
    },
    {
      "ref" : "3d5bbd69-bcce-4880-ba26-01b6e4a72382",
      "dependsOn" : [ ]
    },
    {
      "ref" : "0c264370-71df-418a-9986-8bf353d2b565",
      "dependsOn" : [ ]
    },
    {
      "ref" : "797a37a0-0221-4abd-9c3d-a1fefc3269fb",
      "dependsOn" : [ ]
    },
    {
      "ref" : "9bc4b029-aaef-4018-be41-c673dda7b64e",
      "dependsOn" : [ ]
    },
    {
      "ref" : "918e5cd1-965c-4ca3-8c81-ae8b5bd95f17",
      "dependsOn" : [ ]
    },
    {
      "ref" : "8ecc4196-c09e-438c-8793-da374ba2e8a9",
      "dependsOn" : [ ]
    },
    {
      "ref" : "b44ad2f8-ef0a-449c-a12e-20c55150187f",
      "dependsOn" : [ ]
    },
    {
      "ref" : "1b692fca-513d-40b8-8696-3813758a63e2",
      "dependsOn" : [ ]
    },
    {
      "ref" : "7932b93d-e8ee-488b-afff-39da057f2f48",
      "dependsOn" : [ ]
    },
    {
      "ref" : "6d645d8f-414b-4aa4-b5aa-0143992b830b",
      "dependsOn" : [ ]
    },
    {
      "ref" : "a469be39-409e-4e5b-a0e8-6227c5f2793d",
      "dependsOn" : [ ]
    },
    {
      "ref" : "36987769-c072-43b4-85db-3620c563ad31",
      "dependsOn" : [ ]
    },
    {
      "ref" : "6a408dc5-76a5-463e-b420-a58ffcf2dccb",
      "dependsOn" : [ ]
    },
    {
      "ref" : "c61a2a69-5236-4b5b-b350-c870ee3ff58a",
      "dependsOn" : [ ]
    },
    {
      "ref" : "12ed2423-a183-44ba-bcb4-40a4aec33fda",
      "dependsOn" : [ ]
    },
    {
      "ref" : "09eee3c1-7353-4792-8500-42d860b6746c",
      "dependsOn" : [ ]
    },
    {
      "ref" : "4ce27adf-d0da-478c-ba4d-567771319b58",
      "dependsOn" : [ ]
    },
    {
      "ref" : "69bfdd59-ef25-403b-b2eb-633d5ba88d70",
      "dependsOn" : [ ]
    },
    {
      "ref" : "9d66ac0c-2fe4-419d-8f5d-a9d011f7f2bb",
      "dependsOn" : [ ]
    },
    {
      "ref" : "195b4bee-ceee-4d1d-ba26-52681e4bc176",
      "dependsOn" : [ ]
    },
    {
      "ref" : "123739a9-063c-4918-a49e-8f3e52f6eb60",
      "dependsOn" : [ ]
    },
    {
      "ref" : "dbf0c1b6-56a0-4ac7-8297-f90c26d4a038",
      "dependsOn" : [ ]
    },
    {
      "ref" : "ecf01b85-e913-4911-8db5-526d3e6e2fb1",
      "dependsOn" : [ ]
    },
    {
      "ref" : "008ad9da-86c1-48d6-9054-8f03748e22f3",
      "dependsOn" : [ ]
    },
    {
      "ref" : "83a12a2f-db31-4b8b-88f1-96ca064abeec",
      "dependsOn" : [ ]
    },
    {
      "ref" : "b86c2c8e-3050-483e-b9e8-7ec8a4f1b377",
      "dependsOn" : [ ]
    },
    {
      "ref" : "0db3c786-76bb-4a11-8966-3272a6ac4a74",
      "dependsOn" : [ ]
    },
    {
      "ref" : "1d589a0b-a078-416a-8287-328904cc56e3",
      "dependsOn" : [ ]
    },
    {
      "ref" : "0dd9c0d9-eb0e-445c-8c31-8d59b552e7ab",
      "dependsOn" : [ ]
    },
    {
      "ref" : "028a3fb8-36e0-4c98-bd17-8ad02a7d90d7",
      "dependsOn" : [ ]
    },
    {
      "ref" : "27b03cc1-97eb-4f03-be15-928c3557cfbc",
      "dependsOn" : [ ]
    },
    {
      "ref" : "8ce7dc6f-8c3b-4d14-b169-5662a9b0d599",
      "dependsOn" : [ ]
    },
    {
      "ref" : "a9322f61-835e-48a3-beda-ea290ad0d5ec",
      "dependsOn" : [ ]
    },
    {
      "ref" : "b1adc7e1-9eb3-4544-9e54-b4894998705d",
      "dependsOn" : [ ]
    },
    {
      "ref" : "a336d0a9-6ec3-43aa-9ef9-b034233ce471",
      "dependsOn" : [ ]
    },
    {
      "ref" : "36154909-b123-4762-b099-0e0e3890350a",
      "dependsOn" : [ ]
    },
    {
      "ref" : "e4c44f4e-e2a3-410d-8df8-0572b846ddab",
      "dependsOn" : [ ]
    },
    {
      "ref" : "4e27089a-f611-4936-9cde-e46a28322b99",
      "dependsOn" : [ ]
    },
    {
      "ref" : "267acc9e-8d97-443a-9c36-6cc1dfda6b18",
      "dependsOn" : [ ]
    },
    {
      "ref" : "b2ebf8f1-7b7d-4a26-b5b9-e81ed1dfa0d7",
      "dependsOn" : [ ]
    },
    {
      "ref" : "531d39f0-089c-4f85-a872-b333ef1e0d9f",
      "dependsOn" : [ ]
    },
    {
      "ref" : "76905fe4-d403-46f4-82cf-e9c5c4c5aaad",
      "dependsOn" : [ ]
    },
    {
      "ref" : "ca17cecc-ece2-467f-acbb-f814255b3702",
      "dependsOn" : [ ]
    },
    {
      "ref" : "b6578f22-4e2c-4740-b872-1fd866c0ac6c",
      "dependsOn" : [ ]
    },
    {
      "ref" : "a83f11ad-3f5a-4bc7-9771-e77193a6ebb7",
      "dependsOn" : [ ]
    },
    {
      "ref" : "2fb76c9f-dc76-446b-a4b3-3f2c021f8738",
      "dependsOn" : [ ]
    },
    {
      "ref" : "da765c6a-38f7-4e82-b5a5-dd2ecf18e404",
      "dependsOn" : [ ]
    },
    {
      "ref" : "29b9f36d-3f8d-409c-8843-ce5f85712b0f",
      "dependsOn" : [ ]
    },
    {
      "ref" : "129a3d6d-42de-4ad1-b517-615d8efecdc2",
      "dependsOn" : [ ]
    },
    {
      "ref" : "3b02306c-ecdd-4b99-af09-d706d1361923",
      "dependsOn" : [ ]
    },
    {
      "ref" : "fb87e16b-00ad-450f-9480-949c47406e3c",
      "dependsOn" : [ ]
    },
    {
      "ref" : "14aea2be-b595-4e79-8a17-53d5eac5545c",
      "dependsOn" : [ ]
    },
    {
      "ref" : "95623d2d-0b83-486d-905f-5fe5e6c6d5f3",
      "dependsOn" : [ ]
    },
    {
      "ref" : "8f3a59eb-2ab2-4d56-b03e-ad168c2b66bd",
      "dependsOn" : [ ]
    }
  ],
  "vulnerabilities" : [
    {
      "bom-ref" : "33082e89-fa4e-454f-a5a5-745224a0c608",
      "id" : "CVE-2023-2976",
      "source" : {
        "name" : "NVD",
        "url" : "https://nvd.nist.gov/"
      },
      "ratings" : [
        {
          "source" : {
            "name" : "NVD",
            "url" : "https://nvd.nist.gov/"
          },
          "score" : 7.1,
          "severity" : "high",
          "method" : "CVSSv3",
          "vector" : "CVSS:3.0/AV:L/AC:L/PR:L/UI:N/S:U/C:H/I:H/A:N"
        }
      ],
      "cwes" : [
        552
      ],
      "description" : "Use of Java's default temporary directory for file creation in `FileBackedOutputStream` in Google Guava versions 1.0 to 31.1 on Unix systems and Android Ice Cream Sandwich allows other users and apps on the machine with access to the default Java temporary directory to be able to access the files created by the class. Even though the security vulnerability is fixed in version 32.0.0, we recommend using version 32.0.1 as version 32.0.0 breaks some functionality under Windows.",
      "published" : "2023-06-14T18:15:00Z",
      "updated" : "2023-06-29T18:22:00Z",
      "affects" : [
        {
          "ref" : "41ce4964-46c7-42d2-a7fe-e1fbe6e4cd85"
        }
      ]
    },
    {
      "bom-ref" : "f8ddfec9-085a-4e43-baf0-b23302bed03c",
      "id" : "CVE-2020-8908",
      "source" : {
        "name" : "NVD",
        "url" : "https://nvd.nist.gov/"
      },
      "ratings" : [
        {
          "source" : {
            "name" : "NVD",
            "url" : "https://nvd.nist.gov/"
          },
          "score" : 2.1,
          "severity" : "low",
          "method" : "CVSSv2",
          "vector" : "(AV:L/AC:L/Au:N/C:P/I:N/A:N)"
        },
        {
          "source" : {
            "name" : "NVD",
            "url" : "https://nvd.nist.gov/"
          },
          "score" : 3.3,
          "severity" : "low",
          "method" : "CVSSv3",
          "vector" : "CVSS:3.0/AV:L/AC:L/PR:L/UI:N/S:U/C:L/I:N/A:N"
        }
      ],
      "cwes" : [
        732
      ],
      "description" : "A temp directory creation vulnerability exists in all versions of Guava, allowing an attacker with access to the machine to potentially access data in a temporary directory created by the Guava API com.google.common.io.Files.createTempDir(). By default, on unix-like systems, the created directory is world-readable (readable by an attacker with access to the system). The method in question has been marked @Deprecated in versions 30.0 and later and should not be used. For Android developers, we recommend choosing a temporary directory API provided by Android, such as context.getCacheDir(). For other Java developers, we recommend migrating to the Java 7 API java.nio.file.Files.createTempDirectory() which explicitly configures permissions of 700, or configuring the Java runtime's java.io.tmpdir system property to point to a location whose permissions are appropriately configured.",
      "published" : "2020-12-10T23:15:00Z",
      "updated" : "2023-06-06T10:15:00Z",
      "affects" : [
        {
          "ref" : "41ce4964-46c7-42d2-a7fe-e1fbe6e4cd85"
        }
      ]
    }
  ]
}