{
  "bomFormat" : "CycloneDX",
  "specVersion" : "1.4",
  "serialNumber" : "urn:uuid:be1ddebf-b1c2-4a44-9aad-6ca70b73ab23",
  "version" : 1,
  "metadata" : {
    "timestamp" : "2023-07-03T15:01:36Z",
    "tools" : [
      {
        "vendor" : "OWASP",
        "name" : "Dependency-Track",
        "version" : "4.8.2"
      }
    ],
    "component" : {
      "name" : "mysql-5.7.41-debian",
      "version" : "SNAPSHOT",
      "type" : "application",
      "bom-ref" : "99d5d86c-c5b6-41a3-9988-b6142daa7545"
    }
  },
  "components" : [
    {
      "name" : "adduser",
      "version" : "3.118",
      "purl" : "pkg:deb/debian/adduser@3.118?distro=debian-10.13",
      "type" : "library",
      "bom-ref" : "7f6e03ad-08ce-4573-851b-c03bf7f805c1"
    },
    {
      "name" : "apt",
      "version" : "1.8.2.3",
      "purl" : "pkg:deb/debian/apt@1.8.2.3?distro=debian-10.13",
      "type" : "library",
      "bom-ref" : "decc633a-0cc5-43ff-b339-e7f439ca76cc"
    },
    {
      "name" : "base-files",
      "version" : "10.3+deb10u13",
      "purl" : "pkg:deb/debian/base-files@10.3%20deb10u13?distro=debian-10.13",
      "type" : "library",
      "bom-ref" : "8cae4577-4c0a-4dea-84ba-9b2357884c07"
    },
    {
      "name" : "base-passwd",
      "version" : "3.5.46",
      "purl" : "pkg:deb/debian/base-passwd@3.5.46?distro=debian-10.13",
      "type" : "library",
      "bom-ref" : "6897c7d9-e52d-4cc5-bd75-196f65d126bd"
    },
    {
      "name" : "bash",
      "version" : "5.0-4",
      "purl" : "pkg:deb/debian/bash@5.0-4?distro=debian-10.13",
      "type" : "library",
      "bom-ref" : "29926175-c5a5-4a5f-8b0b-5fa7a1c9445a"
    },
    {
      "name" : "bsdutils",
      "version" : "1:2.33.1-0.1",
      "purl" : "pkg:deb/debian/bsdutils@1%3A2.33.1-0.1?distro=debian-10.13",
      "type" : "library",
      "bom-ref" : "2f0f174b-90e3-4cb4-9398-2023117ac4ce"
    },
    {
      "name" : "bzip2",
      "version" : "1.0.6-9.2~deb10u2",
      "purl" : "pkg:deb/debian/bzip2@1.0.6-9.2~deb10u2?distro=debian-10.13",
      "type" : "library",
      "bom-ref" : "10e53bbf-4826-4843-aa83-e8a06f1b8d6d"
    },
    {
      "name" : "coreutils",
      "version" : "8.30-3",
      "purl" : "pkg:deb/debian/coreutils@8.30-3?distro=debian-10.13",
      "type" : "library",
      "bom-ref" : "35386e2f-66a1-4dcb-9a22-e9e9e3a22c51"
    },
    {
      "name" : "dash",
      "version" : "0.5.10.2-5",
      "purl" : "pkg:deb/debian/dash@0.5.10.2-5?distro=debian-10.13",
      "type" : "library",
      "bom-ref" : "07a8c9bb-5b9c-410d-879a-1e728c1dde4c"
    },
    {
      "name" : "debconf",
      "version" : "1.5.71+deb10u1",
      "purl" : "pkg:deb/debian/debconf@1.5.71%20deb10u1?distro=debian-10.13",
      "type" : "library",
      "bom-ref" : "6397a9ed-8894-47d2-8bc8-f7c65d238124"
    },
    {
      "name" : "debian",
      "version" : "10.13",
      "type" : "operating-system",
      "bom-ref" : "150cba51-5585-4d57-9654-ef66766d9ac8"
    },
    {
      "name" : "debian-archive-keyring",
      "version" : "2019.1+deb10u1",
      "purl" : "pkg:deb/debian/debian-archive-keyring@2019.1%20deb10u1?distro=debian-10.13",
      "type" : "library",
      "bom-ref" : "244d13aa-7acf-4b95-8e60-ec648691c939"
    },
    {
      "name" : "debianutils",
      "version" : "4.8.6.1",
      "purl" : "pkg:deb/debian/debianutils@4.8.6.1?distro=debian-10.13",
      "type" : "library",
      "bom-ref" : "f31ab019-2310-4de6-98bd-31766c3b1bc7"
    },
    {
      "name" : "diffutils",
      "version" : "1:3.7-3",
      "purl" : "pkg:deb/debian/diffutils@1%3A3.7-3?distro=debian-10.13",
      "type" : "library",
      "bom-ref" : "241ee439-9a18-40c4-a93b-74177d03fbfe"
    },
    {
      "name" : "dirmngr",
      "version" : "2.2.12-1+deb10u2",
      "purl" : "pkg:deb/debian/dirmngr@2.2.12-1%20deb10u2?distro=debian-10.13",
      "type" : "library",
      "bom-ref" : "12809f99-aebd-4725-b3cf-971d6a774703"
    },
    {
      "name" : "dpkg",
      "version" : "1.19.8",
      "purl" : "pkg:deb/debian/dpkg@1.19.8?distro=debian-10.13",
      "type" : "library",
      "bom-ref" : "822b6c30-170a-437e-9d38-0d0b44d0f4d0"
    },
    {
      "name" : "e2fsprogs",
      "version" : "1.44.5-1+deb10u3",
      "purl" : "pkg:deb/debian/e2fsprogs@1.44.5-1%20deb10u3?distro=debian-10.13",
      "type" : "library",
      "bom-ref" : "097e04df-b956-4acd-ba60-5026f91f2e8e"
    },
    {
      "name" : "fdisk",
      "version" : "2.33.1-0.1",
      "purl" : "pkg:deb/debian/fdisk@2.33.1-0.1?distro=debian-10.13",
      "type" : "library",
      "bom-ref" : "9defda2b-0325-4e3d-8649-fa161968196a"
    },
    {
      "name" : "findutils",
      "version" : "4.6.0+git+20190209-2",
      "purl" : "pkg:deb/debian/findutils@4.6.0%20git%2020190209-2?distro=debian-10.13",
      "type" : "library",
      "bom-ref" : "86cbb64c-5457-4f20-9250-58b6beb1c02f"
    },
    {
      "name" : "gcc-8-base",
      "version" : "8.3.0-6",
      "purl" : "pkg:deb/debian/gcc-8-base@8.3.0-6?distro=debian-10.13",
      "type" : "library",
      "bom-ref" : "31fcf04e-bd3d-4a1e-b031-a7a871d2a85f"
    },
    {
      "name" : "github.com/opencontainers/runc",
      "version" : "v1.1.0",
      "purl" : "pkg:golang/github.com/opencontainers/runc@v1.1.0",
      "type" : "library",
      "bom-ref" : "04154316-5041-4a93-8bfd-d3c4f6973bd9"
    },
    {
      "name" : "gnupg",
      "version" : "2.2.12-1+deb10u2",
      "purl" : "pkg:deb/debian/gnupg@2.2.12-1%20deb10u2?distro=debian-10.13",
      "type" : "library",
      "bom-ref" : "6cf935b6-3103-4d89-a85c-39ee73c41185"
    },
    {
      "name" : "gnupg-l10n",
      "version" : "2.2.12-1+deb10u2",
      "purl" : "pkg:deb/debian/gnupg-l10n@2.2.12-1%20deb10u2?distro=debian-10.13",
      "type" : "library",
      "bom-ref" : "f2f2b657-99fa-4f47-9e63-98f185323292"
    },
    {
      "name" : "gnupg-utils",
      "version" : "2.2.12-1+deb10u2",
      "purl" : "pkg:deb/debian/gnupg-utils@2.2.12-1%20deb10u2?distro=debian-10.13",
      "type" : "library",
      "bom-ref" : "f1d06f93-169d-4283-b9ae-e10fdb9f0ec3"
    },
    {
      "name" : "golang.org/x/sys",
      "version" : "v0.0.0-20220907062415-87db552b00fd",
      "purl" : "pkg:golang/golang.org/x/sys@v0.0.0-20220907062415-87db552b00fd",
      "type" : "library",
      "bom-ref" : "0b99e935-74ec-4732-8406-885254bd366f"
    },
    {
      "name" : "gpg",
      "version" : "2.2.12-1+deb10u2",
      "purl" : "pkg:deb/debian/gpg@2.2.12-1%20deb10u2?distro=debian-10.13",
      "type" : "library",
      "bom-ref" : "9d74a112-a878-46b2-9746-bc23bf84857e"
    },
    {
      "name" : "gpg-agent",
      "version" : "2.2.12-1+deb10u2",
      "purl" : "pkg:deb/debian/gpg-agent@2.2.12-1%20deb10u2?distro=debian-10.13",
      "type" : "library",
      "bom-ref" : "439ec1ee-8538-4e02-85fe-9b579ced2282"
    },
    {
      "name" : "gpg-wks-client",
      "version" : "2.2.12-1+deb10u2",
      "purl" : "pkg:deb/debian/gpg-wks-client@2.2.12-1%20deb10u2?distro=debian-10.13",
      "type" : "library",
      "bom-ref" : "cb28edc0-af93-4f16-bbbe-be937c558521"
    },
    {
      "name" : "gpg-wks-server",
      "version" : "2.2.12-1+deb10u2",
      "purl" : "pkg:deb/debian/gpg-wks-server@2.2.12-1%20deb10u2?distro=debian-10.13",
      "type" : "library",
      "bom-ref" : "09d0d7ea-84c3-439b-91ae-0fcf9850f2e7"
    },
    {
      "name" : "gpgconf",
      "version" : "2.2.12-1+deb10u2",
      "purl" : "pkg:deb/debian/gpgconf@2.2.12-1%20deb10u2?distro=debian-10.13",
      "type" : "library",
      "bom-ref" : "77ce739c-cf8b-4758-91d2-1b8ea6b21477"
    },
    {
      "name" : "gpgsm",
      "version" : "2.2.12-1+deb10u2",
      "purl" : "pkg:deb/debian/gpgsm@2.2.12-1%20deb10u2?distro=debian-10.13",
      "type" : "library",
      "bom-ref" : "b77afd3f-4bb1-482d-ba7e-33160444b149"
    },
    {
      "name" : "gpgv",
      "version" : "2.2.12-1+deb10u2",
      "purl" : "pkg:deb/debian/gpgv@2.2.12-1%20deb10u2?distro=debian-10.13",
      "type" : "library",
      "bom-ref" : "c9be38ad-e755-4370-b143-9518d53a5009"
    },
    {
      "name" : "grep",
      "version" : "3.3-1",
      "purl" : "pkg:deb/debian/grep@3.3-1?distro=debian-10.13",
      "type" : "library",
      "bom-ref" : "85d82136-92bb-41bf-8ff3-431ebfa1119b"
    },
    {
      "name" : "gzip",
      "version" : "1.9-3+deb10u1",
      "purl" : "pkg:deb/debian/gzip@1.9-3%20deb10u1?distro=debian-10.13",
      "type" : "library",
      "bom-ref" : "46629716-624d-4c10-bc2f-4a521c383d87"
    },
    {
      "name" : "hostname",
      "version" : "3.21",
      "purl" : "pkg:deb/debian/hostname@3.21?distro=debian-10.13",
      "type" : "library",
      "bom-ref" : "6d5c8684-302a-4fd2-b0eb-e8b6b60d41a0"
    },
    {
      "name" : "init-system-helpers",
      "version" : "1.56+nmu1",
      "purl" : "pkg:deb/debian/init-system-helpers@1.56%20nmu1?distro=debian-10.13",
      "type" : "library",
      "bom-ref" : "04a40e10-ad33-4f84-8151-86f8cb4c7e25"
    },
    {
      "name" : "libacl1",
      "version" : "2.2.53-4",
      "purl" : "pkg:deb/debian/libacl1@2.2.53-4?distro=debian-10.13",
      "type" : "library",
      "bom-ref" : "f9348162-9d54-4e0f-9c23-6e89ed13f0ce"
    },
    {
      "name" : "libaio1",
      "version" : "0.3.112-3",
      "purl" : "pkg:deb/debian/libaio1@0.3.112-3?distro=debian-10.13",
      "type" : "library",
      "bom-ref" : "c1876f3b-5fe9-40d4-81fc-27cdbda794f8"
    },
    {
      "name" : "libapt-pkg5.0",
      "version" : "1.8.2.3",
      "purl" : "pkg:deb/debian/libapt-pkg5.0@1.8.2.3?distro=debian-10.13",
      "type" : "library",
      "bom-ref" : "17c465aa-4eef-4754-941f-de9b7f8c3ed9"
    },
    {
      "name" : "libassuan0",
      "version" : "2.5.2-1",
      "purl" : "pkg:deb/debian/libassuan0@2.5.2-1?distro=debian-10.13",
      "type" : "library",
      "bom-ref" : "a8345357-9add-4a44-958e-c538335c3c4e"
    },
    {
      "name" : "libatomic1",
      "version" : "8.3.0-6",
      "purl" : "pkg:deb/debian/libatomic1@8.3.0-6?distro=debian-10.13",
      "type" : "library",
      "bom-ref" : "df2e408b-8e57-452a-881e-9e33a79f4acc"
    },
    {
      "name" : "libattr1",
      "version" : "1:2.4.48-4",
      "purl" : "pkg:deb/debian/libattr1@1%3A2.4.48-4?distro=debian-10.13",
      "type" : "library",
      "bom-ref" : "8eddd282-3410-4ac9-a2cf-14df0a4d62ff"
    },
    {
      "name" : "libaudit-common",
      "version" : "1:2.8.4-3",
      "purl" : "pkg:deb/debian/libaudit-common@1%3A2.8.4-3?distro=debian-10.13",
      "type" : "library",
      "bom-ref" : "a432821c-4b6d-4c3c-be1c-46892b4a02ab"
    },
    {
      "name" : "libaudit1",
      "version" : "1:2.8.4-3",
      "purl" : "pkg:deb/debian/libaudit1@1%3A2.8.4-3?distro=debian-10.13",
      "type" : "library",
      "bom-ref" : "35c0b612-870d-4e16-aa83-c1415a5ac923"
    },
    {
      "name" : "libblkid1",
      "version" : "2.33.1-0.1",
      "purl" : "pkg:deb/debian/libblkid1@2.33.1-0.1?distro=debian-10.13",
      "type" : "library",
      "bom-ref" : "3e1dd7ab-b1f3-4678-90b7-e9229d8a8688"
    },
    {
      "name" : "libbz2-1.0",
      "version" : "1.0.6-9.2~deb10u2",
      "purl" : "pkg:deb/debian/libbz2-1.0@1.0.6-9.2~deb10u2?distro=debian-10.13",
      "type" : "library",
      "bom-ref" : "9c07b9ba-0b37-48cf-b9cb-0f46bc9e70e6"
    },
    {
      "name" : "libc-bin",
      "version" : "2.28-10+deb10u2",
      "purl" : "pkg:deb/debian/libc-bin@2.28-10%20deb10u2?distro=debian-10.13",
      "type" : "library",
      "bom-ref" : "6947fd3a-dc6d-4c5d-81db-618560a3025c"
    },
    {
      "name" : "libc6",
      "version" : "2.28-10+deb10u2",
      "purl" : "pkg:deb/debian/libc6@2.28-10%20deb10u2?distro=debian-10.13",
      "type" : "library",
      "bom-ref" : "de3d1143-0efb-48c7-9e3c-9ce95697f3c1"
    },
    {
      "name" : "libcap-ng0",
      "version" : "0.7.9-2",
      "purl" : "pkg:deb/debian/libcap-ng0@0.7.9-2?distro=debian-10.13",
      "type" : "library",
      "bom-ref" : "7f79c5a3-5905-4117-8f5d-ae3b419e57f3"
    },
    {
      "name" : "libcom-err2",
      "version" : "1.44.5-1+deb10u3",
      "purl" : "pkg:deb/debian/libcom-err2@1.44.5-1%20deb10u3?distro=debian-10.13",
      "type" : "library",
      "bom-ref" : "d01415e8-43aa-446b-9114-970b09dcae14"
    },
    {
      "name" : "libdb5.3",
      "version" : "5.3.28+dfsg1-0.5",
      "purl" : "pkg:deb/debian/libdb5.3@5.3.28%20dfsg1-0.5?distro=debian-10.13",
      "type" : "library",
      "bom-ref" : "35b56ed1-aff3-411a-8eda-9e7611e30cbb"
    },
    {
      "name" : "libdebconfclient0",
      "version" : "0.249",
      "purl" : "pkg:deb/debian/libdebconfclient0@0.249?distro=debian-10.13",
      "type" : "library",
      "bom-ref" : "d6ea6a78-49fe-4f90-9b2f-5f5e19ade284"
    },
    {
      "name" : "libext2fs2",
      "version" : "1.44.5-1+deb10u3",
      "purl" : "pkg:deb/debian/libext2fs2@1.44.5-1%20deb10u3?distro=debian-10.13",
      "type" : "library",
      "bom-ref" : "15ac90a5-4b98-4685-983c-0fca0fa149cb"
    },
    {
      "name" : "libfdisk1",
      "version" : "2.33.1-0.1",
      "purl" : "pkg:deb/debian/libfdisk1@2.33.1-0.1?distro=debian-10.13",
      "type" : "library",
      "bom-ref" : "2b94d293-bfee-42ce-98fc-e136bba562a9"
    },
    {
      "name" : "libffi6",
      "version" : "3.2.1-9",
      "purl" : "pkg:deb/debian/libffi6@3.2.1-9?distro=debian-10.13",
      "type" : "library",
      "bom-ref" : "748cc9c0-91b1-4ea4-875d-125cf58d8404"
    },
    {
      "name" : "libgcc1",
      "version" : "1:8.3.0-6",
      "purl" : "pkg:deb/debian/libgcc1@1%3A8.3.0-6?distro=debian-10.13",
      "type" : "library",
      "bom-ref" : "6c5092b2-0b52-4e28-b2c6-f2c630bcba17"
    },
    {
      "name" : "libgcrypt20",
      "version" : "1.8.4-5+deb10u1",
      "purl" : "pkg:deb/debian/libgcrypt20@1.8.4-5%20deb10u1?distro=debian-10.13",
      "type" : "library",
      "bom-ref" : "1489f256-cc5b-4f80-8d57-fb386c1149d0"
    },
    {
      "name" : "libgdbm-compat4",
      "version" : "1.18.1-4",
      "purl" : "pkg:deb/debian/libgdbm-compat4@1.18.1-4?distro=debian-10.13",
      "type" : "library",
      "bom-ref" : "1c3413da-7c56-4dc4-9eb8-05e15b4da760"
    },
    {
      "name" : "libgdbm6",
      "version" : "1.18.1-4",
      "purl" : "pkg:deb/debian/libgdbm6@1.18.1-4?distro=debian-10.13",
      "type" : "library",
      "bom-ref" : "1b6b4097-ca94-4bda-8dd3-e2d14bc8f68a"
    },
    {
      "name" : "libgmp10",
      "version" : "2:6.1.2+dfsg-4+deb10u1",
      "purl" : "pkg:deb/debian/libgmp10@2%3A6.1.2%20dfsg-4%20deb10u1?distro=debian-10.13",
      "type" : "library",
      "bom-ref" : "1998d163-df06-4620-a066-05f01d6680c0"
    },
    {
      "name" : "libgnutls30",
      "version" : "3.6.7-4+deb10u10",
      "purl" : "pkg:deb/debian/libgnutls30@3.6.7-4%20deb10u10?distro=debian-10.13",
      "type" : "library",
      "bom-ref" : "485b4c4b-34f0-4eb6-9e3c-38610319def5"
    },
    {
      "name" : "libgpg-error0",
      "version" : "1.35-1",
      "purl" : "pkg:deb/debian/libgpg-error0@1.35-1?distro=debian-10.13",
      "type" : "library",
      "bom-ref" : "2af2dfb8-ae0f-4c09-89b3-463b219ed1de"
    },
    {
      "name" : "libgpm2",
      "version" : "1.20.7-5",
      "purl" : "pkg:deb/debian/libgpm2@1.20.7-5?distro=debian-10.13",
      "type" : "library",
      "bom-ref" : "71d739d8-85d7-4bca-b5f3-8a404d75e028"
    },
    {
      "name" : "libhogweed4",
      "version" : "3.4.1-1+deb10u1",
      "purl" : "pkg:deb/debian/libhogweed4@3.4.1-1%20deb10u1?distro=debian-10.13",
      "type" : "library",
      "bom-ref" : "10a8c51f-3cb7-4955-b417-b0b825c00485"
    },
    {
      "name" : "libidn2-0",
      "version" : "2.0.5-1+deb10u1",
      "purl" : "pkg:deb/debian/libidn2-0@2.0.5-1%20deb10u1?distro=debian-10.13",
      "type" : "library",
      "bom-ref" : "8ee2c605-504e-4975-b5ad-33cc8834c1f9"
    },
    {
      "name" : "libksba8",
      "version" : "1.3.5-2+deb10u2",
      "purl" : "pkg:deb/debian/libksba8@1.3.5-2%20deb10u2?distro=debian-10.13",
      "type" : "library",
      "bom-ref" : "a5174383-b247-4cb2-b3c9-3297ebd3d559"
    },
    {
      "name" : "libldap-2.4-2",
      "version" : "2.4.47+dfsg-3+deb10u7",
      "purl" : "pkg:deb/debian/libldap-2.4-2@2.4.47%20dfsg-3%20deb10u7?distro=debian-10.13",
      "type" : "library",
      "bom-ref" : "1539dce2-8c95-4929-9f51-e5484cbdff39"
    },
    {
      "name" : "libldap-common",
      "version" : "2.4.47+dfsg-3+deb10u7",
      "purl" : "pkg:deb/debian/libldap-common@2.4.47%20dfsg-3%20deb10u7?distro=debian-10.13",
      "type" : "library",
      "bom-ref" : "7c790369-e07f-471c-9dce-ec7a8c8871bd"
    },
    {
      "name" : "liblz4-1",
      "version" : "1.8.3-1+deb10u1",
      "purl" : "pkg:deb/debian/liblz4-1@1.8.3-1%20deb10u1?distro=debian-10.13",
      "type" : "library",
      "bom-ref" : "91261ec4-7a3e-4dd8-a750-42a52d52995c"
    },
    {
      "name" : "liblzma5",
      "version" : "5.2.4-1+deb10u1",
      "purl" : "pkg:deb/debian/liblzma5@5.2.4-1%20deb10u1?distro=debian-10.13",
      "type" : "library",
      "bom-ref" : "de4429ed-1168-4d29-9e35-95f652add1ce"
    },
    {
      "name" : "libmecab2",
      "version" : "0.996-6",
      "purl" : "pkg:deb/debian/libmecab2@0.996-6?distro=debian-10.13",
      "type" : "library",
      "bom-ref" : "afa59fe3-7ee6-4dd8-bf76-36c0c2a42d08"
    },
    {
      "name" : "libmount1",
      "version" : "2.33.1-0.1",
      "purl" : "pkg:deb/debian/libmount1@2.33.1-0.1?distro=debian-10.13",
      "type" : "library",
      "bom-ref" : "90888cb9-d01a-47e4-8453-66b6e8cc3d30"
    },
    {
      "name" : "libncurses6",
      "version" : "6.1+20181013-2+deb10u3",
      "purl" : "pkg:deb/debian/libncurses6@6.1%2020181013-2%20deb10u3?distro=debian-10.13",
      "type" : "library",
      "bom-ref" : "2339e3cc-0f33-421a-b0cf-6b9ae3de06c7"
    },
    {
      "name" : "libncursesw6",
      "version" : "6.1+20181013-2+deb10u3",
      "purl" : "pkg:deb/debian/libncursesw6@6.1%2020181013-2%20deb10u3?distro=debian-10.13",
      "type" : "library",
      "bom-ref" : "782bba12-3a61-4892-967a-6faaf9bd16f0"
    },
    {
      "name" : "libnettle6",
      "version" : "3.4.1-1+deb10u1",
      "purl" : "pkg:deb/debian/libnettle6@3.4.1-1%20deb10u1?distro=debian-10.13",
      "type" : "library",
      "bom-ref" : "02955f55-76c9-4f8b-9b3f-30009dcbe4b0"
    },
    {
      "name" : "libnpth0",
      "version" : "1.6-1",
      "purl" : "pkg:deb/debian/libnpth0@1.6-1?distro=debian-10.13",
      "type" : "library",
      "bom-ref" : "9263c3f9-1bc4-4f9f-a51e-d898620b4360"
    },
    {
      "name" : "libnuma1",
      "version" : "2.0.12-1",
      "purl" : "pkg:deb/debian/libnuma1@2.0.12-1?distro=debian-10.13",
      "type" : "library",
      "bom-ref" : "71176b0b-fe7d-4a49-a5f9-69b915a4b521"
    },
    {
      "name" : "libp11-kit0",
      "version" : "0.23.15-2+deb10u1",
      "purl" : "pkg:deb/debian/libp11-kit0@0.23.15-2%20deb10u1?distro=debian-10.13",
      "type" : "library",
      "bom-ref" : "5082a172-807e-408a-868e-c3a21464f1b5"
    },
    {
      "name" : "libpam-modules",
      "version" : "1.3.1-5",
      "purl" : "pkg:deb/debian/libpam-modules@1.3.1-5?distro=debian-10.13",
      "type" : "library",
      "bom-ref" : "11d576ed-e844-4827-90a7-23bbbbb59ad9"
    },
    {
      "name" : "libpam-modules-bin",
      "version" : "1.3.1-5",
      "purl" : "pkg:deb/debian/libpam-modules-bin@1.3.1-5?distro=debian-10.13",
      "type" : "library",
      "bom-ref" : "b8d721b8-95a1-40f8-b1bb-2899b7b80824"
    },
    {
      "name" : "libpam-runtime",
      "version" : "1.3.1-5",
      "purl" : "pkg:deb/debian/libpam-runtime@1.3.1-5?distro=debian-10.13",
      "type" : "library",
      "bom-ref" : "7b6ae3a4-5c33-4138-b98b-798eda8398ee"
    },
    {
      "name" : "libpam0g",
      "version" : "1.3.1-5",
      "purl" : "pkg:deb/debian/libpam0g@1.3.1-5?distro=debian-10.13",
      "type" : "library",
      "bom-ref" : "f23e0197-30f6-43ff-9010-4cbb61b568dc"
    },
    {
      "name" : "libpcre3",
      "version" : "2:8.39-12",
      "purl" : "pkg:deb/debian/libpcre3@2%3A8.39-12?distro=debian-10.13",
      "type" : "library",
      "bom-ref" : "ef99bbd6-cb13-44fc-95b2-c020bf5d8367"
    },
    {
      "name" : "libperl5.28",
      "version" : "5.28.1-6+deb10u1",
      "purl" : "pkg:deb/debian/libperl5.28@5.28.1-6%20deb10u1?distro=debian-10.13",
      "type" : "library",
      "bom-ref" : "9473379d-f171-4efc-97d3-80b11a8583f2"
    },
    {
      "name" : "libreadline7",
      "version" : "7.0-5",
      "purl" : "pkg:deb/debian/libreadline7@7.0-5?distro=debian-10.13",
      "type" : "library",
      "bom-ref" : "cdd5ef9d-eabf-4294-a6cb-ae3818b2369a"
    },
    {
      "name" : "libsasl2-2",
      "version" : "2.1.27+dfsg-1+deb10u2",
      "purl" : "pkg:deb/debian/libsasl2-2@2.1.27%20dfsg-1%20deb10u2?distro=debian-10.13",
      "type" : "library",
      "bom-ref" : "b00a8513-b31e-4edb-a3ed-6643def50cb2"
    },
    {
      "name" : "libsasl2-modules-db",
      "version" : "2.1.27+dfsg-1+deb10u2",
      "purl" : "pkg:deb/debian/libsasl2-modules-db@2.1.27%20dfsg-1%20deb10u2?distro=debian-10.13",
      "type" : "library",
      "bom-ref" : "b39706f4-b712-48ef-8b9d-ed990a33a98f"
    },
    {
      "name" : "libseccomp2",
      "version" : "2.3.3-4",
      "purl" : "pkg:deb/debian/libseccomp2@2.3.3-4?distro=debian-10.13",
      "type" : "library",
      "bom-ref" : "66f4f8e0-23aa-4baa-a9a6-1a0627fc0ff5"
    },
    {
      "name" : "libselinux1",
      "version" : "2.8-1+b1",
      "purl" : "pkg:deb/debian/libselinux1@2.8-1%20b1?distro=debian-10.13",
      "type" : "library",
      "bom-ref" : "9183b0a3-19e1-48c2-ae63-1fe8033e0bd5"
    },
    {
      "name" : "libsemanage-common",
      "version" : "2.8-2",
      "purl" : "pkg:deb/debian/libsemanage-common@2.8-2?distro=debian-10.13",
      "type" : "library",
      "bom-ref" : "a969a66a-1587-4326-ae9a-a5cbde3ff70e"
    },
    {
      "name" : "libsemanage1",
      "version" : "2.8-2",
      "purl" : "pkg:deb/debian/libsemanage1@2.8-2?distro=debian-10.13",
      "type" : "library",
      "bom-ref" : "550e7918-7552-4245-8d08-cc49881becfa"
    },
    {
      "name" : "libsepol1",
      "version" : "2.8-1",
      "purl" : "pkg:deb/debian/libsepol1@2.8-1?distro=debian-10.13",
      "type" : "library",
      "bom-ref" : "0c7a24d5-d29f-4664-99c1-87984e4123bb"
    },
    {
      "name" : "libsmartcols1",
      "version" : "2.33.1-0.1",
      "purl" : "pkg:deb/debian/libsmartcols1@2.33.1-0.1?distro=debian-10.13",
      "type" : "library",
      "bom-ref" : "8ed9cf30-abbb-4e0f-8fb1-9af900a2cc7e"
    },
    {
      "name" : "libsqlite3-0",
      "version" : "3.27.2-3+deb10u2",
      "purl" : "pkg:deb/debian/libsqlite3-0@3.27.2-3%20deb10u2?distro=debian-10.13",
      "type" : "library",
      "bom-ref" : "367506e8-8b32-40e2-a117-dadd4a2d96d4"
    },
    {
      "name" : "libss2",
      "version" : "1.44.5-1+deb10u3",
      "purl" : "pkg:deb/debian/libss2@1.44.5-1%20deb10u3?distro=debian-10.13",
      "type" : "library",
      "bom-ref" : "a346fc8a-0c09-4569-8e3e-93b04b2ddfb1"
    },
    {
      "name" : "libssl1.1",
      "version" : "1.1.1n-0+deb10u4",
      "purl" : "pkg:deb/debian/libssl1.1@1.1.1n-0%20deb10u4?distro=debian-10.13",
      "type" : "library",
      "bom-ref" : "2b039518-c8ea-41d6-b656-a4c4a2ac5730"
    },
    {
      "name" : "libstdc++6",
      "version" : "8.3.0-6",
      "purl" : "pkg:deb/debian/libstdc%20%206@8.3.0-6?distro=debian-10.13",
      "type" : "library",
      "bom-ref" : "1bf54393-d3bf-438d-a531-f7fb36276529"
    },
    {
      "name" : "libsystemd0",
      "version" : "241-7~deb10u8",
      "purl" : "pkg:deb/debian/libsystemd0@241-7~deb10u8?distro=debian-10.13",
      "type" : "library",
      "bom-ref" : "95319d31-e5b6-4af3-b978-be4f98d27f11"
    },
    {
      "name" : "libtasn1-6",
      "version" : "4.13-3+deb10u1",
      "purl" : "pkg:deb/debian/libtasn1-6@4.13-3%20deb10u1?distro=debian-10.13",
      "type" : "library",
      "bom-ref" : "4f528a67-7343-49a0-8631-49eac99a0bd8"
    },
    {
      "name" : "libtinfo6",
      "version" : "6.1+20181013-2+deb10u3",
      "purl" : "pkg:deb/debian/libtinfo6@6.1%2020181013-2%20deb10u3?distro=debian-10.13",
      "type" : "library",
      "bom-ref" : "9d261002-68e8-430a-956b-620e23a0d748"
    },
    {
      "name" : "libudev1",
      "version" : "241-7~deb10u8",
      "purl" : "pkg:deb/debian/libudev1@241-7~deb10u8?distro=debian-10.13",
      "type" : "library",
      "bom-ref" : "880a9581-8fe8-4277-8a4c-e5a938af7305"
    },
    {
      "name" : "libunistring2",
      "version" : "0.9.10-1",
      "purl" : "pkg:deb/debian/libunistring2@0.9.10-1?distro=debian-10.13",
      "type" : "library",
      "bom-ref" : "b1398f50-268d-4d30-92b4-0d3b96de27e3"
    },
    {
      "name" : "libuuid1",
      "version" : "2.33.1-0.1",
      "purl" : "pkg:deb/debian/libuuid1@2.33.1-0.1?distro=debian-10.13",
      "type" : "library",
      "bom-ref" : "f8dbc53e-dd8b-4e16-8f73-1db0e136aeab"
    },
    {
      "name" : "libzstd1",
      "version" : "1.3.8+dfsg-3+deb10u2",
      "purl" : "pkg:deb/debian/libzstd1@1.3.8%20dfsg-3%20deb10u2?distro=debian-10.13",
      "type" : "library",
      "bom-ref" : "70cd8036-4706-41a9-a6d5-ffafd20d0302"
    },
    {
      "name" : "login",
      "version" : "1:4.5-1.1",
      "purl" : "pkg:deb/debian/login@1%3A4.5-1.1?distro=debian-10.13",
      "type" : "library",
      "bom-ref" : "f3ada0cd-2049-4b5f-93d3-9ad58cbabd0f"
    },
    {
      "name" : "lsb-base",
      "version" : "10.2019051400",
      "purl" : "pkg:deb/debian/lsb-base@10.2019051400?distro=debian-10.13",
      "type" : "library",
      "bom-ref" : "9656b940-8fcb-446f-baa5-0c385976130f"
    },
    {
      "name" : "mawk",
      "version" : "1.3.3-17+b3",
      "purl" : "pkg:deb/debian/mawk@1.3.3-17%20b3?distro=debian-10.13",
      "type" : "library",
      "bom-ref" : "968e3465-552b-4102-beb1-a42877a7f043"
    },
    {
      "name" : "mount",
      "version" : "2.33.1-0.1",
      "purl" : "pkg:deb/debian/mount@2.33.1-0.1?distro=debian-10.13",
      "type" : "library",
      "bom-ref" : "3b6f40c8-b0f5-4455-8826-904c91652ec9"
    },
    {
      "name" : "mysql-client",
      "version" : "5.7.41-1debian10",
      "purl" : "pkg:deb/debian/mysql-client@5.7.41-1debian10?distro=debian-10.13",
      "type" : "library",
      "bom-ref" : "53cbbef8-763b-429c-8a09-7a3b208e521c"
    },
    {
      "name" : "mysql-common",
      "version" : "5.8+1.0.5",
      "purl" : "pkg:deb/debian/mysql-common@5.8%201.0.5?distro=debian-10.13",
      "type" : "library",
      "bom-ref" : "805ecefb-f0c1-4338-9512-86fe6d36d4da"
    },
    {
      "name" : "mysql-community-client",
      "version" : "5.7.41-1debian10",
      "purl" : "pkg:deb/debian/mysql-community-client@5.7.41-1debian10?distro=debian-10.13",
      "type" : "library",
      "bom-ref" : "05b4463f-8390-4887-878e-78f11739494c"
    },
    {
      "name" : "mysql-community-server",
      "version" : "5.7.41-1debian10",
      "purl" : "pkg:deb/debian/mysql-community-server@5.7.41-1debian10?distro=debian-10.13",
      "type" : "library",
      "bom-ref" : "7c34176a-3168-4125-9562-9ca85f06bfbd"
    },
    {
      "name" : "mysql-server",
      "version" : "5.7.41-1debian10",
      "purl" : "pkg:deb/debian/mysql-server@5.7.41-1debian10?distro=debian-10.13",
      "type" : "library",
      "bom-ref" : "8dd83171-bd33-42ca-8b36-cb45de92bde7"
    },
    {
      "name" : "ncurses-base",
      "version" : "6.1+20181013-2+deb10u3",
      "purl" : "pkg:deb/debian/ncurses-base@6.1%2020181013-2%20deb10u3?distro=debian-10.13",
      "type" : "library",
      "bom-ref" : "a2f782c8-5ec7-4f13-bc8d-44f8bb580bba"
    },
    {
      "name" : "ncurses-bin",
      "version" : "6.1+20181013-2+deb10u3",
      "purl" : "pkg:deb/debian/ncurses-bin@6.1%2020181013-2%20deb10u3?distro=debian-10.13",
      "type" : "library",
      "bom-ref" : "29f7d801-80f7-4054-9d17-44c2b5452db3"
    },
    {
      "name" : "openssl",
      "version" : "1.1.1n-0+deb10u4",
      "purl" : "pkg:deb/debian/openssl@1.1.1n-0%20deb10u4?distro=debian-10.13",
      "type" : "library",
      "bom-ref" : "da5320ea-8680-4180-903e-538c8d22783b"
    },
    {
      "name" : "passwd",
      "version" : "1:4.5-1.1",
      "purl" : "pkg:deb/debian/passwd@1%3A4.5-1.1?distro=debian-10.13",
      "type" : "library",
      "bom-ref" : "4c10bcd1-8e34-40ec-96da-d9899f71355b"
    },
    {
      "name" : "perl",
      "version" : "5.28.1-6+deb10u1",
      "purl" : "pkg:deb/debian/perl@5.28.1-6%20deb10u1?distro=debian-10.13",
      "type" : "library",
      "bom-ref" : "aa67f801-6307-4c4a-abeb-b285a8403080"
    },
    {
      "name" : "perl-base",
      "version" : "5.28.1-6+deb10u1",
      "purl" : "pkg:deb/debian/perl-base@5.28.1-6%20deb10u1?distro=debian-10.13",
      "type" : "library",
      "bom-ref" : "4d1d43ea-498a-4781-83b7-88b7dd71759e"
    },
    {
      "name" : "perl-modules-5.28",
      "version" : "5.28.1-6+deb10u1",
      "purl" : "pkg:deb/debian/perl-modules-5.28@5.28.1-6%20deb10u1?distro=debian-10.13",
      "type" : "library",
      "bom-ref" : "58971c1c-0d83-449b-8d38-7af0e27913fc"
    },
    {
      "name" : "pinentry-curses",
      "version" : "1.1.0-2",
      "purl" : "pkg:deb/debian/pinentry-curses@1.1.0-2?distro=debian-10.13",
      "type" : "library",
      "bom-ref" : "920f3aa1-400c-4807-932b-278f03dc9351"
    },
    {
      "name" : "psmisc",
      "version" : "23.2-1+deb10u1",
      "purl" : "pkg:deb/debian/psmisc@23.2-1%20deb10u1?distro=debian-10.13",
      "type" : "library",
      "bom-ref" : "bc78dc54-add8-42f6-a762-64bd57a6cede"
    },
    {
      "name" : "readline-common",
      "version" : "7.0-5",
      "purl" : "pkg:deb/debian/readline-common@7.0-5?distro=debian-10.13",
      "type" : "library",
      "bom-ref" : "98afb23a-fb92-4a4a-89cd-b22580d32cab"
    },
    {
      "name" : "sed",
      "version" : "4.7-1",
      "purl" : "pkg:deb/debian/sed@4.7-1?distro=debian-10.13",
      "type" : "library",
      "bom-ref" : "ad844bbf-46f9-4cc4-b47e-e14ba4221b00"
    },
    {
      "name" : "sysvinit-utils",
      "version" : "2.93-8",
      "purl" : "pkg:deb/debian/sysvinit-utils@2.93-8?distro=debian-10.13",
      "type" : "library",
      "bom-ref" : "6aae474a-75e1-4249-b210-112c67073c60"
    },
    {
      "name" : "tar",
      "version" : "1.30+dfsg-6",
      "purl" : "pkg:deb/debian/tar@1.30%20dfsg-6?distro=debian-10.13",
      "type" : "library",
      "bom-ref" : "79795bd5-2ff2-40a7-ba4a-b5ac299dc04c"
    },
    {
      "name" : "tzdata",
      "version" : "2021a-0+deb10u8",
      "purl" : "pkg:deb/debian/tzdata@2021a-0%20deb10u8?distro=debian-10.13",
      "type" : "library",
      "bom-ref" : "ff812528-f619-4483-a15d-df5ae889387e"
    },
    {
      "name" : "usr/local/bin/gosu",
      "type" : "application",
      "bom-ref" : "bba07cfb-1e8a-4ab1-8e71-aad57ffbfb7f"
    },
    {
      "name" : "util-linux",
      "version" : "2.33.1-0.1",
      "purl" : "pkg:deb/debian/util-linux@2.33.1-0.1?distro=debian-10.13",
      "type" : "library",
      "bom-ref" : "ac6bcc11-5859-4e62-a1b6-d6fc8e6260a3"
    },
    {
      "name" : "xz-utils",
      "version" : "5.2.4-1+deb10u1",
      "purl" : "pkg:deb/debian/xz-utils@5.2.4-1%20deb10u1?distro=debian-10.13",
      "type" : "library",
      "bom-ref" : "d6735dfe-c577-47bf-80ab-5f87ac3edd3a"
    },
    {
      "name" : "zlib1g",
      "version" : "1:1.2.11.dfsg-1+deb10u2",
      "purl" : "pkg:deb/debian/zlib1g@1%3A1.2.11.dfsg-1%20deb10u2?distro=debian-10.13",
      "type" : "library",
      "bom-ref" : "58a728bc-5974-4614-b3fd-f6adb668397e"
    },
    {
      "name" : "zstd",
      "version" : "1.3.8+dfsg-3+deb10u2",
      "purl" : "pkg:deb/debian/zstd@1.3.8%20dfsg-3%20deb10u2?distro=debian-10.13",
      "type" : "library",
      "bom-ref" : "db349294-d688-4cdc-814b-483fbb15dafc"
    }
  ],
  "dependencies" : [
    {
      "ref" : "99d5d86c-c5b6-41a3-9988-b6142daa7545",
      "dependsOn" : [
        "150cba51-5585-4d57-9654-ef66766d9ac8",
        "bba07cfb-1e8a-4ab1-8e71-aad57ffbfb7f"
      ]
    },
    {
      "ref" : "7f6e03ad-08ce-4573-851b-c03bf7f805c1",
      "dependsOn" : [ ]
    },
    {
      "ref" : "decc633a-0cc5-43ff-b339-e7f439ca76cc",
      "dependsOn" : [ ]
    },
    {
      "ref" : "8cae4577-4c0a-4dea-84ba-9b2357884c07",
      "dependsOn" : [ ]
    },
    {
      "ref" : "6897c7d9-e52d-4cc5-bd75-196f65d126bd",
      "dependsOn" : [ ]
    },
    {
      "ref" : "29926175-c5a5-4a5f-8b0b-5fa7a1c9445a",
      "dependsOn" : [ ]
    },
    {
      "ref" : "2f0f174b-90e3-4cb4-9398-2023117ac4ce",
      "dependsOn" : [ ]
    },
    {
      "ref" : "10e53bbf-4826-4843-aa83-e8a06f1b8d6d",
      "dependsOn" : [ ]
    },
    {
      "ref" : "35386e2f-66a1-4dcb-9a22-e9e9e3a22c51",
      "dependsOn" : [ ]
    },
    {
      "ref" : "07a8c9bb-5b9c-410d-879a-1e728c1dde4c",
      "dependsOn" : [ ]
    },
    {
      "ref" : "6397a9ed-8894-47d2-8bc8-f7c65d238124",
      "dependsOn" : [ ]
    },
    {
      "ref" : "150cba51-5585-4d57-9654-ef66766d9ac8",
      "dependsOn" : [
        "7f6e03ad-08ce-4573-851b-c03bf7f805c1",
        "decc633a-0cc5-43ff-b339-e7f439ca76cc",
        "8cae4577-4c0a-4dea-84ba-9b2357884c07",
        "6897c7d9-e52d-4cc5-bd75-196f65d126bd",
        "29926175-c5a5-4a5f-8b0b-5fa7a1c9445a",
        "2f0f174b-90e3-4cb4-9398-2023117ac4ce",
        "10e53bbf-4826-4843-aa83-e8a06f1b8d6d",
        "35386e2f-66a1-4dcb-9a22-e9e9e3a22c51",
        "07a8c9bb-5b9c-410d-879a-1e728c1dde4c",
        "6397a9ed-8894-47d2-8bc8-f7c65d238124",
        "244d13aa-7acf-4b95-8e60-ec648691c939",
        "f31ab019-2310-4de6-98bd-31766c3b1bc7",
        "241ee439-9a18-40c4-a93b-74177d03fbfe",
        "12809f99-aebd-4725-b3cf-971d6a774703",
        "822b6c30-170a-437e-9d38-0d0b44d0f4d0",
        "097e04df-b956-4acd-ba60-5026f91f2e8e",
        "9defda2b-0325-4e3d-8649-fa161968196a",
        "86cbb64c-5457-4f20-9250-58b6beb1c02f",
        "31fcf04e-bd3d-4a1e-b031-a7a871d2a85f",
        "6cf935b6-3103-4d89-a85c-39ee73c41185",
        "f2f2b657-99fa-4f47-9e63-98f185323292",
        "f1d06f93-169d-4283-b9ae-e10fdb9f0ec3",
        "9d74a112-a878-46b2-9746-bc23bf84857e",
        "439ec1ee-8538-4e02-85fe-9b579ced2282",
        "cb28edc0-af93-4f16-bbbe-be937c558521",
        "09d0d7ea-84c3-439b-91ae-0fcf9850f2e7",
        "77ce739c-cf8b-4758-91d2-1b8ea6b21477",
        "b77afd3f-4bb1-482d-ba7e-33160444b149",
        "c9be38ad-e755-4370-b143-9518d53a5009",
        "85d82136-92bb-41bf-8ff3-431ebfa1119b",
        "46629716-624d-4c10-bc2f-4a521c383d87",
        "6d5c8684-302a-4fd2-b0eb-e8b6b60d41a0",
        "04a40e10-ad33-4f84-8151-86f8cb4c7e25",
        "f9348162-9d54-4e0f-9c23-6e89ed13f0ce",
        "c1876f3b-5fe9-40d4-81fc-27cdbda794f8",
        "17c465aa-4eef-4754-941f-de9b7f8c3ed9",
        "a8345357-9add-4a44-958e-c538335c3c4e",
        "df2e408b-8e57-452a-881e-9e33a79f4acc",
        "8eddd282-3410-4ac9-a2cf-14df0a4d62ff",
        "a432821c-4b6d-4c3c-be1c-46892b4a02ab",
        "35c0b612-870d-4e16-aa83-c1415a5ac923",
        "3e1dd7ab-b1f3-4678-90b7-e9229d8a8688",
        "9c07b9ba-0b37-48cf-b9cb-0f46bc9e70e6",
        "6947fd3a-dc6d-4c5d-81db-618560a3025c",
        "de3d1143-0efb-48c7-9e3c-9ce95697f3c1",
        "7f79c5a3-5905-4117-8f5d-ae3b419e57f3",
        "d01415e8-43aa-446b-9114-970b09dcae14",
        "35b56ed1-aff3-411a-8eda-9e7611e30cbb",
        "d6ea6a78-49fe-4f90-9b2f-5f5e19ade284",
        "15ac90a5-4b98-4685-983c-0fca0fa149cb",
        "2b94d293-bfee-42ce-98fc-e136bba562a9",
        "748cc9c0-91b1-4ea4-875d-125cf58d8404",
        "6c5092b2-0b52-4e28-b2c6-f2c630bcba17",
        "1489f256-cc5b-4f80-8d57-fb386c1149d0",
        "1c3413da-7c56-4dc4-9eb8-05e15b4da760",
        "1b6b4097-ca94-4bda-8dd3-e2d14bc8f68a",
        "1998d163-df06-4620-a066-05f01d6680c0",
        "485b4c4b-34f0-4eb6-9e3c-38610319def5",
        "2af2dfb8-ae0f-4c09-89b3-463b219ed1de",
        "71d739d8-85d7-4bca-b5f3-8a404d75e028",
        "10a8c51f-3cb7-4955-b417-b0b825c00485",
        "8ee2c605-504e-4975-b5ad-33cc8834c1f9",
        "a5174383-b247-4cb2-b3c9-3297ebd3d559",
        "1539dce2-8c95-4929-9f51-e5484cbdff39",
        "7c790369-e07f-471c-9dce-ec7a8c8871bd",
        "91261ec4-7a3e-4dd8-a750-42a52d52995c",
        "de4429ed-1168-4d29-9e35-95f652add1ce",
        "afa59fe3-7ee6-4dd8-bf76-36c0c2a42d08",
        "90888cb9-d01a-47e4-8453-66b6e8cc3d30",
        "2339e3cc-0f33-421a-b0cf-6b9ae3de06c7",
        "782bba12-3a61-4892-967a-6faaf9bd16f0",
        "02955f55-76c9-4f8b-9b3f-30009dcbe4b0",
        "9263c3f9-1bc4-4f9f-a51e-d898620b4360",
        "71176b0b-fe7d-4a49-a5f9-69b915a4b521",
        "5082a172-807e-408a-868e-c3a21464f1b5",
        "11d576ed-e844-4827-90a7-23bbbbb59ad9",
        "b8d721b8-95a1-40f8-b1bb-2899b7b80824",
        "7b6ae3a4-5c33-4138-b98b-798eda8398ee",
        "f23e0197-30f6-43ff-9010-4cbb61b568dc",
        "ef99bbd6-cb13-44fc-95b2-c020bf5d8367",
        "9473379d-f171-4efc-97d3-80b11a8583f2",
        "cdd5ef9d-eabf-4294-a6cb-ae3818b2369a",
        "b00a8513-b31e-4edb-a3ed-6643def50cb2",
        "b39706f4-b712-48ef-8b9d-ed990a33a98f",
        "66f4f8e0-23aa-4baa-a9a6-1a0627fc0ff5",
        "9183b0a3-19e1-48c2-ae63-1fe8033e0bd5",
        "a969a66a-1587-4326-ae9a-a5cbde3ff70e",
        "550e7918-7552-4245-8d08-cc49881becfa",
        "0c7a24d5-d29f-4664-99c1-87984e4123bb",
        "8ed9cf30-abbb-4e0f-8fb1-9af900a2cc7e",
        "367506e8-8b32-40e2-a117-dadd4a2d96d4",
        "a346fc8a-0c09-4569-8e3e-93b04b2ddfb1",
        "2b039518-c8ea-41d6-b656-a4c4a2ac5730",
        "1bf54393-d3bf-438d-a531-f7fb36276529",
        "95319d31-e5b6-4af3-b978-be4f98d27f11",
        "4f528a67-7343-49a0-8631-49eac99a0bd8",
        "9d261002-68e8-430a-956b-620e23a0d748",
        "880a9581-8fe8-4277-8a4c-e5a938af7305",
        "b1398f50-268d-4d30-92b4-0d3b96de27e3",
        "f8dbc53e-dd8b-4e16-8f73-1db0e136aeab",
        "70cd8036-4706-41a9-a6d5-ffafd20d0302",
        "f3ada0cd-2049-4b5f-93d3-9ad58cbabd0f",
        "9656b940-8fcb-446f-baa5-0c385976130f",
        "968e3465-552b-4102-beb1-a42877a7f043",
        "3b6f40c8-b0f5-4455-8826-904c91652ec9",
        "53cbbef8-763b-429c-8a09-7a3b208e521c",
        "805ecefb-f0c1-4338-9512-86fe6d36d4da",
        "05b4463f-8390-4887-878e-78f11739494c",
        "7c34176a-3168-4125-9562-9ca85f06bfbd",
        "8dd83171-bd33-42ca-8b36-cb45de92bde7",
        "a2f782c8-5ec7-4f13-bc8d-44f8bb580bba",
        "29f7d801-80f7-4054-9d17-44c2b5452db3",
        "da5320ea-8680-4180-903e-538c8d22783b",
        "4c10bcd1-8e34-40ec-96da-d9899f71355b",
        "aa67f801-6307-4c4a-abeb-b285a8403080",
        "4d1d43ea-498a-4781-83b7-88b7dd71759e",
        "58971c1c-0d83-449b-8d38-7af0e27913fc",
        "920f3aa1-400c-4807-932b-278f03dc9351",
        "bc78dc54-add8-42f6-a762-64bd57a6cede",
        "98afb23a-fb92-4a4a-89cd-b22580d32cab",
        "ad844bbf-46f9-4cc4-b47e-e14ba4221b00",
        "6aae474a-75e1-4249-b210-112c67073c60",
        "79795bd5-2ff2-40a7-ba4a-b5ac299dc04c",
        "ff812528-f619-4483-a15d-df5ae889387e",
        "ac6bcc11-5859-4e62-a1b6-d6fc8e6260a3",
        "d6735dfe-c577-47bf-80ab-5f87ac3edd3a",
        "58a728bc-5974-4614-b3fd-f6adb668397e",
        "db349294-d688-4cdc-814b-483fbb15dafc"
      ]
    },
    {
      "ref" : "244d13aa-7acf-4b95-8e60-ec648691c939",
      "dependsOn" : [ ]
    },
    {
      "ref" : "f31ab019-2310-4de6-98bd-31766c3b1bc7",
      "dependsOn" : [ ]
    },
    {
      "ref" : "241ee439-9a18-40c4-a93b-74177d03fbfe",
      "dependsOn" : [ ]
    },
    {
      "ref" : "12809f99-aebd-4725-b3cf-971d6a774703",
      "dependsOn" : [ ]
    },
    {
      "ref" : "822b6c30-170a-437e-9d38-0d0b44d0f4d0",
      "dependsOn" : [ ]
    },
    {
      "ref" : "097e04df-b956-4acd-ba60-5026f91f2e8e",
      "dependsOn" : [ ]
    },
    {
      "ref" : "9defda2b-0325-4e3d-8649-fa161968196a",
      "dependsOn" : [ ]
    },
    {
      "ref" : "86cbb64c-5457-4f20-9250-58b6beb1c02f",
      "dependsOn" : [ ]
    },
    {
      "ref" : "31fcf04e-bd3d-4a1e-b031-a7a871d2a85f",
      "dependsOn" : [ ]
    },
    {
      "ref" : "04154316-5041-4a93-8bfd-d3c4f6973bd9",
      "dependsOn" : [ ]
    },
    {
      "ref" : "6cf935b6-3103-4d89-a85c-39ee73c41185",
      "dependsOn" : [ ]
    },
    {
      "ref" : "f2f2b657-99fa-4f47-9e63-98f185323292",
      "dependsOn" : [ ]
    },
    {
      "ref" : "f1d06f93-169d-4283-b9ae-e10fdb9f0ec3",
      "dependsOn" : [ ]
    },
    {
      "ref" : "0b99e935-74ec-4732-8406-885254bd366f",
      "dependsOn" : [ ]
    },
    {
      "ref" : "9d74a112-a878-46b2-9746-bc23bf84857e",
      "dependsOn" : [ ]
    },
    {
      "ref" : "439ec1ee-8538-4e02-85fe-9b579ced2282",
      "dependsOn" : [ ]
    },
    {
      "ref" : "cb28edc0-af93-4f16-bbbe-be937c558521",
      "dependsOn" : [ ]
    },
    {
      "ref" : "09d0d7ea-84c3-439b-91ae-0fcf9850f2e7",
      "dependsOn" : [ ]
    },
    {
      "ref" : "77ce739c-cf8b-4758-91d2-1b8ea6b21477",
      "dependsOn" : [ ]
    },
    {
      "ref" : "b77afd3f-4bb1-482d-ba7e-33160444b149",
      "dependsOn" : [ ]
    },
    {
      "ref" : "c9be38ad-e755-4370-b143-9518d53a5009",
      "dependsOn" : [ ]
    },
    {
      "ref" : "85d82136-92bb-41bf-8ff3-431ebfa1119b",
      "dependsOn" : [ ]
    },
    {
      "ref" : "46629716-624d-4c10-bc2f-4a521c383d87",
      "dependsOn" : [ ]
    },
    {
      "ref" : "6d5c8684-302a-4fd2-b0eb-e8b6b60d41a0",
      "dependsOn" : [ ]
    },
    {
      "ref" : "04a40e10-ad33-4f84-8151-86f8cb4c7e25",
      "dependsOn" : [ ]
    },
    {
      "ref" : "f9348162-9d54-4e0f-9c23-6e89ed13f0ce",
      "dependsOn" : [ ]
    },
    {
      "ref" : "c1876f3b-5fe9-40d4-81fc-27cdbda794f8",
      "dependsOn" : [ ]
    },
    {
      "ref" : "17c465aa-4eef-4754-941f-de9b7f8c3ed9",
      "dependsOn" : [ ]
    },
    {
      "ref" : "a8345357-9add-4a44-958e-c538335c3c4e",
      "dependsOn" : [ ]
    },
    {
      "ref" : "df2e408b-8e57-452a-881e-9e33a79f4acc",
      "dependsOn" : [ ]
    },
    {
      "ref" : "8eddd282-3410-4ac9-a2cf-14df0a4d62ff",
      "dependsOn" : [ ]
    },
    {
      "ref" : "a432821c-4b6d-4c3c-be1c-46892b4a02ab",
      "dependsOn" : [ ]
    },
    {
      "ref" : "35c0b612-870d-4e16-aa83-c1415a5ac923",
      "dependsOn" : [ ]
    },
    {
      "ref" : "3e1dd7ab-b1f3-4678-90b7-e9229d8a8688",
      "dependsOn" : [ ]
    },
    {
      "ref" : "9c07b9ba-0b37-48cf-b9cb-0f46bc9e70e6",
      "dependsOn" : [ ]
    },
    {
      "ref" : "6947fd3a-dc6d-4c5d-81db-618560a3025c",
      "dependsOn" : [ ]
    },
    {
      "ref" : "de3d1143-0efb-48c7-9e3c-9ce95697f3c1",
      "dependsOn" : [ ]
    },
    {
      "ref" : "7f79c5a3-5905-4117-8f5d-ae3b419e57f3",
      "dependsOn" : [ ]
    },
    {
      "ref" : "d01415e8-43aa-446b-9114-970b09dcae14",
      "dependsOn" : [ ]
    },
    {
      "ref" : "35b56ed1-aff3-411a-8eda-9e7611e30cbb",
      "dependsOn" : [ ]
    },
    {
      "ref" : "d6ea6a78-49fe-4f90-9b2f-5f5e19ade284",
      "dependsOn" : [ ]
    },
    {
      "ref" : "15ac90a5-4b98-4685-983c-0fca0fa149cb",
      "dependsOn" : [ ]
    },
    {
      "ref" : "2b94d293-bfee-42ce-98fc-e136bba562a9",
      "dependsOn" : [ ]
    },
    {
      "ref" : "748cc9c0-91b1-4ea4-875d-125cf58d8404",
      "dependsOn" : [ ]
    },
    {
      "ref" : "6c5092b2-0b52-4e28-b2c6-f2c630bcba17",
      "dependsOn" : [ ]
    },
    {
      "ref" : "1489f256-cc5b-4f80-8d57-fb386c1149d0",
      "dependsOn" : [ ]
    },
    {
      "ref" : "1c3413da-7c56-4dc4-9eb8-05e15b4da760",
      "dependsOn" : [ ]
    },
    {
      "ref" : "1b6b4097-ca94-4bda-8dd3-e2d14bc8f68a",
      "dependsOn" : [ ]
    },
    {
      "ref" : "1998d163-df06-4620-a066-05f01d6680c0",
      "dependsOn" : [ ]
    },
    {
      "ref" : "485b4c4b-34f0-4eb6-9e3c-38610319def5",
      "dependsOn" : [ ]
    },
    {
      "ref" : "2af2dfb8-ae0f-4c09-89b3-463b219ed1de",
      "dependsOn" : [ ]
    },
    {
      "ref" : "71d739d8-85d7-4bca-b5f3-8a404d75e028",
      "dependsOn" : [ ]
    },
    {
      "ref" : "10a8c51f-3cb7-4955-b417-b0b825c00485",
      "dependsOn" : [ ]
    },
    {
      "ref" : "8ee2c605-504e-4975-b5ad-33cc8834c1f9",
      "dependsOn" : [ ]
    },
    {
      "ref" : "a5174383-b247-4cb2-b3c9-3297ebd3d559",
      "dependsOn" : [ ]
    },
    {
      "ref" : "1539dce2-8c95-4929-9f51-e5484cbdff39",
      "dependsOn" : [ ]
    },
    {
      "ref" : "7c790369-e07f-471c-9dce-ec7a8c8871bd",
      "dependsOn" : [ ]
    },
    {
      "ref" : "91261ec4-7a3e-4dd8-a750-42a52d52995c",
      "dependsOn" : [ ]
    },
    {
      "ref" : "de4429ed-1168-4d29-9e35-95f652add1ce",
      "dependsOn" : [ ]
    },
    {
      "ref" : "afa59fe3-7ee6-4dd8-bf76-36c0c2a42d08",
      "dependsOn" : [ ]
    },
    {
      "ref" : "90888cb9-d01a-47e4-8453-66b6e8cc3d30",
      "dependsOn" : [ ]
    },
    {
      "ref" : "2339e3cc-0f33-421a-b0cf-6b9ae3de06c7",
      "dependsOn" : [ ]
    },
    {
      "ref" : "782bba12-3a61-4892-967a-6faaf9bd16f0",
      "dependsOn" : [ ]
    },
    {
      "ref" : "02955f55-76c9-4f8b-9b3f-30009dcbe4b0",
      "dependsOn" : [ ]
    },
    {
      "ref" : "9263c3f9-1bc4-4f9f-a51e-d898620b4360",
      "dependsOn" : [ ]
    },
    {
      "ref" : "71176b0b-fe7d-4a49-a5f9-69b915a4b521",
      "dependsOn" : [ ]
    },
    {
      "ref" : "5082a172-807e-408a-868e-c3a21464f1b5",
      "dependsOn" : [ ]
    },
    {
      "ref" : "11d576ed-e844-4827-90a7-23bbbbb59ad9",
      "dependsOn" : [ ]
    },
    {
      "ref" : "b8d721b8-95a1-40f8-b1bb-2899b7b80824",
      "dependsOn" : [ ]
    },
    {
      "ref" : "7b6ae3a4-5c33-4138-b98b-798eda8398ee",
      "dependsOn" : [ ]
    },
    {
      "ref" : "f23e0197-30f6-43ff-9010-4cbb61b568dc",
      "dependsOn" : [ ]
    },
    {
      "ref" : "ef99bbd6-cb13-44fc-95b2-c020bf5d8367",
      "dependsOn" : [ ]
    },
    {
      "ref" : "9473379d-f171-4efc-97d3-80b11a8583f2",
      "dependsOn" : [ ]
    },
    {
      "ref" : "cdd5ef9d-eabf-4294-a6cb-ae3818b2369a",
      "dependsOn" : [ ]
    },
    {
      "ref" : "b00a8513-b31e-4edb-a3ed-6643def50cb2",
      "dependsOn" : [ ]
    },
    {
      "ref" : "b39706f4-b712-48ef-8b9d-ed990a33a98f",
      "dependsOn" : [ ]
    },
    {
      "ref" : "66f4f8e0-23aa-4baa-a9a6-1a0627fc0ff5",
      "dependsOn" : [ ]
    },
    {
      "ref" : "9183b0a3-19e1-48c2-ae63-1fe8033e0bd5",
      "dependsOn" : [ ]
    },
    {
      "ref" : "a969a66a-1587-4326-ae9a-a5cbde3ff70e",
      "dependsOn" : [ ]
    },
    {
      "ref" : "550e7918-7552-4245-8d08-cc49881becfa",
      "dependsOn" : [ ]
    },
    {
      "ref" : "0c7a24d5-d29f-4664-99c1-87984e4123bb",
      "dependsOn" : [ ]
    },
    {
      "ref" : "8ed9cf30-abbb-4e0f-8fb1-9af900a2cc7e",
      "dependsOn" : [ ]
    },
    {
      "ref" : "367506e8-8b32-40e2-a117-dadd4a2d96d4",
      "dependsOn" : [ ]
    },
    {
      "ref" : "a346fc8a-0c09-4569-8e3e-93b04b2ddfb1",
      "dependsOn" : [ ]
    },
    {
      "ref" : "2b039518-c8ea-41d6-b656-a4c4a2ac5730",
      "dependsOn" : [ ]
    },
    {
      "ref" : "1bf54393-d3bf-438d-a531-f7fb36276529",
      "dependsOn" : [ ]
    },
    {
      "ref" : "95319d31-e5b6-4af3-b978-be4f98d27f11",
      "dependsOn" : [ ]
    },
    {
      "ref" : "4f528a67-7343-49a0-8631-49eac99a0bd8",
      "dependsOn" : [ ]
    },
    {
      "ref" : "9d261002-68e8-430a-956b-620e23a0d748",
      "dependsOn" : [ ]
    },
    {
      "ref" : "880a9581-8fe8-4277-8a4c-e5a938af7305",
      "dependsOn" : [ ]
    },
    {
      "ref" : "b1398f50-268d-4d30-92b4-0d3b96de27e3",
      "dependsOn" : [ ]
    },
    {
      "ref" : "f8dbc53e-dd8b-4e16-8f73-1db0e136aeab",
      "dependsOn" : [ ]
    },
    {
      "ref" : "70cd8036-4706-41a9-a6d5-ffafd20d0302",
      "dependsOn" : [ ]
    },
    {
      "ref" : "f3ada0cd-2049-4b5f-93d3-9ad58cbabd0f",
      "dependsOn" : [ ]
    },
    {
      "ref" : "9656b940-8fcb-446f-baa5-0c385976130f",
      "dependsOn" : [ ]
    },
    {
      "ref" : "968e3465-552b-4102-beb1-a42877a7f043",
      "dependsOn" : [ ]
    },
    {
      "ref" : "3b6f40c8-b0f5-4455-8826-904c91652ec9",
      "dependsOn" : [ ]
    },
    {
      "ref" : "53cbbef8-763b-429c-8a09-7a3b208e521c",
      "dependsOn" : [ ]
    },
    {
      "ref" : "805ecefb-f0c1-4338-9512-86fe6d36d4da",
      "dependsOn" : [ ]
    },
    {
      "ref" : "05b4463f-8390-4887-878e-78f11739494c",
      "dependsOn" : [ ]
    },
    {
      "ref" : "7c34176a-3168-4125-9562-9ca85f06bfbd",
      "dependsOn" : [ ]
    },
    {
      "ref" : "8dd83171-bd33-42ca-8b36-cb45de92bde7",
      "dependsOn" : [ ]
    },
    {
      "ref" : "a2f782c8-5ec7-4f13-bc8d-44f8bb580bba",
      "dependsOn" : [ ]
    },
    {
      "ref" : "29f7d801-80f7-4054-9d17-44c2b5452db3",
      "dependsOn" : [ ]
    },
    {
      "ref" : "da5320ea-8680-4180-903e-538c8d22783b",
      "dependsOn" : [ ]
    },
    {
      "ref" : "4c10bcd1-8e34-40ec-96da-d9899f71355b",
      "dependsOn" : [ ]
    },
    {
      "ref" : "aa67f801-6307-4c4a-abeb-b285a8403080",
      "dependsOn" : [ ]
    },
    {
      "ref" : "4d1d43ea-498a-4781-83b7-88b7dd71759e",
      "dependsOn" : [ ]
    },
    {
      "ref" : "58971c1c-0d83-449b-8d38-7af0e27913fc",
      "dependsOn" : [ ]
    },
    {
      "ref" : "920f3aa1-400c-4807-932b-278f03dc9351",
      "dependsOn" : [ ]
    },
    {
      "ref" : "bc78dc54-add8-42f6-a762-64bd57a6cede",
      "dependsOn" : [ ]
    },
    {
      "ref" : "98afb23a-fb92-4a4a-89cd-b22580d32cab",
      "dependsOn" : [ ]
    },
    {
      "ref" : "ad844bbf-46f9-4cc4-b47e-e14ba4221b00",
      "dependsOn" : [ ]
    },
    {
      "ref" : "6aae474a-75e1-4249-b210-112c67073c60",
      "dependsOn" : [ ]
    },
    {
      "ref" : "79795bd5-2ff2-40a7-ba4a-b5ac299dc04c",
      "dependsOn" : [ ]
    },
    {
      "ref" : "ff812528-f619-4483-a15d-df5ae889387e",
      "dependsOn" : [ ]
    },
    {
      "ref" : "bba07cfb-1e8a-4ab1-8e71-aad57ffbfb7f",
      "dependsOn" : [
        "04154316-5041-4a93-8bfd-d3c4f6973bd9",
        "0b99e935-74ec-4732-8406-885254bd366f"
      ]
    },
    {
      "ref" : "ac6bcc11-5859-4e62-a1b6-d6fc8e6260a3",
      "dependsOn" : [ ]
    },
    {
      "ref" : "d6735dfe-c577-47bf-80ab-5f87ac3edd3a",
      "dependsOn" : [ ]
    },
    {
      "ref" : "58a728bc-5974-4614-b3fd-f6adb668397e",
      "dependsOn" : [ ]
    },
    {
      "ref" : "db349294-d688-4cdc-814b-483fbb15dafc",
      "dependsOn" : [ ]
    }
  ],
  "vulnerabilities" : [
    {
      "bom-ref" : "40eb5606-fd60-4ca3-b812-4c4cb8842ade",
      "id" : "CVE-2022-29162",
      "source" : {
        "name" : "NVD",
        "url" : "https://nvd.nist.gov/"
      },
      "ratings" : [
        {
          "source" : {
            "name" : "NVD",
            "url" : "https://nvd.nist.gov/"
          },
          "score" : 4.6,
          "severity" : "medium",
          "method" : "CVSSv2",
          "vector" : "(AV:L/AC:L/Au:N/C:P/I:P/A:P)"
        },
        {
          "source" : {
            "name" : "NVD",
            "url" : "https://nvd.nist.gov/"
          },
          "score" : 7.8,
          "severity" : "high",
          "method" : "CVSSv3",
          "vector" : "CVSS:3.0/AV:L/AC:L/PR:L/UI:N/S:U/C:H/I:H/A:H"
        }
      ],
      "cwes" : [
        276
      ],
      "description" : "runc is a CLI tool for spawning and running containers on Linux according to the OCI specification. A bug was found in runc prior to version 1.1.2 where `runc exec --cap` created processes with non-empty inheritable Linux process capabilities, creating an atypical Linux environment and enabling programs with inheritable file capabilities to elevate those capabilities to the permitted set during execve(2). This bug did not affect the container security sandbox as the inheritable set never contained more capabilities than were included in the container's bounding set. This bug has been fixed in runc 1.1.2. This fix changes `runc exec --cap` behavior such that the additional capabilities granted to the process being executed (as specified via `--cap` arguments) do not include inheritable capabilities. In addition, `runc spec` is changed to not set any inheritable capabilities in the created example OCI spec (`config.json`) file.",
      "published" : "2022-05-17T21:15:00Z",
      "updated" : "2023-03-27T18:15:00Z",
      "affects" : [
        {
          "ref" : "04154316-5041-4a93-8bfd-d3c4f6973bd9"
        }
      ]
    },
    {
      "bom-ref" : "f317791d-f881-4df2-a2c5-492b40c7a15a",
      "id" : "CVE-2023-25809",
      "source" : {
        "name" : "NVD",
        "url" : "https://nvd.nist.gov/"
      },
      "ratings" : [
        {
          "source" : {
            "name" : "NVD",
            "url" : "https://nvd.nist.gov/"
          },
          "score" : 6.3,
          "severity" : "medium",
          "method" : "CVSSv3",
          "vector" : "CVSS:3.0/AV:L/AC:L/PR:L/UI:N/S:C/C:L/I:L/A:L"
        }
      ],
      "cwes" : [
        281
      ],
      "description" : "runc is a CLI tool for spawning and running containers according to the OCI specification. In affected versions it was found that rootless runc makes `/sys/fs/cgroup` writable in following conditons: 1. when runc is executed inside the user namespace, and the `config.json` does not specify the cgroup namespace to be unshared (e.g.., `(docker|podman|nerdctl) run --cgroupns=host`, with Rootless Docker/Podman/nerdctl) or 2. when runc is executed outside the user namespace, and `/sys` is mounted with `rbind, ro` (e.g., `runc spec --rootless`; this condition is very rare). A container may gain the write access to user-owned cgroup hierarchy `/sys/fs/cgroup/user.slice/...` on the host . Other users's cgroup hierarchies are not affected. Users are advised to upgrade to version 1.1.5. Users unable to upgrade may unshare the cgroup namespace (`(docker|podman|nerdctl) run --cgroupns=private)`. This is the default behavior of Docker/Podman/nerdctl on cgroup v2 hosts. or add `/sys/fs/cgroup` to `maskedPaths`.",
      "published" : "2023-03-29T19:15:00Z",
      "updated" : "2023-04-06T17:41:00Z",
      "affects" : [
        {
          "ref" : "04154316-5041-4a93-8bfd-d3c4f6973bd9"
        }
      ]
    },
    {
      "bom-ref" : "2edbcc86-cabf-4e02-aa0c-a989bcc93683",
      "id" : "CVE-2023-27561",
      "source" : {
        "name" : "NVD",
        "url" : "https://nvd.nist.gov/"
      },
      "ratings" : [
        {
          "source" : {
            "name" : "NVD",
            "url" : "https://nvd.nist.gov/"
          },
          "score" : 7.0,
          "severity" : "high",
          "method" : "CVSSv3",
          "vector" : "CVSS:3.0/AV:L/AC:H/PR:L/UI:N/S:U/C:H/I:H/A:H"
        }
      ],
      "cwes" : [
        706
      ],
      "description" : "runc through 1.1.4 has Incorrect Access Control leading to Escalation of Privileges, related to libcontainer/rootfs_linux.go. To exploit this, an attacker must be able to spawn two containers with custom volume-mount configurations, and be able to run custom images. NOTE: this issue exists because of a CVE-2019-19921 regression.",
      "published" : "2023-03-03T19:15:00Z",
      "updated" : "2023-04-21T04:15:00Z",
      "affects" : [
        {
          "ref" : "04154316-5041-4a93-8bfd-d3c4f6973bd9"
        }
      ]
    },
    {
      "bom-ref" : "1ecec583-a61a-40de-a47b-cc706338bec9",
      "id" : "CVE-2023-28642",
      "source" : {
        "name" : "NVD",
        "url" : "https://nvd.nist.gov/"
      },
      "ratings" : [
        {
          "source" : {
            "name" : "NVD",
            "url" : "https://nvd.nist.gov/"
          },
          "score" : 7.8,
          "severity" : "high",
          "method" : "CVSSv3",
          "vector" : "CVSS:3.0/AV:L/AC:L/PR:L/UI:N/S:U/C:H/I:H/A:H"
        }
      ],
      "cwes" : [
        59
      ],
      "description" : "runc is a CLI tool for spawning and running containers according to the OCI specification. It was found that AppArmor can be bypassed when `/proc` inside the container is symlinked with a specific mount configuration. This issue has been fixed in runc version 1.1.5, by prohibiting symlinked `/proc`. See PR #3785 for details. users are advised to upgrade. Users unable to upgrade should avoid using an untrusted container image.",
      "published" : "2023-03-29T19:15:00Z",
      "updated" : "2023-04-06T17:45:00Z",
      "affects" : [
        {
          "ref" : "04154316-5041-4a93-8bfd-d3c4f6973bd9"
        }
      ]
    }
  ]
}