{
  "bomFormat" : "CycloneDX",
  "specVersion" : "1.4",
  "serialNumber" : "urn:uuid:5fd40046-2565-42bf-9cdb-50af7e681ecb",
  "version" : 1,
  "metadata" : {
    "timestamp" : "2023-07-03T15:09:24Z",
    "tools" : [
      {
        "vendor" : "OWASP",
        "name" : "Dependency-Track",
        "version" : "4.8.2"
      }
    ],
    "component" : {
      "name" : "pypy-3.9-slim-bullseye",
      "version" : "SNAPSHOT",
      "type" : "application",
      "bom-ref" : "2513e48e-b791-442e-a6d7-6097e74dfd6d"
    }
  },
  "components" : [
    {
      "name" : "adduser",
      "version" : "3.118",
      "purl" : "pkg:deb/debian/adduser@3.118?distro=debian-11.6",
      "type" : "library",
      "bom-ref" : "35575943-7107-44ab-b557-be0be709e5bd"
    },
    {
      "name" : "apt",
      "version" : "2.2.4",
      "purl" : "pkg:deb/debian/apt@2.2.4?distro=debian-11.6",
      "type" : "library",
      "bom-ref" : "4e38d249-e1b9-44d7-bdcf-65c86fa1ad28"
    },
    {
      "name" : "base-files",
      "version" : "11.1+deb11u6",
      "purl" : "pkg:deb/debian/base-files@11.1%20deb11u6?distro=debian-11.6",
      "type" : "library",
      "bom-ref" : "7417404e-9841-4243-81a4-edd619df1183"
    },
    {
      "name" : "base-passwd",
      "version" : "3.5.51",
      "purl" : "pkg:deb/debian/base-passwd@3.5.51?distro=debian-11.6",
      "type" : "library",
      "bom-ref" : "f5d6fa2b-98fd-4300-9179-9b455f038c05"
    },
    {
      "name" : "bash",
      "version" : "5.1-2+deb11u1",
      "purl" : "pkg:deb/debian/bash@5.1-2%20deb11u1?distro=debian-11.6",
      "type" : "library",
      "bom-ref" : "73cc7b2f-4139-44fa-b9d3-ab18ef382235"
    },
    {
      "name" : "bsdutils",
      "version" : "1:2.36.1-8+deb11u1",
      "purl" : "pkg:deb/debian/bsdutils@1%3A2.36.1-8%20deb11u1?distro=debian-11.6",
      "type" : "library",
      "bom-ref" : "4320ea9c-7ec0-4830-92a8-5e165cce1e69"
    },
    {
      "name" : "ca-certificates",
      "version" : "20210119",
      "purl" : "pkg:deb/debian/ca-certificates@20210119?distro=debian-11.6",
      "type" : "library",
      "bom-ref" : "a8431636-a406-452c-b675-ba0032dacc8a"
    },
    {
      "name" : "cffi",
      "version" : "1.15.1",
      "purl" : "pkg:pypi/cffi@1.15.1",
      "type" : "library",
      "bom-ref" : "21cf7812-3a3e-4153-b203-2af0bfe44614"
    },
    {
      "name" : "coreutils",
      "version" : "8.32-4+b1",
      "purl" : "pkg:deb/debian/coreutils@8.32-4%20b1?distro=debian-11.6",
      "type" : "library",
      "bom-ref" : "579dae16-8d51-4f36-baca-961815a7925a"
    },
    {
      "name" : "dash",
      "version" : "0.5.11+git20200708+dd9ef66-5",
      "purl" : "pkg:deb/debian/dash@0.5.11%20git20200708%20dd9ef66-5?distro=debian-11.6",
      "type" : "library",
      "bom-ref" : "7fbd21c9-2d5e-40d6-af7b-9a77393ab698"
    },
    {
      "name" : "debconf",
      "version" : "1.5.77",
      "purl" : "pkg:deb/debian/debconf@1.5.77?distro=debian-11.6",
      "type" : "library",
      "bom-ref" : "fb378822-407d-467d-9e6c-5a3da8268456"
    },
    {
      "name" : "debian",
      "version" : "11.6",
      "type" : "operating-system",
      "bom-ref" : "b6a6ab3f-b2ad-4925-bd48-fd14e822888e"
    },
    {
      "name" : "debian-archive-keyring",
      "version" : "2021.1.1",
      "purl" : "pkg:deb/debian/debian-archive-keyring@2021.1.1?distro=debian-11.6",
      "type" : "library",
      "bom-ref" : "e46f49ff-0297-434f-860a-e5e0865b9ab1"
    },
    {
      "name" : "debianutils",
      "version" : "4.11.2",
      "purl" : "pkg:deb/debian/debianutils@4.11.2?distro=debian-11.6",
      "type" : "library",
      "bom-ref" : "2c251686-497e-4dc2-9de5-0bb9e8b5119d"
    },
    {
      "name" : "diffutils",
      "version" : "1:3.7-5",
      "purl" : "pkg:deb/debian/diffutils@1%3A3.7-5?distro=debian-11.6",
      "type" : "library",
      "bom-ref" : "1739e249-4961-494d-b03d-ab161af99b07"
    },
    {
      "name" : "dpkg",
      "version" : "1.20.12",
      "purl" : "pkg:deb/debian/dpkg@1.20.12?distro=debian-11.6",
      "type" : "library",
      "bom-ref" : "a23412b3-f0c7-4342-9272-1508b96f3a7c"
    },
    {
      "name" : "e2fsprogs",
      "version" : "1.46.2-2",
      "purl" : "pkg:deb/debian/e2fsprogs@1.46.2-2?distro=debian-11.6",
      "type" : "library",
      "bom-ref" : "236a6f69-9c1b-4024-8bb3-bf8d86b7b656"
    },
    {
      "name" : "findutils",
      "version" : "4.8.0-1",
      "purl" : "pkg:deb/debian/findutils@4.8.0-1?distro=debian-11.6",
      "type" : "library",
      "bom-ref" : "62670c85-a8ff-4f9c-910b-60d738423681"
    },
    {
      "name" : "gcc-10-base",
      "version" : "10.2.1-6",
      "purl" : "pkg:deb/debian/gcc-10-base@10.2.1-6?distro=debian-11.6",
      "type" : "library",
      "bom-ref" : "84ea0232-8a63-4839-8909-d4923211e867"
    },
    {
      "name" : "gcc-9-base",
      "version" : "9.3.0-22",
      "purl" : "pkg:deb/debian/gcc-9-base@9.3.0-22?distro=debian-11.6",
      "type" : "library",
      "bom-ref" : "b7271f40-c1b4-4712-bfbc-cf656738afc3"
    },
    {
      "name" : "gpgv",
      "version" : "2.2.27-2+deb11u2",
      "purl" : "pkg:deb/debian/gpgv@2.2.27-2%20deb11u2?distro=debian-11.6",
      "type" : "library",
      "bom-ref" : "8431c6c7-7ce4-4b4e-b300-8b0e83f2f2d0"
    },
    {
      "name" : "greenlet",
      "version" : "0.4.13",
      "purl" : "pkg:pypi/greenlet@0.4.13",
      "type" : "library",
      "bom-ref" : "96f18960-67cf-4ef0-9f81-795298abd649"
    },
    {
      "name" : "grep",
      "version" : "3.6-1",
      "purl" : "pkg:deb/debian/grep@3.6-1?distro=debian-11.6",
      "type" : "library",
      "bom-ref" : "dc37e654-2af5-4cac-8853-88702d23b78d"
    },
    {
      "name" : "gzip",
      "version" : "1.10-4+deb11u1",
      "purl" : "pkg:deb/debian/gzip@1.10-4%20deb11u1?distro=debian-11.6",
      "type" : "library",
      "bom-ref" : "938fc0e6-eb3f-4722-8121-c7c6ce271726"
    },
    {
      "name" : "hostname",
      "version" : "3.23",
      "purl" : "pkg:deb/debian/hostname@3.23?distro=debian-11.6",
      "type" : "library",
      "bom-ref" : "4b61894b-747e-4931-85b4-bd9933d1dc0b"
    },
    {
      "name" : "hpy",
      "version" : "0.0.4.dev179+g9b5d200",
      "purl" : "pkg:pypi/hpy@0.0.4.dev179%20g9b5d200",
      "type" : "library",
      "bom-ref" : "f603ff07-5290-445a-9822-2ba92c5b7660"
    },
    {
      "name" : "init-system-helpers",
      "version" : "1.60",
      "purl" : "pkg:deb/debian/init-system-helpers@1.60?distro=debian-11.6",
      "type" : "library",
      "bom-ref" : "76abef98-e8b9-4c17-b235-0aa2d0b1e265"
    },
    {
      "name" : "libacl1",
      "version" : "2.2.53-10",
      "purl" : "pkg:deb/debian/libacl1@2.2.53-10?distro=debian-11.6",
      "type" : "library",
      "bom-ref" : "a16f281f-19f8-4909-b5c7-373f1c07de43"
    },
    {
      "name" : "libapt-pkg6.0",
      "version" : "2.2.4",
      "purl" : "pkg:deb/debian/libapt-pkg6.0@2.2.4?distro=debian-11.6",
      "type" : "library",
      "bom-ref" : "a0beb4d0-8385-46fd-8a73-b516cf88fc6e"
    },
    {
      "name" : "libattr1",
      "version" : "1:2.4.48-6",
      "purl" : "pkg:deb/debian/libattr1@1%3A2.4.48-6?distro=debian-11.6",
      "type" : "library",
      "bom-ref" : "de88c15e-e199-490b-81a0-e83d7b217d17"
    },
    {
      "name" : "libaudit-common",
      "version" : "1:3.0-2",
      "purl" : "pkg:deb/debian/libaudit-common@1%3A3.0-2?distro=debian-11.6",
      "type" : "library",
      "bom-ref" : "f5139afa-b40f-4e5b-8b55-b71534cf941b"
    },
    {
      "name" : "libaudit1",
      "version" : "1:3.0-2",
      "purl" : "pkg:deb/debian/libaudit1@1%3A3.0-2?distro=debian-11.6",
      "type" : "library",
      "bom-ref" : "9068b394-cfdf-4ae4-91d9-6f49a87376aa"
    },
    {
      "name" : "libblkid1",
      "version" : "2.36.1-8+deb11u1",
      "purl" : "pkg:deb/debian/libblkid1@2.36.1-8%20deb11u1?distro=debian-11.6",
      "type" : "library",
      "bom-ref" : "970a0b72-eb73-4bd4-b1ab-57d8e092b76f"
    },
    {
      "name" : "libbz2-1.0",
      "version" : "1.0.8-4",
      "purl" : "pkg:deb/debian/libbz2-1.0@1.0.8-4?distro=debian-11.6",
      "type" : "library",
      "bom-ref" : "c97ce301-b4a1-481e-84c4-3ff05d402dd8"
    },
    {
      "name" : "libc-bin",
      "version" : "2.31-13+deb11u5",
      "purl" : "pkg:deb/debian/libc-bin@2.31-13%20deb11u5?distro=debian-11.6",
      "type" : "library",
      "bom-ref" : "bc8d4387-a658-46b7-bf34-3bfc8e614a02"
    },
    {
      "name" : "libc-dev-bin",
      "version" : "2.31-13+deb11u5",
      "purl" : "pkg:deb/debian/libc-dev-bin@2.31-13%20deb11u5?distro=debian-11.6",
      "type" : "library",
      "bom-ref" : "5bd9928d-effa-40a3-842c-14143f552a5a"
    },
    {
      "name" : "libc6",
      "version" : "2.31-13+deb11u5",
      "purl" : "pkg:deb/debian/libc6@2.31-13%20deb11u5?distro=debian-11.6",
      "type" : "library",
      "bom-ref" : "983c11e9-ca46-4bc7-ad1d-e85978385a60"
    },
    {
      "name" : "libc6-dev",
      "version" : "2.31-13+deb11u5",
      "purl" : "pkg:deb/debian/libc6-dev@2.31-13%20deb11u5?distro=debian-11.6",
      "type" : "library",
      "bom-ref" : "68cfcf6c-6abf-4ac0-ad52-dc1d813e1046"
    },
    {
      "name" : "libcap-ng0",
      "version" : "0.7.9-2.2+b1",
      "purl" : "pkg:deb/debian/libcap-ng0@0.7.9-2.2%20b1?distro=debian-11.6",
      "type" : "library",
      "bom-ref" : "edeb13f3-5127-4e53-acb5-0374c857b1c7"
    },
    {
      "name" : "libcom-err2",
      "version" : "1.46.2-2",
      "purl" : "pkg:deb/debian/libcom-err2@1.46.2-2?distro=debian-11.6",
      "type" : "library",
      "bom-ref" : "a3149e9d-5852-4627-bfe4-5fc24bcbc2eb"
    },
    {
      "name" : "libcrypt-dev",
      "version" : "1:4.4.18-4",
      "purl" : "pkg:deb/debian/libcrypt-dev@1%3A4.4.18-4?distro=debian-11.6",
      "type" : "library",
      "bom-ref" : "299f69f4-f162-4739-81a9-09dd7e508d8e"
    },
    {
      "name" : "libcrypt1",
      "version" : "1:4.4.18-4",
      "purl" : "pkg:deb/debian/libcrypt1@1%3A4.4.18-4?distro=debian-11.6",
      "type" : "library",
      "bom-ref" : "53a26540-0710-4298-903e-218d1dae0b52"
    },
    {
      "name" : "libdb5.3",
      "version" : "5.3.28+dfsg1-0.8",
      "purl" : "pkg:deb/debian/libdb5.3@5.3.28%20dfsg1-0.8?distro=debian-11.6",
      "type" : "library",
      "bom-ref" : "fa5405e4-4cd5-44f3-a0f1-40723ef3da0b"
    },
    {
      "name" : "libdebconfclient0",
      "version" : "0.260",
      "purl" : "pkg:deb/debian/libdebconfclient0@0.260?distro=debian-11.6",
      "type" : "library",
      "bom-ref" : "b75d0ee9-29a6-495d-b1f6-acce25423486"
    },
    {
      "name" : "libext2fs2",
      "version" : "1.46.2-2",
      "purl" : "pkg:deb/debian/libext2fs2@1.46.2-2?distro=debian-11.6",
      "type" : "library",
      "bom-ref" : "5d9d391e-7628-425b-94e0-e0fb97c823a7"
    },
    {
      "name" : "libffi7",
      "version" : "3.3-6",
      "purl" : "pkg:deb/debian/libffi7@3.3-6?distro=debian-11.6",
      "type" : "library",
      "bom-ref" : "c3046e49-64b8-4327-8559-97c72a839db1"
    },
    {
      "name" : "libgcc-s1",
      "version" : "10.2.1-6",
      "purl" : "pkg:deb/debian/libgcc-s1@10.2.1-6?distro=debian-11.6",
      "type" : "library",
      "bom-ref" : "859d8dee-5333-40f5-8533-fb12c04e3c39"
    },
    {
      "name" : "libgcrypt20",
      "version" : "1.8.7-6",
      "purl" : "pkg:deb/debian/libgcrypt20@1.8.7-6?distro=debian-11.6",
      "type" : "library",
      "bom-ref" : "1eec9a56-5fae-4085-86c7-98ea0ee2a621"
    },
    {
      "name" : "libgdbm6",
      "version" : "1.19-2",
      "purl" : "pkg:deb/debian/libgdbm6@1.19-2?distro=debian-11.6",
      "type" : "library",
      "bom-ref" : "1f88eb81-8758-47b8-8b45-47f621f6fba0"
    },
    {
      "name" : "libgmp10",
      "version" : "2:6.2.1+dfsg-1+deb11u1",
      "purl" : "pkg:deb/debian/libgmp10@2%3A6.2.1%20dfsg-1%20deb11u1?distro=debian-11.6",
      "type" : "library",
      "bom-ref" : "4d07619e-76ff-4d02-b421-63f38647dc97"
    },
    {
      "name" : "libgnutls30",
      "version" : "3.7.1-5+deb11u3",
      "purl" : "pkg:deb/debian/libgnutls30@3.7.1-5%20deb11u3?distro=debian-11.6",
      "type" : "library",
      "bom-ref" : "f7a91b98-d76d-4dcc-8548-ec4dafc8f133"
    },
    {
      "name" : "libgpg-error0",
      "version" : "1.38-2",
      "purl" : "pkg:deb/debian/libgpg-error0@1.38-2?distro=debian-11.6",
      "type" : "library",
      "bom-ref" : "54775d40-f66c-495f-bfe4-385fbf487baf"
    },
    {
      "name" : "libgssapi-krb5-2",
      "version" : "1.18.3-6+deb11u3",
      "purl" : "pkg:deb/debian/libgssapi-krb5-2@1.18.3-6%20deb11u3?distro=debian-11.6",
      "type" : "library",
      "bom-ref" : "12072b93-7d92-4170-a98c-291a7395d2b3"
    },
    {
      "name" : "libhogweed6",
      "version" : "3.7.3-1",
      "purl" : "pkg:deb/debian/libhogweed6@3.7.3-1?distro=debian-11.6",
      "type" : "library",
      "bom-ref" : "2fcc366a-2b40-4919-86eb-faa1880e202d"
    },
    {
      "name" : "libidn2-0",
      "version" : "2.3.0-5",
      "purl" : "pkg:deb/debian/libidn2-0@2.3.0-5?distro=debian-11.6",
      "type" : "library",
      "bom-ref" : "8ced25e5-7f78-4cfd-a19d-faab66bc3914"
    },
    {
      "name" : "libk5crypto3",
      "version" : "1.18.3-6+deb11u3",
      "purl" : "pkg:deb/debian/libk5crypto3@1.18.3-6%20deb11u3?distro=debian-11.6",
      "type" : "library",
      "bom-ref" : "7b35a78e-7f71-4efe-8ce3-e1a1f2253620"
    },
    {
      "name" : "libkeyutils1",
      "version" : "1.6.1-2",
      "purl" : "pkg:deb/debian/libkeyutils1@1.6.1-2?distro=debian-11.6",
      "type" : "library",
      "bom-ref" : "199ab3dc-12fb-441d-94da-fa87b5c465e3"
    },
    {
      "name" : "libkrb5-3",
      "version" : "1.18.3-6+deb11u3",
      "purl" : "pkg:deb/debian/libkrb5-3@1.18.3-6%20deb11u3?distro=debian-11.6",
      "type" : "library",
      "bom-ref" : "ef20cccb-7454-48b9-8c6a-23b08a428e2c"
    },
    {
      "name" : "libkrb5support0",
      "version" : "1.18.3-6+deb11u3",
      "purl" : "pkg:deb/debian/libkrb5support0@1.18.3-6%20deb11u3?distro=debian-11.6",
      "type" : "library",
      "bom-ref" : "eaf4e13b-17e9-4e0e-9560-4de5bca23a11"
    },
    {
      "name" : "liblz4-1",
      "version" : "1.9.3-2",
      "purl" : "pkg:deb/debian/liblz4-1@1.9.3-2?distro=debian-11.6",
      "type" : "library",
      "bom-ref" : "5428722c-b333-4585-b54e-45754d354837"
    },
    {
      "name" : "liblzma5",
      "version" : "5.2.5-2.1~deb11u1",
      "purl" : "pkg:deb/debian/liblzma5@5.2.5-2.1~deb11u1?distro=debian-11.6",
      "type" : "library",
      "bom-ref" : "f631d2ba-b7c9-4e0b-9854-1ad8bd81cb33"
    },
    {
      "name" : "libmount1",
      "version" : "2.36.1-8+deb11u1",
      "purl" : "pkg:deb/debian/libmount1@2.36.1-8%20deb11u1?distro=debian-11.6",
      "type" : "library",
      "bom-ref" : "e5c3fbf9-86ed-443c-95f6-8b547d18d0a6"
    },
    {
      "name" : "libnettle8",
      "version" : "3.7.3-1",
      "purl" : "pkg:deb/debian/libnettle8@3.7.3-1?distro=debian-11.6",
      "type" : "library",
      "bom-ref" : "98fbd629-ab38-4340-92ba-fac33a620ba8"
    },
    {
      "name" : "libnsl-dev",
      "version" : "1.3.0-2",
      "purl" : "pkg:deb/debian/libnsl-dev@1.3.0-2?distro=debian-11.6",
      "type" : "library",
      "bom-ref" : "7f633162-78c0-49dd-a022-3b0a7418b6a3"
    },
    {
      "name" : "libnsl2",
      "version" : "1.3.0-2",
      "purl" : "pkg:deb/debian/libnsl2@1.3.0-2?distro=debian-11.6",
      "type" : "library",
      "bom-ref" : "486d1fad-9d01-4d5c-8bcd-cfd4c00d40de"
    },
    {
      "name" : "libp11-kit0",
      "version" : "0.23.22-1",
      "purl" : "pkg:deb/debian/libp11-kit0@0.23.22-1?distro=debian-11.6",
      "type" : "library",
      "bom-ref" : "c34ea753-e6e5-4751-8dee-bccb91359ad7"
    },
    {
      "name" : "libpam-modules",
      "version" : "1.4.0-9+deb11u1",
      "purl" : "pkg:deb/debian/libpam-modules@1.4.0-9%20deb11u1?distro=debian-11.6",
      "type" : "library",
      "bom-ref" : "36b3a3c1-642b-47ab-bd45-4ff5a9211f10"
    },
    {
      "name" : "libpam-modules-bin",
      "version" : "1.4.0-9+deb11u1",
      "purl" : "pkg:deb/debian/libpam-modules-bin@1.4.0-9%20deb11u1?distro=debian-11.6",
      "type" : "library",
      "bom-ref" : "185890d7-0b85-4706-8d70-200e2a632208"
    },
    {
      "name" : "libpam-runtime",
      "version" : "1.4.0-9+deb11u1",
      "purl" : "pkg:deb/debian/libpam-runtime@1.4.0-9%20deb11u1?distro=debian-11.6",
      "type" : "library",
      "bom-ref" : "624c9d5d-6f5d-4d63-b617-94c0dd8ddbbf"
    },
    {
      "name" : "libpam0g",
      "version" : "1.4.0-9+deb11u1",
      "purl" : "pkg:deb/debian/libpam0g@1.4.0-9%20deb11u1?distro=debian-11.6",
      "type" : "library",
      "bom-ref" : "eb5623e1-0a2c-41b5-8b48-b63e26c029ec"
    },
    {
      "name" : "libpcre2-8-0",
      "version" : "10.36-2+deb11u1",
      "purl" : "pkg:deb/debian/libpcre2-8-0@10.36-2%20deb11u1?distro=debian-11.6",
      "type" : "library",
      "bom-ref" : "c5f0fa3d-c778-4630-8975-950e4ea0d1ec"
    },
    {
      "name" : "libpcre3",
      "version" : "2:8.39-13",
      "purl" : "pkg:deb/debian/libpcre3@2%3A8.39-13?distro=debian-11.6",
      "type" : "library",
      "bom-ref" : "932bd268-1e62-43be-820f-9f96f0fad7f4"
    },
    {
      "name" : "libseccomp2",
      "version" : "2.5.1-1+deb11u1",
      "purl" : "pkg:deb/debian/libseccomp2@2.5.1-1%20deb11u1?distro=debian-11.6",
      "type" : "library",
      "bom-ref" : "84433ebd-40bc-4ded-a0c8-9933913d158e"
    },
    {
      "name" : "libselinux1",
      "version" : "3.1-3",
      "purl" : "pkg:deb/debian/libselinux1@3.1-3?distro=debian-11.6",
      "type" : "library",
      "bom-ref" : "14dccffe-cbac-4f2b-bc96-e3b7dab46017"
    },
    {
      "name" : "libsemanage-common",
      "version" : "3.1-1",
      "purl" : "pkg:deb/debian/libsemanage-common@3.1-1?distro=debian-11.6",
      "type" : "library",
      "bom-ref" : "360d4b9c-e0a0-49aa-8c2b-b1079b8d7437"
    },
    {
      "name" : "libsemanage1",
      "version" : "3.1-1+b2",
      "purl" : "pkg:deb/debian/libsemanage1@3.1-1%20b2?distro=debian-11.6",
      "type" : "library",
      "bom-ref" : "6febc057-4f29-40ee-81e0-2a680dfa865d"
    },
    {
      "name" : "libsepol1",
      "version" : "3.1-1",
      "purl" : "pkg:deb/debian/libsepol1@3.1-1?distro=debian-11.6",
      "type" : "library",
      "bom-ref" : "f5e24e81-5032-4cc1-932a-003cef252da9"
    },
    {
      "name" : "libsmartcols1",
      "version" : "2.36.1-8+deb11u1",
      "purl" : "pkg:deb/debian/libsmartcols1@2.36.1-8%20deb11u1?distro=debian-11.6",
      "type" : "library",
      "bom-ref" : "a66cf666-53dc-41bd-99f1-19bb61e7c2e6"
    },
    {
      "name" : "libsqlite3-0",
      "version" : "3.34.1-3",
      "purl" : "pkg:deb/debian/libsqlite3-0@3.34.1-3?distro=debian-11.6",
      "type" : "library",
      "bom-ref" : "7d3c49f3-f47f-4c77-ab6b-8c906b5feb3f"
    },
    {
      "name" : "libss2",
      "version" : "1.46.2-2",
      "purl" : "pkg:deb/debian/libss2@1.46.2-2?distro=debian-11.6",
      "type" : "library",
      "bom-ref" : "c51e9157-73c4-4ea8-8daa-572a2542cfe0"
    },
    {
      "name" : "libssl1.1",
      "version" : "1.1.1n-0+deb11u4",
      "purl" : "pkg:deb/debian/libssl1.1@1.1.1n-0%20deb11u4?distro=debian-11.6",
      "type" : "library",
      "bom-ref" : "a721ef22-2cae-4491-930d-f3c88491556d"
    },
    {
      "name" : "libstdc++6",
      "version" : "10.2.1-6",
      "purl" : "pkg:deb/debian/libstdc%20%206@10.2.1-6?distro=debian-11.6",
      "type" : "library",
      "bom-ref" : "11664765-cd2d-45e4-aa12-fd6782f41612"
    },
    {
      "name" : "libsystemd0",
      "version" : "247.3-7+deb11u1",
      "purl" : "pkg:deb/debian/libsystemd0@247.3-7%20deb11u1?distro=debian-11.6",
      "type" : "library",
      "bom-ref" : "602e1eee-75a7-430b-bcda-e9d5d5052160"
    },
    {
      "name" : "libtasn1-6",
      "version" : "4.16.0-2+deb11u1",
      "purl" : "pkg:deb/debian/libtasn1-6@4.16.0-2%20deb11u1?distro=debian-11.6",
      "type" : "library",
      "bom-ref" : "b9543317-fb77-4f87-9046-937b68f529f4"
    },
    {
      "name" : "libtinfo6",
      "version" : "6.2+20201114-2",
      "purl" : "pkg:deb/debian/libtinfo6@6.2%2020201114-2?distro=debian-11.6",
      "type" : "library",
      "bom-ref" : "e78ebed1-b7bb-4225-b4c3-0fb7dc13e33e"
    },
    {
      "name" : "libtirpc-common",
      "version" : "1.3.1-1+deb11u1",
      "purl" : "pkg:deb/debian/libtirpc-common@1.3.1-1%20deb11u1?distro=debian-11.6",
      "type" : "library",
      "bom-ref" : "d01af8f3-4bea-43a7-b4e9-0ff6341d9b54"
    },
    {
      "name" : "libtirpc-dev",
      "version" : "1.3.1-1+deb11u1",
      "purl" : "pkg:deb/debian/libtirpc-dev@1.3.1-1%20deb11u1?distro=debian-11.6",
      "type" : "library",
      "bom-ref" : "0bc7a28b-7a13-4360-ab71-22600e76a094"
    },
    {
      "name" : "libtirpc3",
      "version" : "1.3.1-1+deb11u1",
      "purl" : "pkg:deb/debian/libtirpc3@1.3.1-1%20deb11u1?distro=debian-11.6",
      "type" : "library",
      "bom-ref" : "1d9788be-2a89-4257-9fb0-dbc0ccf45bf1"
    },
    {
      "name" : "libudev1",
      "version" : "247.3-7+deb11u1",
      "purl" : "pkg:deb/debian/libudev1@247.3-7%20deb11u1?distro=debian-11.6",
      "type" : "library",
      "bom-ref" : "d6f4007c-0b85-48a2-9fe1-4bca4634a874"
    },
    {
      "name" : "libunistring2",
      "version" : "0.9.10-4",
      "purl" : "pkg:deb/debian/libunistring2@0.9.10-4?distro=debian-11.6",
      "type" : "library",
      "bom-ref" : "89d04023-4945-4ac3-a42b-945714039333"
    },
    {
      "name" : "libuuid1",
      "version" : "2.36.1-8+deb11u1",
      "purl" : "pkg:deb/debian/libuuid1@2.36.1-8%20deb11u1?distro=debian-11.6",
      "type" : "library",
      "bom-ref" : "f24fbc0d-a008-468a-9c59-c64be7437e8a"
    },
    {
      "name" : "libxxhash0",
      "version" : "0.8.0-2",
      "purl" : "pkg:deb/debian/libxxhash0@0.8.0-2?distro=debian-11.6",
      "type" : "library",
      "bom-ref" : "2891ebcc-781c-4563-a96b-2d96499f016c"
    },
    {
      "name" : "libzstd1",
      "version" : "1.4.8+dfsg-2.1",
      "purl" : "pkg:deb/debian/libzstd1@1.4.8%20dfsg-2.1?distro=debian-11.6",
      "type" : "library",
      "bom-ref" : "4b8e19bc-1bdf-433e-a93c-abdaeca44ee7"
    },
    {
      "name" : "linux-libc-dev",
      "version" : "5.10.162-1",
      "purl" : "pkg:deb/debian/linux-libc-dev@5.10.162-1?distro=debian-11.6",
      "type" : "library",
      "bom-ref" : "dbe34848-4e5c-4ee1-8a23-ec224e2e7729"
    },
    {
      "name" : "login",
      "version" : "1:4.8.1-1",
      "purl" : "pkg:deb/debian/login@1%3A4.8.1-1?distro=debian-11.6",
      "type" : "library",
      "bom-ref" : "b31839eb-8903-489c-b5e6-a6b59bd0437c"
    },
    {
      "name" : "logsave",
      "version" : "1.46.2-2",
      "purl" : "pkg:deb/debian/logsave@1.46.2-2?distro=debian-11.6",
      "type" : "library",
      "bom-ref" : "5b03d62e-ec50-4477-846f-8a26198aeb00"
    },
    {
      "name" : "lsb-base",
      "version" : "11.1.0",
      "purl" : "pkg:deb/debian/lsb-base@11.1.0?distro=debian-11.6",
      "type" : "library",
      "bom-ref" : "50968ba5-4387-4580-bdc4-d1374ff5e06e"
    },
    {
      "name" : "mawk",
      "version" : "1.3.4.20200120-2",
      "purl" : "pkg:deb/debian/mawk@1.3.4.20200120-2?distro=debian-11.6",
      "type" : "library",
      "bom-ref" : "fb3de172-d2a7-4658-8e4f-dadc863399e6"
    },
    {
      "name" : "mount",
      "version" : "2.36.1-8+deb11u1",
      "purl" : "pkg:deb/debian/mount@2.36.1-8%20deb11u1?distro=debian-11.6",
      "type" : "library",
      "bom-ref" : "3ced53da-7bdb-4dcf-9c73-f9a642d4a3b1"
    },
    {
      "name" : "ncurses-base",
      "version" : "6.2+20201114-2",
      "purl" : "pkg:deb/debian/ncurses-base@6.2%2020201114-2?distro=debian-11.6",
      "type" : "library",
      "bom-ref" : "0d6eb253-9a56-435a-84db-f8b9b9bc5c4e"
    },
    {
      "name" : "ncurses-bin",
      "version" : "6.2+20201114-2",
      "purl" : "pkg:deb/debian/ncurses-bin@6.2%2020201114-2?distro=debian-11.6",
      "type" : "library",
      "bom-ref" : "ff8e8149-b1de-4345-b3d7-92ad156a2753"
    },
    {
      "name" : "openssl",
      "version" : "1.1.1n-0+deb11u4",
      "purl" : "pkg:deb/debian/openssl@1.1.1n-0%20deb11u4?distro=debian-11.6",
      "type" : "library",
      "bom-ref" : "65f3c762-3ebf-4185-bab3-2f52e80e8ab0"
    },
    {
      "name" : "passwd",
      "version" : "1:4.8.1-1",
      "purl" : "pkg:deb/debian/passwd@1%3A4.8.1-1?distro=debian-11.6",
      "type" : "library",
      "bom-ref" : "a2e7c977-15ab-4568-835b-aef46fe95a2e"
    },
    {
      "name" : "perl-base",
      "version" : "5.32.1-4+deb11u2",
      "purl" : "pkg:deb/debian/perl-base@5.32.1-4%20deb11u2?distro=debian-11.6",
      "type" : "library",
      "bom-ref" : "a07fa7e8-832a-4a95-a786-75f9c4c5f8ad"
    },
    {
      "name" : "pip",
      "version" : "22.0.4",
      "purl" : "pkg:pypi/pip@22.0.4",
      "type" : "library",
      "bom-ref" : "eb0b8278-20f1-4f0a-83e2-692883b06aab"
    },
    {
      "name" : "readline",
      "version" : "6.2.4.1",
      "purl" : "pkg:pypi/readline@6.2.4.1",
      "type" : "library",
      "bom-ref" : "63476967-dc0e-4f3f-9199-265b9c5f7a24"
    },
    {
      "name" : "sed",
      "version" : "4.7-1",
      "purl" : "pkg:deb/debian/sed@4.7-1?distro=debian-11.6",
      "type" : "library",
      "bom-ref" : "aed2c0ac-38c9-45b0-8f75-095d37961a2a"
    },
    {
      "name" : "setuptools",
      "version" : "58.1.0",
      "purl" : "pkg:pypi/setuptools@58.1.0",
      "type" : "library",
      "bom-ref" : "071c5933-dbc0-4852-8118-9997ecc6daa0"
    },
    {
      "name" : "sysvinit-utils",
      "version" : "2.96-7+deb11u1",
      "purl" : "pkg:deb/debian/sysvinit-utils@2.96-7%20deb11u1?distro=debian-11.6",
      "type" : "library",
      "bom-ref" : "6be32ad0-19da-4bef-97fe-1189b004a9a0"
    },
    {
      "name" : "tar",
      "version" : "1.34+dfsg-1",
      "purl" : "pkg:deb/debian/tar@1.34%20dfsg-1?distro=debian-11.6",
      "type" : "library",
      "bom-ref" : "d5e9b5b0-28c2-4d48-b96e-c0a75cbe7385"
    },
    {
      "name" : "tzdata",
      "version" : "2021a-1+deb11u8",
      "purl" : "pkg:deb/debian/tzdata@2021a-1%20deb11u8?distro=debian-11.6",
      "type" : "library",
      "bom-ref" : "324fc599-6324-4a7e-aa96-624bada6726d"
    },
    {
      "name" : "util-linux",
      "version" : "2.36.1-8+deb11u1",
      "purl" : "pkg:deb/debian/util-linux@2.36.1-8%20deb11u1?distro=debian-11.6",
      "type" : "library",
      "bom-ref" : "5cd674e8-b452-4017-acda-7230c15d93f9"
    },
    {
      "name" : "wheel",
      "version" : "0.38.4",
      "purl" : "pkg:pypi/wheel@0.38.4",
      "type" : "library",
      "bom-ref" : "8ab18119-77c4-472e-8083-e161ce55ff36"
    },
    {
      "name" : "zlib1g",
      "version" : "1:1.2.11.dfsg-2+deb11u2",
      "purl" : "pkg:deb/debian/zlib1g@1%3A1.2.11.dfsg-2%20deb11u2?distro=debian-11.6",
      "type" : "library",
      "bom-ref" : "717b106b-05a7-48a2-a296-cf1fe9125649"
    }
  ],
  "dependencies" : [
    {
      "ref" : "2513e48e-b791-442e-a6d7-6097e74dfd6d",
      "dependsOn" : [
        "b6a6ab3f-b2ad-4925-bd48-fd14e822888e",
        "21cf7812-3a3e-4153-b203-2af0bfe44614",
        "96f18960-67cf-4ef0-9f81-795298abd649",
        "f603ff07-5290-445a-9822-2ba92c5b7660",
        "63476967-dc0e-4f3f-9199-265b9c5f7a24",
        "eb0b8278-20f1-4f0a-83e2-692883b06aab",
        "071c5933-dbc0-4852-8118-9997ecc6daa0",
        "8ab18119-77c4-472e-8083-e161ce55ff36"
      ]
    },
    {
      "ref" : "35575943-7107-44ab-b557-be0be709e5bd",
      "dependsOn" : [ ]
    },
    {
      "ref" : "4e38d249-e1b9-44d7-bdcf-65c86fa1ad28",
      "dependsOn" : [ ]
    },
    {
      "ref" : "7417404e-9841-4243-81a4-edd619df1183",
      "dependsOn" : [ ]
    },
    {
      "ref" : "f5d6fa2b-98fd-4300-9179-9b455f038c05",
      "dependsOn" : [ ]
    },
    {
      "ref" : "73cc7b2f-4139-44fa-b9d3-ab18ef382235",
      "dependsOn" : [ ]
    },
    {
      "ref" : "4320ea9c-7ec0-4830-92a8-5e165cce1e69",
      "dependsOn" : [ ]
    },
    {
      "ref" : "a8431636-a406-452c-b675-ba0032dacc8a",
      "dependsOn" : [ ]
    },
    {
      "ref" : "21cf7812-3a3e-4153-b203-2af0bfe44614",
      "dependsOn" : [ ]
    },
    {
      "ref" : "579dae16-8d51-4f36-baca-961815a7925a",
      "dependsOn" : [ ]
    },
    {
      "ref" : "7fbd21c9-2d5e-40d6-af7b-9a77393ab698",
      "dependsOn" : [ ]
    },
    {
      "ref" : "fb378822-407d-467d-9e6c-5a3da8268456",
      "dependsOn" : [ ]
    },
    {
      "ref" : "b6a6ab3f-b2ad-4925-bd48-fd14e822888e",
      "dependsOn" : [
        "35575943-7107-44ab-b557-be0be709e5bd",
        "4e38d249-e1b9-44d7-bdcf-65c86fa1ad28",
        "7417404e-9841-4243-81a4-edd619df1183",
        "f5d6fa2b-98fd-4300-9179-9b455f038c05",
        "73cc7b2f-4139-44fa-b9d3-ab18ef382235",
        "4320ea9c-7ec0-4830-92a8-5e165cce1e69",
        "a8431636-a406-452c-b675-ba0032dacc8a",
        "579dae16-8d51-4f36-baca-961815a7925a",
        "7fbd21c9-2d5e-40d6-af7b-9a77393ab698",
        "fb378822-407d-467d-9e6c-5a3da8268456",
        "e46f49ff-0297-434f-860a-e5e0865b9ab1",
        "2c251686-497e-4dc2-9de5-0bb9e8b5119d",
        "1739e249-4961-494d-b03d-ab161af99b07",
        "a23412b3-f0c7-4342-9272-1508b96f3a7c",
        "236a6f69-9c1b-4024-8bb3-bf8d86b7b656",
        "62670c85-a8ff-4f9c-910b-60d738423681",
        "84ea0232-8a63-4839-8909-d4923211e867",
        "b7271f40-c1b4-4712-bfbc-cf656738afc3",
        "8431c6c7-7ce4-4b4e-b300-8b0e83f2f2d0",
        "dc37e654-2af5-4cac-8853-88702d23b78d",
        "938fc0e6-eb3f-4722-8121-c7c6ce271726",
        "4b61894b-747e-4931-85b4-bd9933d1dc0b",
        "76abef98-e8b9-4c17-b235-0aa2d0b1e265",
        "a16f281f-19f8-4909-b5c7-373f1c07de43",
        "a0beb4d0-8385-46fd-8a73-b516cf88fc6e",
        "de88c15e-e199-490b-81a0-e83d7b217d17",
        "f5139afa-b40f-4e5b-8b55-b71534cf941b",
        "9068b394-cfdf-4ae4-91d9-6f49a87376aa",
        "970a0b72-eb73-4bd4-b1ab-57d8e092b76f",
        "c97ce301-b4a1-481e-84c4-3ff05d402dd8",
        "bc8d4387-a658-46b7-bf34-3bfc8e614a02",
        "5bd9928d-effa-40a3-842c-14143f552a5a",
        "983c11e9-ca46-4bc7-ad1d-e85978385a60",
        "68cfcf6c-6abf-4ac0-ad52-dc1d813e1046",
        "edeb13f3-5127-4e53-acb5-0374c857b1c7",
        "a3149e9d-5852-4627-bfe4-5fc24bcbc2eb",
        "299f69f4-f162-4739-81a9-09dd7e508d8e",
        "53a26540-0710-4298-903e-218d1dae0b52",
        "fa5405e4-4cd5-44f3-a0f1-40723ef3da0b",
        "b75d0ee9-29a6-495d-b1f6-acce25423486",
        "5d9d391e-7628-425b-94e0-e0fb97c823a7",
        "c3046e49-64b8-4327-8559-97c72a839db1",
        "859d8dee-5333-40f5-8533-fb12c04e3c39",
        "1eec9a56-5fae-4085-86c7-98ea0ee2a621",
        "1f88eb81-8758-47b8-8b45-47f621f6fba0",
        "4d07619e-76ff-4d02-b421-63f38647dc97",
        "f7a91b98-d76d-4dcc-8548-ec4dafc8f133",
        "54775d40-f66c-495f-bfe4-385fbf487baf",
        "12072b93-7d92-4170-a98c-291a7395d2b3",
        "2fcc366a-2b40-4919-86eb-faa1880e202d",
        "8ced25e5-7f78-4cfd-a19d-faab66bc3914",
        "7b35a78e-7f71-4efe-8ce3-e1a1f2253620",
        "199ab3dc-12fb-441d-94da-fa87b5c465e3",
        "ef20cccb-7454-48b9-8c6a-23b08a428e2c",
        "eaf4e13b-17e9-4e0e-9560-4de5bca23a11",
        "5428722c-b333-4585-b54e-45754d354837",
        "f631d2ba-b7c9-4e0b-9854-1ad8bd81cb33",
        "e5c3fbf9-86ed-443c-95f6-8b547d18d0a6",
        "98fbd629-ab38-4340-92ba-fac33a620ba8",
        "7f633162-78c0-49dd-a022-3b0a7418b6a3",
        "486d1fad-9d01-4d5c-8bcd-cfd4c00d40de",
        "c34ea753-e6e5-4751-8dee-bccb91359ad7",
        "36b3a3c1-642b-47ab-bd45-4ff5a9211f10",
        "185890d7-0b85-4706-8d70-200e2a632208",
        "624c9d5d-6f5d-4d63-b617-94c0dd8ddbbf",
        "eb5623e1-0a2c-41b5-8b48-b63e26c029ec",
        "c5f0fa3d-c778-4630-8975-950e4ea0d1ec",
        "932bd268-1e62-43be-820f-9f96f0fad7f4",
        "84433ebd-40bc-4ded-a0c8-9933913d158e",
        "14dccffe-cbac-4f2b-bc96-e3b7dab46017",
        "360d4b9c-e0a0-49aa-8c2b-b1079b8d7437",
        "6febc057-4f29-40ee-81e0-2a680dfa865d",
        "f5e24e81-5032-4cc1-932a-003cef252da9",
        "a66cf666-53dc-41bd-99f1-19bb61e7c2e6",
        "7d3c49f3-f47f-4c77-ab6b-8c906b5feb3f",
        "c51e9157-73c4-4ea8-8daa-572a2542cfe0",
        "a721ef22-2cae-4491-930d-f3c88491556d",
        "11664765-cd2d-45e4-aa12-fd6782f41612",
        "602e1eee-75a7-430b-bcda-e9d5d5052160",
        "b9543317-fb77-4f87-9046-937b68f529f4",
        "e78ebed1-b7bb-4225-b4c3-0fb7dc13e33e",
        "d01af8f3-4bea-43a7-b4e9-0ff6341d9b54",
        "0bc7a28b-7a13-4360-ab71-22600e76a094",
        "1d9788be-2a89-4257-9fb0-dbc0ccf45bf1",
        "d6f4007c-0b85-48a2-9fe1-4bca4634a874",
        "89d04023-4945-4ac3-a42b-945714039333",
        "f24fbc0d-a008-468a-9c59-c64be7437e8a",
        "2891ebcc-781c-4563-a96b-2d96499f016c",
        "4b8e19bc-1bdf-433e-a93c-abdaeca44ee7",
        "dbe34848-4e5c-4ee1-8a23-ec224e2e7729",
        "b31839eb-8903-489c-b5e6-a6b59bd0437c",
        "5b03d62e-ec50-4477-846f-8a26198aeb00",
        "50968ba5-4387-4580-bdc4-d1374ff5e06e",
        "fb3de172-d2a7-4658-8e4f-dadc863399e6",
        "3ced53da-7bdb-4dcf-9c73-f9a642d4a3b1",
        "0d6eb253-9a56-435a-84db-f8b9b9bc5c4e",
        "ff8e8149-b1de-4345-b3d7-92ad156a2753",
        "65f3c762-3ebf-4185-bab3-2f52e80e8ab0",
        "a2e7c977-15ab-4568-835b-aef46fe95a2e",
        "a07fa7e8-832a-4a95-a786-75f9c4c5f8ad",
        "aed2c0ac-38c9-45b0-8f75-095d37961a2a",
        "6be32ad0-19da-4bef-97fe-1189b004a9a0",
        "d5e9b5b0-28c2-4d48-b96e-c0a75cbe7385",
        "324fc599-6324-4a7e-aa96-624bada6726d",
        "5cd674e8-b452-4017-acda-7230c15d93f9",
        "717b106b-05a7-48a2-a296-cf1fe9125649"
      ]
    },
    {
      "ref" : "e46f49ff-0297-434f-860a-e5e0865b9ab1",
      "dependsOn" : [ ]
    },
    {
      "ref" : "2c251686-497e-4dc2-9de5-0bb9e8b5119d",
      "dependsOn" : [ ]
    },
    {
      "ref" : "1739e249-4961-494d-b03d-ab161af99b07",
      "dependsOn" : [ ]
    },
    {
      "ref" : "a23412b3-f0c7-4342-9272-1508b96f3a7c",
      "dependsOn" : [ ]
    },
    {
      "ref" : "236a6f69-9c1b-4024-8bb3-bf8d86b7b656",
      "dependsOn" : [ ]
    },
    {
      "ref" : "62670c85-a8ff-4f9c-910b-60d738423681",
      "dependsOn" : [ ]
    },
    {
      "ref" : "84ea0232-8a63-4839-8909-d4923211e867",
      "dependsOn" : [ ]
    },
    {
      "ref" : "b7271f40-c1b4-4712-bfbc-cf656738afc3",
      "dependsOn" : [ ]
    },
    {
      "ref" : "8431c6c7-7ce4-4b4e-b300-8b0e83f2f2d0",
      "dependsOn" : [ ]
    },
    {
      "ref" : "96f18960-67cf-4ef0-9f81-795298abd649",
      "dependsOn" : [ ]
    },
    {
      "ref" : "dc37e654-2af5-4cac-8853-88702d23b78d",
      "dependsOn" : [ ]
    },
    {
      "ref" : "938fc0e6-eb3f-4722-8121-c7c6ce271726",
      "dependsOn" : [ ]
    },
    {
      "ref" : "4b61894b-747e-4931-85b4-bd9933d1dc0b",
      "dependsOn" : [ ]
    },
    {
      "ref" : "f603ff07-5290-445a-9822-2ba92c5b7660",
      "dependsOn" : [ ]
    },
    {
      "ref" : "76abef98-e8b9-4c17-b235-0aa2d0b1e265",
      "dependsOn" : [ ]
    },
    {
      "ref" : "a16f281f-19f8-4909-b5c7-373f1c07de43",
      "dependsOn" : [ ]
    },
    {
      "ref" : "a0beb4d0-8385-46fd-8a73-b516cf88fc6e",
      "dependsOn" : [ ]
    },
    {
      "ref" : "de88c15e-e199-490b-81a0-e83d7b217d17",
      "dependsOn" : [ ]
    },
    {
      "ref" : "f5139afa-b40f-4e5b-8b55-b71534cf941b",
      "dependsOn" : [ ]
    },
    {
      "ref" : "9068b394-cfdf-4ae4-91d9-6f49a87376aa",
      "dependsOn" : [ ]
    },
    {
      "ref" : "970a0b72-eb73-4bd4-b1ab-57d8e092b76f",
      "dependsOn" : [ ]
    },
    {
      "ref" : "c97ce301-b4a1-481e-84c4-3ff05d402dd8",
      "dependsOn" : [ ]
    },
    {
      "ref" : "bc8d4387-a658-46b7-bf34-3bfc8e614a02",
      "dependsOn" : [ ]
    },
    {
      "ref" : "5bd9928d-effa-40a3-842c-14143f552a5a",
      "dependsOn" : [ ]
    },
    {
      "ref" : "983c11e9-ca46-4bc7-ad1d-e85978385a60",
      "dependsOn" : [ ]
    },
    {
      "ref" : "68cfcf6c-6abf-4ac0-ad52-dc1d813e1046",
      "dependsOn" : [ ]
    },
    {
      "ref" : "edeb13f3-5127-4e53-acb5-0374c857b1c7",
      "dependsOn" : [ ]
    },
    {
      "ref" : "a3149e9d-5852-4627-bfe4-5fc24bcbc2eb",
      "dependsOn" : [ ]
    },
    {
      "ref" : "299f69f4-f162-4739-81a9-09dd7e508d8e",
      "dependsOn" : [ ]
    },
    {
      "ref" : "53a26540-0710-4298-903e-218d1dae0b52",
      "dependsOn" : [ ]
    },
    {
      "ref" : "fa5405e4-4cd5-44f3-a0f1-40723ef3da0b",
      "dependsOn" : [ ]
    },
    {
      "ref" : "b75d0ee9-29a6-495d-b1f6-acce25423486",
      "dependsOn" : [ ]
    },
    {
      "ref" : "5d9d391e-7628-425b-94e0-e0fb97c823a7",
      "dependsOn" : [ ]
    },
    {
      "ref" : "c3046e49-64b8-4327-8559-97c72a839db1",
      "dependsOn" : [ ]
    },
    {
      "ref" : "859d8dee-5333-40f5-8533-fb12c04e3c39",
      "dependsOn" : [ ]
    },
    {
      "ref" : "1eec9a56-5fae-4085-86c7-98ea0ee2a621",
      "dependsOn" : [ ]
    },
    {
      "ref" : "1f88eb81-8758-47b8-8b45-47f621f6fba0",
      "dependsOn" : [ ]
    },
    {
      "ref" : "4d07619e-76ff-4d02-b421-63f38647dc97",
      "dependsOn" : [ ]
    },
    {
      "ref" : "f7a91b98-d76d-4dcc-8548-ec4dafc8f133",
      "dependsOn" : [ ]
    },
    {
      "ref" : "54775d40-f66c-495f-bfe4-385fbf487baf",
      "dependsOn" : [ ]
    },
    {
      "ref" : "12072b93-7d92-4170-a98c-291a7395d2b3",
      "dependsOn" : [ ]
    },
    {
      "ref" : "2fcc366a-2b40-4919-86eb-faa1880e202d",
      "dependsOn" : [ ]
    },
    {
      "ref" : "8ced25e5-7f78-4cfd-a19d-faab66bc3914",
      "dependsOn" : [ ]
    },
    {
      "ref" : "7b35a78e-7f71-4efe-8ce3-e1a1f2253620",
      "dependsOn" : [ ]
    },
    {
      "ref" : "199ab3dc-12fb-441d-94da-fa87b5c465e3",
      "dependsOn" : [ ]
    },
    {
      "ref" : "ef20cccb-7454-48b9-8c6a-23b08a428e2c",
      "dependsOn" : [ ]
    },
    {
      "ref" : "eaf4e13b-17e9-4e0e-9560-4de5bca23a11",
      "dependsOn" : [ ]
    },
    {
      "ref" : "5428722c-b333-4585-b54e-45754d354837",
      "dependsOn" : [ ]
    },
    {
      "ref" : "f631d2ba-b7c9-4e0b-9854-1ad8bd81cb33",
      "dependsOn" : [ ]
    },
    {
      "ref" : "e5c3fbf9-86ed-443c-95f6-8b547d18d0a6",
      "dependsOn" : [ ]
    },
    {
      "ref" : "98fbd629-ab38-4340-92ba-fac33a620ba8",
      "dependsOn" : [ ]
    },
    {
      "ref" : "7f633162-78c0-49dd-a022-3b0a7418b6a3",
      "dependsOn" : [ ]
    },
    {
      "ref" : "486d1fad-9d01-4d5c-8bcd-cfd4c00d40de",
      "dependsOn" : [ ]
    },
    {
      "ref" : "c34ea753-e6e5-4751-8dee-bccb91359ad7",
      "dependsOn" : [ ]
    },
    {
      "ref" : "36b3a3c1-642b-47ab-bd45-4ff5a9211f10",
      "dependsOn" : [ ]
    },
    {
      "ref" : "185890d7-0b85-4706-8d70-200e2a632208",
      "dependsOn" : [ ]
    },
    {
      "ref" : "624c9d5d-6f5d-4d63-b617-94c0dd8ddbbf",
      "dependsOn" : [ ]
    },
    {
      "ref" : "eb5623e1-0a2c-41b5-8b48-b63e26c029ec",
      "dependsOn" : [ ]
    },
    {
      "ref" : "c5f0fa3d-c778-4630-8975-950e4ea0d1ec",
      "dependsOn" : [ ]
    },
    {
      "ref" : "932bd268-1e62-43be-820f-9f96f0fad7f4",
      "dependsOn" : [ ]
    },
    {
      "ref" : "84433ebd-40bc-4ded-a0c8-9933913d158e",
      "dependsOn" : [ ]
    },
    {
      "ref" : "14dccffe-cbac-4f2b-bc96-e3b7dab46017",
      "dependsOn" : [ ]
    },
    {
      "ref" : "360d4b9c-e0a0-49aa-8c2b-b1079b8d7437",
      "dependsOn" : [ ]
    },
    {
      "ref" : "6febc057-4f29-40ee-81e0-2a680dfa865d",
      "dependsOn" : [ ]
    },
    {
      "ref" : "f5e24e81-5032-4cc1-932a-003cef252da9",
      "dependsOn" : [ ]
    },
    {
      "ref" : "a66cf666-53dc-41bd-99f1-19bb61e7c2e6",
      "dependsOn" : [ ]
    },
    {
      "ref" : "7d3c49f3-f47f-4c77-ab6b-8c906b5feb3f",
      "dependsOn" : [ ]
    },
    {
      "ref" : "c51e9157-73c4-4ea8-8daa-572a2542cfe0",
      "dependsOn" : [ ]
    },
    {
      "ref" : "a721ef22-2cae-4491-930d-f3c88491556d",
      "dependsOn" : [ ]
    },
    {
      "ref" : "11664765-cd2d-45e4-aa12-fd6782f41612",
      "dependsOn" : [ ]
    },
    {
      "ref" : "602e1eee-75a7-430b-bcda-e9d5d5052160",
      "dependsOn" : [ ]
    },
    {
      "ref" : "b9543317-fb77-4f87-9046-937b68f529f4",
      "dependsOn" : [ ]
    },
    {
      "ref" : "e78ebed1-b7bb-4225-b4c3-0fb7dc13e33e",
      "dependsOn" : [ ]
    },
    {
      "ref" : "d01af8f3-4bea-43a7-b4e9-0ff6341d9b54",
      "dependsOn" : [ ]
    },
    {
      "ref" : "0bc7a28b-7a13-4360-ab71-22600e76a094",
      "dependsOn" : [ ]
    },
    {
      "ref" : "1d9788be-2a89-4257-9fb0-dbc0ccf45bf1",
      "dependsOn" : [ ]
    },
    {
      "ref" : "d6f4007c-0b85-48a2-9fe1-4bca4634a874",
      "dependsOn" : [ ]
    },
    {
      "ref" : "89d04023-4945-4ac3-a42b-945714039333",
      "dependsOn" : [ ]
    },
    {
      "ref" : "f24fbc0d-a008-468a-9c59-c64be7437e8a",
      "dependsOn" : [ ]
    },
    {
      "ref" : "2891ebcc-781c-4563-a96b-2d96499f016c",
      "dependsOn" : [ ]
    },
    {
      "ref" : "4b8e19bc-1bdf-433e-a93c-abdaeca44ee7",
      "dependsOn" : [ ]
    },
    {
      "ref" : "dbe34848-4e5c-4ee1-8a23-ec224e2e7729",
      "dependsOn" : [ ]
    },
    {
      "ref" : "b31839eb-8903-489c-b5e6-a6b59bd0437c",
      "dependsOn" : [ ]
    },
    {
      "ref" : "5b03d62e-ec50-4477-846f-8a26198aeb00",
      "dependsOn" : [ ]
    },
    {
      "ref" : "50968ba5-4387-4580-bdc4-d1374ff5e06e",
      "dependsOn" : [ ]
    },
    {
      "ref" : "fb3de172-d2a7-4658-8e4f-dadc863399e6",
      "dependsOn" : [ ]
    },
    {
      "ref" : "3ced53da-7bdb-4dcf-9c73-f9a642d4a3b1",
      "dependsOn" : [ ]
    },
    {
      "ref" : "0d6eb253-9a56-435a-84db-f8b9b9bc5c4e",
      "dependsOn" : [ ]
    },
    {
      "ref" : "ff8e8149-b1de-4345-b3d7-92ad156a2753",
      "dependsOn" : [ ]
    },
    {
      "ref" : "65f3c762-3ebf-4185-bab3-2f52e80e8ab0",
      "dependsOn" : [ ]
    },
    {
      "ref" : "a2e7c977-15ab-4568-835b-aef46fe95a2e",
      "dependsOn" : [ ]
    },
    {
      "ref" : "a07fa7e8-832a-4a95-a786-75f9c4c5f8ad",
      "dependsOn" : [ ]
    },
    {
      "ref" : "eb0b8278-20f1-4f0a-83e2-692883b06aab",
      "dependsOn" : [ ]
    },
    {
      "ref" : "63476967-dc0e-4f3f-9199-265b9c5f7a24",
      "dependsOn" : [ ]
    },
    {
      "ref" : "aed2c0ac-38c9-45b0-8f75-095d37961a2a",
      "dependsOn" : [ ]
    },
    {
      "ref" : "071c5933-dbc0-4852-8118-9997ecc6daa0",
      "dependsOn" : [ ]
    },
    {
      "ref" : "6be32ad0-19da-4bef-97fe-1189b004a9a0",
      "dependsOn" : [ ]
    },
    {
      "ref" : "d5e9b5b0-28c2-4d48-b96e-c0a75cbe7385",
      "dependsOn" : [ ]
    },
    {
      "ref" : "324fc599-6324-4a7e-aa96-624bada6726d",
      "dependsOn" : [ ]
    },
    {
      "ref" : "5cd674e8-b452-4017-acda-7230c15d93f9",
      "dependsOn" : [ ]
    },
    {
      "ref" : "8ab18119-77c4-472e-8083-e161ce55ff36",
      "dependsOn" : [ ]
    },
    {
      "ref" : "717b106b-05a7-48a2-a296-cf1fe9125649",
      "dependsOn" : [ ]
    }
  ],
  "vulnerabilities" : [
    {
      "bom-ref" : "d6f0791d-125a-47b4-a594-c30d94743f28",
      "id" : "CVE-2018-20225",
      "source" : {
        "name" : "NVD",
        "url" : "https://nvd.nist.gov/"
      },
      "ratings" : [
        {
          "source" : {
            "name" : "NVD",
            "url" : "https://nvd.nist.gov/"
          },
          "score" : 6.8,
          "severity" : "medium",
          "method" : "CVSSv2",
          "vector" : "(AV:N/AC:M/Au:N/C:P/I:P/A:P)"
        },
        {
          "source" : {
            "name" : "NVD",
            "url" : "https://nvd.nist.gov/"
          },
          "score" : 7.8,
          "severity" : "high",
          "method" : "CVSSv3",
          "vector" : "CVSS:3.0/AV:L/AC:L/PR:N/UI:R/S:U/C:H/I:H/A:H"
        }
      ],
      "cwes" : [
        20
      ],
      "description" : "** DISPUTED ** An issue was discovered in pip (all versions) because it installs the version with the highest version number, even if the user had intended to obtain a private package from a private index. This only affects use of the --extra-index-url option, and exploitation requires that the package does not already exist in the public index (and thus the attacker can put the package there with an arbitrary version number). NOTE: it has been reported that this is intended functionality and the user is responsible for using --extra-index-url securely.",
      "published" : "2020-05-08T18:15:00Z",
      "updated" : "2020-06-01T17:15:00Z",
      "affects" : [
        {
          "ref" : "eb0b8278-20f1-4f0a-83e2-692883b06aab"
        }
      ]
    },
    {
      "bom-ref" : "8ed4b082-2c41-462c-b739-7841c02fa888",
      "id" : "CVE-2022-40897",
      "source" : {
        "name" : "NVD",
        "url" : "https://nvd.nist.gov/"
      },
      "ratings" : [
        {
          "source" : {
            "name" : "NVD",
            "url" : "https://nvd.nist.gov/"
          },
          "score" : 5.9,
          "severity" : "medium",
          "method" : "CVSSv3",
          "vector" : "CVSS:3.0/AV:N/AC:H/PR:N/UI:N/S:U/C:N/I:N/A:H"
        }
      ],
      "description" : "Python Packaging Authority (PyPA) setuptools before 65.5.1 allows remote attackers to cause a denial of service via HTML in a crafted package or custom PackageIndex page. There is a Regular Expression Denial of Service (ReDoS) in package_index.py.",
      "published" : "2022-12-23T00:15:00Z",
      "updated" : "2023-05-01T06:15:00Z",
      "affects" : [
        {
          "ref" : "071c5933-dbc0-4852-8118-9997ecc6daa0"
        }
      ]
    }
  ]
}