{
  "bomFormat" : "CycloneDX",
  "specVersion" : "1.4",
  "serialNumber" : "urn:uuid:4713d861-920f-4e3a-b36e-7baec02f2624",
  "version" : 1,
  "metadata" : {
    "timestamp" : "2023-07-03T15:14:15Z",
    "tools" : [
      {
        "vendor" : "OWASP",
        "name" : "Dependency-Track",
        "version" : "4.8.2"
      }
    ],
    "component" : {
      "name" : "tomcat-9.0-jdk17-corretto",
      "version" : "SNAPSHOT",
      "type" : "application",
      "bom-ref" : "ade8d9f3-0959-4383-9bff-e47232570931"
    }
  },
  "components" : [
    {
      "name" : "amazon",
      "version" : "2 (Karoo)",
      "type" : "operating-system",
      "bom-ref" : "0c8fc5ea-89df-4e5e-b954-67243f3a9f2d"
    },
    {
      "name" : "amazon-linux-extras",
      "version" : "2.0.1-1.amzn2",
      "purl" : "pkg:rpm/amazon/amazon-linux-extras@2.0.1-1.amzn2?arch=noarch&distro=amazon-2%20%28Karoo%29",
      "type" : "library",
      "bom-ref" : "6c244912-7b22-4b6b-b80b-612cd2e53f01"
    },
    {
      "name" : "apr",
      "version" : "1.7.2-1.amzn2",
      "purl" : "pkg:rpm/amazon/apr@1.7.2-1.amzn2?arch=x86_64&distro=amazon-2%20%28Karoo%29",
      "type" : "library",
      "bom-ref" : "baff5fb7-35b0-4ca8-8cd2-b6fa5c6f18fc"
    },
    {
      "name" : "basesystem",
      "version" : "10.0-7.amzn2.0.1",
      "purl" : "pkg:rpm/amazon/basesystem@10.0-7.amzn2.0.1?arch=noarch&distro=amazon-2%20%28Karoo%29",
      "type" : "library",
      "bom-ref" : "a0f2b224-3d7b-4e08-a845-125f7477f6da"
    },
    {
      "name" : "bash",
      "version" : "4.2.46-34.amzn2",
      "purl" : "pkg:rpm/amazon/bash@4.2.46-34.amzn2?arch=x86_64&distro=amazon-2%20%28Karoo%29",
      "type" : "library",
      "bom-ref" : "07cfbef1-73c6-4019-a3e2-e480cfabdbae"
    },
    {
      "name" : "bzip2-libs",
      "version" : "1.0.6-13.amzn2.0.3",
      "purl" : "pkg:rpm/amazon/bzip2-libs@1.0.6-13.amzn2.0.3?arch=x86_64&distro=amazon-2%20%28Karoo%29",
      "type" : "library",
      "bom-ref" : "be6449dc-d107-4a21-8859-3fbf5d856c52"
    },
    {
      "name" : "ca-certificates",
      "version" : "2021.2.50-72.amzn2.0.5",
      "purl" : "pkg:rpm/amazon/ca-certificates@2021.2.50-72.amzn2.0.5?arch=noarch&distro=amazon-2%20%28Karoo%29",
      "type" : "library",
      "bom-ref" : "53a66e15-14a7-4065-b79d-b81f94f7e271"
    },
    {
      "name" : "chkconfig",
      "version" : "1.7.4-1.amzn2.0.2",
      "purl" : "pkg:rpm/amazon/chkconfig@1.7.4-1.amzn2.0.2?arch=x86_64&distro=amazon-2%20%28Karoo%29",
      "type" : "library",
      "bom-ref" : "42e932bb-5f9e-4a88-8a47-62aef1b083e6"
    },
    {
      "name" : "commons-daemon:commons-daemon",
      "version" : "1.3.3",
      "purl" : "pkg:maven/commons-daemon/commons-daemon@1.3.3",
      "type" : "library",
      "bom-ref" : "5410afd2-8fcf-4eff-adf2-f78015e5d0b1"
    },
    {
      "name" : "coreutils",
      "version" : "8.22-24.amzn2",
      "purl" : "pkg:rpm/amazon/coreutils@8.22-24.amzn2?arch=x86_64&distro=amazon-2%20%28Karoo%29",
      "type" : "library",
      "bom-ref" : "f2885d4c-b05a-4847-95f5-93c1c869929d"
    },
    {
      "name" : "cpio",
      "version" : "2.11-28.amzn2",
      "purl" : "pkg:rpm/amazon/cpio@2.11-28.amzn2?arch=x86_64&distro=amazon-2%20%28Karoo%29",
      "type" : "library",
      "bom-ref" : "b67a5ca5-dc70-475d-8e43-0a5523b5875b"
    },
    {
      "name" : "curl",
      "version" : "7.87.0-2.amzn2.0.1",
      "purl" : "pkg:rpm/amazon/curl@7.87.0-2.amzn2.0.1?arch=x86_64&distro=amazon-2%20%28Karoo%29",
      "type" : "library",
      "bom-ref" : "6e08fa77-e7d9-4647-94c0-49c6fa2e1810"
    },
    {
      "name" : "cyrus-sasl-lib",
      "version" : "2.1.26-24.amzn2",
      "purl" : "pkg:rpm/amazon/cyrus-sasl-lib@2.1.26-24.amzn2?arch=x86_64&distro=amazon-2%20%28Karoo%29",
      "type" : "library",
      "bom-ref" : "88253c34-51cd-464e-b031-999126afbef5"
    },
    {
      "name" : "dejavu-fonts-common",
      "version" : "2.33-6.amzn2",
      "purl" : "pkg:rpm/amazon/dejavu-fonts-common@2.33-6.amzn2?arch=noarch&distro=amazon-2%20%28Karoo%29",
      "type" : "library",
      "bom-ref" : "3095b0a0-0283-47e2-a9a8-3b2333cc1c4e"
    },
    {
      "name" : "dejavu-sans-fonts",
      "version" : "2.33-6.amzn2",
      "purl" : "pkg:rpm/amazon/dejavu-sans-fonts@2.33-6.amzn2?arch=noarch&distro=amazon-2%20%28Karoo%29",
      "type" : "library",
      "bom-ref" : "3c3ac595-1e71-4ca1-83b4-d10c68d50879"
    },
    {
      "name" : "diffutils",
      "version" : "3.3-5.amzn2",
      "purl" : "pkg:rpm/amazon/diffutils@3.3-5.amzn2?arch=x86_64&distro=amazon-2%20%28Karoo%29",
      "type" : "library",
      "bom-ref" : "e1b0e7f1-2f9b-4fe1-bcf3-845dfac52b76"
    },
    {
      "name" : "elfutils-libelf",
      "version" : "0.176-2.amzn2",
      "purl" : "pkg:rpm/amazon/elfutils-libelf@0.176-2.amzn2?arch=x86_64&distro=amazon-2%20%28Karoo%29",
      "type" : "library",
      "bom-ref" : "8864eef3-2e70-4908-9f04-45e5fa403814"
    },
    {
      "name" : "expat",
      "version" : "2.1.0-15.amzn2.0.2",
      "purl" : "pkg:rpm/amazon/expat@2.1.0-15.amzn2.0.2?arch=x86_64&distro=amazon-2%20%28Karoo%29",
      "type" : "library",
      "bom-ref" : "d8cea24f-802f-42e3-825c-4e9bc990f92d"
    },
    {
      "name" : "file-libs",
      "version" : "5.11-36.amzn2.0.1",
      "purl" : "pkg:rpm/amazon/file-libs@5.11-36.amzn2.0.1?arch=x86_64&distro=amazon-2%20%28Karoo%29",
      "type" : "library",
      "bom-ref" : "63bbb3ea-99b9-476e-978a-39282760c850"
    },
    {
      "name" : "filesystem",
      "version" : "3.2-25.amzn2.0.4",
      "purl" : "pkg:rpm/amazon/filesystem@3.2-25.amzn2.0.4?arch=x86_64&distro=amazon-2%20%28Karoo%29",
      "type" : "library",
      "bom-ref" : "277b3658-6c1f-4f11-813d-84926d05bc96"
    },
    {
      "name" : "findutils",
      "version" : "1:4.5.11-6.amzn2",
      "purl" : "pkg:rpm/amazon/findutils@1%3A4.5.11-6.amzn2?arch=x86_64&distro=amazon-2%20%28Karoo%29",
      "type" : "library",
      "bom-ref" : "687c7831-7d68-41db-960d-a4857751a300"
    },
    {
      "name" : "fontconfig",
      "version" : "2.13.0-4.3.amzn2",
      "purl" : "pkg:rpm/amazon/fontconfig@2.13.0-4.3.amzn2?arch=x86_64&distro=amazon-2%20%28Karoo%29",
      "type" : "library",
      "bom-ref" : "d497e177-f2ab-4d46-bff5-1efb926ecf51"
    },
    {
      "name" : "fontpackages-filesystem",
      "version" : "1.44-8.amzn2",
      "purl" : "pkg:rpm/amazon/fontpackages-filesystem@1.44-8.amzn2?arch=noarch&distro=amazon-2%20%28Karoo%29",
      "type" : "library",
      "bom-ref" : "b4fb8d03-6676-4155-bf30-3b987663bf24"
    },
    {
      "name" : "freetype",
      "version" : "2.8-14.amzn2.1.1",
      "purl" : "pkg:rpm/amazon/freetype@2.8-14.amzn2.1.1?arch=x86_64&distro=amazon-2%20%28Karoo%29",
      "type" : "library",
      "bom-ref" : "ca606fc3-3387-4c55-9e70-8450eff6f22a"
    },
    {
      "name" : "gawk",
      "version" : "4.0.2-4.amzn2.1.2",
      "purl" : "pkg:rpm/amazon/gawk@4.0.2-4.amzn2.1.2?arch=x86_64&distro=amazon-2%20%28Karoo%29",
      "type" : "library",
      "bom-ref" : "765d3c69-b5fe-4f3c-9284-602f1f749098"
    },
    {
      "name" : "gdbm",
      "version" : "1:1.13-6.amzn2.0.2",
      "purl" : "pkg:rpm/amazon/gdbm@1%3A1.13-6.amzn2.0.2?arch=x86_64&distro=amazon-2%20%28Karoo%29",
      "type" : "library",
      "bom-ref" : "123a19c2-43bd-40f4-bdff-59db2751c11e"
    },
    {
      "name" : "glib2",
      "version" : "2.56.1-9.amzn2.0.2",
      "purl" : "pkg:rpm/amazon/glib2@2.56.1-9.amzn2.0.2?arch=x86_64&distro=amazon-2%20%28Karoo%29",
      "type" : "library",
      "bom-ref" : "329c04f7-2d67-4214-8e55-0ad0d6fd3f96"
    },
    {
      "name" : "glibc",
      "version" : "2.26-62.amzn2",
      "purl" : "pkg:rpm/amazon/glibc@2.26-62.amzn2?arch=x86_64&distro=amazon-2%20%28Karoo%29",
      "type" : "library",
      "bom-ref" : "eafb5706-fb3a-4baf-82e0-f216547485a9"
    },
    {
      "name" : "glibc-common",
      "version" : "2.26-62.amzn2",
      "purl" : "pkg:rpm/amazon/glibc-common@2.26-62.amzn2?arch=x86_64&distro=amazon-2%20%28Karoo%29",
      "type" : "library",
      "bom-ref" : "fa24ca87-faac-478a-ba12-fb1cc6f5513c"
    },
    {
      "name" : "glibc-langpack-en",
      "version" : "2.26-62.amzn2",
      "purl" : "pkg:rpm/amazon/glibc-langpack-en@2.26-62.amzn2?arch=x86_64&distro=amazon-2%20%28Karoo%29",
      "type" : "library",
      "bom-ref" : "e8c91275-842a-440e-8737-20266d60eb3b"
    },
    {
      "name" : "glibc-minimal-langpack",
      "version" : "2.26-62.amzn2",
      "purl" : "pkg:rpm/amazon/glibc-minimal-langpack@2.26-62.amzn2?arch=x86_64&distro=amazon-2%20%28Karoo%29",
      "type" : "library",
      "bom-ref" : "d59f7ab0-5157-4d30-99b6-fbaacf71e910"
    },
    {
      "name" : "gmp",
      "version" : "1:6.0.0-15.amzn2.0.2",
      "purl" : "pkg:rpm/amazon/gmp@1%3A6.0.0-15.amzn2.0.2?arch=x86_64&distro=amazon-2%20%28Karoo%29",
      "type" : "library",
      "bom-ref" : "6db2f5ba-b7c5-49e7-a9ab-18f7e2bd6d38"
    },
    {
      "name" : "gnupg2",
      "version" : "2.0.22-5.amzn2.0.5",
      "purl" : "pkg:rpm/amazon/gnupg2@2.0.22-5.amzn2.0.5?arch=x86_64&distro=amazon-2%20%28Karoo%29",
      "type" : "library",
      "bom-ref" : "87b0fe68-bccd-48e3-934f-30d23edc7417"
    },
    {
      "name" : "gpg-pubkey",
      "version" : "b04f24e3-5de94a19",
      "purl" : "pkg:rpm/amazon/gpg-pubkey@b04f24e3-5de94a19?arch=None&distro=amazon-2%20%28Karoo%29",
      "type" : "library",
      "bom-ref" : "41db04ca-c762-4f84-90e4-17aeee74ca41"
    },
    {
      "name" : "gpg-pubkey",
      "version" : "c87f5b1a-593863f8",
      "purl" : "pkg:rpm/amazon/gpg-pubkey@c87f5b1a-593863f8?arch=None&distro=amazon-2%20%28Karoo%29",
      "type" : "library",
      "bom-ref" : "6ba7d87c-a81b-4771-95a7-d2ca7362fdff"
    },
    {
      "name" : "gpgme",
      "version" : "1.3.2-5.amzn2.0.2",
      "purl" : "pkg:rpm/amazon/gpgme@1.3.2-5.amzn2.0.2?arch=x86_64&distro=amazon-2%20%28Karoo%29",
      "type" : "library",
      "bom-ref" : "9c1248b7-408e-48de-a018-ec2a9741e16d"
    },
    {
      "name" : "grep",
      "version" : "2.20-3.amzn2.0.2",
      "purl" : "pkg:rpm/amazon/grep@2.20-3.amzn2.0.2?arch=x86_64&distro=amazon-2%20%28Karoo%29",
      "type" : "library",
      "bom-ref" : "8b64b602-966a-4913-9dbd-9b83b96c60f8"
    },
    {
      "name" : "info",
      "version" : "5.1-5.amzn2",
      "purl" : "pkg:rpm/amazon/info@5.1-5.amzn2?arch=x86_64&distro=amazon-2%20%28Karoo%29",
      "type" : "library",
      "bom-ref" : "2fbb840d-5983-465c-b955-2f86e1a0f5f7"
    },
    {
      "name" : "java-17-amazon-corretto-devel",
      "version" : "1:17.0.6.10-1",
      "purl" : "pkg:rpm/amazon/java-17-amazon-corretto-devel@1%3A17.0.6.10-1?arch=x86_64&distro=amazon-2%20%28Karoo%29",
      "type" : "library",
      "bom-ref" : "29eac8d3-f1dd-4a06-ae70-f25c29d5620f"
    },
    {
      "name" : "keyutils-libs",
      "version" : "1.5.8-3.amzn2.0.2",
      "purl" : "pkg:rpm/amazon/keyutils-libs@1.5.8-3.amzn2.0.2?arch=x86_64&distro=amazon-2%20%28Karoo%29",
      "type" : "library",
      "bom-ref" : "036c159e-c182-4595-af52-7b5a5d68bded"
    },
    {
      "name" : "krb5-libs",
      "version" : "1.15.1-55.amzn2.2.5",
      "purl" : "pkg:rpm/amazon/krb5-libs@1.15.1-55.amzn2.2.5?arch=x86_64&distro=amazon-2%20%28Karoo%29",
      "type" : "library",
      "bom-ref" : "115a177e-c0ae-433d-9d6a-1061ef7629d6"
    },
    {
      "name" : "libacl",
      "version" : "2.2.51-14.amzn2",
      "purl" : "pkg:rpm/amazon/libacl@2.2.51-14.amzn2?arch=x86_64&distro=amazon-2%20%28Karoo%29",
      "type" : "library",
      "bom-ref" : "deb0a4a9-0016-429d-a75b-de2c7ad7ff33"
    },
    {
      "name" : "libassuan",
      "version" : "2.1.0-3.amzn2.0.2",
      "purl" : "pkg:rpm/amazon/libassuan@2.1.0-3.amzn2.0.2?arch=x86_64&distro=amazon-2%20%28Karoo%29",
      "type" : "library",
      "bom-ref" : "aa045488-fd28-40e0-93f3-e6c152a2d64c"
    },
    {
      "name" : "libattr",
      "version" : "2.4.46-12.amzn2.0.2",
      "purl" : "pkg:rpm/amazon/libattr@2.4.46-12.amzn2.0.2?arch=x86_64&distro=amazon-2%20%28Karoo%29",
      "type" : "library",
      "bom-ref" : "2e27e672-9e94-4994-a599-05b52e22d89d"
    },
    {
      "name" : "libblkid",
      "version" : "2.30.2-2.amzn2.0.11",
      "purl" : "pkg:rpm/amazon/libblkid@2.30.2-2.amzn2.0.11?arch=x86_64&distro=amazon-2%20%28Karoo%29",
      "type" : "library",
      "bom-ref" : "1d118aaf-377f-417e-9d68-1ec4978b5284"
    },
    {
      "name" : "libcap",
      "version" : "2.54-1.amzn2.0.1",
      "purl" : "pkg:rpm/amazon/libcap@2.54-1.amzn2.0.1?arch=x86_64&distro=amazon-2%20%28Karoo%29",
      "type" : "library",
      "bom-ref" : "ba7a8624-6322-4af4-b6d1-5e7094dc69da"
    },
    {
      "name" : "libcom_err",
      "version" : "1.42.9-19.amzn2.0.1",
      "purl" : "pkg:rpm/amazon/libcom_err@1.42.9-19.amzn2.0.1?arch=x86_64&distro=amazon-2%20%28Karoo%29",
      "type" : "library",
      "bom-ref" : "66e949bc-28b8-4a35-8e98-c09b87d96042"
    },
    {
      "name" : "libcrypt",
      "version" : "2.26-62.amzn2",
      "purl" : "pkg:rpm/amazon/libcrypt@2.26-62.amzn2?arch=x86_64&distro=amazon-2%20%28Karoo%29",
      "type" : "library",
      "bom-ref" : "ce9857f8-5d17-4120-80d4-ae1af248f9f3"
    },
    {
      "name" : "libcurl",
      "version" : "7.87.0-2.amzn2.0.1",
      "purl" : "pkg:rpm/amazon/libcurl@7.87.0-2.amzn2.0.1?arch=x86_64&distro=amazon-2%20%28Karoo%29",
      "type" : "library",
      "bom-ref" : "a11e4ad7-6008-4605-837e-493a377535cf"
    },
    {
      "name" : "libdb",
      "version" : "5.3.21-24.amzn2.0.3",
      "purl" : "pkg:rpm/amazon/libdb@5.3.21-24.amzn2.0.3?arch=x86_64&distro=amazon-2%20%28Karoo%29",
      "type" : "library",
      "bom-ref" : "19acf206-b8d7-42c7-91df-14301e2f1daa"
    },
    {
      "name" : "libdb-utils",
      "version" : "5.3.21-24.amzn2.0.3",
      "purl" : "pkg:rpm/amazon/libdb-utils@5.3.21-24.amzn2.0.3?arch=x86_64&distro=amazon-2%20%28Karoo%29",
      "type" : "library",
      "bom-ref" : "b99b4582-eea0-414b-8fa2-aa325fb9ca9a"
    },
    {
      "name" : "libffi",
      "version" : "3.0.13-18.amzn2.0.2",
      "purl" : "pkg:rpm/amazon/libffi@3.0.13-18.amzn2.0.2?arch=x86_64&distro=amazon-2%20%28Karoo%29",
      "type" : "library",
      "bom-ref" : "5f518872-667e-4ce2-b133-bd7fa8b422b3"
    },
    {
      "name" : "libgcc",
      "version" : "7.3.1-15.amzn2",
      "purl" : "pkg:rpm/amazon/libgcc@7.3.1-15.amzn2?arch=x86_64&distro=amazon-2%20%28Karoo%29",
      "type" : "library",
      "bom-ref" : "aea983e2-48d5-41f1-9f2b-d83c09f23fac"
    },
    {
      "name" : "libgcrypt",
      "version" : "1.5.3-14.amzn2.0.3",
      "purl" : "pkg:rpm/amazon/libgcrypt@1.5.3-14.amzn2.0.3?arch=x86_64&distro=amazon-2%20%28Karoo%29",
      "type" : "library",
      "bom-ref" : "dcd1656c-63f4-4a6f-93bf-6b7dfb6a937d"
    },
    {
      "name" : "libgpg-error",
      "version" : "1.12-3.amzn2.0.3",
      "purl" : "pkg:rpm/amazon/libgpg-error@1.12-3.amzn2.0.3?arch=x86_64&distro=amazon-2%20%28Karoo%29",
      "type" : "library",
      "bom-ref" : "bfdc55b7-6e5c-484c-9a57-9c40fa524692"
    },
    {
      "name" : "libidn2",
      "version" : "2.3.0-1.amzn2",
      "purl" : "pkg:rpm/amazon/libidn2@2.3.0-1.amzn2?arch=x86_64&distro=amazon-2%20%28Karoo%29",
      "type" : "library",
      "bom-ref" : "fc29b0cf-264b-4876-9dc6-be34dc1d57bb"
    },
    {
      "name" : "libmetalink",
      "version" : "0.1.3-13.amzn2",
      "purl" : "pkg:rpm/amazon/libmetalink@0.1.3-13.amzn2?arch=x86_64&distro=amazon-2%20%28Karoo%29",
      "type" : "library",
      "bom-ref" : "ca119071-f0b0-4edb-b9d3-b6ea05f7937f"
    },
    {
      "name" : "libmount",
      "version" : "2.30.2-2.amzn2.0.11",
      "purl" : "pkg:rpm/amazon/libmount@2.30.2-2.amzn2.0.11?arch=x86_64&distro=amazon-2%20%28Karoo%29",
      "type" : "library",
      "bom-ref" : "9aaa02b4-9747-4d61-8ad4-5b5378a679c2"
    },
    {
      "name" : "libnghttp2",
      "version" : "1.41.0-1.amzn2",
      "purl" : "pkg:rpm/amazon/libnghttp2@1.41.0-1.amzn2?arch=x86_64&distro=amazon-2%20%28Karoo%29",
      "type" : "library",
      "bom-ref" : "7cf63ab3-c3ad-4643-8a08-d308db532dc1"
    },
    {
      "name" : "libpng",
      "version" : "2:1.5.13-8.amzn2.0.1",
      "purl" : "pkg:rpm/amazon/libpng@2%3A1.5.13-8.amzn2.0.1?arch=x86_64&distro=amazon-2%20%28Karoo%29",
      "type" : "library",
      "bom-ref" : "ef526cbb-0125-4a54-9dfd-8102dcb45cd3"
    },
    {
      "name" : "libselinux",
      "version" : "2.5-12.amzn2.0.2",
      "purl" : "pkg:rpm/amazon/libselinux@2.5-12.amzn2.0.2?arch=x86_64&distro=amazon-2%20%28Karoo%29",
      "type" : "library",
      "bom-ref" : "6b477f0f-8fed-4925-9bbe-397679688d06"
    },
    {
      "name" : "libsepol",
      "version" : "2.5-8.1.amzn2.0.2",
      "purl" : "pkg:rpm/amazon/libsepol@2.5-8.1.amzn2.0.2?arch=x86_64&distro=amazon-2%20%28Karoo%29",
      "type" : "library",
      "bom-ref" : "bb90624c-928b-4549-8942-d48c1a9b976f"
    },
    {
      "name" : "libssh2",
      "version" : "1.4.3-12.amzn2.2.3",
      "purl" : "pkg:rpm/amazon/libssh2@1.4.3-12.amzn2.2.3?arch=x86_64&distro=amazon-2%20%28Karoo%29",
      "type" : "library",
      "bom-ref" : "c42ceb87-53a1-414e-b843-5cb0914462ef"
    },
    {
      "name" : "libstdc++",
      "version" : "7.3.1-15.amzn2",
      "purl" : "pkg:rpm/amazon/libstdc%20%20@7.3.1-15.amzn2?arch=x86_64&distro=amazon-2%20%28Karoo%29",
      "type" : "library",
      "bom-ref" : "5cbca714-8ff9-4362-a47a-9f80bc160450"
    },
    {
      "name" : "libtasn1",
      "version" : "4.10-1.amzn2.0.3",
      "purl" : "pkg:rpm/amazon/libtasn1@4.10-1.amzn2.0.3?arch=x86_64&distro=amazon-2%20%28Karoo%29",
      "type" : "library",
      "bom-ref" : "38d71fde-aaef-4be5-affb-5b7f2fd50b9c"
    },
    {
      "name" : "libunistring",
      "version" : "0.9.3-9.amzn2.0.2",
      "purl" : "pkg:rpm/amazon/libunistring@0.9.3-9.amzn2.0.2?arch=x86_64&distro=amazon-2%20%28Karoo%29",
      "type" : "library",
      "bom-ref" : "b131a107-2861-46b1-a844-80eef9573109"
    },
    {
      "name" : "libuuid",
      "version" : "2.30.2-2.amzn2.0.11",
      "purl" : "pkg:rpm/amazon/libuuid@2.30.2-2.amzn2.0.11?arch=x86_64&distro=amazon-2%20%28Karoo%29",
      "type" : "library",
      "bom-ref" : "4055c720-f71c-4553-9a79-b04000b8b9fc"
    },
    {
      "name" : "libverto",
      "version" : "0.2.5-4.amzn2.0.2",
      "purl" : "pkg:rpm/amazon/libverto@0.2.5-4.amzn2.0.2?arch=x86_64&distro=amazon-2%20%28Karoo%29",
      "type" : "library",
      "bom-ref" : "6c288ff9-8d86-4c72-918c-1855c5e773c2"
    },
    {
      "name" : "libxml2",
      "version" : "2.9.1-6.amzn2.5.6",
      "purl" : "pkg:rpm/amazon/libxml2@2.9.1-6.amzn2.5.6?arch=x86_64&distro=amazon-2%20%28Karoo%29",
      "type" : "library",
      "bom-ref" : "b383a5f5-7d67-4444-955e-d87ea7ea2e18"
    },
    {
      "name" : "lua",
      "version" : "5.1.4-15.amzn2.0.2",
      "purl" : "pkg:rpm/amazon/lua@5.1.4-15.amzn2.0.2?arch=x86_64&distro=amazon-2%20%28Karoo%29",
      "type" : "library",
      "bom-ref" : "6d2c6d8c-0457-49fd-9f4c-b0b62e173720"
    },
    {
      "name" : "ncurses",
      "version" : "6.0-8.20170212.amzn2.1.4",
      "purl" : "pkg:rpm/amazon/ncurses@6.0-8.20170212.amzn2.1.4?arch=x86_64&distro=amazon-2%20%28Karoo%29",
      "type" : "library",
      "bom-ref" : "840c04e1-b349-4435-8923-9add45812052"
    },
    {
      "name" : "ncurses-base",
      "version" : "6.0-8.20170212.amzn2.1.4",
      "purl" : "pkg:rpm/amazon/ncurses-base@6.0-8.20170212.amzn2.1.4?arch=noarch&distro=amazon-2%20%28Karoo%29",
      "type" : "library",
      "bom-ref" : "9a75c34a-f20b-4ec9-ace7-2daec0168eb0"
    },
    {
      "name" : "ncurses-libs",
      "version" : "6.0-8.20170212.amzn2.1.4",
      "purl" : "pkg:rpm/amazon/ncurses-libs@6.0-8.20170212.amzn2.1.4?arch=x86_64&distro=amazon-2%20%28Karoo%29",
      "type" : "library",
      "bom-ref" : "09df87f5-66c3-4da3-961e-8b05378682f0"
    },
    {
      "name" : "nspr",
      "version" : "4.34.0-3.1.amzn2",
      "purl" : "pkg:rpm/amazon/nspr@4.34.0-3.1.amzn2?arch=x86_64&distro=amazon-2%20%28Karoo%29",
      "type" : "library",
      "bom-ref" : "6dc38a4f-c05d-4da1-aa21-21262333cd9c"
    },
    {
      "name" : "nss",
      "version" : "3.79.0-4.amzn2",
      "purl" : "pkg:rpm/amazon/nss@3.79.0-4.amzn2?arch=x86_64&distro=amazon-2%20%28Karoo%29",
      "type" : "library",
      "bom-ref" : "ed10e9e8-3359-409a-a683-eca2a7b89696"
    },
    {
      "name" : "nss-pem",
      "version" : "1.0.3-5.amzn2",
      "purl" : "pkg:rpm/amazon/nss-pem@1.0.3-5.amzn2?arch=x86_64&distro=amazon-2%20%28Karoo%29",
      "type" : "library",
      "bom-ref" : "db8f0b83-d861-4f60-a4b8-714aea026004"
    },
    {
      "name" : "nss-softokn",
      "version" : "3.79.0-4.amzn2",
      "purl" : "pkg:rpm/amazon/nss-softokn@3.79.0-4.amzn2?arch=x86_64&distro=amazon-2%20%28Karoo%29",
      "type" : "library",
      "bom-ref" : "971f4853-b7d2-41d3-ac6f-3ef834689425"
    },
    {
      "name" : "nss-softokn-freebl",
      "version" : "3.79.0-4.amzn2",
      "purl" : "pkg:rpm/amazon/nss-softokn-freebl@3.79.0-4.amzn2?arch=x86_64&distro=amazon-2%20%28Karoo%29",
      "type" : "library",
      "bom-ref" : "775b9981-406b-4853-b5ab-c891bb188d80"
    },
    {
      "name" : "nss-sysinit",
      "version" : "3.79.0-4.amzn2",
      "purl" : "pkg:rpm/amazon/nss-sysinit@3.79.0-4.amzn2?arch=x86_64&distro=amazon-2%20%28Karoo%29",
      "type" : "library",
      "bom-ref" : "2ef5b8f4-ac38-450b-b904-841fefdea1bf"
    },
    {
      "name" : "nss-tools",
      "version" : "3.79.0-4.amzn2",
      "purl" : "pkg:rpm/amazon/nss-tools@3.79.0-4.amzn2?arch=x86_64&distro=amazon-2%20%28Karoo%29",
      "type" : "library",
      "bom-ref" : "9f4f3bba-52e3-4054-bf21-9bb55c3d2433"
    },
    {
      "name" : "nss-util",
      "version" : "3.79.0-1.amzn2",
      "purl" : "pkg:rpm/amazon/nss-util@3.79.0-1.amzn2?arch=x86_64&distro=amazon-2%20%28Karoo%29",
      "type" : "library",
      "bom-ref" : "f404f7bb-d66d-4848-813a-ae74b5d18b9e"
    },
    {
      "name" : "openldap",
      "version" : "2.4.44-23.amzn2.0.4",
      "purl" : "pkg:rpm/amazon/openldap@2.4.44-23.amzn2.0.4?arch=x86_64&distro=amazon-2%20%28Karoo%29",
      "type" : "library",
      "bom-ref" : "420e2a52-cf1a-43b7-86ed-12b2b358df74"
    },
    {
      "name" : "openssl-libs",
      "version" : "1:1.0.2k-24.amzn2.0.6",
      "purl" : "pkg:rpm/amazon/openssl-libs@1%3A1.0.2k-24.amzn2.0.6?arch=x86_64&distro=amazon-2%20%28Karoo%29",
      "type" : "library",
      "bom-ref" : "5cb0c59a-d5e6-4d46-bf5b-7d5a516b629b"
    },
    {
      "name" : "openssl11-libs",
      "version" : "1:1.1.1g-12.amzn2.0.11",
      "purl" : "pkg:rpm/amazon/openssl11-libs@1%3A1.1.1g-12.amzn2.0.11?arch=x86_64&distro=amazon-2%20%28Karoo%29",
      "type" : "library",
      "bom-ref" : "52ba32be-d71e-4729-aa9d-8bbd9998ccd3"
    },
    {
      "name" : "openssl11-pkcs11",
      "version" : "0.4.10-6.amzn2.0.1",
      "purl" : "pkg:rpm/amazon/openssl11-pkcs11@0.4.10-6.amzn2.0.1?arch=x86_64&distro=amazon-2%20%28Karoo%29",
      "type" : "library",
      "bom-ref" : "34df8601-35e6-4846-8fd4-a827aaba4adc"
    },
    {
      "name" : "org.apache.taglibs:taglibs-standard-impl",
      "version" : "1.2.5",
      "purl" : "pkg:maven/org.apache.taglibs/taglibs-standard-impl@1.2.5",
      "type" : "library",
      "bom-ref" : "9e535067-7d17-4a86-abd6-f1380c80b22a"
    },
    {
      "name" : "org.apache.taglibs:taglibs-standard-spec",
      "version" : "1.2.5",
      "purl" : "pkg:maven/org.apache.taglibs/taglibs-standard-spec@1.2.5",
      "type" : "library",
      "bom-ref" : "634cfdcf-5d24-4e57-ac80-f53630a6f657"
    },
    {
      "name" : "org.apache.tomcat:tomcat-annotations-api",
      "version" : "9.0.73",
      "purl" : "pkg:maven/org.apache.tomcat/tomcat-annotations-api@9.0.73",
      "type" : "library",
      "bom-ref" : "521e8174-ea8d-4124-9cb6-81330e859acd"
    },
    {
      "name" : "org.apache.tomcat:tomcat-api",
      "version" : "9.0.73",
      "purl" : "pkg:maven/org.apache.tomcat/tomcat-api@9.0.73",
      "type" : "library",
      "bom-ref" : "e7b4a183-08d6-409f-92b2-a0fd787e132c"
    },
    {
      "name" : "org.apache.tomcat:tomcat-catalina",
      "version" : "9.0.73",
      "purl" : "pkg:maven/org.apache.tomcat/tomcat-catalina@9.0.73",
      "type" : "library",
      "bom-ref" : "065d1f52-d711-43c6-97cd-0052dbc9d837"
    },
    {
      "name" : "org.apache.tomcat:tomcat-catalina-ant",
      "version" : "9.0.73",
      "purl" : "pkg:maven/org.apache.tomcat/tomcat-catalina-ant@9.0.73",
      "type" : "library",
      "bom-ref" : "8bd6c083-e3b4-48e5-89ec-d39bc914a029"
    },
    {
      "name" : "org.apache.tomcat:tomcat-catalina-ha",
      "version" : "9.0.73",
      "purl" : "pkg:maven/org.apache.tomcat/tomcat-catalina-ha@9.0.73",
      "type" : "library",
      "bom-ref" : "653eff5a-49dc-43d8-8e4f-8b28498c4654"
    },
    {
      "name" : "org.apache.tomcat:tomcat-coyote",
      "version" : "9.0.73",
      "purl" : "pkg:maven/org.apache.tomcat/tomcat-coyote@9.0.73",
      "type" : "library",
      "bom-ref" : "da95f580-efb6-4c03-b0af-15b687db4d01"
    },
    {
      "name" : "org.apache.tomcat:tomcat-dbcp",
      "version" : "9.0.73",
      "purl" : "pkg:maven/org.apache.tomcat/tomcat-dbcp@9.0.73",
      "type" : "library",
      "bom-ref" : "4e8dd9ec-efc9-48a1-a165-ab1123285651"
    },
    {
      "name" : "org.apache.tomcat:tomcat-el-api",
      "version" : "9.0.73",
      "purl" : "pkg:maven/org.apache.tomcat/tomcat-el-api@9.0.73",
      "type" : "library",
      "bom-ref" : "70abfe41-02fd-4f1f-95f7-2661144858f4"
    },
    {
      "name" : "org.apache.tomcat:tomcat-i18n-cs",
      "version" : "9.0.73",
      "purl" : "pkg:maven/org.apache.tomcat/tomcat-i18n-cs@9.0.73",
      "type" : "library",
      "bom-ref" : "27832b64-2125-467f-8ac2-e261654276be"
    },
    {
      "name" : "org.apache.tomcat:tomcat-i18n-de",
      "version" : "9.0.73",
      "purl" : "pkg:maven/org.apache.tomcat/tomcat-i18n-de@9.0.73",
      "type" : "library",
      "bom-ref" : "d793c20e-60ed-4549-9a77-57ca8e5c5470"
    },
    {
      "name" : "org.apache.tomcat:tomcat-i18n-es",
      "version" : "9.0.73",
      "purl" : "pkg:maven/org.apache.tomcat/tomcat-i18n-es@9.0.73",
      "type" : "library",
      "bom-ref" : "ccf94649-7e4c-4014-b84d-c9ced24e45ac"
    },
    {
      "name" : "org.apache.tomcat:tomcat-i18n-fr",
      "version" : "9.0.73",
      "purl" : "pkg:maven/org.apache.tomcat/tomcat-i18n-fr@9.0.73",
      "type" : "library",
      "bom-ref" : "aec62eb6-6734-45fc-b773-74e4379814f1"
    },
    {
      "name" : "org.apache.tomcat:tomcat-i18n-ja",
      "version" : "9.0.73",
      "purl" : "pkg:maven/org.apache.tomcat/tomcat-i18n-ja@9.0.73",
      "type" : "library",
      "bom-ref" : "9ab6a53b-d282-4f2c-9227-95ea10f6b6db"
    },
    {
      "name" : "org.apache.tomcat:tomcat-i18n-ko",
      "version" : "9.0.73",
      "purl" : "pkg:maven/org.apache.tomcat/tomcat-i18n-ko@9.0.73",
      "type" : "library",
      "bom-ref" : "92917b5d-563d-4b4f-a3a5-5b72b7be0fb2"
    },
    {
      "name" : "org.apache.tomcat:tomcat-i18n-pt-BR",
      "version" : "9.0.73",
      "purl" : "pkg:maven/org.apache.tomcat/tomcat-i18n-pt-BR@9.0.73",
      "type" : "library",
      "bom-ref" : "cb6af933-afdf-47c8-a0f8-dab804ed515d"
    },
    {
      "name" : "org.apache.tomcat:tomcat-i18n-ru",
      "version" : "9.0.73",
      "purl" : "pkg:maven/org.apache.tomcat/tomcat-i18n-ru@9.0.73",
      "type" : "library",
      "bom-ref" : "4356818c-e1fc-4cfe-94e5-1a539cbc5867"
    },
    {
      "name" : "org.apache.tomcat:tomcat-i18n-zh-CN",
      "version" : "9.0.73",
      "purl" : "pkg:maven/org.apache.tomcat/tomcat-i18n-zh-CN@9.0.73",
      "type" : "library",
      "bom-ref" : "5a4e5628-7a3e-498a-a003-bc8f5f41fa5c"
    },
    {
      "name" : "org.apache.tomcat:tomcat-jasper",
      "version" : "9.0.73",
      "purl" : "pkg:maven/org.apache.tomcat/tomcat-jasper@9.0.73",
      "type" : "library",
      "bom-ref" : "2baf0dce-0640-4037-83f6-c0c5bca36327"
    },
    {
      "name" : "org.apache.tomcat:tomcat-jasper-el",
      "version" : "9.0.73",
      "purl" : "pkg:maven/org.apache.tomcat/tomcat-jasper-el@9.0.73",
      "type" : "library",
      "bom-ref" : "3874f647-05b1-4898-b7b8-cb4a5c491f36"
    },
    {
      "name" : "org.apache.tomcat:tomcat-jaspic-api",
      "version" : "9.0.73",
      "purl" : "pkg:maven/org.apache.tomcat/tomcat-jaspic-api@9.0.73",
      "type" : "library",
      "bom-ref" : "47e0fb85-67c2-4a8a-8288-ed7b88cdc899"
    },
    {
      "name" : "org.apache.tomcat:tomcat-jdbc",
      "version" : "9.0.73",
      "purl" : "pkg:maven/org.apache.tomcat/tomcat-jdbc@9.0.73",
      "type" : "library",
      "bom-ref" : "fda46949-91ee-4a7f-b4b7-c8d31c70a4f7"
    },
    {
      "name" : "org.apache.tomcat:tomcat-jni",
      "version" : "9.0.73",
      "purl" : "pkg:maven/org.apache.tomcat/tomcat-jni@9.0.73",
      "type" : "library",
      "bom-ref" : "b97b31be-4a28-421d-9139-7665e24f85b8"
    },
    {
      "name" : "org.apache.tomcat:tomcat-jsp-api",
      "version" : "9.0.73",
      "purl" : "pkg:maven/org.apache.tomcat/tomcat-jsp-api@9.0.73",
      "type" : "library",
      "bom-ref" : "a95c803d-c235-4ded-97a0-657014f871a6"
    },
    {
      "name" : "org.apache.tomcat:tomcat-juli",
      "version" : "9.0.73",
      "purl" : "pkg:maven/org.apache.tomcat/tomcat-juli@9.0.73",
      "type" : "library",
      "bom-ref" : "2e634f74-ccc4-4ceb-8ea7-12f3bf0c8437"
    },
    {
      "name" : "org.apache.tomcat:tomcat-servlet-api",
      "version" : "9.0.73",
      "purl" : "pkg:maven/org.apache.tomcat/tomcat-servlet-api@9.0.73",
      "type" : "library",
      "bom-ref" : "17954dc8-3ae6-4bce-8149-f44e67bd633b"
    },
    {
      "name" : "org.apache.tomcat:tomcat-ssi",
      "version" : "9.0.73",
      "purl" : "pkg:maven/org.apache.tomcat/tomcat-ssi@9.0.73",
      "type" : "library",
      "bom-ref" : "cdfbe3f0-5877-4f39-a4d9-bffaf98ae396"
    },
    {
      "name" : "org.apache.tomcat:tomcat-storeconfig",
      "version" : "9.0.73",
      "purl" : "pkg:maven/org.apache.tomcat/tomcat-storeconfig@9.0.73",
      "type" : "library",
      "bom-ref" : "cff7817f-73bd-46d3-8469-0092f48923eb"
    },
    {
      "name" : "org.apache.tomcat:tomcat-tribes",
      "version" : "9.0.73",
      "purl" : "pkg:maven/org.apache.tomcat/tomcat-tribes@9.0.73",
      "type" : "library",
      "bom-ref" : "bbe42445-0cb2-477b-a509-10e31e8de4be"
    },
    {
      "name" : "org.apache.tomcat:tomcat-util",
      "version" : "9.0.73",
      "purl" : "pkg:maven/org.apache.tomcat/tomcat-util@9.0.73",
      "type" : "library",
      "bom-ref" : "21b92703-1f32-4879-a934-d587a5bd7278"
    },
    {
      "name" : "org.apache.tomcat:tomcat-util-scan",
      "version" : "9.0.73",
      "purl" : "pkg:maven/org.apache.tomcat/tomcat-util-scan@9.0.73",
      "type" : "library",
      "bom-ref" : "76679628-ecf1-4d81-870f-63807dd3dd82"
    },
    {
      "name" : "org.apache.tomcat:tomcat-websocket",
      "version" : "9.0.73",
      "purl" : "pkg:maven/org.apache.tomcat/tomcat-websocket@9.0.73",
      "type" : "library",
      "bom-ref" : "58d52471-ef58-4cb4-8cde-6c63fc9197a6"
    },
    {
      "name" : "org.apache.tomcat:tomcat-websocket-api",
      "version" : "9.0.73",
      "purl" : "pkg:maven/org.apache.tomcat/tomcat-websocket-api@9.0.73",
      "type" : "library",
      "bom-ref" : "d3cad851-9ebc-487a-9c02-d6c8890fad4a"
    },
    {
      "name" : "org.eclipse.jdt:ecj",
      "version" : "3.26.0",
      "purl" : "pkg:maven/org.eclipse.jdt/ecj@3.26.0",
      "type" : "library",
      "bom-ref" : "8cc570d9-c42d-4a60-970e-967934396e54"
    },
    {
      "name" : "p11-kit",
      "version" : "0.23.22-1.amzn2.0.1",
      "purl" : "pkg:rpm/amazon/p11-kit@0.23.22-1.amzn2.0.1?arch=x86_64&distro=amazon-2%20%28Karoo%29",
      "type" : "library",
      "bom-ref" : "519ca3ce-d7bc-4779-ba59-1cf0c31cb6e7"
    },
    {
      "name" : "p11-kit-trust",
      "version" : "0.23.22-1.amzn2.0.1",
      "purl" : "pkg:rpm/amazon/p11-kit-trust@0.23.22-1.amzn2.0.1?arch=x86_64&distro=amazon-2%20%28Karoo%29",
      "type" : "library",
      "bom-ref" : "039e08c7-4f44-4c3c-8e22-ea4f49ecfa30"
    },
    {
      "name" : "pcre",
      "version" : "8.32-17.amzn2.0.2",
      "purl" : "pkg:rpm/amazon/pcre@8.32-17.amzn2.0.2?arch=x86_64&distro=amazon-2%20%28Karoo%29",
      "type" : "library",
      "bom-ref" : "a7e4c62c-605e-4321-80ab-b28cec048525"
    },
    {
      "name" : "pinentry",
      "version" : "0.8.1-17.amzn2.0.2",
      "purl" : "pkg:rpm/amazon/pinentry@0.8.1-17.amzn2.0.2?arch=x86_64&distro=amazon-2%20%28Karoo%29",
      "type" : "library",
      "bom-ref" : "a68c5ad3-95ad-4341-8789-98b4ce3f10ce"
    },
    {
      "name" : "popt",
      "version" : "1.13-16.amzn2.0.2",
      "purl" : "pkg:rpm/amazon/popt@1.13-16.amzn2.0.2?arch=x86_64&distro=amazon-2%20%28Karoo%29",
      "type" : "library",
      "bom-ref" : "7e534c73-0228-49b1-9511-6239a561beb2"
    },
    {
      "name" : "pth",
      "version" : "2.0.7-23.amzn2.0.2",
      "purl" : "pkg:rpm/amazon/pth@2.0.7-23.amzn2.0.2?arch=x86_64&distro=amazon-2%20%28Karoo%29",
      "type" : "library",
      "bom-ref" : "67235010-210a-498f-b4b4-6588a254144d"
    },
    {
      "name" : "pygpgme",
      "version" : "0.3-9.amzn2.0.3",
      "purl" : "pkg:rpm/amazon/pygpgme@0.3-9.amzn2.0.3?arch=x86_64&distro=amazon-2%20%28Karoo%29",
      "type" : "library",
      "bom-ref" : "319a4a1e-12e7-4997-b414-604b99e98363"
    },
    {
      "name" : "pyliblzma",
      "version" : "0.5.3-25.amzn2",
      "purl" : "pkg:rpm/amazon/pyliblzma@0.5.3-25.amzn2?arch=x86_64&distro=amazon-2%20%28Karoo%29",
      "type" : "library",
      "bom-ref" : "c04e1418-e5fd-4840-b018-39dae8a25fd8"
    },
    {
      "name" : "python",
      "version" : "2.7.18-1.amzn2.0.5",
      "purl" : "pkg:rpm/amazon/python@2.7.18-1.amzn2.0.5?arch=x86_64&distro=amazon-2%20%28Karoo%29",
      "type" : "library",
      "bom-ref" : "3fb3bd55-6717-4c68-89e1-6a30c7639fee"
    },
    {
      "name" : "python-iniparse",
      "version" : "0.4-9.amzn2",
      "purl" : "pkg:rpm/amazon/python-iniparse@0.4-9.amzn2?arch=noarch&distro=amazon-2%20%28Karoo%29",
      "type" : "library",
      "bom-ref" : "d2752ae3-6ec1-48fa-92f2-0cd299b9b82c"
    },
    {
      "name" : "python-libs",
      "version" : "2.7.18-1.amzn2.0.5",
      "purl" : "pkg:rpm/amazon/python-libs@2.7.18-1.amzn2.0.5?arch=x86_64&distro=amazon-2%20%28Karoo%29",
      "type" : "library",
      "bom-ref" : "d7ee057f-720e-4d87-b6d5-55528433c10e"
    },
    {
      "name" : "python-pycurl",
      "version" : "7.19.0-19.amzn2.0.2",
      "purl" : "pkg:rpm/amazon/python-pycurl@7.19.0-19.amzn2.0.2?arch=x86_64&distro=amazon-2%20%28Karoo%29",
      "type" : "library",
      "bom-ref" : "e84f5a28-b279-42b8-a77d-3116ada5be9a"
    },
    {
      "name" : "python-urlgrabber",
      "version" : "3.10-9.amzn2.0.1",
      "purl" : "pkg:rpm/amazon/python-urlgrabber@3.10-9.amzn2.0.1?arch=noarch&distro=amazon-2%20%28Karoo%29",
      "type" : "library",
      "bom-ref" : "cbd88f70-d23d-495d-9925-990a039b6bbf"
    },
    {
      "name" : "python2-rpm",
      "version" : "4.11.3-48.amzn2.0.2",
      "purl" : "pkg:rpm/amazon/python2-rpm@4.11.3-48.amzn2.0.2?arch=x86_64&distro=amazon-2%20%28Karoo%29",
      "type" : "library",
      "bom-ref" : "7d31a6d6-6ec3-4a6e-ace9-76a6e52c8a68"
    },
    {
      "name" : "pyxattr",
      "version" : "0.5.1-5.amzn2.0.2",
      "purl" : "pkg:rpm/amazon/pyxattr@0.5.1-5.amzn2.0.2?arch=x86_64&distro=amazon-2%20%28Karoo%29",
      "type" : "library",
      "bom-ref" : "02e2b595-1293-4e83-af9d-08770a0d5a1d"
    },
    {
      "name" : "readline",
      "version" : "6.2-10.amzn2.0.2",
      "purl" : "pkg:rpm/amazon/readline@6.2-10.amzn2.0.2?arch=x86_64&distro=amazon-2%20%28Karoo%29",
      "type" : "library",
      "bom-ref" : "3adcf2e8-f3cf-4575-8fa2-5e20eac049c0"
    },
    {
      "name" : "rpm",
      "version" : "4.11.3-48.amzn2.0.2",
      "purl" : "pkg:rpm/amazon/rpm@4.11.3-48.amzn2.0.2?arch=x86_64&distro=amazon-2%20%28Karoo%29",
      "type" : "library",
      "bom-ref" : "a25487fa-c7d4-4184-8d47-e2fc5886522f"
    },
    {
      "name" : "rpm-build-libs",
      "version" : "4.11.3-48.amzn2.0.2",
      "purl" : "pkg:rpm/amazon/rpm-build-libs@4.11.3-48.amzn2.0.2?arch=x86_64&distro=amazon-2%20%28Karoo%29",
      "type" : "library",
      "bom-ref" : "e0e950dc-4005-4d47-8096-6a8e8681f2ed"
    },
    {
      "name" : "rpm-libs",
      "version" : "4.11.3-48.amzn2.0.2",
      "purl" : "pkg:rpm/amazon/rpm-libs@4.11.3-48.amzn2.0.2?arch=x86_64&distro=amazon-2%20%28Karoo%29",
      "type" : "library",
      "bom-ref" : "4193c495-594e-4b08-94a1-16634a8002f5"
    },
    {
      "name" : "sed",
      "version" : "4.2.2-5.amzn2.0.2",
      "purl" : "pkg:rpm/amazon/sed@4.2.2-5.amzn2.0.2?arch=x86_64&distro=amazon-2%20%28Karoo%29",
      "type" : "library",
      "bom-ref" : "5da09f45-8a89-4de7-8613-511dc4ff0115"
    },
    {
      "name" : "setup",
      "version" : "2.8.71-10.amzn2.0.1",
      "purl" : "pkg:rpm/amazon/setup@2.8.71-10.amzn2.0.1?arch=noarch&distro=amazon-2%20%28Karoo%29",
      "type" : "library",
      "bom-ref" : "71316ac9-233d-4e32-90e7-23ccd2528568"
    },
    {
      "name" : "shared-mime-info",
      "version" : "1.8-4.amzn2",
      "purl" : "pkg:rpm/amazon/shared-mime-info@1.8-4.amzn2?arch=x86_64&distro=amazon-2%20%28Karoo%29",
      "type" : "library",
      "bom-ref" : "6b616ece-1989-4ebe-bdbe-c2b0d1debe10"
    },
    {
      "name" : "sqlite",
      "version" : "3.7.17-8.amzn2.1.2",
      "purl" : "pkg:rpm/amazon/sqlite@3.7.17-8.amzn2.1.2?arch=x86_64&distro=amazon-2%20%28Karoo%29",
      "type" : "library",
      "bom-ref" : "337ed37c-57ae-44c9-b966-ad087c1869e3"
    },
    {
      "name" : "system-release",
      "version" : "1:2-14.amzn2",
      "purl" : "pkg:rpm/amazon/system-release@1%3A2-14.amzn2?arch=x86_64&distro=amazon-2%20%28Karoo%29",
      "type" : "library",
      "bom-ref" : "fd20a90b-7a36-4732-8a37-3a0c8ad3295e"
    },
    {
      "name" : "tzdata",
      "version" : "2022g-1.amzn2.0.2",
      "purl" : "pkg:rpm/amazon/tzdata@2022g-1.amzn2.0.2?arch=noarch&distro=amazon-2%20%28Karoo%29",
      "type" : "library",
      "bom-ref" : "5a51496d-467b-419f-bf1c-963d54e453f3"
    },
    {
      "name" : "vim-data",
      "version" : "2:9.0.1160-1.amzn2.0.1",
      "purl" : "pkg:rpm/amazon/vim-data@2%3A9.0.1160-1.amzn2.0.1?arch=noarch&distro=amazon-2%20%28Karoo%29",
      "type" : "library",
      "bom-ref" : "310260f0-7fb7-4561-85af-61df48fc8041"
    },
    {
      "name" : "vim-minimal",
      "version" : "2:9.0.1160-1.amzn2.0.1",
      "purl" : "pkg:rpm/amazon/vim-minimal@2%3A9.0.1160-1.amzn2.0.1?arch=x86_64&distro=amazon-2%20%28Karoo%29",
      "type" : "library",
      "bom-ref" : "908a9dc8-a471-4530-82b3-d83c4a471a9a"
    },
    {
      "name" : "xz-libs",
      "version" : "5.2.2-1.amzn2.0.3",
      "purl" : "pkg:rpm/amazon/xz-libs@5.2.2-1.amzn2.0.3?arch=x86_64&distro=amazon-2%20%28Karoo%29",
      "type" : "library",
      "bom-ref" : "d3b3a0a2-59fc-4c73-a404-5cbbf983deb4"
    },
    {
      "name" : "yum",
      "version" : "3.4.3-158.amzn2.0.6",
      "purl" : "pkg:rpm/amazon/yum@3.4.3-158.amzn2.0.6?arch=noarch&distro=amazon-2%20%28Karoo%29",
      "type" : "library",
      "bom-ref" : "0db7e4d7-b911-43ff-bd13-c3ba061ea8a5"
    },
    {
      "name" : "yum-metadata-parser",
      "version" : "1.1.4-10.amzn2.0.2",
      "purl" : "pkg:rpm/amazon/yum-metadata-parser@1.1.4-10.amzn2.0.2?arch=x86_64&distro=amazon-2%20%28Karoo%29",
      "type" : "library",
      "bom-ref" : "eee64867-e611-496e-a5c8-be2bb3b5f188"
    },
    {
      "name" : "yum-plugin-ovl",
      "version" : "1.1.31-46.amzn2.0.1",
      "purl" : "pkg:rpm/amazon/yum-plugin-ovl@1.1.31-46.amzn2.0.1?arch=noarch&distro=amazon-2%20%28Karoo%29",
      "type" : "library",
      "bom-ref" : "bc89e1f3-6379-48d6-85dd-8a62d5e96401"
    },
    {
      "name" : "yum-plugin-priorities",
      "version" : "1.1.31-46.amzn2.0.1",
      "purl" : "pkg:rpm/amazon/yum-plugin-priorities@1.1.31-46.amzn2.0.1?arch=noarch&distro=amazon-2%20%28Karoo%29",
      "type" : "library",
      "bom-ref" : "4022a20f-62c6-428a-b55d-5b0f64d413f6"
    },
    {
      "name" : "zlib",
      "version" : "1.2.7-19.amzn2.0.2",
      "purl" : "pkg:rpm/amazon/zlib@1.2.7-19.amzn2.0.2?arch=x86_64&distro=amazon-2%20%28Karoo%29",
      "type" : "library",
      "bom-ref" : "ca6d2b0b-691d-4f82-9d35-6245650680bf"
    }
  ],
  "dependencies" : [
    {
      "ref" : "ade8d9f3-0959-4383-9bff-e47232570931",
      "dependsOn" : [
        "0c8fc5ea-89df-4e5e-b954-67243f3a9f2d",
        "5410afd2-8fcf-4eff-adf2-f78015e5d0b1",
        "2e634f74-ccc4-4ceb-8ea7-12f3bf0c8437",
        "47e0fb85-67c2-4a8a-8288-ed7b88cdc899",
        "e7b4a183-08d6-409f-92b2-a0fd787e132c",
        "ccf94649-7e4c-4014-b84d-c9ced24e45ac",
        "5a4e5628-7a3e-498a-a003-bc8f5f41fa5c",
        "8bd6c083-e3b4-48e5-89ec-d39bc914a029",
        "bbe42445-0cb2-477b-a509-10e31e8de4be",
        "4e8dd9ec-efc9-48a1-a165-ab1123285651",
        "d793c20e-60ed-4549-9a77-57ca8e5c5470",
        "9ab6a53b-d282-4f2c-9227-95ea10f6b6db",
        "065d1f52-d711-43c6-97cd-0052dbc9d837",
        "da95f580-efb6-4c03-b0af-15b687db4d01",
        "aec62eb6-6734-45fc-b773-74e4379814f1",
        "4356818c-e1fc-4cfe-94e5-1a539cbc5867",
        "76679628-ecf1-4d81-870f-63807dd3dd82",
        "58d52471-ef58-4cb4-8cde-6c63fc9197a6",
        "d3cad851-9ebc-487a-9c02-d6c8890fad4a",
        "70abfe41-02fd-4f1f-95f7-2661144858f4",
        "27832b64-2125-467f-8ac2-e261654276be",
        "cb6af933-afdf-47c8-a0f8-dab804ed515d",
        "653eff5a-49dc-43d8-8e4f-8b28498c4654",
        "92917b5d-563d-4b4f-a3a5-5b72b7be0fb2",
        "cdfbe3f0-5877-4f39-a4d9-bffaf98ae396",
        "521e8174-ea8d-4124-9cb6-81330e859acd",
        "3874f647-05b1-4898-b7b8-cb4a5c491f36",
        "a95c803d-c235-4ded-97a0-657014f871a6",
        "17954dc8-3ae6-4bce-8149-f44e67bd633b",
        "fda46949-91ee-4a7f-b4b7-c8d31c70a4f7",
        "cff7817f-73bd-46d3-8469-0092f48923eb",
        "8cc570d9-c42d-4a60-970e-967934396e54",
        "2baf0dce-0640-4037-83f6-c0c5bca36327",
        "b97b31be-4a28-421d-9139-7665e24f85b8",
        "21b92703-1f32-4879-a934-d587a5bd7278",
        "9e535067-7d17-4a86-abd6-f1380c80b22a",
        "634cfdcf-5d24-4e57-ac80-f53630a6f657"
      ]
    },
    {
      "ref" : "0c8fc5ea-89df-4e5e-b954-67243f3a9f2d",
      "dependsOn" : [
        "6c244912-7b22-4b6b-b80b-612cd2e53f01",
        "baff5fb7-35b0-4ca8-8cd2-b6fa5c6f18fc",
        "a0f2b224-3d7b-4e08-a845-125f7477f6da",
        "07cfbef1-73c6-4019-a3e2-e480cfabdbae",
        "be6449dc-d107-4a21-8859-3fbf5d856c52",
        "53a66e15-14a7-4065-b79d-b81f94f7e271",
        "42e932bb-5f9e-4a88-8a47-62aef1b083e6",
        "f2885d4c-b05a-4847-95f5-93c1c869929d",
        "b67a5ca5-dc70-475d-8e43-0a5523b5875b",
        "6e08fa77-e7d9-4647-94c0-49c6fa2e1810",
        "88253c34-51cd-464e-b031-999126afbef5",
        "3095b0a0-0283-47e2-a9a8-3b2333cc1c4e",
        "3c3ac595-1e71-4ca1-83b4-d10c68d50879",
        "e1b0e7f1-2f9b-4fe1-bcf3-845dfac52b76",
        "8864eef3-2e70-4908-9f04-45e5fa403814",
        "d8cea24f-802f-42e3-825c-4e9bc990f92d",
        "63bbb3ea-99b9-476e-978a-39282760c850",
        "277b3658-6c1f-4f11-813d-84926d05bc96",
        "687c7831-7d68-41db-960d-a4857751a300",
        "d497e177-f2ab-4d46-bff5-1efb926ecf51",
        "b4fb8d03-6676-4155-bf30-3b987663bf24",
        "ca606fc3-3387-4c55-9e70-8450eff6f22a",
        "765d3c69-b5fe-4f3c-9284-602f1f749098",
        "123a19c2-43bd-40f4-bdff-59db2751c11e",
        "329c04f7-2d67-4214-8e55-0ad0d6fd3f96",
        "eafb5706-fb3a-4baf-82e0-f216547485a9",
        "fa24ca87-faac-478a-ba12-fb1cc6f5513c",
        "e8c91275-842a-440e-8737-20266d60eb3b",
        "d59f7ab0-5157-4d30-99b6-fbaacf71e910",
        "6db2f5ba-b7c5-49e7-a9ab-18f7e2bd6d38",
        "87b0fe68-bccd-48e3-934f-30d23edc7417",
        "41db04ca-c762-4f84-90e4-17aeee74ca41",
        "6ba7d87c-a81b-4771-95a7-d2ca7362fdff",
        "9c1248b7-408e-48de-a018-ec2a9741e16d",
        "8b64b602-966a-4913-9dbd-9b83b96c60f8",
        "2fbb840d-5983-465c-b955-2f86e1a0f5f7",
        "29eac8d3-f1dd-4a06-ae70-f25c29d5620f",
        "036c159e-c182-4595-af52-7b5a5d68bded",
        "115a177e-c0ae-433d-9d6a-1061ef7629d6",
        "deb0a4a9-0016-429d-a75b-de2c7ad7ff33",
        "aa045488-fd28-40e0-93f3-e6c152a2d64c",
        "2e27e672-9e94-4994-a599-05b52e22d89d",
        "1d118aaf-377f-417e-9d68-1ec4978b5284",
        "ba7a8624-6322-4af4-b6d1-5e7094dc69da",
        "66e949bc-28b8-4a35-8e98-c09b87d96042",
        "ce9857f8-5d17-4120-80d4-ae1af248f9f3",
        "a11e4ad7-6008-4605-837e-493a377535cf",
        "19acf206-b8d7-42c7-91df-14301e2f1daa",
        "b99b4582-eea0-414b-8fa2-aa325fb9ca9a",
        "5f518872-667e-4ce2-b133-bd7fa8b422b3",
        "aea983e2-48d5-41f1-9f2b-d83c09f23fac",
        "dcd1656c-63f4-4a6f-93bf-6b7dfb6a937d",
        "bfdc55b7-6e5c-484c-9a57-9c40fa524692",
        "fc29b0cf-264b-4876-9dc6-be34dc1d57bb",
        "ca119071-f0b0-4edb-b9d3-b6ea05f7937f",
        "9aaa02b4-9747-4d61-8ad4-5b5378a679c2",
        "7cf63ab3-c3ad-4643-8a08-d308db532dc1",
        "ef526cbb-0125-4a54-9dfd-8102dcb45cd3",
        "6b477f0f-8fed-4925-9bbe-397679688d06",
        "bb90624c-928b-4549-8942-d48c1a9b976f",
        "c42ceb87-53a1-414e-b843-5cb0914462ef",
        "5cbca714-8ff9-4362-a47a-9f80bc160450",
        "38d71fde-aaef-4be5-affb-5b7f2fd50b9c",
        "b131a107-2861-46b1-a844-80eef9573109",
        "4055c720-f71c-4553-9a79-b04000b8b9fc",
        "6c288ff9-8d86-4c72-918c-1855c5e773c2",
        "b383a5f5-7d67-4444-955e-d87ea7ea2e18",
        "6d2c6d8c-0457-49fd-9f4c-b0b62e173720",
        "840c04e1-b349-4435-8923-9add45812052",
        "9a75c34a-f20b-4ec9-ace7-2daec0168eb0",
        "09df87f5-66c3-4da3-961e-8b05378682f0",
        "6dc38a4f-c05d-4da1-aa21-21262333cd9c",
        "ed10e9e8-3359-409a-a683-eca2a7b89696",
        "db8f0b83-d861-4f60-a4b8-714aea026004",
        "971f4853-b7d2-41d3-ac6f-3ef834689425",
        "775b9981-406b-4853-b5ab-c891bb188d80",
        "2ef5b8f4-ac38-450b-b904-841fefdea1bf",
        "9f4f3bba-52e3-4054-bf21-9bb55c3d2433",
        "f404f7bb-d66d-4848-813a-ae74b5d18b9e",
        "420e2a52-cf1a-43b7-86ed-12b2b358df74",
        "5cb0c59a-d5e6-4d46-bf5b-7d5a516b629b",
        "52ba32be-d71e-4729-aa9d-8bbd9998ccd3",
        "34df8601-35e6-4846-8fd4-a827aaba4adc",
        "519ca3ce-d7bc-4779-ba59-1cf0c31cb6e7",
        "039e08c7-4f44-4c3c-8e22-ea4f49ecfa30",
        "a7e4c62c-605e-4321-80ab-b28cec048525",
        "a68c5ad3-95ad-4341-8789-98b4ce3f10ce",
        "7e534c73-0228-49b1-9511-6239a561beb2",
        "67235010-210a-498f-b4b4-6588a254144d",
        "319a4a1e-12e7-4997-b414-604b99e98363",
        "c04e1418-e5fd-4840-b018-39dae8a25fd8",
        "3fb3bd55-6717-4c68-89e1-6a30c7639fee",
        "d2752ae3-6ec1-48fa-92f2-0cd299b9b82c",
        "d7ee057f-720e-4d87-b6d5-55528433c10e",
        "e84f5a28-b279-42b8-a77d-3116ada5be9a",
        "cbd88f70-d23d-495d-9925-990a039b6bbf",
        "7d31a6d6-6ec3-4a6e-ace9-76a6e52c8a68",
        "02e2b595-1293-4e83-af9d-08770a0d5a1d",
        "3adcf2e8-f3cf-4575-8fa2-5e20eac049c0",
        "a25487fa-c7d4-4184-8d47-e2fc5886522f",
        "e0e950dc-4005-4d47-8096-6a8e8681f2ed",
        "4193c495-594e-4b08-94a1-16634a8002f5",
        "5da09f45-8a89-4de7-8613-511dc4ff0115",
        "71316ac9-233d-4e32-90e7-23ccd2528568",
        "6b616ece-1989-4ebe-bdbe-c2b0d1debe10",
        "337ed37c-57ae-44c9-b966-ad087c1869e3",
        "fd20a90b-7a36-4732-8a37-3a0c8ad3295e",
        "5a51496d-467b-419f-bf1c-963d54e453f3",
        "310260f0-7fb7-4561-85af-61df48fc8041",
        "908a9dc8-a471-4530-82b3-d83c4a471a9a",
        "d3b3a0a2-59fc-4c73-a404-5cbbf983deb4",
        "0db7e4d7-b911-43ff-bd13-c3ba061ea8a5",
        "eee64867-e611-496e-a5c8-be2bb3b5f188",
        "bc89e1f3-6379-48d6-85dd-8a62d5e96401",
        "4022a20f-62c6-428a-b55d-5b0f64d413f6",
        "ca6d2b0b-691d-4f82-9d35-6245650680bf"
      ]
    },
    {
      "ref" : "6c244912-7b22-4b6b-b80b-612cd2e53f01",
      "dependsOn" : [ ]
    },
    {
      "ref" : "baff5fb7-35b0-4ca8-8cd2-b6fa5c6f18fc",
      "dependsOn" : [ ]
    },
    {
      "ref" : "a0f2b224-3d7b-4e08-a845-125f7477f6da",
      "dependsOn" : [ ]
    },
    {
      "ref" : "07cfbef1-73c6-4019-a3e2-e480cfabdbae",
      "dependsOn" : [ ]
    },
    {
      "ref" : "be6449dc-d107-4a21-8859-3fbf5d856c52",
      "dependsOn" : [ ]
    },
    {
      "ref" : "53a66e15-14a7-4065-b79d-b81f94f7e271",
      "dependsOn" : [ ]
    },
    {
      "ref" : "42e932bb-5f9e-4a88-8a47-62aef1b083e6",
      "dependsOn" : [ ]
    },
    {
      "ref" : "5410afd2-8fcf-4eff-adf2-f78015e5d0b1",
      "dependsOn" : [ ]
    },
    {
      "ref" : "f2885d4c-b05a-4847-95f5-93c1c869929d",
      "dependsOn" : [ ]
    },
    {
      "ref" : "b67a5ca5-dc70-475d-8e43-0a5523b5875b",
      "dependsOn" : [ ]
    },
    {
      "ref" : "6e08fa77-e7d9-4647-94c0-49c6fa2e1810",
      "dependsOn" : [ ]
    },
    {
      "ref" : "88253c34-51cd-464e-b031-999126afbef5",
      "dependsOn" : [ ]
    },
    {
      "ref" : "3095b0a0-0283-47e2-a9a8-3b2333cc1c4e",
      "dependsOn" : [ ]
    },
    {
      "ref" : "3c3ac595-1e71-4ca1-83b4-d10c68d50879",
      "dependsOn" : [ ]
    },
    {
      "ref" : "e1b0e7f1-2f9b-4fe1-bcf3-845dfac52b76",
      "dependsOn" : [ ]
    },
    {
      "ref" : "8864eef3-2e70-4908-9f04-45e5fa403814",
      "dependsOn" : [ ]
    },
    {
      "ref" : "d8cea24f-802f-42e3-825c-4e9bc990f92d",
      "dependsOn" : [ ]
    },
    {
      "ref" : "63bbb3ea-99b9-476e-978a-39282760c850",
      "dependsOn" : [ ]
    },
    {
      "ref" : "277b3658-6c1f-4f11-813d-84926d05bc96",
      "dependsOn" : [ ]
    },
    {
      "ref" : "687c7831-7d68-41db-960d-a4857751a300",
      "dependsOn" : [ ]
    },
    {
      "ref" : "d497e177-f2ab-4d46-bff5-1efb926ecf51",
      "dependsOn" : [ ]
    },
    {
      "ref" : "b4fb8d03-6676-4155-bf30-3b987663bf24",
      "dependsOn" : [ ]
    },
    {
      "ref" : "ca606fc3-3387-4c55-9e70-8450eff6f22a",
      "dependsOn" : [ ]
    },
    {
      "ref" : "765d3c69-b5fe-4f3c-9284-602f1f749098",
      "dependsOn" : [ ]
    },
    {
      "ref" : "123a19c2-43bd-40f4-bdff-59db2751c11e",
      "dependsOn" : [ ]
    },
    {
      "ref" : "329c04f7-2d67-4214-8e55-0ad0d6fd3f96",
      "dependsOn" : [ ]
    },
    {
      "ref" : "eafb5706-fb3a-4baf-82e0-f216547485a9",
      "dependsOn" : [ ]
    },
    {
      "ref" : "fa24ca87-faac-478a-ba12-fb1cc6f5513c",
      "dependsOn" : [ ]
    },
    {
      "ref" : "e8c91275-842a-440e-8737-20266d60eb3b",
      "dependsOn" : [ ]
    },
    {
      "ref" : "d59f7ab0-5157-4d30-99b6-fbaacf71e910",
      "dependsOn" : [ ]
    },
    {
      "ref" : "6db2f5ba-b7c5-49e7-a9ab-18f7e2bd6d38",
      "dependsOn" : [ ]
    },
    {
      "ref" : "87b0fe68-bccd-48e3-934f-30d23edc7417",
      "dependsOn" : [ ]
    },
    {
      "ref" : "41db04ca-c762-4f84-90e4-17aeee74ca41",
      "dependsOn" : [ ]
    },
    {
      "ref" : "6ba7d87c-a81b-4771-95a7-d2ca7362fdff",
      "dependsOn" : [ ]
    },
    {
      "ref" : "9c1248b7-408e-48de-a018-ec2a9741e16d",
      "dependsOn" : [ ]
    },
    {
      "ref" : "8b64b602-966a-4913-9dbd-9b83b96c60f8",
      "dependsOn" : [ ]
    },
    {
      "ref" : "2fbb840d-5983-465c-b955-2f86e1a0f5f7",
      "dependsOn" : [ ]
    },
    {
      "ref" : "29eac8d3-f1dd-4a06-ae70-f25c29d5620f",
      "dependsOn" : [ ]
    },
    {
      "ref" : "036c159e-c182-4595-af52-7b5a5d68bded",
      "dependsOn" : [ ]
    },
    {
      "ref" : "115a177e-c0ae-433d-9d6a-1061ef7629d6",
      "dependsOn" : [ ]
    },
    {
      "ref" : "deb0a4a9-0016-429d-a75b-de2c7ad7ff33",
      "dependsOn" : [ ]
    },
    {
      "ref" : "aa045488-fd28-40e0-93f3-e6c152a2d64c",
      "dependsOn" : [ ]
    },
    {
      "ref" : "2e27e672-9e94-4994-a599-05b52e22d89d",
      "dependsOn" : [ ]
    },
    {
      "ref" : "1d118aaf-377f-417e-9d68-1ec4978b5284",
      "dependsOn" : [ ]
    },
    {
      "ref" : "ba7a8624-6322-4af4-b6d1-5e7094dc69da",
      "dependsOn" : [ ]
    },
    {
      "ref" : "66e949bc-28b8-4a35-8e98-c09b87d96042",
      "dependsOn" : [ ]
    },
    {
      "ref" : "ce9857f8-5d17-4120-80d4-ae1af248f9f3",
      "dependsOn" : [ ]
    },
    {
      "ref" : "a11e4ad7-6008-4605-837e-493a377535cf",
      "dependsOn" : [ ]
    },
    {
      "ref" : "19acf206-b8d7-42c7-91df-14301e2f1daa",
      "dependsOn" : [ ]
    },
    {
      "ref" : "b99b4582-eea0-414b-8fa2-aa325fb9ca9a",
      "dependsOn" : [ ]
    },
    {
      "ref" : "5f518872-667e-4ce2-b133-bd7fa8b422b3",
      "dependsOn" : [ ]
    },
    {
      "ref" : "aea983e2-48d5-41f1-9f2b-d83c09f23fac",
      "dependsOn" : [ ]
    },
    {
      "ref" : "dcd1656c-63f4-4a6f-93bf-6b7dfb6a937d",
      "dependsOn" : [ ]
    },
    {
      "ref" : "bfdc55b7-6e5c-484c-9a57-9c40fa524692",
      "dependsOn" : [ ]
    },
    {
      "ref" : "fc29b0cf-264b-4876-9dc6-be34dc1d57bb",
      "dependsOn" : [ ]
    },
    {
      "ref" : "ca119071-f0b0-4edb-b9d3-b6ea05f7937f",
      "dependsOn" : [ ]
    },
    {
      "ref" : "9aaa02b4-9747-4d61-8ad4-5b5378a679c2",
      "dependsOn" : [ ]
    },
    {
      "ref" : "7cf63ab3-c3ad-4643-8a08-d308db532dc1",
      "dependsOn" : [ ]
    },
    {
      "ref" : "ef526cbb-0125-4a54-9dfd-8102dcb45cd3",
      "dependsOn" : [ ]
    },
    {
      "ref" : "6b477f0f-8fed-4925-9bbe-397679688d06",
      "dependsOn" : [ ]
    },
    {
      "ref" : "bb90624c-928b-4549-8942-d48c1a9b976f",
      "dependsOn" : [ ]
    },
    {
      "ref" : "c42ceb87-53a1-414e-b843-5cb0914462ef",
      "dependsOn" : [ ]
    },
    {
      "ref" : "5cbca714-8ff9-4362-a47a-9f80bc160450",
      "dependsOn" : [ ]
    },
    {
      "ref" : "38d71fde-aaef-4be5-affb-5b7f2fd50b9c",
      "dependsOn" : [ ]
    },
    {
      "ref" : "b131a107-2861-46b1-a844-80eef9573109",
      "dependsOn" : [ ]
    },
    {
      "ref" : "4055c720-f71c-4553-9a79-b04000b8b9fc",
      "dependsOn" : [ ]
    },
    {
      "ref" : "6c288ff9-8d86-4c72-918c-1855c5e773c2",
      "dependsOn" : [ ]
    },
    {
      "ref" : "b383a5f5-7d67-4444-955e-d87ea7ea2e18",
      "dependsOn" : [ ]
    },
    {
      "ref" : "6d2c6d8c-0457-49fd-9f4c-b0b62e173720",
      "dependsOn" : [ ]
    },
    {
      "ref" : "840c04e1-b349-4435-8923-9add45812052",
      "dependsOn" : [ ]
    },
    {
      "ref" : "9a75c34a-f20b-4ec9-ace7-2daec0168eb0",
      "dependsOn" : [ ]
    },
    {
      "ref" : "09df87f5-66c3-4da3-961e-8b05378682f0",
      "dependsOn" : [ ]
    },
    {
      "ref" : "6dc38a4f-c05d-4da1-aa21-21262333cd9c",
      "dependsOn" : [ ]
    },
    {
      "ref" : "ed10e9e8-3359-409a-a683-eca2a7b89696",
      "dependsOn" : [ ]
    },
    {
      "ref" : "db8f0b83-d861-4f60-a4b8-714aea026004",
      "dependsOn" : [ ]
    },
    {
      "ref" : "971f4853-b7d2-41d3-ac6f-3ef834689425",
      "dependsOn" : [ ]
    },
    {
      "ref" : "775b9981-406b-4853-b5ab-c891bb188d80",
      "dependsOn" : [ ]
    },
    {
      "ref" : "2ef5b8f4-ac38-450b-b904-841fefdea1bf",
      "dependsOn" : [ ]
    },
    {
      "ref" : "9f4f3bba-52e3-4054-bf21-9bb55c3d2433",
      "dependsOn" : [ ]
    },
    {
      "ref" : "f404f7bb-d66d-4848-813a-ae74b5d18b9e",
      "dependsOn" : [ ]
    },
    {
      "ref" : "420e2a52-cf1a-43b7-86ed-12b2b358df74",
      "dependsOn" : [ ]
    },
    {
      "ref" : "5cb0c59a-d5e6-4d46-bf5b-7d5a516b629b",
      "dependsOn" : [ ]
    },
    {
      "ref" : "52ba32be-d71e-4729-aa9d-8bbd9998ccd3",
      "dependsOn" : [ ]
    },
    {
      "ref" : "34df8601-35e6-4846-8fd4-a827aaba4adc",
      "dependsOn" : [ ]
    },
    {
      "ref" : "9e535067-7d17-4a86-abd6-f1380c80b22a",
      "dependsOn" : [ ]
    },
    {
      "ref" : "634cfdcf-5d24-4e57-ac80-f53630a6f657",
      "dependsOn" : [ ]
    },
    {
      "ref" : "521e8174-ea8d-4124-9cb6-81330e859acd",
      "dependsOn" : [ ]
    },
    {
      "ref" : "e7b4a183-08d6-409f-92b2-a0fd787e132c",
      "dependsOn" : [ ]
    },
    {
      "ref" : "065d1f52-d711-43c6-97cd-0052dbc9d837",
      "dependsOn" : [ ]
    },
    {
      "ref" : "8bd6c083-e3b4-48e5-89ec-d39bc914a029",
      "dependsOn" : [ ]
    },
    {
      "ref" : "653eff5a-49dc-43d8-8e4f-8b28498c4654",
      "dependsOn" : [ ]
    },
    {
      "ref" : "da95f580-efb6-4c03-b0af-15b687db4d01",
      "dependsOn" : [ ]
    },
    {
      "ref" : "4e8dd9ec-efc9-48a1-a165-ab1123285651",
      "dependsOn" : [ ]
    },
    {
      "ref" : "70abfe41-02fd-4f1f-95f7-2661144858f4",
      "dependsOn" : [ ]
    },
    {
      "ref" : "27832b64-2125-467f-8ac2-e261654276be",
      "dependsOn" : [ ]
    },
    {
      "ref" : "d793c20e-60ed-4549-9a77-57ca8e5c5470",
      "dependsOn" : [ ]
    },
    {
      "ref" : "ccf94649-7e4c-4014-b84d-c9ced24e45ac",
      "dependsOn" : [ ]
    },
    {
      "ref" : "aec62eb6-6734-45fc-b773-74e4379814f1",
      "dependsOn" : [ ]
    },
    {
      "ref" : "9ab6a53b-d282-4f2c-9227-95ea10f6b6db",
      "dependsOn" : [ ]
    },
    {
      "ref" : "92917b5d-563d-4b4f-a3a5-5b72b7be0fb2",
      "dependsOn" : [ ]
    },
    {
      "ref" : "cb6af933-afdf-47c8-a0f8-dab804ed515d",
      "dependsOn" : [ ]
    },
    {
      "ref" : "4356818c-e1fc-4cfe-94e5-1a539cbc5867",
      "dependsOn" : [ ]
    },
    {
      "ref" : "5a4e5628-7a3e-498a-a003-bc8f5f41fa5c",
      "dependsOn" : [ ]
    },
    {
      "ref" : "2baf0dce-0640-4037-83f6-c0c5bca36327",
      "dependsOn" : [ ]
    },
    {
      "ref" : "3874f647-05b1-4898-b7b8-cb4a5c491f36",
      "dependsOn" : [ ]
    },
    {
      "ref" : "47e0fb85-67c2-4a8a-8288-ed7b88cdc899",
      "dependsOn" : [ ]
    },
    {
      "ref" : "fda46949-91ee-4a7f-b4b7-c8d31c70a4f7",
      "dependsOn" : [ ]
    },
    {
      "ref" : "b97b31be-4a28-421d-9139-7665e24f85b8",
      "dependsOn" : [ ]
    },
    {
      "ref" : "a95c803d-c235-4ded-97a0-657014f871a6",
      "dependsOn" : [ ]
    },
    {
      "ref" : "2e634f74-ccc4-4ceb-8ea7-12f3bf0c8437",
      "dependsOn" : [ ]
    },
    {
      "ref" : "17954dc8-3ae6-4bce-8149-f44e67bd633b",
      "dependsOn" : [ ]
    },
    {
      "ref" : "cdfbe3f0-5877-4f39-a4d9-bffaf98ae396",
      "dependsOn" : [ ]
    },
    {
      "ref" : "cff7817f-73bd-46d3-8469-0092f48923eb",
      "dependsOn" : [ ]
    },
    {
      "ref" : "bbe42445-0cb2-477b-a509-10e31e8de4be",
      "dependsOn" : [ ]
    },
    {
      "ref" : "21b92703-1f32-4879-a934-d587a5bd7278",
      "dependsOn" : [ ]
    },
    {
      "ref" : "76679628-ecf1-4d81-870f-63807dd3dd82",
      "dependsOn" : [ ]
    },
    {
      "ref" : "58d52471-ef58-4cb4-8cde-6c63fc9197a6",
      "dependsOn" : [ ]
    },
    {
      "ref" : "d3cad851-9ebc-487a-9c02-d6c8890fad4a",
      "dependsOn" : [ ]
    },
    {
      "ref" : "8cc570d9-c42d-4a60-970e-967934396e54",
      "dependsOn" : [ ]
    },
    {
      "ref" : "519ca3ce-d7bc-4779-ba59-1cf0c31cb6e7",
      "dependsOn" : [ ]
    },
    {
      "ref" : "039e08c7-4f44-4c3c-8e22-ea4f49ecfa30",
      "dependsOn" : [ ]
    },
    {
      "ref" : "a7e4c62c-605e-4321-80ab-b28cec048525",
      "dependsOn" : [ ]
    },
    {
      "ref" : "a68c5ad3-95ad-4341-8789-98b4ce3f10ce",
      "dependsOn" : [ ]
    },
    {
      "ref" : "7e534c73-0228-49b1-9511-6239a561beb2",
      "dependsOn" : [ ]
    },
    {
      "ref" : "67235010-210a-498f-b4b4-6588a254144d",
      "dependsOn" : [ ]
    },
    {
      "ref" : "319a4a1e-12e7-4997-b414-604b99e98363",
      "dependsOn" : [ ]
    },
    {
      "ref" : "c04e1418-e5fd-4840-b018-39dae8a25fd8",
      "dependsOn" : [ ]
    },
    {
      "ref" : "3fb3bd55-6717-4c68-89e1-6a30c7639fee",
      "dependsOn" : [ ]
    },
    {
      "ref" : "d2752ae3-6ec1-48fa-92f2-0cd299b9b82c",
      "dependsOn" : [ ]
    },
    {
      "ref" : "d7ee057f-720e-4d87-b6d5-55528433c10e",
      "dependsOn" : [ ]
    },
    {
      "ref" : "e84f5a28-b279-42b8-a77d-3116ada5be9a",
      "dependsOn" : [ ]
    },
    {
      "ref" : "cbd88f70-d23d-495d-9925-990a039b6bbf",
      "dependsOn" : [ ]
    },
    {
      "ref" : "7d31a6d6-6ec3-4a6e-ace9-76a6e52c8a68",
      "dependsOn" : [ ]
    },
    {
      "ref" : "02e2b595-1293-4e83-af9d-08770a0d5a1d",
      "dependsOn" : [ ]
    },
    {
      "ref" : "3adcf2e8-f3cf-4575-8fa2-5e20eac049c0",
      "dependsOn" : [ ]
    },
    {
      "ref" : "a25487fa-c7d4-4184-8d47-e2fc5886522f",
      "dependsOn" : [ ]
    },
    {
      "ref" : "e0e950dc-4005-4d47-8096-6a8e8681f2ed",
      "dependsOn" : [ ]
    },
    {
      "ref" : "4193c495-594e-4b08-94a1-16634a8002f5",
      "dependsOn" : [ ]
    },
    {
      "ref" : "5da09f45-8a89-4de7-8613-511dc4ff0115",
      "dependsOn" : [ ]
    },
    {
      "ref" : "71316ac9-233d-4e32-90e7-23ccd2528568",
      "dependsOn" : [ ]
    },
    {
      "ref" : "6b616ece-1989-4ebe-bdbe-c2b0d1debe10",
      "dependsOn" : [ ]
    },
    {
      "ref" : "337ed37c-57ae-44c9-b966-ad087c1869e3",
      "dependsOn" : [ ]
    },
    {
      "ref" : "fd20a90b-7a36-4732-8a37-3a0c8ad3295e",
      "dependsOn" : [ ]
    },
    {
      "ref" : "5a51496d-467b-419f-bf1c-963d54e453f3",
      "dependsOn" : [ ]
    },
    {
      "ref" : "310260f0-7fb7-4561-85af-61df48fc8041",
      "dependsOn" : [ ]
    },
    {
      "ref" : "908a9dc8-a471-4530-82b3-d83c4a471a9a",
      "dependsOn" : [ ]
    },
    {
      "ref" : "d3b3a0a2-59fc-4c73-a404-5cbbf983deb4",
      "dependsOn" : [ ]
    },
    {
      "ref" : "0db7e4d7-b911-43ff-bd13-c3ba061ea8a5",
      "dependsOn" : [ ]
    },
    {
      "ref" : "eee64867-e611-496e-a5c8-be2bb3b5f188",
      "dependsOn" : [ ]
    },
    {
      "ref" : "bc89e1f3-6379-48d6-85dd-8a62d5e96401",
      "dependsOn" : [ ]
    },
    {
      "ref" : "4022a20f-62c6-428a-b55d-5b0f64d413f6",
      "dependsOn" : [ ]
    },
    {
      "ref" : "ca6d2b0b-691d-4f82-9d35-6245650680bf",
      "dependsOn" : [ ]
    }
  ],
  "vulnerabilities" : [
    {
      "bom-ref" : "159c5138-d175-46db-823c-d1e54ec2d4de",
      "id" : "CVE-2023-28709",
      "source" : {
        "name" : "NVD",
        "url" : "https://nvd.nist.gov/"
      },
      "ratings" : [
        {
          "source" : {
            "name" : "NVD",
            "url" : "https://nvd.nist.gov/"
          },
          "score" : 7.5,
          "severity" : "high",
          "method" : "CVSSv3",
          "vector" : "CVSS:3.0/AV:N/AC:L/PR:N/UI:N/S:U/C:N/I:N/A:H"
        }
      ],
      "cwes" : [
        193
      ],
      "description" : "The fix for CVE-2023-24998 was incomplete for Apache Tomcat 11.0.0-M2 to 11.0.0-M4, 10.1.5 to 10.1.7, 9.0.71 to 9.0.73 and 8.5.85 to 8.5.87. If non-default HTTP connector settings were used such that the maxParameterCount could be reached using query string parameters and a request was submitted that supplied exactly maxParameterCount parameters in the query string, the limit for uploaded request parts could be bypassed with the potential for a denial of service to occur.",
      "published" : "2023-05-22T11:15:00Z",
      "updated" : "2023-06-16T15:15:00Z",
      "affects" : [
        {
          "ref" : "da95f580-efb6-4c03-b0af-15b687db4d01"
        }
      ]
    }
  ]
}