{
  "bomFormat" : "CycloneDX",
  "specVersion" : "1.4",
  "serialNumber" : "urn:uuid:ee2feb07-1b36-4595-a524-00e9f55b8f87",
  "version" : 1,
  "metadata" : {
    "timestamp" : "2023-07-03T14:57:54Z",
    "tools" : [
      {
        "vendor" : "OWASP",
        "name" : "Dependency-Track",
        "version" : "4.8.2"
      }
    ],
    "component" : {
      "name" : "docker-git",
      "version" : "SNAPSHOT",
      "type" : "application",
      "bom-ref" : "9dfd3bd1-15f6-43d7-b56f-450b1c14ffb5"
    }
  },
  "components" : [
    {
      "name" : "alpine",
      "version" : "3.17.2",
      "type" : "operating-system",
      "bom-ref" : "6019ed69-bdcc-4353-83b3-ec39daac3878"
    },
    {
      "name" : "alpine-baselayout",
      "version" : "3.4.0-r0",
      "purl" : "pkg:apk/alpine/alpine-baselayout@3.4.0-r0?distro=3.17.2",
      "type" : "library",
      "bom-ref" : "59f245d2-4e32-4fdd-96a8-1d9eeb065431"
    },
    {
      "name" : "alpine-baselayout-data",
      "version" : "3.4.0-r0",
      "purl" : "pkg:apk/alpine/alpine-baselayout-data@3.4.0-r0?distro=3.17.2",
      "type" : "library",
      "bom-ref" : "49ce72e3-9480-4764-88f7-18fd7fef50d7"
    },
    {
      "name" : "alpine-keys",
      "version" : "2.4-r1",
      "purl" : "pkg:apk/alpine/alpine-keys@2.4-r1?distro=3.17.2",
      "type" : "library",
      "bom-ref" : "030a51f5-5e3f-4d26-9ddf-ea25d1dfcd91"
    },
    {
      "name" : "apk-tools",
      "version" : "2.12.10-r1",
      "purl" : "pkg:apk/alpine/apk-tools@2.12.10-r1?distro=3.17.2",
      "type" : "library",
      "bom-ref" : "18e47526-aa55-4cbf-aa6e-dbbde5bd69ee"
    },
    {
      "name" : "brotli-libs",
      "version" : "1.0.9-r9",
      "purl" : "pkg:apk/alpine/brotli-libs@1.0.9-r9?distro=3.17.2",
      "type" : "library",
      "bom-ref" : "7b8e41b4-6444-4ef4-92af-f3ee883b60c0"
    },
    {
      "name" : "busybox",
      "version" : "1.35.0-r29",
      "purl" : "pkg:apk/alpine/busybox@1.35.0-r29?distro=3.17.2",
      "type" : "library",
      "bom-ref" : "c943ac20-1099-4106-8776-229a1ebf7b45"
    },
    {
      "name" : "busybox-binsh",
      "version" : "1.35.0-r29",
      "purl" : "pkg:apk/alpine/busybox-binsh@1.35.0-r29?distro=3.17.2",
      "type" : "library",
      "bom-ref" : "881488a1-9214-4f39-87a2-29e2a61e1127"
    },
    {
      "name" : "ca-certificates",
      "version" : "20220614-r4",
      "purl" : "pkg:apk/alpine/ca-certificates@20220614-r4?distro=3.17.2",
      "type" : "library",
      "bom-ref" : "9ea481ae-6acb-4dfd-94e0-e936bf1abeac"
    },
    {
      "name" : "ca-certificates-bundle",
      "version" : "20220614-r4",
      "purl" : "pkg:apk/alpine/ca-certificates-bundle@20220614-r4?distro=3.17.2",
      "type" : "library",
      "bom-ref" : "9f6b16c5-e5a4-483c-9fd2-d2d9405427cf"
    },
    {
      "name" : "cloud.google.com/go/compute/metadata",
      "version" : "v0.2.1",
      "purl" : "pkg:golang/cloud.google.com/go/compute/metadata@v0.2.1",
      "type" : "library",
      "bom-ref" : "07656099-e3bd-4a64-a5a7-d42e79175438"
    },
    {
      "name" : "git",
      "version" : "2.38.4-r0",
      "purl" : "pkg:apk/alpine/git@2.38.4-r0?distro=3.17.2",
      "type" : "library",
      "bom-ref" : "400c82f2-3e3c-4307-87e1-1e597c1897da"
    },
    {
      "name" : "github.com/AlecAivazis/survey/v2",
      "version" : "v2.3.6",
      "purl" : "pkg:golang/github.com/alecaivazis/survey/v2@v2.3.6",
      "type" : "library",
      "bom-ref" : "ae7445fe-3123-4dfb-b90d-0dd6804716a5"
    },
    {
      "name" : "github.com/Azure/go-autorest/autorest",
      "version" : "v0.11.24",
      "purl" : "pkg:golang/github.com/azure/go-autorest/autorest@v0.11.24",
      "type" : "library",
      "bom-ref" : "5ef000ff-c051-456c-8a76-69c305ed0a32"
    },
    {
      "name" : "github.com/Azure/go-autorest/autorest/adal",
      "version" : "v0.9.18",
      "purl" : "pkg:golang/github.com/azure/go-autorest/autorest/adal@v0.9.18",
      "type" : "library",
      "bom-ref" : "a13502b8-9bf4-4c5e-9a03-567a86c8a97f"
    },
    {
      "name" : "github.com/Azure/go-autorest/autorest/date",
      "version" : "v0.3.0",
      "purl" : "pkg:golang/github.com/azure/go-autorest/autorest/date@v0.3.0",
      "type" : "library",
      "bom-ref" : "d617ea39-b8f0-455f-a7e9-58fe19715b43"
    },
    {
      "name" : "github.com/Azure/go-autorest/logger",
      "version" : "v0.2.1",
      "purl" : "pkg:golang/github.com/azure/go-autorest/logger@v0.2.1",
      "type" : "library",
      "bom-ref" : "18d67580-8eb9-418e-a1d0-fc7ff4853c1d"
    },
    {
      "name" : "github.com/Azure/go-autorest/tracing",
      "version" : "v0.6.0",
      "purl" : "pkg:golang/github.com/azure/go-autorest/tracing@v0.6.0",
      "type" : "library",
      "bom-ref" : "837753bf-49d9-4b08-8a44-51d0826a4927"
    },
    {
      "name" : "github.com/agext/levenshtein",
      "version" : "v1.2.3",
      "purl" : "pkg:golang/github.com/agext/levenshtein@v1.2.3",
      "type" : "library",
      "bom-ref" : "e0c5e8d6-5b5e-4b76-9eac-518513a2dd79"
    },
    {
      "name" : "github.com/agl/ed25519",
      "version" : "v0.0.0-20170116200512-5312a6153412",
      "purl" : "pkg:golang/github.com/agl/ed25519@v0.0.0-20170116200512-5312a6153412",
      "type" : "library",
      "bom-ref" : "b16f07cc-bc2b-4d28-87e8-ebf1aab797f0"
    },
    {
      "name" : "github.com/apparentlymart/go-cidr",
      "version" : "v1.0.1",
      "purl" : "pkg:golang/github.com/apparentlymart/go-cidr@v1.0.1",
      "type" : "library",
      "bom-ref" : "4817832d-be16-4b49-a84a-2008c42f666b"
    },
    {
      "name" : "github.com/apparentlymart/go-textseg/v12",
      "version" : "v12.0.0",
      "purl" : "pkg:golang/github.com/apparentlymart/go-textseg/v12@v12.0.0",
      "type" : "library",
      "bom-ref" : "2e951764-af10-458d-8052-83428e5af49c"
    },
    {
      "name" : "github.com/apparentlymart/go-textseg/v13",
      "version" : "v13.0.0",
      "purl" : "pkg:golang/github.com/apparentlymart/go-textseg/v13@v13.0.0",
      "type" : "library",
      "bom-ref" : "978f68fe-bb36-4bd2-883e-6296bf0fafcf"
    },
    {
      "name" : "github.com/aws/aws-sdk-go-v2",
      "version" : "v1.16.3",
      "purl" : "pkg:golang/github.com/aws/aws-sdk-go-v2@v1.16.3",
      "type" : "library",
      "bom-ref" : "b4a838db-4956-4a60-9c1f-dba48e27e22f"
    },
    {
      "name" : "github.com/aws/aws-sdk-go-v2/config",
      "version" : "v1.15.5",
      "purl" : "pkg:golang/github.com/aws/aws-sdk-go-v2/config@v1.15.5",
      "type" : "library",
      "bom-ref" : "a7c652de-8a77-45d4-91b3-638a0de45d69"
    },
    {
      "name" : "github.com/aws/aws-sdk-go-v2/credentials",
      "version" : "v1.12.0",
      "purl" : "pkg:golang/github.com/aws/aws-sdk-go-v2/credentials@v1.12.0",
      "type" : "library",
      "bom-ref" : "73ab8280-363d-4441-9ca8-316c72dca11c"
    },
    {
      "name" : "github.com/aws/aws-sdk-go-v2/feature/ec2/imds",
      "version" : "v1.12.4",
      "purl" : "pkg:golang/github.com/aws/aws-sdk-go-v2/feature/ec2/imds@v1.12.4",
      "type" : "library",
      "bom-ref" : "78ba659c-8ff4-4509-a12a-e12b9aa24fda"
    },
    {
      "name" : "github.com/aws/aws-sdk-go-v2/internal/configsources",
      "version" : "v1.1.10",
      "purl" : "pkg:golang/github.com/aws/aws-sdk-go-v2/internal/configsources@v1.1.10",
      "type" : "library",
      "bom-ref" : "19bb2a95-6039-40a3-b1c3-5dfbd0098898"
    },
    {
      "name" : "github.com/aws/aws-sdk-go-v2/internal/endpoints/v2",
      "version" : "v2.4.4",
      "purl" : "pkg:golang/github.com/aws/aws-sdk-go-v2/internal/endpoints/v2@v2.4.4",
      "type" : "library",
      "bom-ref" : "4ff528f2-6c05-40a6-8984-30cc3e18b760"
    },
    {
      "name" : "github.com/aws/aws-sdk-go-v2/internal/ini",
      "version" : "v1.3.11",
      "purl" : "pkg:golang/github.com/aws/aws-sdk-go-v2/internal/ini@v1.3.11",
      "type" : "library",
      "bom-ref" : "42e5b164-3586-4924-ac8d-cf61033b7c31"
    },
    {
      "name" : "github.com/aws/aws-sdk-go-v2/service/internal/presigned-url",
      "version" : "v1.9.4",
      "purl" : "pkg:golang/github.com/aws/aws-sdk-go-v2/service/internal/presigned-url@v1.9.4",
      "type" : "library",
      "bom-ref" : "a665f87d-daf5-410f-a2d0-cda68d08104a"
    },
    {
      "name" : "github.com/aws/aws-sdk-go-v2/service/sso",
      "version" : "v1.11.4",
      "purl" : "pkg:golang/github.com/aws/aws-sdk-go-v2/service/sso@v1.11.4",
      "type" : "library",
      "bom-ref" : "3463b792-c5ca-4202-8239-f6d52bf8efdf"
    },
    {
      "name" : "github.com/aws/aws-sdk-go-v2/service/sts",
      "version" : "v1.16.4",
      "purl" : "pkg:golang/github.com/aws/aws-sdk-go-v2/service/sts@v1.16.4",
      "type" : "library",
      "bom-ref" : "1495ee57-722d-41e6-9eb1-c1f316100ed9"
    },
    {
      "name" : "github.com/aws/smithy-go",
      "version" : "v1.11.2",
      "purl" : "pkg:golang/github.com/aws/smithy-go@v1.11.2",
      "type" : "library",
      "bom-ref" : "f9fa47f4-a212-41fd-9349-17341e00f7cd"
    },
    {
      "name" : "github.com/beorn7/perks",
      "version" : "v1.0.1",
      "purl" : "pkg:golang/github.com/beorn7/perks@v1.0.1",
      "type" : "library",
      "bom-ref" : "d133ebd2-53b2-4e35-ac0e-81c8418e7670"
    },
    {
      "name" : "github.com/buger/goterm",
      "version" : "v1.0.4",
      "purl" : "pkg:golang/github.com/buger/goterm@v1.0.4",
      "type" : "library",
      "bom-ref" : "66831aa9-4641-498c-a5e7-4e5c54bf9c76"
    },
    {
      "name" : "github.com/cenkalti/backoff/v4",
      "version" : "v4.1.2",
      "purl" : "pkg:golang/github.com/cenkalti/backoff/v4@v4.1.2",
      "type" : "library",
      "bom-ref" : "e17bf593-6605-42ca-8945-fa73d7f87d30"
    },
    {
      "name" : "github.com/cespare/xxhash/v2",
      "version" : "v2.1.2",
      "purl" : "pkg:golang/github.com/cespare/xxhash/v2@v2.1.2",
      "type" : "library",
      "bom-ref" : "8bda8213-2e2a-459f-95f5-751f7841e834"
    },
    {
      "name" : "github.com/compose-spec/compose-go",
      "version" : "v1.6.0",
      "purl" : "pkg:golang/github.com/compose-spec/compose-go@v1.6.0",
      "type" : "library",
      "bom-ref" : "24b40f51-c12b-430b-84a1-dba9202977e5"
    },
    {
      "name" : "github.com/compose-spec/compose-go",
      "version" : "v1.9.0",
      "purl" : "pkg:golang/github.com/compose-spec/compose-go@v1.9.0",
      "type" : "library",
      "bom-ref" : "42fa15b0-b855-4b13-87de-45b73adbfab2"
    },
    {
      "name" : "github.com/containerd/console",
      "version" : "v1.0.3",
      "purl" : "pkg:golang/github.com/containerd/console@v1.0.3",
      "type" : "library",
      "bom-ref" : "7907c996-9a59-4807-be82-bdf2fd245770"
    },
    {
      "name" : "github.com/containerd/containerd",
      "version" : "v1.6.16-0.20230124210447-1709cfe273d9",
      "purl" : "pkg:golang/github.com/containerd/containerd@v1.6.16-0.20230124210447-1709cfe273d9",
      "type" : "library",
      "bom-ref" : "777ba26d-3691-41ab-a89a-56b4c18e06e2"
    },
    {
      "name" : "github.com/containerd/containerd",
      "version" : "v1.6.16",
      "purl" : "pkg:golang/github.com/containerd/containerd@v1.6.16",
      "type" : "library",
      "bom-ref" : "663d8afa-a086-4bb8-9558-2aecffbbde41"
    },
    {
      "name" : "github.com/containerd/continuity",
      "version" : "v0.3.0",
      "purl" : "pkg:golang/github.com/containerd/continuity@v0.3.0",
      "type" : "library",
      "bom-ref" : "0bf1b63d-7246-4522-a737-516c13f2a115"
    },
    {
      "name" : "github.com/containerd/ttrpc",
      "version" : "v1.1.0",
      "purl" : "pkg:golang/github.com/containerd/ttrpc@v1.1.0",
      "type" : "library",
      "bom-ref" : "8a315575-c291-46a6-b52b-46cefadb42b4"
    },
    {
      "name" : "github.com/containerd/typeurl",
      "version" : "v1.0.2",
      "purl" : "pkg:golang/github.com/containerd/typeurl@v1.0.2",
      "type" : "library",
      "bom-ref" : "ffe30449-667e-4a3d-b33f-cb9db5da1e84"
    },
    {
      "name" : "github.com/davecgh/go-spew",
      "version" : "v1.1.1",
      "purl" : "pkg:golang/github.com/davecgh/go-spew@v1.1.1",
      "type" : "library",
      "bom-ref" : "2acc3a31-d1c4-4100-acf0-509f4663a38a"
    },
    {
      "name" : "github.com/distribution/distribution/v3",
      "version" : "v3.0.0-20220725133111-4bf3547399eb",
      "purl" : "pkg:golang/github.com/distribution/distribution/v3@v3.0.0-20220725133111-4bf3547399eb",
      "type" : "library",
      "bom-ref" : "75ebe486-bbba-42b1-ab94-d9f0b973ec24"
    },
    {
      "name" : "github.com/distribution/distribution/v3",
      "version" : "v3.0.0-20221201083218-92d136e113cf",
      "purl" : "pkg:golang/github.com/distribution/distribution/v3@v3.0.0-20221201083218-92d136e113cf",
      "type" : "library",
      "bom-ref" : "44267882-c0fd-4c2e-8750-8e225891db07"
    },
    {
      "name" : "github.com/docker/buildx",
      "version" : "v0.10.2",
      "purl" : "pkg:golang/github.com/docker/buildx@v0.10.2",
      "type" : "library",
      "bom-ref" : "e4337b85-5b41-46fc-9c54-d36bed1c7456"
    },
    {
      "name" : "github.com/docker/cli",
      "version" : "v23.0.0-rc.1+incompatible",
      "purl" : "pkg:golang/github.com/docker/cli@v23.0.0-rc.1%20incompatible",
      "type" : "library",
      "bom-ref" : "42c55fc2-7b69-443b-ba3b-3da294b5637e"
    },
    {
      "name" : "github.com/docker/cli",
      "version" : "v23.0.0+incompatible",
      "purl" : "pkg:golang/github.com/docker/cli@v23.0.0%20incompatible",
      "type" : "library",
      "bom-ref" : "3ce214e3-a632-4ec9-a4de-285688dc4332"
    },
    {
      "name" : "github.com/docker/cli-docs-tool",
      "version" : "v0.5.1",
      "purl" : "pkg:golang/github.com/docker/cli-docs-tool@v0.5.1",
      "type" : "library",
      "bom-ref" : "158055d2-6a42-4a86-8d05-75e0119936c5"
    },
    {
      "name" : "github.com/docker/distribution",
      "version" : "v2.8.1+incompatible",
      "purl" : "pkg:golang/github.com/docker/distribution@v2.8.1%20incompatible",
      "type" : "library",
      "bom-ref" : "43f0e0dd-8e06-4684-afa5-ed8212eccf44"
    },
    {
      "name" : "github.com/docker/docker",
      "version" : "v23.0.0-rc.1+incompatible",
      "purl" : "pkg:golang/github.com/docker/docker@v23.0.0-rc.1%20incompatible",
      "type" : "library",
      "bom-ref" : "b68bac19-9c15-4624-b7b6-473bd776ac2b"
    },
    {
      "name" : "github.com/docker/docker",
      "version" : "v23.0.0+incompatible",
      "purl" : "pkg:golang/github.com/docker/docker@v23.0.0%20incompatible",
      "type" : "library",
      "bom-ref" : "1c2fc003-05ff-400d-a4bc-5fb62da880e6"
    },
    {
      "name" : "github.com/docker/docker-credential-helpers",
      "version" : "v0.7.0",
      "purl" : "pkg:golang/github.com/docker/docker-credential-helpers@v0.7.0",
      "type" : "library",
      "bom-ref" : "4c775047-3a97-4c21-98fb-643ad49bd08f"
    },
    {
      "name" : "github.com/docker/go",
      "version" : "v1.5.1-1.0.20160303222718-d30aec9fd63c",
      "purl" : "pkg:golang/github.com/docker/go@v1.5.1-1.0.20160303222718-d30aec9fd63c",
      "type" : "library",
      "bom-ref" : "79c62b24-22ac-45b3-af29-7265770dc396"
    },
    {
      "name" : "github.com/docker/go-connections",
      "version" : "v0.4.0",
      "purl" : "pkg:golang/github.com/docker/go-connections@v0.4.0",
      "type" : "library",
      "bom-ref" : "07e60157-c065-4e2a-b437-42f530bef322"
    },
    {
      "name" : "github.com/docker/go-metrics",
      "version" : "v0.0.1",
      "purl" : "pkg:golang/github.com/docker/go-metrics@v0.0.1",
      "type" : "library",
      "bom-ref" : "bcd92681-97c5-4ffd-bb8f-f9d9c9daa7c6"
    },
    {
      "name" : "github.com/docker/go-units",
      "version" : "v0.5.0",
      "purl" : "pkg:golang/github.com/docker/go-units@v0.5.0",
      "type" : "library",
      "bom-ref" : "d6e5a093-5209-4814-a140-b2c2b6642cb2"
    },
    {
      "name" : "github.com/felixge/httpsnoop",
      "version" : "v1.0.2",
      "purl" : "pkg:golang/github.com/felixge/httpsnoop@v1.0.2",
      "type" : "library",
      "bom-ref" : "147fdc62-e5c0-459b-b3e2-bc21c4226e75"
    },
    {
      "name" : "github.com/fvbommel/sortorder",
      "version" : "v1.0.1",
      "purl" : "pkg:golang/github.com/fvbommel/sortorder@v1.0.1",
      "type" : "library",
      "bom-ref" : "907219eb-df08-43bf-b9ac-83f9f293b056"
    },
    {
      "name" : "github.com/fvbommel/sortorder",
      "version" : "v1.0.2",
      "purl" : "pkg:golang/github.com/fvbommel/sortorder@v1.0.2",
      "type" : "library",
      "bom-ref" : "3c1788be-bd98-4134-9f7a-627c78c29b57"
    },
    {
      "name" : "github.com/go-logr/logr",
      "version" : "v1.2.3",
      "purl" : "pkg:golang/github.com/go-logr/logr@v1.2.3",
      "type" : "library",
      "bom-ref" : "aec4395c-7b90-4f18-a3ae-5e7b31986e0f"
    },
    {
      "name" : "github.com/go-logr/stdr",
      "version" : "v1.2.2",
      "purl" : "pkg:golang/github.com/go-logr/stdr@v1.2.2",
      "type" : "library",
      "bom-ref" : "357e7e19-ba6c-4178-8620-e2a18536ea8e"
    },
    {
      "name" : "github.com/gofrs/flock",
      "version" : "v0.8.1",
      "purl" : "pkg:golang/github.com/gofrs/flock@v0.8.1",
      "type" : "library",
      "bom-ref" : "bdaff4d1-55ee-4146-aeb4-ca43e9816187"
    },
    {
      "name" : "github.com/gogo/googleapis",
      "version" : "v1.4.1",
      "purl" : "pkg:golang/github.com/gogo/googleapis@v1.4.1",
      "type" : "library",
      "bom-ref" : "58cab740-fa0e-43c0-a549-51a80f14867d"
    },
    {
      "name" : "github.com/gogo/protobuf",
      "version" : "v1.3.2",
      "purl" : "pkg:golang/github.com/gogo/protobuf@v1.3.2",
      "type" : "library",
      "bom-ref" : "1b20349f-66f8-4b88-9c19-fac34e1c0275"
    },
    {
      "name" : "github.com/golang-jwt/jwt/v4",
      "version" : "v4.4.2",
      "purl" : "pkg:golang/github.com/golang-jwt/jwt/v4@v4.4.2",
      "type" : "library",
      "bom-ref" : "503e40f4-8a60-4aee-aa0f-f7e705949a4c"
    },
    {
      "name" : "github.com/golang/mock",
      "version" : "v1.6.0",
      "purl" : "pkg:golang/github.com/golang/mock@v1.6.0",
      "type" : "library",
      "bom-ref" : "c8b5242a-bb6f-4da2-a12f-d600ac22ffa5"
    },
    {
      "name" : "github.com/golang/protobuf",
      "version" : "v1.5.2",
      "purl" : "pkg:golang/github.com/golang/protobuf@v1.5.2",
      "type" : "library",
      "bom-ref" : "9c92033e-1f3a-40a6-b152-522b3a861711"
    },
    {
      "name" : "github.com/google/go-cmp",
      "version" : "v0.5.9",
      "purl" : "pkg:golang/github.com/google/go-cmp@v0.5.9",
      "type" : "library",
      "bom-ref" : "d5fbd394-1dae-4138-b95d-06432ba02bf1"
    },
    {
      "name" : "github.com/google/gofuzz",
      "version" : "v1.2.0",
      "purl" : "pkg:golang/github.com/google/gofuzz@v1.2.0",
      "type" : "library",
      "bom-ref" : "c1e2eb1e-3bc5-428c-84d6-5902857380b3"
    },
    {
      "name" : "github.com/google/shlex",
      "version" : "v0.0.0-20191202100458-e7afc7fbc510",
      "purl" : "pkg:golang/github.com/google/shlex@v0.0.0-20191202100458-e7afc7fbc510",
      "type" : "library",
      "bom-ref" : "ff6cf0e7-6ca2-44f7-bb56-7689483042a5"
    },
    {
      "name" : "github.com/google/uuid",
      "version" : "v1.3.0",
      "purl" : "pkg:golang/github.com/google/uuid@v1.3.0",
      "type" : "library",
      "bom-ref" : "9f8b12c7-7839-43c4-95e1-23e18149a42c"
    },
    {
      "name" : "github.com/googleapis/gnostic",
      "version" : "v0.5.5",
      "purl" : "pkg:golang/github.com/googleapis/gnostic@v0.5.5",
      "type" : "library",
      "bom-ref" : "72d90680-73ba-454d-879f-854b4e4943d4"
    },
    {
      "name" : "github.com/gorilla/mux",
      "version" : "v1.8.0",
      "purl" : "pkg:golang/github.com/gorilla/mux@v1.8.0",
      "type" : "library",
      "bom-ref" : "3cc8565c-de46-4a67-8c3c-af394214d463"
    },
    {
      "name" : "github.com/grpc-ecosystem/go-grpc-middleware",
      "version" : "v1.3.0",
      "purl" : "pkg:golang/github.com/grpc-ecosystem/go-grpc-middleware@v1.3.0",
      "type" : "library",
      "bom-ref" : "0cabb729-f0c4-414d-be1e-23591c62322d"
    },
    {
      "name" : "github.com/grpc-ecosystem/grpc-gateway",
      "version" : "v1.16.0",
      "purl" : "pkg:golang/github.com/grpc-ecosystem/grpc-gateway@v1.16.0",
      "type" : "library",
      "bom-ref" : "458dd21f-3772-4d76-9fe4-488354d2db0e"
    },
    {
      "name" : "github.com/hashicorp/errwrap",
      "version" : "v1.1.0",
      "purl" : "pkg:golang/github.com/hashicorp/errwrap@v1.1.0",
      "type" : "library",
      "bom-ref" : "8abcaf0a-4fca-4060-9cbe-90501df446cd"
    },
    {
      "name" : "github.com/hashicorp/go-cty-funcs",
      "version" : "v0.0.0-20200930094925-2721b1e36840",
      "purl" : "pkg:golang/github.com/hashicorp/go-cty-funcs@v0.0.0-20200930094925-2721b1e36840",
      "type" : "library",
      "bom-ref" : "e9008fa4-4986-4737-91fc-d499ae209e22"
    },
    {
      "name" : "github.com/hashicorp/go-multierror",
      "version" : "v1.1.1",
      "purl" : "pkg:golang/github.com/hashicorp/go-multierror@v1.1.1",
      "type" : "library",
      "bom-ref" : "dab4de64-7bee-4464-9c60-2a60a0f89cf1"
    },
    {
      "name" : "github.com/hashicorp/go-version",
      "version" : "v1.6.0",
      "purl" : "pkg:golang/github.com/hashicorp/go-version@v1.6.0",
      "type" : "library",
      "bom-ref" : "549cd7fc-4f4b-4055-aa14-53266c57fabb"
    },
    {
      "name" : "github.com/hashicorp/hcl/v2",
      "version" : "v2.8.2",
      "purl" : "pkg:golang/github.com/hashicorp/hcl/v2@v2.8.2",
      "type" : "library",
      "bom-ref" : "e88ae1d2-28d5-414a-9fb7-5707dbd5d6d0"
    },
    {
      "name" : "github.com/imdario/mergo",
      "version" : "v0.3.13",
      "purl" : "pkg:golang/github.com/imdario/mergo@v0.3.13",
      "type" : "library",
      "bom-ref" : "fea95ab1-992e-4d91-819d-2e53b2614cff"
    },
    {
      "name" : "github.com/jonboulle/clockwork",
      "version" : "v0.3.1-0.20230117163003-a89700cec744",
      "purl" : "pkg:golang/github.com/jonboulle/clockwork@v0.3.1-0.20230117163003-a89700cec744",
      "type" : "library",
      "bom-ref" : "f53679f7-7d27-46d5-a7c6-5d6b85192f41"
    },
    {
      "name" : "github.com/json-iterator/go",
      "version" : "v1.1.12",
      "purl" : "pkg:golang/github.com/json-iterator/go@v1.1.12",
      "type" : "library",
      "bom-ref" : "352f0066-b584-4006-962a-2176a02de045"
    },
    {
      "name" : "github.com/kballard/go-shellquote",
      "version" : "v0.0.0-20180428030007-95032a82bc51",
      "purl" : "pkg:golang/github.com/kballard/go-shellquote@v0.0.0-20180428030007-95032a82bc51",
      "type" : "library",
      "bom-ref" : "3c60c343-5915-4cb4-9554-e8e2b609c62b"
    },
    {
      "name" : "github.com/klauspost/compress",
      "version" : "v1.15.12",
      "purl" : "pkg:golang/github.com/klauspost/compress@v1.15.12",
      "type" : "library",
      "bom-ref" : "11d59ebb-bc27-403d-b148-55fb6b0cfc12"
    },
    {
      "name" : "github.com/mattn/go-colorable",
      "version" : "v0.1.12",
      "purl" : "pkg:golang/github.com/mattn/go-colorable@v0.1.12",
      "type" : "library",
      "bom-ref" : "f97b8814-38dc-429d-9934-c2428f392369"
    },
    {
      "name" : "github.com/mattn/go-isatty",
      "version" : "v0.0.16",
      "purl" : "pkg:golang/github.com/mattn/go-isatty@v0.0.16",
      "type" : "library",
      "bom-ref" : "42bb6ba3-c24d-4eba-8df7-6a18c83cd660"
    },
    {
      "name" : "github.com/mattn/go-runewidth",
      "version" : "v0.0.14",
      "purl" : "pkg:golang/github.com/mattn/go-runewidth@v0.0.14",
      "type" : "library",
      "bom-ref" : "380afe98-3a36-4205-b22c-4da7c9f44e61"
    },
    {
      "name" : "github.com/mattn/go-shellwords",
      "version" : "v1.0.12",
      "purl" : "pkg:golang/github.com/mattn/go-shellwords@v1.0.12",
      "type" : "library",
      "bom-ref" : "dac22c36-7577-4208-bf45-e651a6f1b4c6"
    },
    {
      "name" : "github.com/matttproud/golang_protobuf_extensions",
      "version" : "v1.0.4",
      "purl" : "pkg:golang/github.com/matttproud/golang_protobuf_extensions@v1.0.4",
      "type" : "library",
      "bom-ref" : "9a530755-2d7e-47d3-aaba-eec257a8e7d6"
    },
    {
      "name" : "github.com/mgutz/ansi",
      "version" : "v0.0.0-20170206155736-9520e82c474b",
      "purl" : "pkg:golang/github.com/mgutz/ansi@v0.0.0-20170206155736-9520e82c474b",
      "type" : "library",
      "bom-ref" : "3233224f-d572-413b-b039-491334893083"
    },
    {
      "name" : "github.com/mitchellh/go-wordwrap",
      "version" : "v0.0.0-20150314170334-ad45545899c7",
      "purl" : "pkg:golang/github.com/mitchellh/go-wordwrap@v0.0.0-20150314170334-ad45545899c7",
      "type" : "library",
      "bom-ref" : "abec4465-e60d-48a4-9dd1-2ce360b4f3fd"
    },
    {
      "name" : "github.com/mitchellh/mapstructure",
      "version" : "v1.5.0",
      "purl" : "pkg:golang/github.com/mitchellh/mapstructure@v1.5.0",
      "type" : "library",
      "bom-ref" : "01d8a8b7-5117-4c83-9767-b38a9ef5a374"
    },
    {
      "name" : "github.com/moby/buildkit",
      "version" : "v0.11.2",
      "purl" : "pkg:golang/github.com/moby/buildkit@v0.11.2",
      "type" : "library",
      "bom-ref" : "98b50d3c-dc9c-4e22-8561-b8418293926d"
    },
    {
      "name" : "github.com/moby/locker",
      "version" : "v1.0.1",
      "purl" : "pkg:golang/github.com/moby/locker@v1.0.1",
      "type" : "library",
      "bom-ref" : "027ddbd5-c94b-49d1-bad3-1debd183cf1a"
    },
    {
      "name" : "github.com/moby/patternmatcher",
      "version" : "v0.5.0",
      "purl" : "pkg:golang/github.com/moby/patternmatcher@v0.5.0",
      "type" : "library",
      "bom-ref" : "d4625035-a126-4820-af1e-a562a59f446d"
    },
    {
      "name" : "github.com/moby/spdystream",
      "version" : "v0.2.0",
      "purl" : "pkg:golang/github.com/moby/spdystream@v0.2.0",
      "type" : "library",
      "bom-ref" : "b6949d23-ad1d-4708-b0b1-85bf73470383"
    },
    {
      "name" : "github.com/moby/sys/mountinfo",
      "version" : "v0.6.2",
      "purl" : "pkg:golang/github.com/moby/sys/mountinfo@v0.6.2",
      "type" : "library",
      "bom-ref" : "760b79ce-ec95-489f-a237-850206d32fea"
    },
    {
      "name" : "github.com/moby/sys/sequential",
      "version" : "v0.5.0",
      "purl" : "pkg:golang/github.com/moby/sys/sequential@v0.5.0",
      "type" : "library",
      "bom-ref" : "1e9169e6-6646-4348-bb78-ad1997246e0b"
    },
    {
      "name" : "github.com/moby/sys/signal",
      "version" : "v0.7.0",
      "purl" : "pkg:golang/github.com/moby/sys/signal@v0.7.0",
      "type" : "library",
      "bom-ref" : "ab1afb4f-fd21-49eb-933f-de1cb2cffed8"
    },
    {
      "name" : "github.com/moby/sys/symlink",
      "version" : "v0.2.0",
      "purl" : "pkg:golang/github.com/moby/sys/symlink@v0.2.0",
      "type" : "library",
      "bom-ref" : "fb9f4621-703a-4776-916e-824373ed8afd"
    },
    {
      "name" : "github.com/moby/term",
      "version" : "v0.0.0-20221120202655-abb19827d345",
      "purl" : "pkg:golang/github.com/moby/term@v0.0.0-20221120202655-abb19827d345",
      "type" : "library",
      "bom-ref" : "fb547097-034c-4261-b08a-db1a58dbda4d"
    },
    {
      "name" : "github.com/moby/term",
      "version" : "v0.0.0-20221128092401-c43b287e0e0f",
      "purl" : "pkg:golang/github.com/moby/term@v0.0.0-20221128092401-c43b287e0e0f",
      "type" : "library",
      "bom-ref" : "24efcdf2-5450-4168-8d3b-8164f58c2c3f"
    },
    {
      "name" : "github.com/modern-go/concurrent",
      "version" : "v0.0.0-20180306012644-bacd9c7ef1dd",
      "purl" : "pkg:golang/github.com/modern-go/concurrent@v0.0.0-20180306012644-bacd9c7ef1dd",
      "type" : "library",
      "bom-ref" : "48a20544-48d6-4d9d-a5b5-39b4c9126366"
    },
    {
      "name" : "github.com/modern-go/reflect2",
      "version" : "v1.0.2",
      "purl" : "pkg:golang/github.com/modern-go/reflect2@v1.0.2",
      "type" : "library",
      "bom-ref" : "be92500b-7052-4953-917d-9f5d160efe68"
    },
    {
      "name" : "github.com/morikuni/aec",
      "version" : "v1.0.0",
      "purl" : "pkg:golang/github.com/morikuni/aec@v1.0.0",
      "type" : "library",
      "bom-ref" : "00e93413-0cf8-4319-9128-ccd0ce3a6475"
    },
    {
      "name" : "github.com/opencontainers/go-digest",
      "version" : "v1.0.0",
      "purl" : "pkg:golang/github.com/opencontainers/go-digest@v1.0.0",
      "type" : "library",
      "bom-ref" : "c66fc70b-8d54-4c91-a5ec-55bbc10fcfc7"
    },
    {
      "name" : "github.com/opencontainers/image-spec",
      "version" : "v1.0.3-0.20220303224323-02efb9a75ee1",
      "purl" : "pkg:golang/github.com/opencontainers/image-spec@v1.0.3-0.20220303224323-02efb9a75ee1",
      "type" : "library",
      "bom-ref" : "b0e01e79-a9d2-4063-90b9-da88b09bf695"
    },
    {
      "name" : "github.com/opencontainers/image-spec",
      "version" : "v1.1.0-rc2",
      "purl" : "pkg:golang/github.com/opencontainers/image-spec@v1.1.0-rc2",
      "type" : "library",
      "bom-ref" : "7fec0643-387d-4730-b650-dd851ee7b96b"
    },
    {
      "name" : "github.com/opencontainers/runc",
      "version" : "v1.1.3",
      "purl" : "pkg:golang/github.com/opencontainers/runc@v1.1.3",
      "type" : "library",
      "bom-ref" : "6f2f38e0-ddd5-4e3a-9953-2557e2ed4ebb"
    },
    {
      "name" : "github.com/pelletier/go-toml",
      "version" : "v1.9.5",
      "purl" : "pkg:golang/github.com/pelletier/go-toml@v1.9.5",
      "type" : "library",
      "bom-ref" : "c0904fce-12c0-4223-86ec-bf46fb4a5724"
    },
    {
      "name" : "github.com/pkg/errors",
      "version" : "v0.9.1",
      "purl" : "pkg:golang/github.com/pkg/errors@v0.9.1",
      "type" : "library",
      "bom-ref" : "99edb834-1a16-4a99-a1e2-886d76699657"
    },
    {
      "name" : "github.com/pmezard/go-difflib",
      "version" : "v1.0.0",
      "purl" : "pkg:golang/github.com/pmezard/go-difflib@v1.0.0",
      "type" : "library",
      "bom-ref" : "4b1ba2c2-124e-429d-8d19-9b8374f4c783"
    },
    {
      "name" : "github.com/prometheus/client_golang",
      "version" : "v1.14.0",
      "purl" : "pkg:golang/github.com/prometheus/client_golang@v1.14.0",
      "type" : "library",
      "bom-ref" : "9372bcdf-d28d-4346-8e4a-d90cd7658f54"
    },
    {
      "name" : "github.com/prometheus/client_model",
      "version" : "v0.3.0",
      "purl" : "pkg:golang/github.com/prometheus/client_model@v0.3.0",
      "type" : "library",
      "bom-ref" : "8b3fc6bf-e020-4f6d-98fa-dff6e6e3542e"
    },
    {
      "name" : "github.com/prometheus/common",
      "version" : "v0.37.0",
      "purl" : "pkg:golang/github.com/prometheus/common@v0.37.0",
      "type" : "library",
      "bom-ref" : "2af8374a-019a-4075-b598-8a6876242aaa"
    },
    {
      "name" : "github.com/prometheus/procfs",
      "version" : "v0.8.0",
      "purl" : "pkg:golang/github.com/prometheus/procfs@v0.8.0",
      "type" : "library",
      "bom-ref" : "3e874772-b846-463d-bbdd-b82949b81aee"
    },
    {
      "name" : "github.com/rivo/uniseg",
      "version" : "v0.2.0",
      "purl" : "pkg:golang/github.com/rivo/uniseg@v0.2.0",
      "type" : "library",
      "bom-ref" : "75d4fbe9-e326-4171-9240-7baa4336eae5"
    },
    {
      "name" : "github.com/serialx/hashring",
      "version" : "v0.0.0-20190422032157-8b2912629002",
      "purl" : "pkg:golang/github.com/serialx/hashring@v0.0.0-20190422032157-8b2912629002",
      "type" : "library",
      "bom-ref" : "f701287d-ff83-4e0c-8458-340654f44b49"
    },
    {
      "name" : "github.com/sirupsen/logrus",
      "version" : "v1.9.0",
      "purl" : "pkg:golang/github.com/sirupsen/logrus@v1.9.0",
      "type" : "library",
      "bom-ref" : "15e42b75-a709-4120-8c04-5996b8a738c7"
    },
    {
      "name" : "github.com/spf13/cobra",
      "version" : "v1.6.1",
      "purl" : "pkg:golang/github.com/spf13/cobra@v1.6.1",
      "type" : "library",
      "bom-ref" : "ec204c9d-e775-416b-8962-53dc7a680208"
    },
    {
      "name" : "github.com/spf13/pflag",
      "version" : "v1.0.5",
      "purl" : "pkg:golang/github.com/spf13/pflag@v1.0.5",
      "type" : "library",
      "bom-ref" : "adf21582-b1c9-46e5-b98a-3d150f6fcbd0"
    },
    {
      "name" : "github.com/stretchr/testify",
      "version" : "v1.8.1",
      "purl" : "pkg:golang/github.com/stretchr/testify@v1.8.1",
      "type" : "library",
      "bom-ref" : "2ac5fb68-23b1-4b32-8ed0-71296eac387a"
    },
    {
      "name" : "github.com/theupdateframework/notary",
      "version" : "v0.6.1",
      "purl" : "pkg:golang/github.com/theupdateframework/notary@v0.6.1",
      "type" : "library",
      "bom-ref" : "899a133f-767f-4321-aee9-7fbfe743bd36"
    },
    {
      "name" : "github.com/theupdateframework/notary",
      "version" : "v0.7.0",
      "purl" : "pkg:golang/github.com/theupdateframework/notary@v0.7.0",
      "type" : "library",
      "bom-ref" : "3737cea2-2045-401c-ab6e-087c1207beca"
    },
    {
      "name" : "github.com/tilt-dev/fsnotify",
      "version" : "v1.4.8-0.20220602155310-fff9c274a375",
      "purl" : "pkg:golang/github.com/tilt-dev/fsnotify@v1.4.8-0.20220602155310-fff9c274a375",
      "type" : "library",
      "bom-ref" : "c7febb36-2d21-47ac-af26-238959a27e76"
    },
    {
      "name" : "github.com/tonistiigi/fsutil",
      "version" : "v0.0.0-20230105215944-fb433841cbfa",
      "purl" : "pkg:golang/github.com/tonistiigi/fsutil@v0.0.0-20230105215944-fb433841cbfa",
      "type" : "library",
      "bom-ref" : "ec0f011f-8f49-413c-beb4-ae31b1634dc6"
    },
    {
      "name" : "github.com/tonistiigi/units",
      "version" : "v0.0.0-20180711220420-6950e57a87ea",
      "purl" : "pkg:golang/github.com/tonistiigi/units@v0.0.0-20180711220420-6950e57a87ea",
      "type" : "library",
      "bom-ref" : "153876d0-2415-4316-b51f-b81964374d82"
    },
    {
      "name" : "github.com/tonistiigi/vt100",
      "version" : "v0.0.0-20210615222946-8066bb97264f",
      "purl" : "pkg:golang/github.com/tonistiigi/vt100@v0.0.0-20210615222946-8066bb97264f",
      "type" : "library",
      "bom-ref" : "70d9e81f-6396-4de6-a797-da11e17c5c74"
    },
    {
      "name" : "github.com/xeipuuv/gojsonpointer",
      "version" : "v0.0.0-20180127040702-4e3ac2762d5f",
      "purl" : "pkg:golang/github.com/xeipuuv/gojsonpointer@v0.0.0-20180127040702-4e3ac2762d5f",
      "type" : "library",
      "bom-ref" : "8e6126b7-8976-443c-85e7-9748c1484232"
    },
    {
      "name" : "github.com/xeipuuv/gojsonpointer",
      "version" : "v0.0.0-20190905194746-02993c407bfb",
      "purl" : "pkg:golang/github.com/xeipuuv/gojsonpointer@v0.0.0-20190905194746-02993c407bfb",
      "type" : "library",
      "bom-ref" : "df2a4fc4-78f8-4ec8-b22d-489489a860de"
    },
    {
      "name" : "github.com/xeipuuv/gojsonreference",
      "version" : "v0.0.0-20180127040603-bd5ef7bd5415",
      "purl" : "pkg:golang/github.com/xeipuuv/gojsonreference@v0.0.0-20180127040603-bd5ef7bd5415",
      "type" : "library",
      "bom-ref" : "dd1019ad-b90d-4a04-9a5d-ca6855a8afab"
    },
    {
      "name" : "github.com/xeipuuv/gojsonschema",
      "version" : "v1.2.0",
      "purl" : "pkg:golang/github.com/xeipuuv/gojsonschema@v1.2.0",
      "type" : "library",
      "bom-ref" : "c80125aa-d357-43b0-bd3c-14e8716e5fd1"
    },
    {
      "name" : "github.com/zclconf/go-cty",
      "version" : "v1.10.0",
      "purl" : "pkg:golang/github.com/zclconf/go-cty@v1.10.0",
      "type" : "library",
      "bom-ref" : "19f65cf2-efcd-4280-9b0f-d68bea8d74ca"
    },
    {
      "name" : "go.opentelemetry.io/contrib/instrumentation/google.golang.org/grpc/otelgrpc",
      "version" : "v0.29.0",
      "purl" : "pkg:golang/go.opentelemetry.io/contrib/instrumentation/google.golang.org/grpc/otelgrpc@v0.29.0",
      "type" : "library",
      "bom-ref" : "fcee5468-b847-42d5-a75b-9c044d0c1855"
    },
    {
      "name" : "go.opentelemetry.io/contrib/instrumentation/net/http/httptrace/otelhttptrace",
      "version" : "v0.29.0",
      "purl" : "pkg:golang/go.opentelemetry.io/contrib/instrumentation/net/http/httptrace/otelhttptrace@v0.29.0",
      "type" : "library",
      "bom-ref" : "6ad9bdbf-fa13-4254-9654-d29cef395c2c"
    },
    {
      "name" : "go.opentelemetry.io/contrib/instrumentation/net/http/otelhttp",
      "version" : "v0.29.0",
      "purl" : "pkg:golang/go.opentelemetry.io/contrib/instrumentation/net/http/otelhttp@v0.29.0",
      "type" : "library",
      "bom-ref" : "1e50fc81-9cbd-48b0-92ac-9c3ddb4e0b6e"
    },
    {
      "name" : "go.opentelemetry.io/otel",
      "version" : "v1.4.1",
      "purl" : "pkg:golang/go.opentelemetry.io/otel@v1.4.1",
      "type" : "library",
      "bom-ref" : "6ffc05aa-3f5f-4652-8d11-07e5e01a849f"
    },
    {
      "name" : "go.opentelemetry.io/otel",
      "version" : "v1.13.0",
      "purl" : "pkg:golang/go.opentelemetry.io/otel@v1.13.0",
      "type" : "library",
      "bom-ref" : "73a72265-64f7-4b86-a143-6fca940b0ed2"
    },
    {
      "name" : "go.opentelemetry.io/otel/exporters/otlp/internal/retry",
      "version" : "v1.4.1",
      "purl" : "pkg:golang/go.opentelemetry.io/otel/exporters/otlp/internal/retry@v1.4.1",
      "type" : "library",
      "bom-ref" : "6c01f4de-fea1-49b2-97eb-0c50844f887e"
    },
    {
      "name" : "go.opentelemetry.io/otel/exporters/otlp/otlptrace",
      "version" : "v1.4.1",
      "purl" : "pkg:golang/go.opentelemetry.io/otel/exporters/otlp/otlptrace@v1.4.1",
      "type" : "library",
      "bom-ref" : "5cc587b8-7ba9-4b47-8be9-8dbb3909ad58"
    },
    {
      "name" : "go.opentelemetry.io/otel/exporters/otlp/otlptrace/otlptracegrpc",
      "version" : "v1.4.1",
      "purl" : "pkg:golang/go.opentelemetry.io/otel/exporters/otlp/otlptrace/otlptracegrpc@v1.4.1",
      "type" : "library",
      "bom-ref" : "0e9cd507-66e2-41d1-b437-145c06c624da"
    },
    {
      "name" : "go.opentelemetry.io/otel/exporters/otlp/otlptrace/otlptracehttp",
      "version" : "v1.4.1",
      "purl" : "pkg:golang/go.opentelemetry.io/otel/exporters/otlp/otlptrace/otlptracehttp@v1.4.1",
      "type" : "library",
      "bom-ref" : "69cb05f8-6885-4b97-a13a-f54f08825cf5"
    },
    {
      "name" : "go.opentelemetry.io/otel/internal/metric",
      "version" : "v0.27.0",
      "purl" : "pkg:golang/go.opentelemetry.io/otel/internal/metric@v0.27.0",
      "type" : "library",
      "bom-ref" : "ae2c450f-d7e3-45f5-96b7-b741ed6d48d7"
    },
    {
      "name" : "go.opentelemetry.io/otel/metric",
      "version" : "v0.27.0",
      "purl" : "pkg:golang/go.opentelemetry.io/otel/metric@v0.27.0",
      "type" : "library",
      "bom-ref" : "ac6e6bc8-18e9-4d66-9e07-2ab97a326950"
    },
    {
      "name" : "go.opentelemetry.io/otel/sdk",
      "version" : "v1.4.1",
      "purl" : "pkg:golang/go.opentelemetry.io/otel/sdk@v1.4.1",
      "type" : "library",
      "bom-ref" : "5abee9de-c64b-4591-9e41-d6a788fa909c"
    },
    {
      "name" : "go.opentelemetry.io/otel/trace",
      "version" : "v1.4.1",
      "purl" : "pkg:golang/go.opentelemetry.io/otel/trace@v1.4.1",
      "type" : "library",
      "bom-ref" : "2242d75b-94de-4ba5-8367-af3af1d90a2a"
    },
    {
      "name" : "go.opentelemetry.io/otel/trace",
      "version" : "v1.13.0",
      "purl" : "pkg:golang/go.opentelemetry.io/otel/trace@v1.13.0",
      "type" : "library",
      "bom-ref" : "10995db4-4f14-4676-bf06-113795fc301d"
    },
    {
      "name" : "go.opentelemetry.io/proto/otlp",
      "version" : "v0.12.0",
      "purl" : "pkg:golang/go.opentelemetry.io/proto/otlp@v0.12.0",
      "type" : "library",
      "bom-ref" : "d32fedf6-1edb-4c0d-9beb-9d53261649e8"
    },
    {
      "name" : "golang.org/x/crypto",
      "version" : "v0.2.0",
      "purl" : "pkg:golang/golang.org/x/crypto@v0.2.0",
      "type" : "library",
      "bom-ref" : "5d95c51b-a04a-4ad1-85c0-197d3de98bb5"
    },
    {
      "name" : "golang.org/x/net",
      "version" : "v0.4.0",
      "purl" : "pkg:golang/golang.org/x/net@v0.4.0",
      "type" : "library",
      "bom-ref" : "70dbc7b4-45da-4cac-bebc-a37f084927d4"
    },
    {
      "name" : "golang.org/x/oauth2",
      "version" : "v0.0.0-20221014153046-6fdb5e3db783",
      "purl" : "pkg:golang/golang.org/x/oauth2@v0.0.0-20221014153046-6fdb5e3db783",
      "type" : "library",
      "bom-ref" : "9b5fe813-e12d-4bad-a1b7-77598cdcf9f2"
    },
    {
      "name" : "golang.org/x/sync",
      "version" : "v0.1.0",
      "purl" : "pkg:golang/golang.org/x/sync@v0.1.0",
      "type" : "library",
      "bom-ref" : "6703c9c3-c8f1-48cb-b3ec-f51724f37abf"
    },
    {
      "name" : "golang.org/x/sys",
      "version" : "v0.3.0",
      "purl" : "pkg:golang/golang.org/x/sys@v0.3.0",
      "type" : "library",
      "bom-ref" : "5b1105a1-cf4f-4d82-825c-9e9a4b240aad"
    },
    {
      "name" : "golang.org/x/sys",
      "version" : "v0.4.0",
      "purl" : "pkg:golang/golang.org/x/sys@v0.4.0",
      "type" : "library",
      "bom-ref" : "f9534be1-5eb9-4524-97af-8880091f40fe"
    },
    {
      "name" : "golang.org/x/term",
      "version" : "v0.3.0",
      "purl" : "pkg:golang/golang.org/x/term@v0.3.0",
      "type" : "library",
      "bom-ref" : "807515d7-3a59-4ee4-baeb-1f23248b5488"
    },
    {
      "name" : "golang.org/x/text",
      "version" : "v0.5.0",
      "purl" : "pkg:golang/golang.org/x/text@v0.5.0",
      "type" : "library",
      "bom-ref" : "4f9460be-2f85-4c71-bd51-ab4313dab2e6"
    },
    {
      "name" : "golang.org/x/text",
      "version" : "v0.6.0",
      "purl" : "pkg:golang/golang.org/x/text@v0.6.0",
      "type" : "library",
      "bom-ref" : "c90aab37-23b0-4f9c-bffd-7b0a5c08ae68"
    },
    {
      "name" : "golang.org/x/time",
      "version" : "v0.1.0",
      "purl" : "pkg:golang/golang.org/x/time@v0.1.0",
      "type" : "library",
      "bom-ref" : "9980f029-1bf1-4705-8283-3530f419c00d"
    },
    {
      "name" : "google.golang.org/genproto",
      "version" : "v0.0.0-20221024183307-1bc688fe9f3e",
      "purl" : "pkg:golang/google.golang.org/genproto@v0.0.0-20221024183307-1bc688fe9f3e",
      "type" : "library",
      "bom-ref" : "adeae18a-50bf-49a4-a4b7-08cd94790cfc"
    },
    {
      "name" : "google.golang.org/grpc",
      "version" : "v1.50.1",
      "purl" : "pkg:golang/google.golang.org/grpc@v1.50.1",
      "type" : "library",
      "bom-ref" : "6e003c9d-b802-448c-bc35-ec8820fd2f8f"
    },
    {
      "name" : "google.golang.org/protobuf",
      "version" : "v1.28.1",
      "purl" : "pkg:golang/google.golang.org/protobuf@v1.28.1",
      "type" : "library",
      "bom-ref" : "fe100ee3-34fc-4038-852e-70f238143406"
    },
    {
      "name" : "gopkg.in/inf.v0",
      "version" : "v0.9.1",
      "purl" : "pkg:golang/gopkg.in/inf.v0@v0.9.1",
      "type" : "library",
      "bom-ref" : "9add924d-1bd0-457d-a68e-35b9c1944b2b"
    },
    {
      "name" : "gopkg.in/yaml.v2",
      "version" : "v2.4.0",
      "purl" : "pkg:golang/gopkg.in/yaml.v2@v2.4.0",
      "type" : "library",
      "bom-ref" : "77638d8f-8f4a-44dc-bd74-a4b8d1f64e72"
    },
    {
      "name" : "gopkg.in/yaml.v3",
      "version" : "v3.0.1",
      "purl" : "pkg:golang/gopkg.in/yaml.v3@v3.0.1",
      "type" : "library",
      "bom-ref" : "ed9d7ed7-abc0-4e7b-9bdc-89dcdf045a2b"
    },
    {
      "name" : "k8s.io/api",
      "version" : "v0.22.4",
      "purl" : "pkg:golang/k8s.io/api@v0.22.4",
      "type" : "library",
      "bom-ref" : "c294444a-23c8-40f6-9d0d-dc19006f1812"
    },
    {
      "name" : "k8s.io/apimachinery",
      "version" : "v0.22.4",
      "purl" : "pkg:golang/k8s.io/apimachinery@v0.22.4",
      "type" : "library",
      "bom-ref" : "66974463-1cc3-4d95-9489-ce71b7541520"
    },
    {
      "name" : "k8s.io/client-go",
      "version" : "v0.22.4",
      "purl" : "pkg:golang/k8s.io/client-go@v0.22.4",
      "type" : "library",
      "bom-ref" : "f35937e8-1e18-4129-94cd-b1bbf40a6109"
    },
    {
      "name" : "k8s.io/klog/v2",
      "version" : "v2.30.0",
      "purl" : "pkg:golang/k8s.io/klog/v2@v2.30.0",
      "type" : "library",
      "bom-ref" : "af5c387c-4308-492d-976f-125a56e88363"
    },
    {
      "name" : "k8s.io/klog/v2",
      "version" : "v2.60.1",
      "purl" : "pkg:golang/k8s.io/klog/v2@v2.60.1",
      "type" : "library",
      "bom-ref" : "76c85533-bc83-4848-ad82-a41f1308f640"
    },
    {
      "name" : "k8s.io/utils",
      "version" : "v0.0.0-20210930125809-cb0fa318a74b",
      "purl" : "pkg:golang/k8s.io/utils@v0.0.0-20210930125809-cb0fa318a74b",
      "type" : "library",
      "bom-ref" : "0662f2b8-71bc-42bf-9358-9f9a37dd99be"
    },
    {
      "name" : "k8s.io/utils",
      "version" : "v0.0.0-20220210201930-3a6ce19ff2f9",
      "purl" : "pkg:golang/k8s.io/utils@v0.0.0-20220210201930-3a6ce19ff2f9",
      "type" : "library",
      "bom-ref" : "7b815e91-681b-4e53-bd7f-bb43aad70476"
    },
    {
      "name" : "libc-utils",
      "version" : "0.7.2-r3",
      "purl" : "pkg:apk/alpine/libc-utils@0.7.2-r3?distro=3.17.2",
      "type" : "library",
      "bom-ref" : "e2c3c3e7-6a7f-4b49-9e81-c2fa94959a15"
    },
    {
      "name" : "libc6-compat",
      "version" : "1.2.3-r4",
      "purl" : "pkg:apk/alpine/libc6-compat@1.2.3-r4?distro=3.17.2",
      "type" : "library",
      "bom-ref" : "ada87a89-eb31-43a4-902d-60f365676949"
    },
    {
      "name" : "libcrypto3",
      "version" : "3.0.8-r0",
      "purl" : "pkg:apk/alpine/libcrypto3@3.0.8-r0?distro=3.17.2",
      "type" : "library",
      "bom-ref" : "c824b96f-897a-445a-8c6e-f6a45b7c1c08"
    },
    {
      "name" : "libcurl",
      "version" : "7.87.0-r2",
      "purl" : "pkg:apk/alpine/libcurl@7.87.0-r2?distro=3.17.2",
      "type" : "library",
      "bom-ref" : "0cb09323-910f-4442-acbe-8e2c6c5bb906"
    },
    {
      "name" : "libedit",
      "version" : "20221030.3.1-r0",
      "purl" : "pkg:apk/alpine/libedit@20221030.3.1-r0?distro=3.17.2",
      "type" : "library",
      "bom-ref" : "24087b97-2932-4a78-81ca-2c45ca728615"
    },
    {
      "name" : "libexpat",
      "version" : "2.5.0-r0",
      "purl" : "pkg:apk/alpine/libexpat@2.5.0-r0?distro=3.17.2",
      "type" : "library",
      "bom-ref" : "85033234-7fc8-41d9-a266-aefd1d96289c"
    },
    {
      "name" : "libssl3",
      "version" : "3.0.8-r0",
      "purl" : "pkg:apk/alpine/libssl3@3.0.8-r0?distro=3.17.2",
      "type" : "library",
      "bom-ref" : "de486eb9-ebae-4336-a3ee-4cb7b1cad30e"
    },
    {
      "name" : "musl",
      "version" : "1.2.3-r4",
      "purl" : "pkg:apk/alpine/musl@1.2.3-r4?distro=3.17.2",
      "type" : "library",
      "bom-ref" : "7e8466b0-ffa6-482c-8d95-3bc83c50c860"
    },
    {
      "name" : "musl-utils",
      "version" : "1.2.3-r4",
      "purl" : "pkg:apk/alpine/musl-utils@1.2.3-r4?distro=3.17.2",
      "type" : "library",
      "bom-ref" : "bf5b0d0a-2906-443f-a905-dd2db6aac61e"
    },
    {
      "name" : "ncurses-libs",
      "version" : "6.3_p20221119-r0",
      "purl" : "pkg:apk/alpine/ncurses-libs@6.3_p20221119-r0?distro=3.17.2",
      "type" : "library",
      "bom-ref" : "20774676-c6ff-4443-884d-2705c90e79ed"
    },
    {
      "name" : "ncurses-terminfo-base",
      "version" : "6.3_p20221119-r0",
      "purl" : "pkg:apk/alpine/ncurses-terminfo-base@6.3_p20221119-r0?distro=3.17.2",
      "type" : "library",
      "bom-ref" : "013c3c8a-362b-4bc8-b536-f00484dd5f66"
    },
    {
      "name" : "nghttp2-libs",
      "version" : "1.51.0-r0",
      "purl" : "pkg:apk/alpine/nghttp2-libs@1.51.0-r0?distro=3.17.2",
      "type" : "library",
      "bom-ref" : "8e0d49db-7668-41e2-bf51-86950ea63c0a"
    },
    {
      "name" : "openssh-client-common",
      "version" : "9.1_p1-r2",
      "purl" : "pkg:apk/alpine/openssh-client-common@9.1_p1-r2?distro=3.17.2",
      "type" : "library",
      "bom-ref" : "63f5578e-ba67-43e8-b699-fccea74af212"
    },
    {
      "name" : "openssh-client-default",
      "version" : "9.1_p1-r2",
      "purl" : "pkg:apk/alpine/openssh-client-default@9.1_p1-r2?distro=3.17.2",
      "type" : "library",
      "bom-ref" : "ebd0efcd-031b-4c19-bf70-f6d384f22b8d"
    },
    {
      "name" : "openssh-keygen",
      "version" : "9.1_p1-r2",
      "purl" : "pkg:apk/alpine/openssh-keygen@9.1_p1-r2?distro=3.17.2",
      "type" : "library",
      "bom-ref" : "fdf23252-e92c-4ef7-bd9e-8fe81a159892"
    },
    {
      "name" : "pcre2",
      "version" : "10.42-r0",
      "purl" : "pkg:apk/alpine/pcre2@10.42-r0?distro=3.17.2",
      "type" : "library",
      "bom-ref" : "1011c2bb-9449-46bf-9e34-914880aa3a3c"
    },
    {
      "name" : "scanelf",
      "version" : "1.3.5-r1",
      "purl" : "pkg:apk/alpine/scanelf@1.3.5-r1?distro=3.17.2",
      "type" : "library",
      "bom-ref" : "a8e50a70-e8a5-4b20-ad13-99dbace6d5e9"
    },
    {
      "name" : "sigs.k8s.io/structured-merge-diff/v4",
      "version" : "v4.1.2",
      "purl" : "pkg:golang/sigs.k8s.io/structured-merge-diff/v4@v4.1.2",
      "type" : "library",
      "bom-ref" : "532604f0-2aad-4e75-9155-1b89377e8c70"
    },
    {
      "name" : "sigs.k8s.io/structured-merge-diff/v4",
      "version" : "v4.2.1",
      "purl" : "pkg:golang/sigs.k8s.io/structured-merge-diff/v4@v4.2.1",
      "type" : "library",
      "bom-ref" : "a13484e2-73f9-440f-9186-19fa4d07bb9d"
    },
    {
      "name" : "sigs.k8s.io/yaml",
      "version" : "v1.2.0",
      "purl" : "pkg:golang/sigs.k8s.io/yaml@v1.2.0",
      "type" : "library",
      "bom-ref" : "3ab34761-ed17-481a-812b-135817b17428"
    },
    {
      "name" : "ssl_client",
      "version" : "1.35.0-r29",
      "purl" : "pkg:apk/alpine/ssl_client@1.35.0-r29?distro=3.17.2",
      "type" : "library",
      "bom-ref" : "ce2068d0-3acb-4922-b3a8-d9c07f60988f"
    },
    {
      "name" : "usr/libexec/docker/cli-plugins/docker-buildx",
      "type" : "application",
      "bom-ref" : "254a9ffa-e644-4ca2-8257-c1aad1bc5f76"
    },
    {
      "name" : "usr/libexec/docker/cli-plugins/docker-compose",
      "type" : "application",
      "bom-ref" : "ab6887eb-70d8-4dd5-bb4a-ee0263e40039"
    },
    {
      "name" : "zlib",
      "version" : "1.2.13-r0",
      "purl" : "pkg:apk/alpine/zlib@1.2.13-r0?distro=3.17.2",
      "type" : "library",
      "bom-ref" : "6ff7771e-44d8-4046-a926-096548783991"
    }
  ],
  "dependencies" : [
    {
      "ref" : "9dfd3bd1-15f6-43d7-b56f-450b1c14ffb5",
      "dependsOn" : [
        "6019ed69-bdcc-4353-83b3-ec39daac3878",
        "254a9ffa-e644-4ca2-8257-c1aad1bc5f76",
        "ab6887eb-70d8-4dd5-bb4a-ee0263e40039"
      ]
    },
    {
      "ref" : "6019ed69-bdcc-4353-83b3-ec39daac3878",
      "dependsOn" : [
        "59f245d2-4e32-4fdd-96a8-1d9eeb065431",
        "49ce72e3-9480-4764-88f7-18fd7fef50d7",
        "030a51f5-5e3f-4d26-9ddf-ea25d1dfcd91",
        "18e47526-aa55-4cbf-aa6e-dbbde5bd69ee",
        "7b8e41b4-6444-4ef4-92af-f3ee883b60c0",
        "c943ac20-1099-4106-8776-229a1ebf7b45",
        "881488a1-9214-4f39-87a2-29e2a61e1127",
        "9ea481ae-6acb-4dfd-94e0-e936bf1abeac",
        "9f6b16c5-e5a4-483c-9fd2-d2d9405427cf",
        "400c82f2-3e3c-4307-87e1-1e597c1897da",
        "e2c3c3e7-6a7f-4b49-9e81-c2fa94959a15",
        "ada87a89-eb31-43a4-902d-60f365676949",
        "c824b96f-897a-445a-8c6e-f6a45b7c1c08",
        "0cb09323-910f-4442-acbe-8e2c6c5bb906",
        "24087b97-2932-4a78-81ca-2c45ca728615",
        "85033234-7fc8-41d9-a266-aefd1d96289c",
        "de486eb9-ebae-4336-a3ee-4cb7b1cad30e",
        "7e8466b0-ffa6-482c-8d95-3bc83c50c860",
        "bf5b0d0a-2906-443f-a905-dd2db6aac61e",
        "20774676-c6ff-4443-884d-2705c90e79ed",
        "013c3c8a-362b-4bc8-b536-f00484dd5f66",
        "8e0d49db-7668-41e2-bf51-86950ea63c0a",
        "63f5578e-ba67-43e8-b699-fccea74af212",
        "ebd0efcd-031b-4c19-bf70-f6d384f22b8d",
        "fdf23252-e92c-4ef7-bd9e-8fe81a159892",
        "1011c2bb-9449-46bf-9e34-914880aa3a3c",
        "a8e50a70-e8a5-4b20-ad13-99dbace6d5e9",
        "ce2068d0-3acb-4922-b3a8-d9c07f60988f",
        "6ff7771e-44d8-4046-a926-096548783991"
      ]
    },
    {
      "ref" : "59f245d2-4e32-4fdd-96a8-1d9eeb065431",
      "dependsOn" : [ ]
    },
    {
      "ref" : "49ce72e3-9480-4764-88f7-18fd7fef50d7",
      "dependsOn" : [ ]
    },
    {
      "ref" : "030a51f5-5e3f-4d26-9ddf-ea25d1dfcd91",
      "dependsOn" : [ ]
    },
    {
      "ref" : "18e47526-aa55-4cbf-aa6e-dbbde5bd69ee",
      "dependsOn" : [ ]
    },
    {
      "ref" : "7b8e41b4-6444-4ef4-92af-f3ee883b60c0",
      "dependsOn" : [ ]
    },
    {
      "ref" : "c943ac20-1099-4106-8776-229a1ebf7b45",
      "dependsOn" : [ ]
    },
    {
      "ref" : "881488a1-9214-4f39-87a2-29e2a61e1127",
      "dependsOn" : [ ]
    },
    {
      "ref" : "9ea481ae-6acb-4dfd-94e0-e936bf1abeac",
      "dependsOn" : [ ]
    },
    {
      "ref" : "9f6b16c5-e5a4-483c-9fd2-d2d9405427cf",
      "dependsOn" : [ ]
    },
    {
      "ref" : "07656099-e3bd-4a64-a5a7-d42e79175438",
      "dependsOn" : [ ]
    },
    {
      "ref" : "400c82f2-3e3c-4307-87e1-1e597c1897da",
      "dependsOn" : [ ]
    },
    {
      "ref" : "ae7445fe-3123-4dfb-b90d-0dd6804716a5",
      "dependsOn" : [ ]
    },
    {
      "ref" : "5ef000ff-c051-456c-8a76-69c305ed0a32",
      "dependsOn" : [ ]
    },
    {
      "ref" : "a13502b8-9bf4-4c5e-9a03-567a86c8a97f",
      "dependsOn" : [ ]
    },
    {
      "ref" : "d617ea39-b8f0-455f-a7e9-58fe19715b43",
      "dependsOn" : [ ]
    },
    {
      "ref" : "18d67580-8eb9-418e-a1d0-fc7ff4853c1d",
      "dependsOn" : [ ]
    },
    {
      "ref" : "837753bf-49d9-4b08-8a44-51d0826a4927",
      "dependsOn" : [ ]
    },
    {
      "ref" : "e0c5e8d6-5b5e-4b76-9eac-518513a2dd79",
      "dependsOn" : [ ]
    },
    {
      "ref" : "b16f07cc-bc2b-4d28-87e8-ebf1aab797f0",
      "dependsOn" : [ ]
    },
    {
      "ref" : "4817832d-be16-4b49-a84a-2008c42f666b",
      "dependsOn" : [ ]
    },
    {
      "ref" : "2e951764-af10-458d-8052-83428e5af49c",
      "dependsOn" : [ ]
    },
    {
      "ref" : "978f68fe-bb36-4bd2-883e-6296bf0fafcf",
      "dependsOn" : [ ]
    },
    {
      "ref" : "b4a838db-4956-4a60-9c1f-dba48e27e22f",
      "dependsOn" : [ ]
    },
    {
      "ref" : "a7c652de-8a77-45d4-91b3-638a0de45d69",
      "dependsOn" : [ ]
    },
    {
      "ref" : "73ab8280-363d-4441-9ca8-316c72dca11c",
      "dependsOn" : [ ]
    },
    {
      "ref" : "78ba659c-8ff4-4509-a12a-e12b9aa24fda",
      "dependsOn" : [ ]
    },
    {
      "ref" : "19bb2a95-6039-40a3-b1c3-5dfbd0098898",
      "dependsOn" : [ ]
    },
    {
      "ref" : "4ff528f2-6c05-40a6-8984-30cc3e18b760",
      "dependsOn" : [ ]
    },
    {
      "ref" : "42e5b164-3586-4924-ac8d-cf61033b7c31",
      "dependsOn" : [ ]
    },
    {
      "ref" : "a665f87d-daf5-410f-a2d0-cda68d08104a",
      "dependsOn" : [ ]
    },
    {
      "ref" : "3463b792-c5ca-4202-8239-f6d52bf8efdf",
      "dependsOn" : [ ]
    },
    {
      "ref" : "1495ee57-722d-41e6-9eb1-c1f316100ed9",
      "dependsOn" : [ ]
    },
    {
      "ref" : "f9fa47f4-a212-41fd-9349-17341e00f7cd",
      "dependsOn" : [ ]
    },
    {
      "ref" : "d133ebd2-53b2-4e35-ac0e-81c8418e7670",
      "dependsOn" : [ ]
    },
    {
      "ref" : "66831aa9-4641-498c-a5e7-4e5c54bf9c76",
      "dependsOn" : [ ]
    },
    {
      "ref" : "e17bf593-6605-42ca-8945-fa73d7f87d30",
      "dependsOn" : [ ]
    },
    {
      "ref" : "8bda8213-2e2a-459f-95f5-751f7841e834",
      "dependsOn" : [ ]
    },
    {
      "ref" : "24b40f51-c12b-430b-84a1-dba9202977e5",
      "dependsOn" : [ ]
    },
    {
      "ref" : "42fa15b0-b855-4b13-87de-45b73adbfab2",
      "dependsOn" : [ ]
    },
    {
      "ref" : "7907c996-9a59-4807-be82-bdf2fd245770",
      "dependsOn" : [ ]
    },
    {
      "ref" : "777ba26d-3691-41ab-a89a-56b4c18e06e2",
      "dependsOn" : [ ]
    },
    {
      "ref" : "663d8afa-a086-4bb8-9558-2aecffbbde41",
      "dependsOn" : [ ]
    },
    {
      "ref" : "0bf1b63d-7246-4522-a737-516c13f2a115",
      "dependsOn" : [ ]
    },
    {
      "ref" : "8a315575-c291-46a6-b52b-46cefadb42b4",
      "dependsOn" : [ ]
    },
    {
      "ref" : "ffe30449-667e-4a3d-b33f-cb9db5da1e84",
      "dependsOn" : [ ]
    },
    {
      "ref" : "2acc3a31-d1c4-4100-acf0-509f4663a38a",
      "dependsOn" : [ ]
    },
    {
      "ref" : "75ebe486-bbba-42b1-ab94-d9f0b973ec24",
      "dependsOn" : [ ]
    },
    {
      "ref" : "44267882-c0fd-4c2e-8750-8e225891db07",
      "dependsOn" : [ ]
    },
    {
      "ref" : "e4337b85-5b41-46fc-9c54-d36bed1c7456",
      "dependsOn" : [ ]
    },
    {
      "ref" : "42c55fc2-7b69-443b-ba3b-3da294b5637e",
      "dependsOn" : [ ]
    },
    {
      "ref" : "3ce214e3-a632-4ec9-a4de-285688dc4332",
      "dependsOn" : [ ]
    },
    {
      "ref" : "158055d2-6a42-4a86-8d05-75e0119936c5",
      "dependsOn" : [ ]
    },
    {
      "ref" : "43f0e0dd-8e06-4684-afa5-ed8212eccf44",
      "dependsOn" : [ ]
    },
    {
      "ref" : "b68bac19-9c15-4624-b7b6-473bd776ac2b",
      "dependsOn" : [ ]
    },
    {
      "ref" : "1c2fc003-05ff-400d-a4bc-5fb62da880e6",
      "dependsOn" : [ ]
    },
    {
      "ref" : "4c775047-3a97-4c21-98fb-643ad49bd08f",
      "dependsOn" : [ ]
    },
    {
      "ref" : "79c62b24-22ac-45b3-af29-7265770dc396",
      "dependsOn" : [ ]
    },
    {
      "ref" : "07e60157-c065-4e2a-b437-42f530bef322",
      "dependsOn" : [ ]
    },
    {
      "ref" : "bcd92681-97c5-4ffd-bb8f-f9d9c9daa7c6",
      "dependsOn" : [ ]
    },
    {
      "ref" : "d6e5a093-5209-4814-a140-b2c2b6642cb2",
      "dependsOn" : [ ]
    },
    {
      "ref" : "147fdc62-e5c0-459b-b3e2-bc21c4226e75",
      "dependsOn" : [ ]
    },
    {
      "ref" : "907219eb-df08-43bf-b9ac-83f9f293b056",
      "dependsOn" : [ ]
    },
    {
      "ref" : "3c1788be-bd98-4134-9f7a-627c78c29b57",
      "dependsOn" : [ ]
    },
    {
      "ref" : "aec4395c-7b90-4f18-a3ae-5e7b31986e0f",
      "dependsOn" : [ ]
    },
    {
      "ref" : "357e7e19-ba6c-4178-8620-e2a18536ea8e",
      "dependsOn" : [ ]
    },
    {
      "ref" : "bdaff4d1-55ee-4146-aeb4-ca43e9816187",
      "dependsOn" : [ ]
    },
    {
      "ref" : "58cab740-fa0e-43c0-a549-51a80f14867d",
      "dependsOn" : [ ]
    },
    {
      "ref" : "1b20349f-66f8-4b88-9c19-fac34e1c0275",
      "dependsOn" : [ ]
    },
    {
      "ref" : "503e40f4-8a60-4aee-aa0f-f7e705949a4c",
      "dependsOn" : [ ]
    },
    {
      "ref" : "c8b5242a-bb6f-4da2-a12f-d600ac22ffa5",
      "dependsOn" : [ ]
    },
    {
      "ref" : "9c92033e-1f3a-40a6-b152-522b3a861711",
      "dependsOn" : [ ]
    },
    {
      "ref" : "d5fbd394-1dae-4138-b95d-06432ba02bf1",
      "dependsOn" : [ ]
    },
    {
      "ref" : "c1e2eb1e-3bc5-428c-84d6-5902857380b3",
      "dependsOn" : [ ]
    },
    {
      "ref" : "ff6cf0e7-6ca2-44f7-bb56-7689483042a5",
      "dependsOn" : [ ]
    },
    {
      "ref" : "9f8b12c7-7839-43c4-95e1-23e18149a42c",
      "dependsOn" : [ ]
    },
    {
      "ref" : "72d90680-73ba-454d-879f-854b4e4943d4",
      "dependsOn" : [ ]
    },
    {
      "ref" : "3cc8565c-de46-4a67-8c3c-af394214d463",
      "dependsOn" : [ ]
    },
    {
      "ref" : "0cabb729-f0c4-414d-be1e-23591c62322d",
      "dependsOn" : [ ]
    },
    {
      "ref" : "458dd21f-3772-4d76-9fe4-488354d2db0e",
      "dependsOn" : [ ]
    },
    {
      "ref" : "8abcaf0a-4fca-4060-9cbe-90501df446cd",
      "dependsOn" : [ ]
    },
    {
      "ref" : "e9008fa4-4986-4737-91fc-d499ae209e22",
      "dependsOn" : [ ]
    },
    {
      "ref" : "dab4de64-7bee-4464-9c60-2a60a0f89cf1",
      "dependsOn" : [ ]
    },
    {
      "ref" : "549cd7fc-4f4b-4055-aa14-53266c57fabb",
      "dependsOn" : [ ]
    },
    {
      "ref" : "e88ae1d2-28d5-414a-9fb7-5707dbd5d6d0",
      "dependsOn" : [ ]
    },
    {
      "ref" : "fea95ab1-992e-4d91-819d-2e53b2614cff",
      "dependsOn" : [ ]
    },
    {
      "ref" : "f53679f7-7d27-46d5-a7c6-5d6b85192f41",
      "dependsOn" : [ ]
    },
    {
      "ref" : "352f0066-b584-4006-962a-2176a02de045",
      "dependsOn" : [ ]
    },
    {
      "ref" : "3c60c343-5915-4cb4-9554-e8e2b609c62b",
      "dependsOn" : [ ]
    },
    {
      "ref" : "11d59ebb-bc27-403d-b148-55fb6b0cfc12",
      "dependsOn" : [ ]
    },
    {
      "ref" : "f97b8814-38dc-429d-9934-c2428f392369",
      "dependsOn" : [ ]
    },
    {
      "ref" : "42bb6ba3-c24d-4eba-8df7-6a18c83cd660",
      "dependsOn" : [ ]
    },
    {
      "ref" : "380afe98-3a36-4205-b22c-4da7c9f44e61",
      "dependsOn" : [ ]
    },
    {
      "ref" : "dac22c36-7577-4208-bf45-e651a6f1b4c6",
      "dependsOn" : [ ]
    },
    {
      "ref" : "9a530755-2d7e-47d3-aaba-eec257a8e7d6",
      "dependsOn" : [ ]
    },
    {
      "ref" : "3233224f-d572-413b-b039-491334893083",
      "dependsOn" : [ ]
    },
    {
      "ref" : "abec4465-e60d-48a4-9dd1-2ce360b4f3fd",
      "dependsOn" : [ ]
    },
    {
      "ref" : "01d8a8b7-5117-4c83-9767-b38a9ef5a374",
      "dependsOn" : [ ]
    },
    {
      "ref" : "98b50d3c-dc9c-4e22-8561-b8418293926d",
      "dependsOn" : [ ]
    },
    {
      "ref" : "027ddbd5-c94b-49d1-bad3-1debd183cf1a",
      "dependsOn" : [ ]
    },
    {
      "ref" : "d4625035-a126-4820-af1e-a562a59f446d",
      "dependsOn" : [ ]
    },
    {
      "ref" : "b6949d23-ad1d-4708-b0b1-85bf73470383",
      "dependsOn" : [ ]
    },
    {
      "ref" : "760b79ce-ec95-489f-a237-850206d32fea",
      "dependsOn" : [ ]
    },
    {
      "ref" : "1e9169e6-6646-4348-bb78-ad1997246e0b",
      "dependsOn" : [ ]
    },
    {
      "ref" : "ab1afb4f-fd21-49eb-933f-de1cb2cffed8",
      "dependsOn" : [ ]
    },
    {
      "ref" : "fb9f4621-703a-4776-916e-824373ed8afd",
      "dependsOn" : [ ]
    },
    {
      "ref" : "fb547097-034c-4261-b08a-db1a58dbda4d",
      "dependsOn" : [ ]
    },
    {
      "ref" : "24efcdf2-5450-4168-8d3b-8164f58c2c3f",
      "dependsOn" : [ ]
    },
    {
      "ref" : "48a20544-48d6-4d9d-a5b5-39b4c9126366",
      "dependsOn" : [ ]
    },
    {
      "ref" : "be92500b-7052-4953-917d-9f5d160efe68",
      "dependsOn" : [ ]
    },
    {
      "ref" : "00e93413-0cf8-4319-9128-ccd0ce3a6475",
      "dependsOn" : [ ]
    },
    {
      "ref" : "c66fc70b-8d54-4c91-a5ec-55bbc10fcfc7",
      "dependsOn" : [ ]
    },
    {
      "ref" : "b0e01e79-a9d2-4063-90b9-da88b09bf695",
      "dependsOn" : [ ]
    },
    {
      "ref" : "7fec0643-387d-4730-b650-dd851ee7b96b",
      "dependsOn" : [ ]
    },
    {
      "ref" : "6f2f38e0-ddd5-4e3a-9953-2557e2ed4ebb",
      "dependsOn" : [ ]
    },
    {
      "ref" : "c0904fce-12c0-4223-86ec-bf46fb4a5724",
      "dependsOn" : [ ]
    },
    {
      "ref" : "99edb834-1a16-4a99-a1e2-886d76699657",
      "dependsOn" : [ ]
    },
    {
      "ref" : "4b1ba2c2-124e-429d-8d19-9b8374f4c783",
      "dependsOn" : [ ]
    },
    {
      "ref" : "9372bcdf-d28d-4346-8e4a-d90cd7658f54",
      "dependsOn" : [ ]
    },
    {
      "ref" : "8b3fc6bf-e020-4f6d-98fa-dff6e6e3542e",
      "dependsOn" : [ ]
    },
    {
      "ref" : "2af8374a-019a-4075-b598-8a6876242aaa",
      "dependsOn" : [ ]
    },
    {
      "ref" : "3e874772-b846-463d-bbdd-b82949b81aee",
      "dependsOn" : [ ]
    },
    {
      "ref" : "75d4fbe9-e326-4171-9240-7baa4336eae5",
      "dependsOn" : [ ]
    },
    {
      "ref" : "f701287d-ff83-4e0c-8458-340654f44b49",
      "dependsOn" : [ ]
    },
    {
      "ref" : "15e42b75-a709-4120-8c04-5996b8a738c7",
      "dependsOn" : [ ]
    },
    {
      "ref" : "ec204c9d-e775-416b-8962-53dc7a680208",
      "dependsOn" : [ ]
    },
    {
      "ref" : "adf21582-b1c9-46e5-b98a-3d150f6fcbd0",
      "dependsOn" : [ ]
    },
    {
      "ref" : "2ac5fb68-23b1-4b32-8ed0-71296eac387a",
      "dependsOn" : [ ]
    },
    {
      "ref" : "899a133f-767f-4321-aee9-7fbfe743bd36",
      "dependsOn" : [ ]
    },
    {
      "ref" : "3737cea2-2045-401c-ab6e-087c1207beca",
      "dependsOn" : [ ]
    },
    {
      "ref" : "c7febb36-2d21-47ac-af26-238959a27e76",
      "dependsOn" : [ ]
    },
    {
      "ref" : "ec0f011f-8f49-413c-beb4-ae31b1634dc6",
      "dependsOn" : [ ]
    },
    {
      "ref" : "153876d0-2415-4316-b51f-b81964374d82",
      "dependsOn" : [ ]
    },
    {
      "ref" : "70d9e81f-6396-4de6-a797-da11e17c5c74",
      "dependsOn" : [ ]
    },
    {
      "ref" : "8e6126b7-8976-443c-85e7-9748c1484232",
      "dependsOn" : [ ]
    },
    {
      "ref" : "df2a4fc4-78f8-4ec8-b22d-489489a860de",
      "dependsOn" : [ ]
    },
    {
      "ref" : "dd1019ad-b90d-4a04-9a5d-ca6855a8afab",
      "dependsOn" : [ ]
    },
    {
      "ref" : "c80125aa-d357-43b0-bd3c-14e8716e5fd1",
      "dependsOn" : [ ]
    },
    {
      "ref" : "19f65cf2-efcd-4280-9b0f-d68bea8d74ca",
      "dependsOn" : [ ]
    },
    {
      "ref" : "fcee5468-b847-42d5-a75b-9c044d0c1855",
      "dependsOn" : [ ]
    },
    {
      "ref" : "6ad9bdbf-fa13-4254-9654-d29cef395c2c",
      "dependsOn" : [ ]
    },
    {
      "ref" : "1e50fc81-9cbd-48b0-92ac-9c3ddb4e0b6e",
      "dependsOn" : [ ]
    },
    {
      "ref" : "6ffc05aa-3f5f-4652-8d11-07e5e01a849f",
      "dependsOn" : [ ]
    },
    {
      "ref" : "73a72265-64f7-4b86-a143-6fca940b0ed2",
      "dependsOn" : [ ]
    },
    {
      "ref" : "6c01f4de-fea1-49b2-97eb-0c50844f887e",
      "dependsOn" : [ ]
    },
    {
      "ref" : "5cc587b8-7ba9-4b47-8be9-8dbb3909ad58",
      "dependsOn" : [ ]
    },
    {
      "ref" : "0e9cd507-66e2-41d1-b437-145c06c624da",
      "dependsOn" : [ ]
    },
    {
      "ref" : "69cb05f8-6885-4b97-a13a-f54f08825cf5",
      "dependsOn" : [ ]
    },
    {
      "ref" : "ae2c450f-d7e3-45f5-96b7-b741ed6d48d7",
      "dependsOn" : [ ]
    },
    {
      "ref" : "ac6e6bc8-18e9-4d66-9e07-2ab97a326950",
      "dependsOn" : [ ]
    },
    {
      "ref" : "5abee9de-c64b-4591-9e41-d6a788fa909c",
      "dependsOn" : [ ]
    },
    {
      "ref" : "2242d75b-94de-4ba5-8367-af3af1d90a2a",
      "dependsOn" : [ ]
    },
    {
      "ref" : "10995db4-4f14-4676-bf06-113795fc301d",
      "dependsOn" : [ ]
    },
    {
      "ref" : "d32fedf6-1edb-4c0d-9beb-9d53261649e8",
      "dependsOn" : [ ]
    },
    {
      "ref" : "5d95c51b-a04a-4ad1-85c0-197d3de98bb5",
      "dependsOn" : [ ]
    },
    {
      "ref" : "70dbc7b4-45da-4cac-bebc-a37f084927d4",
      "dependsOn" : [ ]
    },
    {
      "ref" : "9b5fe813-e12d-4bad-a1b7-77598cdcf9f2",
      "dependsOn" : [ ]
    },
    {
      "ref" : "6703c9c3-c8f1-48cb-b3ec-f51724f37abf",
      "dependsOn" : [ ]
    },
    {
      "ref" : "5b1105a1-cf4f-4d82-825c-9e9a4b240aad",
      "dependsOn" : [ ]
    },
    {
      "ref" : "f9534be1-5eb9-4524-97af-8880091f40fe",
      "dependsOn" : [ ]
    },
    {
      "ref" : "807515d7-3a59-4ee4-baeb-1f23248b5488",
      "dependsOn" : [ ]
    },
    {
      "ref" : "4f9460be-2f85-4c71-bd51-ab4313dab2e6",
      "dependsOn" : [ ]
    },
    {
      "ref" : "c90aab37-23b0-4f9c-bffd-7b0a5c08ae68",
      "dependsOn" : [ ]
    },
    {
      "ref" : "9980f029-1bf1-4705-8283-3530f419c00d",
      "dependsOn" : [ ]
    },
    {
      "ref" : "adeae18a-50bf-49a4-a4b7-08cd94790cfc",
      "dependsOn" : [ ]
    },
    {
      "ref" : "6e003c9d-b802-448c-bc35-ec8820fd2f8f",
      "dependsOn" : [ ]
    },
    {
      "ref" : "fe100ee3-34fc-4038-852e-70f238143406",
      "dependsOn" : [ ]
    },
    {
      "ref" : "9add924d-1bd0-457d-a68e-35b9c1944b2b",
      "dependsOn" : [ ]
    },
    {
      "ref" : "77638d8f-8f4a-44dc-bd74-a4b8d1f64e72",
      "dependsOn" : [ ]
    },
    {
      "ref" : "ed9d7ed7-abc0-4e7b-9bdc-89dcdf045a2b",
      "dependsOn" : [ ]
    },
    {
      "ref" : "c294444a-23c8-40f6-9d0d-dc19006f1812",
      "dependsOn" : [ ]
    },
    {
      "ref" : "66974463-1cc3-4d95-9489-ce71b7541520",
      "dependsOn" : [ ]
    },
    {
      "ref" : "f35937e8-1e18-4129-94cd-b1bbf40a6109",
      "dependsOn" : [ ]
    },
    {
      "ref" : "af5c387c-4308-492d-976f-125a56e88363",
      "dependsOn" : [ ]
    },
    {
      "ref" : "76c85533-bc83-4848-ad82-a41f1308f640",
      "dependsOn" : [ ]
    },
    {
      "ref" : "0662f2b8-71bc-42bf-9358-9f9a37dd99be",
      "dependsOn" : [ ]
    },
    {
      "ref" : "7b815e91-681b-4e53-bd7f-bb43aad70476",
      "dependsOn" : [ ]
    },
    {
      "ref" : "e2c3c3e7-6a7f-4b49-9e81-c2fa94959a15",
      "dependsOn" : [ ]
    },
    {
      "ref" : "ada87a89-eb31-43a4-902d-60f365676949",
      "dependsOn" : [ ]
    },
    {
      "ref" : "c824b96f-897a-445a-8c6e-f6a45b7c1c08",
      "dependsOn" : [ ]
    },
    {
      "ref" : "0cb09323-910f-4442-acbe-8e2c6c5bb906",
      "dependsOn" : [ ]
    },
    {
      "ref" : "24087b97-2932-4a78-81ca-2c45ca728615",
      "dependsOn" : [ ]
    },
    {
      "ref" : "85033234-7fc8-41d9-a266-aefd1d96289c",
      "dependsOn" : [ ]
    },
    {
      "ref" : "de486eb9-ebae-4336-a3ee-4cb7b1cad30e",
      "dependsOn" : [ ]
    },
    {
      "ref" : "7e8466b0-ffa6-482c-8d95-3bc83c50c860",
      "dependsOn" : [ ]
    },
    {
      "ref" : "bf5b0d0a-2906-443f-a905-dd2db6aac61e",
      "dependsOn" : [ ]
    },
    {
      "ref" : "20774676-c6ff-4443-884d-2705c90e79ed",
      "dependsOn" : [ ]
    },
    {
      "ref" : "013c3c8a-362b-4bc8-b536-f00484dd5f66",
      "dependsOn" : [ ]
    },
    {
      "ref" : "8e0d49db-7668-41e2-bf51-86950ea63c0a",
      "dependsOn" : [ ]
    },
    {
      "ref" : "63f5578e-ba67-43e8-b699-fccea74af212",
      "dependsOn" : [ ]
    },
    {
      "ref" : "ebd0efcd-031b-4c19-bf70-f6d384f22b8d",
      "dependsOn" : [ ]
    },
    {
      "ref" : "fdf23252-e92c-4ef7-bd9e-8fe81a159892",
      "dependsOn" : [ ]
    },
    {
      "ref" : "1011c2bb-9449-46bf-9e34-914880aa3a3c",
      "dependsOn" : [ ]
    },
    {
      "ref" : "a8e50a70-e8a5-4b20-ad13-99dbace6d5e9",
      "dependsOn" : [ ]
    },
    {
      "ref" : "532604f0-2aad-4e75-9155-1b89377e8c70",
      "dependsOn" : [ ]
    },
    {
      "ref" : "a13484e2-73f9-440f-9186-19fa4d07bb9d",
      "dependsOn" : [ ]
    },
    {
      "ref" : "3ab34761-ed17-481a-812b-135817b17428",
      "dependsOn" : [ ]
    },
    {
      "ref" : "ce2068d0-3acb-4922-b3a8-d9c07f60988f",
      "dependsOn" : [ ]
    },
    {
      "ref" : "254a9ffa-e644-4ca2-8257-c1aad1bc5f76",
      "dependsOn" : [
        "07656099-e3bd-4a64-a5a7-d42e79175438",
        "5ef000ff-c051-456c-8a76-69c305ed0a32",
        "a13502b8-9bf4-4c5e-9a03-567a86c8a97f",
        "d617ea39-b8f0-455f-a7e9-58fe19715b43",
        "18d67580-8eb9-418e-a1d0-fc7ff4853c1d",
        "837753bf-49d9-4b08-8a44-51d0826a4927",
        "e0c5e8d6-5b5e-4b76-9eac-518513a2dd79",
        "b16f07cc-bc2b-4d28-87e8-ebf1aab797f0",
        "4817832d-be16-4b49-a84a-2008c42f666b",
        "2e951764-af10-458d-8052-83428e5af49c",
        "978f68fe-bb36-4bd2-883e-6296bf0fafcf",
        "b4a838db-4956-4a60-9c1f-dba48e27e22f",
        "a7c652de-8a77-45d4-91b3-638a0de45d69",
        "73ab8280-363d-4441-9ca8-316c72dca11c",
        "78ba659c-8ff4-4509-a12a-e12b9aa24fda",
        "19bb2a95-6039-40a3-b1c3-5dfbd0098898",
        "4ff528f2-6c05-40a6-8984-30cc3e18b760",
        "42e5b164-3586-4924-ac8d-cf61033b7c31",
        "a665f87d-daf5-410f-a2d0-cda68d08104a",
        "3463b792-c5ca-4202-8239-f6d52bf8efdf",
        "1495ee57-722d-41e6-9eb1-c1f316100ed9",
        "f9fa47f4-a212-41fd-9349-17341e00f7cd",
        "d133ebd2-53b2-4e35-ac0e-81c8418e7670",
        "e17bf593-6605-42ca-8945-fa73d7f87d30",
        "8bda8213-2e2a-459f-95f5-751f7841e834",
        "24b40f51-c12b-430b-84a1-dba9202977e5",
        "7907c996-9a59-4807-be82-bdf2fd245770",
        "777ba26d-3691-41ab-a89a-56b4c18e06e2",
        "0bf1b63d-7246-4522-a737-516c13f2a115",
        "8a315575-c291-46a6-b52b-46cefadb42b4",
        "ffe30449-667e-4a3d-b33f-cb9db5da1e84",
        "2acc3a31-d1c4-4100-acf0-509f4663a38a",
        "75ebe486-bbba-42b1-ab94-d9f0b973ec24",
        "42c55fc2-7b69-443b-ba3b-3da294b5637e",
        "158055d2-6a42-4a86-8d05-75e0119936c5",
        "43f0e0dd-8e06-4684-afa5-ed8212eccf44",
        "b68bac19-9c15-4624-b7b6-473bd776ac2b",
        "4c775047-3a97-4c21-98fb-643ad49bd08f",
        "79c62b24-22ac-45b3-af29-7265770dc396",
        "07e60157-c065-4e2a-b437-42f530bef322",
        "bcd92681-97c5-4ffd-bb8f-f9d9c9daa7c6",
        "d6e5a093-5209-4814-a140-b2c2b6642cb2",
        "147fdc62-e5c0-459b-b3e2-bc21c4226e75",
        "907219eb-df08-43bf-b9ac-83f9f293b056",
        "aec4395c-7b90-4f18-a3ae-5e7b31986e0f",
        "357e7e19-ba6c-4178-8620-e2a18536ea8e",
        "bdaff4d1-55ee-4146-aeb4-ca43e9816187",
        "58cab740-fa0e-43c0-a549-51a80f14867d",
        "1b20349f-66f8-4b88-9c19-fac34e1c0275",
        "503e40f4-8a60-4aee-aa0f-f7e705949a4c",
        "9c92033e-1f3a-40a6-b152-522b3a861711",
        "d5fbd394-1dae-4138-b95d-06432ba02bf1",
        "c1e2eb1e-3bc5-428c-84d6-5902857380b3",
        "ff6cf0e7-6ca2-44f7-bb56-7689483042a5",
        "9f8b12c7-7839-43c4-95e1-23e18149a42c",
        "72d90680-73ba-454d-879f-854b4e4943d4",
        "3cc8565c-de46-4a67-8c3c-af394214d463",
        "0cabb729-f0c4-414d-be1e-23591c62322d",
        "458dd21f-3772-4d76-9fe4-488354d2db0e",
        "e9008fa4-4986-4737-91fc-d499ae209e22",
        "e88ae1d2-28d5-414a-9fb7-5707dbd5d6d0",
        "fea95ab1-992e-4d91-819d-2e53b2614cff",
        "352f0066-b584-4006-962a-2176a02de045",
        "11d59ebb-bc27-403d-b148-55fb6b0cfc12",
        "dac22c36-7577-4208-bf45-e651a6f1b4c6",
        "9a530755-2d7e-47d3-aaba-eec257a8e7d6",
        "abec4465-e60d-48a4-9dd1-2ce360b4f3fd",
        "01d8a8b7-5117-4c83-9767-b38a9ef5a374",
        "98b50d3c-dc9c-4e22-8561-b8418293926d",
        "027ddbd5-c94b-49d1-bad3-1debd183cf1a",
        "d4625035-a126-4820-af1e-a562a59f446d",
        "b6949d23-ad1d-4708-b0b1-85bf73470383",
        "760b79ce-ec95-489f-a237-850206d32fea",
        "1e9169e6-6646-4348-bb78-ad1997246e0b",
        "ab1afb4f-fd21-49eb-933f-de1cb2cffed8",
        "fb547097-034c-4261-b08a-db1a58dbda4d",
        "48a20544-48d6-4d9d-a5b5-39b4c9126366",
        "be92500b-7052-4953-917d-9f5d160efe68",
        "00e93413-0cf8-4319-9128-ccd0ce3a6475",
        "c66fc70b-8d54-4c91-a5ec-55bbc10fcfc7",
        "b0e01e79-a9d2-4063-90b9-da88b09bf695",
        "6f2f38e0-ddd5-4e3a-9953-2557e2ed4ebb",
        "c0904fce-12c0-4223-86ec-bf46fb4a5724",
        "99edb834-1a16-4a99-a1e2-886d76699657",
        "4b1ba2c2-124e-429d-8d19-9b8374f4c783",
        "9372bcdf-d28d-4346-8e4a-d90cd7658f54",
        "8b3fc6bf-e020-4f6d-98fa-dff6e6e3542e",
        "2af8374a-019a-4075-b598-8a6876242aaa",
        "3e874772-b846-463d-bbdd-b82949b81aee",
        "f701287d-ff83-4e0c-8458-340654f44b49",
        "15e42b75-a709-4120-8c04-5996b8a738c7",
        "ec204c9d-e775-416b-8962-53dc7a680208",
        "adf21582-b1c9-46e5-b98a-3d150f6fcbd0",
        "2ac5fb68-23b1-4b32-8ed0-71296eac387a",
        "899a133f-767f-4321-aee9-7fbfe743bd36",
        "ec0f011f-8f49-413c-beb4-ae31b1634dc6",
        "153876d0-2415-4316-b51f-b81964374d82",
        "70d9e81f-6396-4de6-a797-da11e17c5c74",
        "8e6126b7-8976-443c-85e7-9748c1484232",
        "dd1019ad-b90d-4a04-9a5d-ca6855a8afab",
        "c80125aa-d357-43b0-bd3c-14e8716e5fd1",
        "19f65cf2-efcd-4280-9b0f-d68bea8d74ca",
        "fcee5468-b847-42d5-a75b-9c044d0c1855",
        "6ad9bdbf-fa13-4254-9654-d29cef395c2c",
        "1e50fc81-9cbd-48b0-92ac-9c3ddb4e0b6e",
        "6ffc05aa-3f5f-4652-8d11-07e5e01a849f",
        "6c01f4de-fea1-49b2-97eb-0c50844f887e",
        "5cc587b8-7ba9-4b47-8be9-8dbb3909ad58",
        "0e9cd507-66e2-41d1-b437-145c06c624da",
        "69cb05f8-6885-4b97-a13a-f54f08825cf5",
        "ae2c450f-d7e3-45f5-96b7-b741ed6d48d7",
        "ac6e6bc8-18e9-4d66-9e07-2ab97a326950",
        "5abee9de-c64b-4591-9e41-d6a788fa909c",
        "2242d75b-94de-4ba5-8367-af3af1d90a2a",
        "d32fedf6-1edb-4c0d-9beb-9d53261649e8",
        "5d95c51b-a04a-4ad1-85c0-197d3de98bb5",
        "70dbc7b4-45da-4cac-bebc-a37f084927d4",
        "9b5fe813-e12d-4bad-a1b7-77598cdcf9f2",
        "6703c9c3-c8f1-48cb-b3ec-f51724f37abf",
        "5b1105a1-cf4f-4d82-825c-9e9a4b240aad",
        "807515d7-3a59-4ee4-baeb-1f23248b5488",
        "4f9460be-2f85-4c71-bd51-ab4313dab2e6",
        "9980f029-1bf1-4705-8283-3530f419c00d",
        "adeae18a-50bf-49a4-a4b7-08cd94790cfc",
        "6e003c9d-b802-448c-bc35-ec8820fd2f8f",
        "fe100ee3-34fc-4038-852e-70f238143406",
        "9add924d-1bd0-457d-a68e-35b9c1944b2b",
        "77638d8f-8f4a-44dc-bd74-a4b8d1f64e72",
        "ed9d7ed7-abc0-4e7b-9bdc-89dcdf045a2b",
        "c294444a-23c8-40f6-9d0d-dc19006f1812",
        "66974463-1cc3-4d95-9489-ce71b7541520",
        "f35937e8-1e18-4129-94cd-b1bbf40a6109",
        "af5c387c-4308-492d-976f-125a56e88363",
        "0662f2b8-71bc-42bf-9358-9f9a37dd99be",
        "532604f0-2aad-4e75-9155-1b89377e8c70",
        "3ab34761-ed17-481a-812b-135817b17428"
      ]
    },
    {
      "ref" : "ab6887eb-70d8-4dd5-bb4a-ee0263e40039",
      "dependsOn" : [
        "ae7445fe-3123-4dfb-b90d-0dd6804716a5",
        "b4a838db-4956-4a60-9c1f-dba48e27e22f",
        "a7c652de-8a77-45d4-91b3-638a0de45d69",
        "73ab8280-363d-4441-9ca8-316c72dca11c",
        "78ba659c-8ff4-4509-a12a-e12b9aa24fda",
        "19bb2a95-6039-40a3-b1c3-5dfbd0098898",
        "4ff528f2-6c05-40a6-8984-30cc3e18b760",
        "42e5b164-3586-4924-ac8d-cf61033b7c31",
        "a665f87d-daf5-410f-a2d0-cda68d08104a",
        "3463b792-c5ca-4202-8239-f6d52bf8efdf",
        "1495ee57-722d-41e6-9eb1-c1f316100ed9",
        "f9fa47f4-a212-41fd-9349-17341e00f7cd",
        "d133ebd2-53b2-4e35-ac0e-81c8418e7670",
        "66831aa9-4641-498c-a5e7-4e5c54bf9c76",
        "e17bf593-6605-42ca-8945-fa73d7f87d30",
        "8bda8213-2e2a-459f-95f5-751f7841e834",
        "42fa15b0-b855-4b13-87de-45b73adbfab2",
        "7907c996-9a59-4807-be82-bdf2fd245770",
        "663d8afa-a086-4bb8-9558-2aecffbbde41",
        "0bf1b63d-7246-4522-a737-516c13f2a115",
        "8a315575-c291-46a6-b52b-46cefadb42b4",
        "ffe30449-667e-4a3d-b33f-cb9db5da1e84",
        "2acc3a31-d1c4-4100-acf0-509f4663a38a",
        "44267882-c0fd-4c2e-8750-8e225891db07",
        "e4337b85-5b41-46fc-9c54-d36bed1c7456",
        "3ce214e3-a632-4ec9-a4de-285688dc4332",
        "43f0e0dd-8e06-4684-afa5-ed8212eccf44",
        "1c2fc003-05ff-400d-a4bc-5fb62da880e6",
        "4c775047-3a97-4c21-98fb-643ad49bd08f",
        "79c62b24-22ac-45b3-af29-7265770dc396",
        "07e60157-c065-4e2a-b437-42f530bef322",
        "bcd92681-97c5-4ffd-bb8f-f9d9c9daa7c6",
        "d6e5a093-5209-4814-a140-b2c2b6642cb2",
        "147fdc62-e5c0-459b-b3e2-bc21c4226e75",
        "3c1788be-bd98-4134-9f7a-627c78c29b57",
        "aec4395c-7b90-4f18-a3ae-5e7b31986e0f",
        "357e7e19-ba6c-4178-8620-e2a18536ea8e",
        "bdaff4d1-55ee-4146-aeb4-ca43e9816187",
        "58cab740-fa0e-43c0-a549-51a80f14867d",
        "1b20349f-66f8-4b88-9c19-fac34e1c0275",
        "c8b5242a-bb6f-4da2-a12f-d600ac22ffa5",
        "9c92033e-1f3a-40a6-b152-522b3a861711",
        "d5fbd394-1dae-4138-b95d-06432ba02bf1",
        "c1e2eb1e-3bc5-428c-84d6-5902857380b3",
        "ff6cf0e7-6ca2-44f7-bb56-7689483042a5",
        "72d90680-73ba-454d-879f-854b4e4943d4",
        "3cc8565c-de46-4a67-8c3c-af394214d463",
        "0cabb729-f0c4-414d-be1e-23591c62322d",
        "458dd21f-3772-4d76-9fe4-488354d2db0e",
        "8abcaf0a-4fca-4060-9cbe-90501df446cd",
        "dab4de64-7bee-4464-9c60-2a60a0f89cf1",
        "549cd7fc-4f4b-4055-aa14-53266c57fabb",
        "fea95ab1-992e-4d91-819d-2e53b2614cff",
        "f53679f7-7d27-46d5-a7c6-5d6b85192f41",
        "352f0066-b584-4006-962a-2176a02de045",
        "3c60c343-5915-4cb4-9554-e8e2b609c62b",
        "11d59ebb-bc27-403d-b148-55fb6b0cfc12",
        "f97b8814-38dc-429d-9934-c2428f392369",
        "42bb6ba3-c24d-4eba-8df7-6a18c83cd660",
        "380afe98-3a36-4205-b22c-4da7c9f44e61",
        "dac22c36-7577-4208-bf45-e651a6f1b4c6",
        "9a530755-2d7e-47d3-aaba-eec257a8e7d6",
        "3233224f-d572-413b-b039-491334893083",
        "01d8a8b7-5117-4c83-9767-b38a9ef5a374",
        "98b50d3c-dc9c-4e22-8561-b8418293926d",
        "027ddbd5-c94b-49d1-bad3-1debd183cf1a",
        "d4625035-a126-4820-af1e-a562a59f446d",
        "b6949d23-ad1d-4708-b0b1-85bf73470383",
        "760b79ce-ec95-489f-a237-850206d32fea",
        "1e9169e6-6646-4348-bb78-ad1997246e0b",
        "ab1afb4f-fd21-49eb-933f-de1cb2cffed8",
        "fb9f4621-703a-4776-916e-824373ed8afd",
        "24efcdf2-5450-4168-8d3b-8164f58c2c3f",
        "48a20544-48d6-4d9d-a5b5-39b4c9126366",
        "be92500b-7052-4953-917d-9f5d160efe68",
        "00e93413-0cf8-4319-9128-ccd0ce3a6475",
        "c66fc70b-8d54-4c91-a5ec-55bbc10fcfc7",
        "7fec0643-387d-4730-b650-dd851ee7b96b",
        "6f2f38e0-ddd5-4e3a-9953-2557e2ed4ebb",
        "c0904fce-12c0-4223-86ec-bf46fb4a5724",
        "99edb834-1a16-4a99-a1e2-886d76699657",
        "4b1ba2c2-124e-429d-8d19-9b8374f4c783",
        "9372bcdf-d28d-4346-8e4a-d90cd7658f54",
        "8b3fc6bf-e020-4f6d-98fa-dff6e6e3542e",
        "2af8374a-019a-4075-b598-8a6876242aaa",
        "3e874772-b846-463d-bbdd-b82949b81aee",
        "75d4fbe9-e326-4171-9240-7baa4336eae5",
        "f701287d-ff83-4e0c-8458-340654f44b49",
        "15e42b75-a709-4120-8c04-5996b8a738c7",
        "ec204c9d-e775-416b-8962-53dc7a680208",
        "adf21582-b1c9-46e5-b98a-3d150f6fcbd0",
        "2ac5fb68-23b1-4b32-8ed0-71296eac387a",
        "3737cea2-2045-401c-ab6e-087c1207beca",
        "c7febb36-2d21-47ac-af26-238959a27e76",
        "ec0f011f-8f49-413c-beb4-ae31b1634dc6",
        "153876d0-2415-4316-b51f-b81964374d82",
        "70d9e81f-6396-4de6-a797-da11e17c5c74",
        "df2a4fc4-78f8-4ec8-b22d-489489a860de",
        "dd1019ad-b90d-4a04-9a5d-ca6855a8afab",
        "c80125aa-d357-43b0-bd3c-14e8716e5fd1",
        "fcee5468-b847-42d5-a75b-9c044d0c1855",
        "6ad9bdbf-fa13-4254-9654-d29cef395c2c",
        "1e50fc81-9cbd-48b0-92ac-9c3ddb4e0b6e",
        "73a72265-64f7-4b86-a143-6fca940b0ed2",
        "6c01f4de-fea1-49b2-97eb-0c50844f887e",
        "5cc587b8-7ba9-4b47-8be9-8dbb3909ad58",
        "0e9cd507-66e2-41d1-b437-145c06c624da",
        "69cb05f8-6885-4b97-a13a-f54f08825cf5",
        "ae2c450f-d7e3-45f5-96b7-b741ed6d48d7",
        "ac6e6bc8-18e9-4d66-9e07-2ab97a326950",
        "5abee9de-c64b-4591-9e41-d6a788fa909c",
        "10995db4-4f14-4676-bf06-113795fc301d",
        "d32fedf6-1edb-4c0d-9beb-9d53261649e8",
        "5d95c51b-a04a-4ad1-85c0-197d3de98bb5",
        "70dbc7b4-45da-4cac-bebc-a37f084927d4",
        "9b5fe813-e12d-4bad-a1b7-77598cdcf9f2",
        "6703c9c3-c8f1-48cb-b3ec-f51724f37abf",
        "f9534be1-5eb9-4524-97af-8880091f40fe",
        "807515d7-3a59-4ee4-baeb-1f23248b5488",
        "c90aab37-23b0-4f9c-bffd-7b0a5c08ae68",
        "9980f029-1bf1-4705-8283-3530f419c00d",
        "adeae18a-50bf-49a4-a4b7-08cd94790cfc",
        "6e003c9d-b802-448c-bc35-ec8820fd2f8f",
        "fe100ee3-34fc-4038-852e-70f238143406",
        "9add924d-1bd0-457d-a68e-35b9c1944b2b",
        "77638d8f-8f4a-44dc-bd74-a4b8d1f64e72",
        "ed9d7ed7-abc0-4e7b-9bdc-89dcdf045a2b",
        "c294444a-23c8-40f6-9d0d-dc19006f1812",
        "66974463-1cc3-4d95-9489-ce71b7541520",
        "f35937e8-1e18-4129-94cd-b1bbf40a6109",
        "76c85533-bc83-4848-ad82-a41f1308f640",
        "7b815e91-681b-4e53-bd7f-bb43aad70476",
        "a13484e2-73f9-440f-9186-19fa4d07bb9d",
        "3ab34761-ed17-481a-812b-135817b17428"
      ]
    },
    {
      "ref" : "6ff7771e-44d8-4046-a926-096548783991",
      "dependsOn" : [ ]
    }
  ],
  "vulnerabilities" : [
    {
      "bom-ref" : "322f1c47-5552-4038-b6cb-45437917bf4a",
      "id" : "CVE-2023-26054",
      "source" : {
        "name" : "NVD",
        "url" : "https://nvd.nist.gov/"
      },
      "ratings" : [
        {
          "source" : {
            "name" : "NVD",
            "url" : "https://nvd.nist.gov/"
          },
          "score" : 6.5,
          "severity" : "medium",
          "method" : "CVSSv3",
          "vector" : "CVSS:3.0/AV:N/AC:L/PR:N/UI:R/S:U/C:H/I:N/A:N"
        }
      ],
      "description" : "BuildKit is a toolkit for converting source code to build artifacts in an efficient, expressive and repeatable manner. In affected versions when the user sends a build request that contains a Git URL that contains credentials and the build creates a provenance attestation describing that build, these credentials could be visible from the provenance attestation. Git URL can be passed in two ways: 1) Invoking build directly from a URL with credentials. 2) If the client sends additional version control system (VCS) info hint parameters on builds from a local source. Usually, that would mean reading the origin URL from `.git/config` file. When a build is performed under specific conditions where credentials were passed to BuildKit they may be visible to everyone who has access to provenance attestation. Provenance attestations and VCS info hints were added in version v0.11.0. Previous versions are not vulnerable. In v0.10, when building directly from Git URL, the same URL could be visible in `BuildInfo` structure that is a predecessor of Provenance attestations. Previous versions are not vulnerable. This bug has been fixed in v0.11.4. Users are advised to upgrade. Users unable to upgrade may disable VCS info hints by setting `BUILDX_GIT_INFO=0`. `buildctl` does not set VCS hints based on `.git` directory, and values would need to be passed manually with `--opt`.",
      "published" : "2023-03-06T19:15:00Z",
      "updated" : "2023-03-13T18:37:00Z",
      "affects" : [
        {
          "ref" : "98b50d3c-dc9c-4e22-8561-b8418293926d"
        }
      ]
    },
    {
      "bom-ref" : "f317791d-f881-4df2-a2c5-492b40c7a15a",
      "id" : "CVE-2023-25809",
      "source" : {
        "name" : "NVD",
        "url" : "https://nvd.nist.gov/"
      },
      "ratings" : [
        {
          "source" : {
            "name" : "NVD",
            "url" : "https://nvd.nist.gov/"
          },
          "score" : 6.3,
          "severity" : "medium",
          "method" : "CVSSv3",
          "vector" : "CVSS:3.0/AV:L/AC:L/PR:L/UI:N/S:C/C:L/I:L/A:L"
        }
      ],
      "cwes" : [
        281
      ],
      "description" : "runc is a CLI tool for spawning and running containers according to the OCI specification. In affected versions it was found that rootless runc makes `/sys/fs/cgroup` writable in following conditons: 1. when runc is executed inside the user namespace, and the `config.json` does not specify the cgroup namespace to be unshared (e.g.., `(docker|podman|nerdctl) run --cgroupns=host`, with Rootless Docker/Podman/nerdctl) or 2. when runc is executed outside the user namespace, and `/sys` is mounted with `rbind, ro` (e.g., `runc spec --rootless`; this condition is very rare). A container may gain the write access to user-owned cgroup hierarchy `/sys/fs/cgroup/user.slice/...` on the host . Other users's cgroup hierarchies are not affected. Users are advised to upgrade to version 1.1.5. Users unable to upgrade may unshare the cgroup namespace (`(docker|podman|nerdctl) run --cgroupns=private)`. This is the default behavior of Docker/Podman/nerdctl on cgroup v2 hosts. or add `/sys/fs/cgroup` to `maskedPaths`.",
      "published" : "2023-03-29T19:15:00Z",
      "updated" : "2023-04-06T17:41:00Z",
      "affects" : [
        {
          "ref" : "6f2f38e0-ddd5-4e3a-9953-2557e2ed4ebb"
        }
      ]
    },
    {
      "bom-ref" : "2edbcc86-cabf-4e02-aa0c-a989bcc93683",
      "id" : "CVE-2023-27561",
      "source" : {
        "name" : "NVD",
        "url" : "https://nvd.nist.gov/"
      },
      "ratings" : [
        {
          "source" : {
            "name" : "NVD",
            "url" : "https://nvd.nist.gov/"
          },
          "score" : 7.0,
          "severity" : "high",
          "method" : "CVSSv3",
          "vector" : "CVSS:3.0/AV:L/AC:H/PR:L/UI:N/S:U/C:H/I:H/A:H"
        }
      ],
      "cwes" : [
        706
      ],
      "description" : "runc through 1.1.4 has Incorrect Access Control leading to Escalation of Privileges, related to libcontainer/rootfs_linux.go. To exploit this, an attacker must be able to spawn two containers with custom volume-mount configurations, and be able to run custom images. NOTE: this issue exists because of a CVE-2019-19921 regression.",
      "published" : "2023-03-03T19:15:00Z",
      "updated" : "2023-04-21T04:15:00Z",
      "affects" : [
        {
          "ref" : "6f2f38e0-ddd5-4e3a-9953-2557e2ed4ebb"
        }
      ]
    },
    {
      "bom-ref" : "1ecec583-a61a-40de-a47b-cc706338bec9",
      "id" : "CVE-2023-28642",
      "source" : {
        "name" : "NVD",
        "url" : "https://nvd.nist.gov/"
      },
      "ratings" : [
        {
          "source" : {
            "name" : "NVD",
            "url" : "https://nvd.nist.gov/"
          },
          "score" : 7.8,
          "severity" : "high",
          "method" : "CVSSv3",
          "vector" : "CVSS:3.0/AV:L/AC:L/PR:L/UI:N/S:U/C:H/I:H/A:H"
        }
      ],
      "cwes" : [
        59
      ],
      "description" : "runc is a CLI tool for spawning and running containers according to the OCI specification. It was found that AppArmor can be bypassed when `/proc` inside the container is symlinked with a specific mount configuration. This issue has been fixed in runc version 1.1.5, by prohibiting symlinked `/proc`. See PR #3785 for details. users are advised to upgrade. Users unable to upgrade should avoid using an untrusted container image.",
      "published" : "2023-03-29T19:15:00Z",
      "updated" : "2023-04-06T17:45:00Z",
      "affects" : [
        {
          "ref" : "6f2f38e0-ddd5-4e3a-9953-2557e2ed4ebb"
        }
      ]
    },
    {
      "bom-ref" : "ad3c70fd-fb7e-45da-ba10-def7c47762bc",
      "id" : "CVE-2022-41723",
      "source" : {
        "name" : "NVD",
        "url" : "https://nvd.nist.gov/"
      },
      "ratings" : [
        {
          "source" : {
            "name" : "NVD",
            "url" : "https://nvd.nist.gov/"
          },
          "score" : 7.5,
          "severity" : "high",
          "method" : "CVSSv3",
          "vector" : "CVSS:3.0/AV:N/AC:L/PR:N/UI:N/S:U/C:N/I:N/A:H"
        }
      ],
      "cwes" : [
        400
      ],
      "description" : "A maliciously crafted HTTP/2 stream could cause excessive CPU consumption in the HPACK decoder, sufficient to cause a denial of service from a small number of small requests.",
      "published" : "2023-02-28T18:15:00Z",
      "updated" : "2023-05-16T10:50:00Z",
      "affects" : [
        {
          "ref" : "70dbc7b4-45da-4cac-bebc-a37f084927d4"
        }
      ]
    },
    {
      "bom-ref" : "0e4aac00-2b5d-47c6-a79c-0055ab2b3f3c",
      "id" : "CVE-2023-25153",
      "source" : {
        "name" : "NVD",
        "url" : "https://nvd.nist.gov/"
      },
      "ratings" : [
        {
          "source" : {
            "name" : "NVD",
            "url" : "https://nvd.nist.gov/"
          },
          "score" : 5.5,
          "severity" : "medium",
          "method" : "CVSSv3",
          "vector" : "CVSS:3.0/AV:L/AC:L/PR:N/UI:R/S:U/C:N/I:N/A:H"
        }
      ],
      "cwes" : [
        770
      ],
      "description" : "containerd is an open source container runtime. Before versions 1.6.18 and 1.5.18, when importing an OCI image, there was no limit on the number of bytes read for certain files. A maliciously crafted image with a large file where a limit was not applied could cause a denial of service. This bug has been fixed in containerd 1.6.18 and 1.5.18. Users should update to these versions to resolve the issue. As a workaround, ensure that only trusted images are used and that only trusted users have permissions to import images.",
      "published" : "2023-02-16T15:15:00Z",
      "updated" : "2023-02-24T16:41:00Z",
      "affects" : [
        {
          "ref" : "663d8afa-a086-4bb8-9558-2aecffbbde41"
        }
      ]
    },
    {
      "bom-ref" : "d6275341-0cd8-4512-8e13-2f254a98de86",
      "id" : "CVE-2023-25173",
      "source" : {
        "name" : "NVD",
        "url" : "https://nvd.nist.gov/"
      },
      "ratings" : [
        {
          "source" : {
            "name" : "NVD",
            "url" : "https://nvd.nist.gov/"
          },
          "score" : 7.8,
          "severity" : "high",
          "method" : "CVSSv3",
          "vector" : "CVSS:3.0/AV:L/AC:L/PR:L/UI:N/S:U/C:H/I:H/A:H"
        }
      ],
      "cwes" : [
        863
      ],
      "description" : "containerd is an open source container runtime. A bug was found in containerd prior to versions 1.6.18 and 1.5.18 where supplementary groups are not set up properly inside a container. If an attacker has direct access to a container and manipulates their supplementary group access, they may be able to use supplementary group access to bypass primary group restrictions in some cases, potentially gaining access to sensitive information or gaining the ability to execute code in that container. Downstream applications that use the containerd client library may be affected as well. This bug has been fixed in containerd v1.6.18 and v.1.5.18. Users should update to these versions and recreate containers to resolve this issue. Users who rely on a downstream application that uses containerd's client library should check that application for a separate advisory and instructions. As a workaround, ensure that the `\"USER $USERNAME\"` Dockerfile instruction is not used. Instead, set the container entrypoint to a value similar to `ENTRYPOINT [\"su\", \"-\", \"user\"]` to allow `su` to properly set up supplementary groups.",
      "published" : "2023-02-16T15:15:00Z",
      "updated" : "2023-02-24T16:56:00Z",
      "affects" : [
        {
          "ref" : "663d8afa-a086-4bb8-9558-2aecffbbde41"
        }
      ]
    }
  ]
}