{
  "bomFormat" : "CycloneDX",
  "specVersion" : "1.4",
  "serialNumber" : "urn:uuid:a9301573-d83e-42d9-85bc-37718521f5f0",
  "version" : 1,
  "metadata" : {
    "timestamp" : "2023-07-03T15:09:57Z",
    "tools" : [
      {
        "vendor" : "OWASP",
        "name" : "Dependency-Track",
        "version" : "4.8.2"
      }
    ],
    "component" : {
      "name" : "hylang-0-python3.7",
      "version" : "SNAPSHOT",
      "type" : "application",
      "bom-ref" : "5f7532b5-c548-4ad8-9c6d-d82dd5da43fe"
    }
  },
  "components" : [
    {
      "name" : "adduser",
      "version" : "3.118",
      "purl" : "pkg:deb/debian/adduser@3.118?distro=debian-11.6",
      "type" : "library",
      "bom-ref" : "5cbe8dc6-bd77-4424-8ab2-04896800df9d"
    },
    {
      "name" : "apt",
      "version" : "2.2.4",
      "purl" : "pkg:deb/debian/apt@2.2.4?distro=debian-11.6",
      "type" : "library",
      "bom-ref" : "705dda48-cde5-4466-b8d3-9fdeec1cfe6e"
    },
    {
      "name" : "astor",
      "version" : "0.8.1",
      "purl" : "pkg:pypi/astor@0.8.1",
      "type" : "library",
      "bom-ref" : "270febeb-2be5-448a-9fee-3fa20d4dab97"
    },
    {
      "name" : "base-files",
      "version" : "11.1+deb11u6",
      "purl" : "pkg:deb/debian/base-files@11.1%20deb11u6?distro=debian-11.6",
      "type" : "library",
      "bom-ref" : "0b0fcdaf-7b36-41ad-91bf-db740b1f71b0"
    },
    {
      "name" : "base-passwd",
      "version" : "3.5.51",
      "purl" : "pkg:deb/debian/base-passwd@3.5.51?distro=debian-11.6",
      "type" : "library",
      "bom-ref" : "9cdd6bbc-b984-4adc-8fd5-3c1e90f4ca7e"
    },
    {
      "name" : "bash",
      "version" : "5.1-2+deb11u1",
      "purl" : "pkg:deb/debian/bash@5.1-2%20deb11u1?distro=debian-11.6",
      "type" : "library",
      "bom-ref" : "21fb43f4-933e-42e2-a7e0-cc9cd1f7f2ae"
    },
    {
      "name" : "bsdutils",
      "version" : "1:2.36.1-8+deb11u1",
      "purl" : "pkg:deb/debian/bsdutils@1%3A2.36.1-8%20deb11u1?distro=debian-11.6",
      "type" : "library",
      "bom-ref" : "a9b438e5-6792-4dbe-a835-2eac77e4c203"
    },
    {
      "name" : "ca-certificates",
      "version" : "20210119",
      "purl" : "pkg:deb/debian/ca-certificates@20210119?distro=debian-11.6",
      "type" : "library",
      "bom-ref" : "423bd792-33ac-4675-8d38-beeb0c05bc4e"
    },
    {
      "name" : "coreutils",
      "version" : "8.32-4+b1",
      "purl" : "pkg:deb/debian/coreutils@8.32-4%20b1?distro=debian-11.6",
      "type" : "library",
      "bom-ref" : "63a7e244-79c5-466d-bf77-4e50a2602698"
    },
    {
      "name" : "dash",
      "version" : "0.5.11+git20200708+dd9ef66-5",
      "purl" : "pkg:deb/debian/dash@0.5.11%20git20200708%20dd9ef66-5?distro=debian-11.6",
      "type" : "library",
      "bom-ref" : "409c90b6-bf91-45a1-be8f-23ff504dc760"
    },
    {
      "name" : "debconf",
      "version" : "1.5.77",
      "purl" : "pkg:deb/debian/debconf@1.5.77?distro=debian-11.6",
      "type" : "library",
      "bom-ref" : "2f121028-2ddd-49e7-b822-d65dd05d291b"
    },
    {
      "name" : "debian",
      "version" : "11.6",
      "type" : "operating-system",
      "bom-ref" : "711c0d9d-7ad0-45d1-a475-b38eec9fd459"
    },
    {
      "name" : "debian-archive-keyring",
      "version" : "2021.1.1",
      "purl" : "pkg:deb/debian/debian-archive-keyring@2021.1.1?distro=debian-11.6",
      "type" : "library",
      "bom-ref" : "68104e75-71aa-4d65-8be1-d51cd458158d"
    },
    {
      "name" : "debianutils",
      "version" : "4.11.2",
      "purl" : "pkg:deb/debian/debianutils@4.11.2?distro=debian-11.6",
      "type" : "library",
      "bom-ref" : "863e339a-09d1-4b68-9cf3-be73e928f9dc"
    },
    {
      "name" : "diffutils",
      "version" : "1:3.7-5",
      "purl" : "pkg:deb/debian/diffutils@1%3A3.7-5?distro=debian-11.6",
      "type" : "library",
      "bom-ref" : "b4d66634-1c99-4b11-8e97-d88b5c26c7fa"
    },
    {
      "name" : "dpkg",
      "version" : "1.20.12",
      "purl" : "pkg:deb/debian/dpkg@1.20.12?distro=debian-11.6",
      "type" : "library",
      "bom-ref" : "f48f8584-e1ec-4b10-add4-17a446977a2f"
    },
    {
      "name" : "e2fsprogs",
      "version" : "1.46.2-2",
      "purl" : "pkg:deb/debian/e2fsprogs@1.46.2-2?distro=debian-11.6",
      "type" : "library",
      "bom-ref" : "30e373f2-f111-4fd8-9224-e12f92c7fa75"
    },
    {
      "name" : "findutils",
      "version" : "4.8.0-1",
      "purl" : "pkg:deb/debian/findutils@4.8.0-1?distro=debian-11.6",
      "type" : "library",
      "bom-ref" : "ba812627-67f0-45a9-8b95-75bb68c1edb8"
    },
    {
      "name" : "funcparserlib",
      "version" : "1.0.1",
      "purl" : "pkg:pypi/funcparserlib@1.0.1",
      "type" : "library",
      "bom-ref" : "709222c5-9256-40e0-ab9b-d15f3fbc9e26"
    },
    {
      "name" : "gcc-10-base",
      "version" : "10.2.1-6",
      "purl" : "pkg:deb/debian/gcc-10-base@10.2.1-6?distro=debian-11.6",
      "type" : "library",
      "bom-ref" : "fe66545e-9cdf-41e8-a0f9-c18ae616d5f7"
    },
    {
      "name" : "gcc-9-base",
      "version" : "9.3.0-22",
      "purl" : "pkg:deb/debian/gcc-9-base@9.3.0-22?distro=debian-11.6",
      "type" : "library",
      "bom-ref" : "90e772fb-d5d7-4060-be64-63b9f731f9d5"
    },
    {
      "name" : "gpgv",
      "version" : "2.2.27-2+deb11u2",
      "purl" : "pkg:deb/debian/gpgv@2.2.27-2%20deb11u2?distro=debian-11.6",
      "type" : "library",
      "bom-ref" : "7430a7a1-4b2d-4609-abc8-bd3aaf039130"
    },
    {
      "name" : "grep",
      "version" : "3.6-1",
      "purl" : "pkg:deb/debian/grep@3.6-1?distro=debian-11.6",
      "type" : "library",
      "bom-ref" : "1a63d3df-09b8-4e6f-bbda-7c5875ab94fa"
    },
    {
      "name" : "gzip",
      "version" : "1.10-4+deb11u1",
      "purl" : "pkg:deb/debian/gzip@1.10-4%20deb11u1?distro=debian-11.6",
      "type" : "library",
      "bom-ref" : "f0cafad4-dc5a-45b4-90c6-9d7987c6e064"
    },
    {
      "name" : "hostname",
      "version" : "3.23",
      "purl" : "pkg:deb/debian/hostname@3.23?distro=debian-11.6",
      "type" : "library",
      "bom-ref" : "00142164-3c62-476b-ac63-c22554f6838c"
    },
    {
      "name" : "hy",
      "version" : "0.26.0",
      "purl" : "pkg:pypi/hy@0.26.0",
      "type" : "library",
      "bom-ref" : "f3902780-57c7-4433-bc95-397a5253e9dc"
    },
    {
      "name" : "hyrule",
      "version" : "0.3.0",
      "purl" : "pkg:pypi/hyrule@0.3.0",
      "type" : "library",
      "bom-ref" : "a6db9774-4b88-416b-93f7-4996b7558780"
    },
    {
      "name" : "init-system-helpers",
      "version" : "1.60",
      "purl" : "pkg:deb/debian/init-system-helpers@1.60?distro=debian-11.6",
      "type" : "library",
      "bom-ref" : "adc82dc6-94cc-4ad2-810b-a0caca4d1d5f"
    },
    {
      "name" : "libacl1",
      "version" : "2.2.53-10",
      "purl" : "pkg:deb/debian/libacl1@2.2.53-10?distro=debian-11.6",
      "type" : "library",
      "bom-ref" : "1fed54c3-7710-4a82-bc34-1430ef529e63"
    },
    {
      "name" : "libapt-pkg6.0",
      "version" : "2.2.4",
      "purl" : "pkg:deb/debian/libapt-pkg6.0@2.2.4?distro=debian-11.6",
      "type" : "library",
      "bom-ref" : "f7d6d37f-41da-4f92-9603-6ea49d7e2371"
    },
    {
      "name" : "libattr1",
      "version" : "1:2.4.48-6",
      "purl" : "pkg:deb/debian/libattr1@1%3A2.4.48-6?distro=debian-11.6",
      "type" : "library",
      "bom-ref" : "4382ce32-c404-4006-a013-629c6239859d"
    },
    {
      "name" : "libaudit-common",
      "version" : "1:3.0-2",
      "purl" : "pkg:deb/debian/libaudit-common@1%3A3.0-2?distro=debian-11.6",
      "type" : "library",
      "bom-ref" : "95c02b85-7736-47b6-b902-873533f800f5"
    },
    {
      "name" : "libaudit1",
      "version" : "1:3.0-2",
      "purl" : "pkg:deb/debian/libaudit1@1%3A3.0-2?distro=debian-11.6",
      "type" : "library",
      "bom-ref" : "27f18e8d-7896-4c69-9716-8ed110a2c193"
    },
    {
      "name" : "libblkid1",
      "version" : "2.36.1-8+deb11u1",
      "purl" : "pkg:deb/debian/libblkid1@2.36.1-8%20deb11u1?distro=debian-11.6",
      "type" : "library",
      "bom-ref" : "17c644a1-4024-4f5b-9af9-140c8015fea3"
    },
    {
      "name" : "libbz2-1.0",
      "version" : "1.0.8-4",
      "purl" : "pkg:deb/debian/libbz2-1.0@1.0.8-4?distro=debian-11.6",
      "type" : "library",
      "bom-ref" : "c5cc6b86-c4d2-42f3-8233-bd4eb6fce95a"
    },
    {
      "name" : "libc-bin",
      "version" : "2.31-13+deb11u5",
      "purl" : "pkg:deb/debian/libc-bin@2.31-13%20deb11u5?distro=debian-11.6",
      "type" : "library",
      "bom-ref" : "ae1534e8-3abe-478b-854d-47e1dce72075"
    },
    {
      "name" : "libc6",
      "version" : "2.31-13+deb11u5",
      "purl" : "pkg:deb/debian/libc6@2.31-13%20deb11u5?distro=debian-11.6",
      "type" : "library",
      "bom-ref" : "9f058798-027a-4609-b224-ca7557d8af85"
    },
    {
      "name" : "libcap-ng0",
      "version" : "0.7.9-2.2+b1",
      "purl" : "pkg:deb/debian/libcap-ng0@0.7.9-2.2%20b1?distro=debian-11.6",
      "type" : "library",
      "bom-ref" : "d641fd5b-d502-4a66-ba07-7eb3b57c31e8"
    },
    {
      "name" : "libcom-err2",
      "version" : "1.46.2-2",
      "purl" : "pkg:deb/debian/libcom-err2@1.46.2-2?distro=debian-11.6",
      "type" : "library",
      "bom-ref" : "1218f36a-2cce-4498-aa97-52e74622a8ae"
    },
    {
      "name" : "libcrypt1",
      "version" : "1:4.4.18-4",
      "purl" : "pkg:deb/debian/libcrypt1@1%3A4.4.18-4?distro=debian-11.6",
      "type" : "library",
      "bom-ref" : "5fad9964-f44a-447d-96f4-193630a8600b"
    },
    {
      "name" : "libdb5.3",
      "version" : "5.3.28+dfsg1-0.8",
      "purl" : "pkg:deb/debian/libdb5.3@5.3.28%20dfsg1-0.8?distro=debian-11.6",
      "type" : "library",
      "bom-ref" : "0c36f64d-f8bd-465d-bb40-007f903b36ab"
    },
    {
      "name" : "libdebconfclient0",
      "version" : "0.260",
      "purl" : "pkg:deb/debian/libdebconfclient0@0.260?distro=debian-11.6",
      "type" : "library",
      "bom-ref" : "a0bc9d43-7d2e-4975-adfd-ff1670bc0451"
    },
    {
      "name" : "libexpat1",
      "version" : "2.2.10-2+deb11u5",
      "purl" : "pkg:deb/debian/libexpat1@2.2.10-2%20deb11u5?distro=debian-11.6",
      "type" : "library",
      "bom-ref" : "d75f0553-7116-440f-800a-39482006b6e9"
    },
    {
      "name" : "libext2fs2",
      "version" : "1.46.2-2",
      "purl" : "pkg:deb/debian/libext2fs2@1.46.2-2?distro=debian-11.6",
      "type" : "library",
      "bom-ref" : "9017cf2b-6bf5-4ddb-9368-e3cb25a63f47"
    },
    {
      "name" : "libffi7",
      "version" : "3.3-6",
      "purl" : "pkg:deb/debian/libffi7@3.3-6?distro=debian-11.6",
      "type" : "library",
      "bom-ref" : "d28e17e2-58e0-41a5-9980-c2e97daab033"
    },
    {
      "name" : "libgcc-s1",
      "version" : "10.2.1-6",
      "purl" : "pkg:deb/debian/libgcc-s1@10.2.1-6?distro=debian-11.6",
      "type" : "library",
      "bom-ref" : "dce78a35-669d-4b94-a962-e811287753b7"
    },
    {
      "name" : "libgcrypt20",
      "version" : "1.8.7-6",
      "purl" : "pkg:deb/debian/libgcrypt20@1.8.7-6?distro=debian-11.6",
      "type" : "library",
      "bom-ref" : "2299fe16-a366-4107-9db3-06199f9d1eb8"
    },
    {
      "name" : "libgdbm6",
      "version" : "1.19-2",
      "purl" : "pkg:deb/debian/libgdbm6@1.19-2?distro=debian-11.6",
      "type" : "library",
      "bom-ref" : "bb0dee6f-e5a1-422e-8c46-5ef05a2d6162"
    },
    {
      "name" : "libgmp10",
      "version" : "2:6.2.1+dfsg-1+deb11u1",
      "purl" : "pkg:deb/debian/libgmp10@2%3A6.2.1%20dfsg-1%20deb11u1?distro=debian-11.6",
      "type" : "library",
      "bom-ref" : "570b74fe-51e2-48a2-a343-98a75635efcf"
    },
    {
      "name" : "libgnutls30",
      "version" : "3.7.1-5+deb11u3",
      "purl" : "pkg:deb/debian/libgnutls30@3.7.1-5%20deb11u3?distro=debian-11.6",
      "type" : "library",
      "bom-ref" : "1f6ff907-5858-4bdc-98e0-0df847e14eaa"
    },
    {
      "name" : "libgpg-error0",
      "version" : "1.38-2",
      "purl" : "pkg:deb/debian/libgpg-error0@1.38-2?distro=debian-11.6",
      "type" : "library",
      "bom-ref" : "99dab028-dd28-4724-b512-df2fcd88eecb"
    },
    {
      "name" : "libgssapi-krb5-2",
      "version" : "1.18.3-6+deb11u3",
      "purl" : "pkg:deb/debian/libgssapi-krb5-2@1.18.3-6%20deb11u3?distro=debian-11.6",
      "type" : "library",
      "bom-ref" : "82d6a0d4-e65e-49cd-a772-e76fdbbee48d"
    },
    {
      "name" : "libhogweed6",
      "version" : "3.7.3-1",
      "purl" : "pkg:deb/debian/libhogweed6@3.7.3-1?distro=debian-11.6",
      "type" : "library",
      "bom-ref" : "60ed9b7f-a815-4eb6-85a8-16c635062bce"
    },
    {
      "name" : "libidn2-0",
      "version" : "2.3.0-5",
      "purl" : "pkg:deb/debian/libidn2-0@2.3.0-5?distro=debian-11.6",
      "type" : "library",
      "bom-ref" : "f72d4268-2d06-4f75-a930-419c212c32e2"
    },
    {
      "name" : "libk5crypto3",
      "version" : "1.18.3-6+deb11u3",
      "purl" : "pkg:deb/debian/libk5crypto3@1.18.3-6%20deb11u3?distro=debian-11.6",
      "type" : "library",
      "bom-ref" : "9cff84ec-660d-42e4-8849-06ec3e140e58"
    },
    {
      "name" : "libkeyutils1",
      "version" : "1.6.1-2",
      "purl" : "pkg:deb/debian/libkeyutils1@1.6.1-2?distro=debian-11.6",
      "type" : "library",
      "bom-ref" : "ce5a3968-4da6-4a2d-8c36-b2957a09fc4c"
    },
    {
      "name" : "libkrb5-3",
      "version" : "1.18.3-6+deb11u3",
      "purl" : "pkg:deb/debian/libkrb5-3@1.18.3-6%20deb11u3?distro=debian-11.6",
      "type" : "library",
      "bom-ref" : "ecf8ffad-7106-40b7-aea2-b4fdae8a4fbe"
    },
    {
      "name" : "libkrb5support0",
      "version" : "1.18.3-6+deb11u3",
      "purl" : "pkg:deb/debian/libkrb5support0@1.18.3-6%20deb11u3?distro=debian-11.6",
      "type" : "library",
      "bom-ref" : "45b756b5-8973-423a-9c05-3d5a1b7e1321"
    },
    {
      "name" : "liblz4-1",
      "version" : "1.9.3-2",
      "purl" : "pkg:deb/debian/liblz4-1@1.9.3-2?distro=debian-11.6",
      "type" : "library",
      "bom-ref" : "241e5771-7570-4b49-a340-e57a0ff701d7"
    },
    {
      "name" : "liblzma5",
      "version" : "5.2.5-2.1~deb11u1",
      "purl" : "pkg:deb/debian/liblzma5@5.2.5-2.1~deb11u1?distro=debian-11.6",
      "type" : "library",
      "bom-ref" : "a58114da-4d79-4bda-b5f6-2a8dba7065fc"
    },
    {
      "name" : "libmount1",
      "version" : "2.36.1-8+deb11u1",
      "purl" : "pkg:deb/debian/libmount1@2.36.1-8%20deb11u1?distro=debian-11.6",
      "type" : "library",
      "bom-ref" : "75ff3340-a08e-449f-98fe-e97f4eb780eb"
    },
    {
      "name" : "libncursesw6",
      "version" : "6.2+20201114-2",
      "purl" : "pkg:deb/debian/libncursesw6@6.2%2020201114-2?distro=debian-11.6",
      "type" : "library",
      "bom-ref" : "5fd99421-05fd-437f-815f-87f70d78d554"
    },
    {
      "name" : "libnettle8",
      "version" : "3.7.3-1",
      "purl" : "pkg:deb/debian/libnettle8@3.7.3-1?distro=debian-11.6",
      "type" : "library",
      "bom-ref" : "bf861f29-36f8-466d-972f-8254f9fac4ed"
    },
    {
      "name" : "libnsl2",
      "version" : "1.3.0-2",
      "purl" : "pkg:deb/debian/libnsl2@1.3.0-2?distro=debian-11.6",
      "type" : "library",
      "bom-ref" : "3eea8223-8fe9-42bd-975e-b2cdcfb11738"
    },
    {
      "name" : "libp11-kit0",
      "version" : "0.23.22-1",
      "purl" : "pkg:deb/debian/libp11-kit0@0.23.22-1?distro=debian-11.6",
      "type" : "library",
      "bom-ref" : "cf8bb70a-4105-46f3-932e-e2878369dd51"
    },
    {
      "name" : "libpam-modules",
      "version" : "1.4.0-9+deb11u1",
      "purl" : "pkg:deb/debian/libpam-modules@1.4.0-9%20deb11u1?distro=debian-11.6",
      "type" : "library",
      "bom-ref" : "72edb345-d953-4e80-8f53-6ce640c2cf44"
    },
    {
      "name" : "libpam-modules-bin",
      "version" : "1.4.0-9+deb11u1",
      "purl" : "pkg:deb/debian/libpam-modules-bin@1.4.0-9%20deb11u1?distro=debian-11.6",
      "type" : "library",
      "bom-ref" : "e4d35e23-3d92-4ba3-8fc4-a1939fa6bd86"
    },
    {
      "name" : "libpam-runtime",
      "version" : "1.4.0-9+deb11u1",
      "purl" : "pkg:deb/debian/libpam-runtime@1.4.0-9%20deb11u1?distro=debian-11.6",
      "type" : "library",
      "bom-ref" : "80dc9235-f08a-47eb-ad80-1fae3343de7d"
    },
    {
      "name" : "libpam0g",
      "version" : "1.4.0-9+deb11u1",
      "purl" : "pkg:deb/debian/libpam0g@1.4.0-9%20deb11u1?distro=debian-11.6",
      "type" : "library",
      "bom-ref" : "5bc28e03-ea4b-48d8-b7c5-7ed74d1e45b0"
    },
    {
      "name" : "libpcre2-8-0",
      "version" : "10.36-2+deb11u1",
      "purl" : "pkg:deb/debian/libpcre2-8-0@10.36-2%20deb11u1?distro=debian-11.6",
      "type" : "library",
      "bom-ref" : "1f930818-9c61-4478-8330-65246c38deef"
    },
    {
      "name" : "libpcre3",
      "version" : "2:8.39-13",
      "purl" : "pkg:deb/debian/libpcre3@2%3A8.39-13?distro=debian-11.6",
      "type" : "library",
      "bom-ref" : "58ff1c47-77f3-4fc2-bf61-299780c48616"
    },
    {
      "name" : "libreadline8",
      "version" : "8.1-1",
      "purl" : "pkg:deb/debian/libreadline8@8.1-1?distro=debian-11.6",
      "type" : "library",
      "bom-ref" : "d16c5eaa-4a27-4380-b6fe-8ccd30ba10dd"
    },
    {
      "name" : "libseccomp2",
      "version" : "2.5.1-1+deb11u1",
      "purl" : "pkg:deb/debian/libseccomp2@2.5.1-1%20deb11u1?distro=debian-11.6",
      "type" : "library",
      "bom-ref" : "c09bf974-8df7-4eed-a5c8-f174ee18ead5"
    },
    {
      "name" : "libselinux1",
      "version" : "3.1-3",
      "purl" : "pkg:deb/debian/libselinux1@3.1-3?distro=debian-11.6",
      "type" : "library",
      "bom-ref" : "db389b89-8dd5-486f-9bf7-570c0ee5d47f"
    },
    {
      "name" : "libsemanage-common",
      "version" : "3.1-1",
      "purl" : "pkg:deb/debian/libsemanage-common@3.1-1?distro=debian-11.6",
      "type" : "library",
      "bom-ref" : "dcd00bb1-7c13-41d3-848e-bcdba0c921c5"
    },
    {
      "name" : "libsemanage1",
      "version" : "3.1-1+b2",
      "purl" : "pkg:deb/debian/libsemanage1@3.1-1%20b2?distro=debian-11.6",
      "type" : "library",
      "bom-ref" : "31a02e5b-6c79-4b76-8d8b-0532214195a0"
    },
    {
      "name" : "libsepol1",
      "version" : "3.1-1",
      "purl" : "pkg:deb/debian/libsepol1@3.1-1?distro=debian-11.6",
      "type" : "library",
      "bom-ref" : "c936461d-0687-41b7-bfcd-34e1879d7e57"
    },
    {
      "name" : "libsmartcols1",
      "version" : "2.36.1-8+deb11u1",
      "purl" : "pkg:deb/debian/libsmartcols1@2.36.1-8%20deb11u1?distro=debian-11.6",
      "type" : "library",
      "bom-ref" : "cfae13b9-f36e-4649-9e7f-6fb2e90b25f2"
    },
    {
      "name" : "libsqlite3-0",
      "version" : "3.34.1-3",
      "purl" : "pkg:deb/debian/libsqlite3-0@3.34.1-3?distro=debian-11.6",
      "type" : "library",
      "bom-ref" : "4ea22144-9a50-45d7-9523-d7de7ccf0d01"
    },
    {
      "name" : "libss2",
      "version" : "1.46.2-2",
      "purl" : "pkg:deb/debian/libss2@1.46.2-2?distro=debian-11.6",
      "type" : "library",
      "bom-ref" : "42e4485e-30ca-4b5a-a97d-c03fb17b686d"
    },
    {
      "name" : "libssl1.1",
      "version" : "1.1.1n-0+deb11u4",
      "purl" : "pkg:deb/debian/libssl1.1@1.1.1n-0%20deb11u4?distro=debian-11.6",
      "type" : "library",
      "bom-ref" : "8e2182e8-81f8-45bc-99d4-92bded886815"
    },
    {
      "name" : "libstdc++6",
      "version" : "10.2.1-6",
      "purl" : "pkg:deb/debian/libstdc%20%206@10.2.1-6?distro=debian-11.6",
      "type" : "library",
      "bom-ref" : "4a098ecf-0660-4678-8595-3d4d101506e1"
    },
    {
      "name" : "libsystemd0",
      "version" : "247.3-7+deb11u1",
      "purl" : "pkg:deb/debian/libsystemd0@247.3-7%20deb11u1?distro=debian-11.6",
      "type" : "library",
      "bom-ref" : "d0e00466-162b-46b1-bd27-110bfe0d4198"
    },
    {
      "name" : "libtasn1-6",
      "version" : "4.16.0-2+deb11u1",
      "purl" : "pkg:deb/debian/libtasn1-6@4.16.0-2%20deb11u1?distro=debian-11.6",
      "type" : "library",
      "bom-ref" : "b470c81d-dadb-4097-87ea-fd253b5d06c3"
    },
    {
      "name" : "libtinfo6",
      "version" : "6.2+20201114-2",
      "purl" : "pkg:deb/debian/libtinfo6@6.2%2020201114-2?distro=debian-11.6",
      "type" : "library",
      "bom-ref" : "2fef94ac-d67f-4d0e-a720-7d111749ce87"
    },
    {
      "name" : "libtirpc-common",
      "version" : "1.3.1-1+deb11u1",
      "purl" : "pkg:deb/debian/libtirpc-common@1.3.1-1%20deb11u1?distro=debian-11.6",
      "type" : "library",
      "bom-ref" : "d34fdce4-5e19-46d5-a73c-59b67bb42ff2"
    },
    {
      "name" : "libtirpc3",
      "version" : "1.3.1-1+deb11u1",
      "purl" : "pkg:deb/debian/libtirpc3@1.3.1-1%20deb11u1?distro=debian-11.6",
      "type" : "library",
      "bom-ref" : "c2e45cd5-41f1-4c93-a2eb-0bfbc328d6bf"
    },
    {
      "name" : "libudev1",
      "version" : "247.3-7+deb11u1",
      "purl" : "pkg:deb/debian/libudev1@247.3-7%20deb11u1?distro=debian-11.6",
      "type" : "library",
      "bom-ref" : "5dde1e93-923d-418a-ba30-c40ebd5dd153"
    },
    {
      "name" : "libunistring2",
      "version" : "0.9.10-4",
      "purl" : "pkg:deb/debian/libunistring2@0.9.10-4?distro=debian-11.6",
      "type" : "library",
      "bom-ref" : "7e82956a-e132-44c8-a967-ba8cc0a6d71c"
    },
    {
      "name" : "libuuid1",
      "version" : "2.36.1-8+deb11u1",
      "purl" : "pkg:deb/debian/libuuid1@2.36.1-8%20deb11u1?distro=debian-11.6",
      "type" : "library",
      "bom-ref" : "103780d2-671f-45f4-95b1-8ce2ac80f8fa"
    },
    {
      "name" : "libxxhash0",
      "version" : "0.8.0-2",
      "purl" : "pkg:deb/debian/libxxhash0@0.8.0-2?distro=debian-11.6",
      "type" : "library",
      "bom-ref" : "1a0526f2-0d19-4108-a9ca-5cd14cfc5c46"
    },
    {
      "name" : "libzstd1",
      "version" : "1.4.8+dfsg-2.1",
      "purl" : "pkg:deb/debian/libzstd1@1.4.8%20dfsg-2.1?distro=debian-11.6",
      "type" : "library",
      "bom-ref" : "934ce51b-b09f-4d66-af9c-baeb3fb31bc6"
    },
    {
      "name" : "login",
      "version" : "1:4.8.1-1",
      "purl" : "pkg:deb/debian/login@1%3A4.8.1-1?distro=debian-11.6",
      "type" : "library",
      "bom-ref" : "ee92d7f3-79f9-4af4-a877-44bbb224b3ec"
    },
    {
      "name" : "logsave",
      "version" : "1.46.2-2",
      "purl" : "pkg:deb/debian/logsave@1.46.2-2?distro=debian-11.6",
      "type" : "library",
      "bom-ref" : "e1e53372-d6d9-4b19-b6a2-f5bce1bafc08"
    },
    {
      "name" : "lsb-base",
      "version" : "11.1.0",
      "purl" : "pkg:deb/debian/lsb-base@11.1.0?distro=debian-11.6",
      "type" : "library",
      "bom-ref" : "9e3b2097-1de8-436d-9a40-fd826409c0e2"
    },
    {
      "name" : "mawk",
      "version" : "1.3.4.20200120-2",
      "purl" : "pkg:deb/debian/mawk@1.3.4.20200120-2?distro=debian-11.6",
      "type" : "library",
      "bom-ref" : "caaa7e40-a606-4387-a4c7-ba5642cc255c"
    },
    {
      "name" : "mount",
      "version" : "2.36.1-8+deb11u1",
      "purl" : "pkg:deb/debian/mount@2.36.1-8%20deb11u1?distro=debian-11.6",
      "type" : "library",
      "bom-ref" : "8a4f7306-5c1e-459a-b7bc-c6405d068c84"
    },
    {
      "name" : "ncurses-base",
      "version" : "6.2+20201114-2",
      "purl" : "pkg:deb/debian/ncurses-base@6.2%2020201114-2?distro=debian-11.6",
      "type" : "library",
      "bom-ref" : "5d89eb58-4e02-414e-9ce0-25fe3624cd20"
    },
    {
      "name" : "ncurses-bin",
      "version" : "6.2+20201114-2",
      "purl" : "pkg:deb/debian/ncurses-bin@6.2%2020201114-2?distro=debian-11.6",
      "type" : "library",
      "bom-ref" : "b920e0c2-3379-4164-954f-82d6f389a23a"
    },
    {
      "name" : "netbase",
      "version" : "6.3",
      "purl" : "pkg:deb/debian/netbase@6.3?distro=debian-11.6",
      "type" : "library",
      "bom-ref" : "742ba35d-8e79-4dd7-bfd9-5731d0abec92"
    },
    {
      "name" : "openssl",
      "version" : "1.1.1n-0+deb11u4",
      "purl" : "pkg:deb/debian/openssl@1.1.1n-0%20deb11u4?distro=debian-11.6",
      "type" : "library",
      "bom-ref" : "4f31132d-9c74-4b47-a402-1ccf35c21ccc"
    },
    {
      "name" : "passwd",
      "version" : "1:4.8.1-1",
      "purl" : "pkg:deb/debian/passwd@1%3A4.8.1-1?distro=debian-11.6",
      "type" : "library",
      "bom-ref" : "83701d11-5ecc-4d5e-9330-8746c227850e"
    },
    {
      "name" : "perl-base",
      "version" : "5.32.1-4+deb11u2",
      "purl" : "pkg:deb/debian/perl-base@5.32.1-4%20deb11u2?distro=debian-11.6",
      "type" : "library",
      "bom-ref" : "6d71c22c-611b-4c62-aca7-a8e9f719834f"
    },
    {
      "name" : "pip",
      "version" : "22.0.4",
      "purl" : "pkg:pypi/pip@22.0.4",
      "type" : "library",
      "bom-ref" : "28828205-86ea-462e-b050-d07edd2b0bfb"
    },
    {
      "name" : "readline-common",
      "version" : "8.1-1",
      "purl" : "pkg:deb/debian/readline-common@8.1-1?distro=debian-11.6",
      "type" : "library",
      "bom-ref" : "591d3648-c231-4dc8-b2de-2fbd5b32cb6a"
    },
    {
      "name" : "sed",
      "version" : "4.7-1",
      "purl" : "pkg:deb/debian/sed@4.7-1?distro=debian-11.6",
      "type" : "library",
      "bom-ref" : "eb279a67-1a52-4a4d-9f9b-01322368c348"
    },
    {
      "name" : "setuptools",
      "version" : "57.5.0",
      "purl" : "pkg:pypi/setuptools@57.5.0",
      "type" : "library",
      "bom-ref" : "0497eee5-289a-404f-8529-02ff2fddc638"
    },
    {
      "name" : "sysvinit-utils",
      "version" : "2.96-7+deb11u1",
      "purl" : "pkg:deb/debian/sysvinit-utils@2.96-7%20deb11u1?distro=debian-11.6",
      "type" : "library",
      "bom-ref" : "a3b84881-575a-4619-97f4-1b82f35d5b03"
    },
    {
      "name" : "tar",
      "version" : "1.34+dfsg-1",
      "purl" : "pkg:deb/debian/tar@1.34%20dfsg-1?distro=debian-11.6",
      "type" : "library",
      "bom-ref" : "fdf70c14-c109-46e3-90c9-7db633c2ac90"
    },
    {
      "name" : "tzdata",
      "version" : "2021a-1+deb11u8",
      "purl" : "pkg:deb/debian/tzdata@2021a-1%20deb11u8?distro=debian-11.6",
      "type" : "library",
      "bom-ref" : "9fbcc6c4-38d6-41d4-bcea-a0880466141e"
    },
    {
      "name" : "util-linux",
      "version" : "2.36.1-8+deb11u1",
      "purl" : "pkg:deb/debian/util-linux@2.36.1-8%20deb11u1?distro=debian-11.6",
      "type" : "library",
      "bom-ref" : "da6c686a-ada6-4bc9-9592-9a8800b12c46"
    },
    {
      "name" : "wheel",
      "version" : "0.38.4",
      "purl" : "pkg:pypi/wheel@0.38.4",
      "type" : "library",
      "bom-ref" : "bb230ac1-c592-4c93-b39b-c34b5f6d631d"
    },
    {
      "name" : "zlib1g",
      "version" : "1:1.2.11.dfsg-2+deb11u2",
      "purl" : "pkg:deb/debian/zlib1g@1%3A1.2.11.dfsg-2%20deb11u2?distro=debian-11.6",
      "type" : "library",
      "bom-ref" : "ca6dc7ff-03e9-4114-afc1-1dcc460afa22"
    }
  ],
  "dependencies" : [
    {
      "ref" : "5f7532b5-c548-4ad8-9c6d-d82dd5da43fe",
      "dependsOn" : [
        "711c0d9d-7ad0-45d1-a475-b38eec9fd459",
        "709222c5-9256-40e0-ab9b-d15f3fbc9e26",
        "f3902780-57c7-4433-bc95-397a5253e9dc",
        "a6db9774-4b88-416b-93f7-4996b7558780",
        "28828205-86ea-462e-b050-d07edd2b0bfb",
        "0497eee5-289a-404f-8529-02ff2fddc638",
        "bb230ac1-c592-4c93-b39b-c34b5f6d631d",
        "270febeb-2be5-448a-9fee-3fa20d4dab97"
      ]
    },
    {
      "ref" : "5cbe8dc6-bd77-4424-8ab2-04896800df9d",
      "dependsOn" : [ ]
    },
    {
      "ref" : "705dda48-cde5-4466-b8d3-9fdeec1cfe6e",
      "dependsOn" : [ ]
    },
    {
      "ref" : "270febeb-2be5-448a-9fee-3fa20d4dab97",
      "dependsOn" : [ ]
    },
    {
      "ref" : "0b0fcdaf-7b36-41ad-91bf-db740b1f71b0",
      "dependsOn" : [ ]
    },
    {
      "ref" : "9cdd6bbc-b984-4adc-8fd5-3c1e90f4ca7e",
      "dependsOn" : [ ]
    },
    {
      "ref" : "21fb43f4-933e-42e2-a7e0-cc9cd1f7f2ae",
      "dependsOn" : [ ]
    },
    {
      "ref" : "a9b438e5-6792-4dbe-a835-2eac77e4c203",
      "dependsOn" : [ ]
    },
    {
      "ref" : "423bd792-33ac-4675-8d38-beeb0c05bc4e",
      "dependsOn" : [ ]
    },
    {
      "ref" : "63a7e244-79c5-466d-bf77-4e50a2602698",
      "dependsOn" : [ ]
    },
    {
      "ref" : "409c90b6-bf91-45a1-be8f-23ff504dc760",
      "dependsOn" : [ ]
    },
    {
      "ref" : "2f121028-2ddd-49e7-b822-d65dd05d291b",
      "dependsOn" : [ ]
    },
    {
      "ref" : "711c0d9d-7ad0-45d1-a475-b38eec9fd459",
      "dependsOn" : [
        "5cbe8dc6-bd77-4424-8ab2-04896800df9d",
        "705dda48-cde5-4466-b8d3-9fdeec1cfe6e",
        "0b0fcdaf-7b36-41ad-91bf-db740b1f71b0",
        "9cdd6bbc-b984-4adc-8fd5-3c1e90f4ca7e",
        "21fb43f4-933e-42e2-a7e0-cc9cd1f7f2ae",
        "a9b438e5-6792-4dbe-a835-2eac77e4c203",
        "423bd792-33ac-4675-8d38-beeb0c05bc4e",
        "63a7e244-79c5-466d-bf77-4e50a2602698",
        "409c90b6-bf91-45a1-be8f-23ff504dc760",
        "2f121028-2ddd-49e7-b822-d65dd05d291b",
        "68104e75-71aa-4d65-8be1-d51cd458158d",
        "863e339a-09d1-4b68-9cf3-be73e928f9dc",
        "b4d66634-1c99-4b11-8e97-d88b5c26c7fa",
        "f48f8584-e1ec-4b10-add4-17a446977a2f",
        "30e373f2-f111-4fd8-9224-e12f92c7fa75",
        "ba812627-67f0-45a9-8b95-75bb68c1edb8",
        "fe66545e-9cdf-41e8-a0f9-c18ae616d5f7",
        "90e772fb-d5d7-4060-be64-63b9f731f9d5",
        "7430a7a1-4b2d-4609-abc8-bd3aaf039130",
        "1a63d3df-09b8-4e6f-bbda-7c5875ab94fa",
        "f0cafad4-dc5a-45b4-90c6-9d7987c6e064",
        "00142164-3c62-476b-ac63-c22554f6838c",
        "adc82dc6-94cc-4ad2-810b-a0caca4d1d5f",
        "1fed54c3-7710-4a82-bc34-1430ef529e63",
        "f7d6d37f-41da-4f92-9603-6ea49d7e2371",
        "4382ce32-c404-4006-a013-629c6239859d",
        "95c02b85-7736-47b6-b902-873533f800f5",
        "27f18e8d-7896-4c69-9716-8ed110a2c193",
        "17c644a1-4024-4f5b-9af9-140c8015fea3",
        "c5cc6b86-c4d2-42f3-8233-bd4eb6fce95a",
        "ae1534e8-3abe-478b-854d-47e1dce72075",
        "9f058798-027a-4609-b224-ca7557d8af85",
        "d641fd5b-d502-4a66-ba07-7eb3b57c31e8",
        "1218f36a-2cce-4498-aa97-52e74622a8ae",
        "5fad9964-f44a-447d-96f4-193630a8600b",
        "0c36f64d-f8bd-465d-bb40-007f903b36ab",
        "a0bc9d43-7d2e-4975-adfd-ff1670bc0451",
        "d75f0553-7116-440f-800a-39482006b6e9",
        "9017cf2b-6bf5-4ddb-9368-e3cb25a63f47",
        "d28e17e2-58e0-41a5-9980-c2e97daab033",
        "dce78a35-669d-4b94-a962-e811287753b7",
        "2299fe16-a366-4107-9db3-06199f9d1eb8",
        "bb0dee6f-e5a1-422e-8c46-5ef05a2d6162",
        "570b74fe-51e2-48a2-a343-98a75635efcf",
        "1f6ff907-5858-4bdc-98e0-0df847e14eaa",
        "99dab028-dd28-4724-b512-df2fcd88eecb",
        "82d6a0d4-e65e-49cd-a772-e76fdbbee48d",
        "60ed9b7f-a815-4eb6-85a8-16c635062bce",
        "f72d4268-2d06-4f75-a930-419c212c32e2",
        "9cff84ec-660d-42e4-8849-06ec3e140e58",
        "ce5a3968-4da6-4a2d-8c36-b2957a09fc4c",
        "ecf8ffad-7106-40b7-aea2-b4fdae8a4fbe",
        "45b756b5-8973-423a-9c05-3d5a1b7e1321",
        "241e5771-7570-4b49-a340-e57a0ff701d7",
        "a58114da-4d79-4bda-b5f6-2a8dba7065fc",
        "75ff3340-a08e-449f-98fe-e97f4eb780eb",
        "5fd99421-05fd-437f-815f-87f70d78d554",
        "bf861f29-36f8-466d-972f-8254f9fac4ed",
        "3eea8223-8fe9-42bd-975e-b2cdcfb11738",
        "cf8bb70a-4105-46f3-932e-e2878369dd51",
        "72edb345-d953-4e80-8f53-6ce640c2cf44",
        "e4d35e23-3d92-4ba3-8fc4-a1939fa6bd86",
        "80dc9235-f08a-47eb-ad80-1fae3343de7d",
        "5bc28e03-ea4b-48d8-b7c5-7ed74d1e45b0",
        "1f930818-9c61-4478-8330-65246c38deef",
        "58ff1c47-77f3-4fc2-bf61-299780c48616",
        "d16c5eaa-4a27-4380-b6fe-8ccd30ba10dd",
        "c09bf974-8df7-4eed-a5c8-f174ee18ead5",
        "db389b89-8dd5-486f-9bf7-570c0ee5d47f",
        "dcd00bb1-7c13-41d3-848e-bcdba0c921c5",
        "31a02e5b-6c79-4b76-8d8b-0532214195a0",
        "c936461d-0687-41b7-bfcd-34e1879d7e57",
        "cfae13b9-f36e-4649-9e7f-6fb2e90b25f2",
        "4ea22144-9a50-45d7-9523-d7de7ccf0d01",
        "42e4485e-30ca-4b5a-a97d-c03fb17b686d",
        "8e2182e8-81f8-45bc-99d4-92bded886815",
        "4a098ecf-0660-4678-8595-3d4d101506e1",
        "d0e00466-162b-46b1-bd27-110bfe0d4198",
        "b470c81d-dadb-4097-87ea-fd253b5d06c3",
        "2fef94ac-d67f-4d0e-a720-7d111749ce87",
        "d34fdce4-5e19-46d5-a73c-59b67bb42ff2",
        "c2e45cd5-41f1-4c93-a2eb-0bfbc328d6bf",
        "5dde1e93-923d-418a-ba30-c40ebd5dd153",
        "7e82956a-e132-44c8-a967-ba8cc0a6d71c",
        "103780d2-671f-45f4-95b1-8ce2ac80f8fa",
        "1a0526f2-0d19-4108-a9ca-5cd14cfc5c46",
        "934ce51b-b09f-4d66-af9c-baeb3fb31bc6",
        "ee92d7f3-79f9-4af4-a877-44bbb224b3ec",
        "e1e53372-d6d9-4b19-b6a2-f5bce1bafc08",
        "9e3b2097-1de8-436d-9a40-fd826409c0e2",
        "caaa7e40-a606-4387-a4c7-ba5642cc255c",
        "8a4f7306-5c1e-459a-b7bc-c6405d068c84",
        "5d89eb58-4e02-414e-9ce0-25fe3624cd20",
        "b920e0c2-3379-4164-954f-82d6f389a23a",
        "742ba35d-8e79-4dd7-bfd9-5731d0abec92",
        "4f31132d-9c74-4b47-a402-1ccf35c21ccc",
        "83701d11-5ecc-4d5e-9330-8746c227850e",
        "6d71c22c-611b-4c62-aca7-a8e9f719834f",
        "591d3648-c231-4dc8-b2de-2fbd5b32cb6a",
        "eb279a67-1a52-4a4d-9f9b-01322368c348",
        "a3b84881-575a-4619-97f4-1b82f35d5b03",
        "fdf70c14-c109-46e3-90c9-7db633c2ac90",
        "9fbcc6c4-38d6-41d4-bcea-a0880466141e",
        "da6c686a-ada6-4bc9-9592-9a8800b12c46",
        "ca6dc7ff-03e9-4114-afc1-1dcc460afa22"
      ]
    },
    {
      "ref" : "68104e75-71aa-4d65-8be1-d51cd458158d",
      "dependsOn" : [ ]
    },
    {
      "ref" : "863e339a-09d1-4b68-9cf3-be73e928f9dc",
      "dependsOn" : [ ]
    },
    {
      "ref" : "b4d66634-1c99-4b11-8e97-d88b5c26c7fa",
      "dependsOn" : [ ]
    },
    {
      "ref" : "f48f8584-e1ec-4b10-add4-17a446977a2f",
      "dependsOn" : [ ]
    },
    {
      "ref" : "30e373f2-f111-4fd8-9224-e12f92c7fa75",
      "dependsOn" : [ ]
    },
    {
      "ref" : "ba812627-67f0-45a9-8b95-75bb68c1edb8",
      "dependsOn" : [ ]
    },
    {
      "ref" : "709222c5-9256-40e0-ab9b-d15f3fbc9e26",
      "dependsOn" : [ ]
    },
    {
      "ref" : "fe66545e-9cdf-41e8-a0f9-c18ae616d5f7",
      "dependsOn" : [ ]
    },
    {
      "ref" : "90e772fb-d5d7-4060-be64-63b9f731f9d5",
      "dependsOn" : [ ]
    },
    {
      "ref" : "7430a7a1-4b2d-4609-abc8-bd3aaf039130",
      "dependsOn" : [ ]
    },
    {
      "ref" : "1a63d3df-09b8-4e6f-bbda-7c5875ab94fa",
      "dependsOn" : [ ]
    },
    {
      "ref" : "f0cafad4-dc5a-45b4-90c6-9d7987c6e064",
      "dependsOn" : [ ]
    },
    {
      "ref" : "00142164-3c62-476b-ac63-c22554f6838c",
      "dependsOn" : [ ]
    },
    {
      "ref" : "f3902780-57c7-4433-bc95-397a5253e9dc",
      "dependsOn" : [ ]
    },
    {
      "ref" : "a6db9774-4b88-416b-93f7-4996b7558780",
      "dependsOn" : [ ]
    },
    {
      "ref" : "adc82dc6-94cc-4ad2-810b-a0caca4d1d5f",
      "dependsOn" : [ ]
    },
    {
      "ref" : "1fed54c3-7710-4a82-bc34-1430ef529e63",
      "dependsOn" : [ ]
    },
    {
      "ref" : "f7d6d37f-41da-4f92-9603-6ea49d7e2371",
      "dependsOn" : [ ]
    },
    {
      "ref" : "4382ce32-c404-4006-a013-629c6239859d",
      "dependsOn" : [ ]
    },
    {
      "ref" : "95c02b85-7736-47b6-b902-873533f800f5",
      "dependsOn" : [ ]
    },
    {
      "ref" : "27f18e8d-7896-4c69-9716-8ed110a2c193",
      "dependsOn" : [ ]
    },
    {
      "ref" : "17c644a1-4024-4f5b-9af9-140c8015fea3",
      "dependsOn" : [ ]
    },
    {
      "ref" : "c5cc6b86-c4d2-42f3-8233-bd4eb6fce95a",
      "dependsOn" : [ ]
    },
    {
      "ref" : "ae1534e8-3abe-478b-854d-47e1dce72075",
      "dependsOn" : [ ]
    },
    {
      "ref" : "9f058798-027a-4609-b224-ca7557d8af85",
      "dependsOn" : [ ]
    },
    {
      "ref" : "d641fd5b-d502-4a66-ba07-7eb3b57c31e8",
      "dependsOn" : [ ]
    },
    {
      "ref" : "1218f36a-2cce-4498-aa97-52e74622a8ae",
      "dependsOn" : [ ]
    },
    {
      "ref" : "5fad9964-f44a-447d-96f4-193630a8600b",
      "dependsOn" : [ ]
    },
    {
      "ref" : "0c36f64d-f8bd-465d-bb40-007f903b36ab",
      "dependsOn" : [ ]
    },
    {
      "ref" : "a0bc9d43-7d2e-4975-adfd-ff1670bc0451",
      "dependsOn" : [ ]
    },
    {
      "ref" : "d75f0553-7116-440f-800a-39482006b6e9",
      "dependsOn" : [ ]
    },
    {
      "ref" : "9017cf2b-6bf5-4ddb-9368-e3cb25a63f47",
      "dependsOn" : [ ]
    },
    {
      "ref" : "d28e17e2-58e0-41a5-9980-c2e97daab033",
      "dependsOn" : [ ]
    },
    {
      "ref" : "dce78a35-669d-4b94-a962-e811287753b7",
      "dependsOn" : [ ]
    },
    {
      "ref" : "2299fe16-a366-4107-9db3-06199f9d1eb8",
      "dependsOn" : [ ]
    },
    {
      "ref" : "bb0dee6f-e5a1-422e-8c46-5ef05a2d6162",
      "dependsOn" : [ ]
    },
    {
      "ref" : "570b74fe-51e2-48a2-a343-98a75635efcf",
      "dependsOn" : [ ]
    },
    {
      "ref" : "1f6ff907-5858-4bdc-98e0-0df847e14eaa",
      "dependsOn" : [ ]
    },
    {
      "ref" : "99dab028-dd28-4724-b512-df2fcd88eecb",
      "dependsOn" : [ ]
    },
    {
      "ref" : "82d6a0d4-e65e-49cd-a772-e76fdbbee48d",
      "dependsOn" : [ ]
    },
    {
      "ref" : "60ed9b7f-a815-4eb6-85a8-16c635062bce",
      "dependsOn" : [ ]
    },
    {
      "ref" : "f72d4268-2d06-4f75-a930-419c212c32e2",
      "dependsOn" : [ ]
    },
    {
      "ref" : "9cff84ec-660d-42e4-8849-06ec3e140e58",
      "dependsOn" : [ ]
    },
    {
      "ref" : "ce5a3968-4da6-4a2d-8c36-b2957a09fc4c",
      "dependsOn" : [ ]
    },
    {
      "ref" : "ecf8ffad-7106-40b7-aea2-b4fdae8a4fbe",
      "dependsOn" : [ ]
    },
    {
      "ref" : "45b756b5-8973-423a-9c05-3d5a1b7e1321",
      "dependsOn" : [ ]
    },
    {
      "ref" : "241e5771-7570-4b49-a340-e57a0ff701d7",
      "dependsOn" : [ ]
    },
    {
      "ref" : "a58114da-4d79-4bda-b5f6-2a8dba7065fc",
      "dependsOn" : [ ]
    },
    {
      "ref" : "75ff3340-a08e-449f-98fe-e97f4eb780eb",
      "dependsOn" : [ ]
    },
    {
      "ref" : "5fd99421-05fd-437f-815f-87f70d78d554",
      "dependsOn" : [ ]
    },
    {
      "ref" : "bf861f29-36f8-466d-972f-8254f9fac4ed",
      "dependsOn" : [ ]
    },
    {
      "ref" : "3eea8223-8fe9-42bd-975e-b2cdcfb11738",
      "dependsOn" : [ ]
    },
    {
      "ref" : "cf8bb70a-4105-46f3-932e-e2878369dd51",
      "dependsOn" : [ ]
    },
    {
      "ref" : "72edb345-d953-4e80-8f53-6ce640c2cf44",
      "dependsOn" : [ ]
    },
    {
      "ref" : "e4d35e23-3d92-4ba3-8fc4-a1939fa6bd86",
      "dependsOn" : [ ]
    },
    {
      "ref" : "80dc9235-f08a-47eb-ad80-1fae3343de7d",
      "dependsOn" : [ ]
    },
    {
      "ref" : "5bc28e03-ea4b-48d8-b7c5-7ed74d1e45b0",
      "dependsOn" : [ ]
    },
    {
      "ref" : "1f930818-9c61-4478-8330-65246c38deef",
      "dependsOn" : [ ]
    },
    {
      "ref" : "58ff1c47-77f3-4fc2-bf61-299780c48616",
      "dependsOn" : [ ]
    },
    {
      "ref" : "d16c5eaa-4a27-4380-b6fe-8ccd30ba10dd",
      "dependsOn" : [ ]
    },
    {
      "ref" : "c09bf974-8df7-4eed-a5c8-f174ee18ead5",
      "dependsOn" : [ ]
    },
    {
      "ref" : "db389b89-8dd5-486f-9bf7-570c0ee5d47f",
      "dependsOn" : [ ]
    },
    {
      "ref" : "dcd00bb1-7c13-41d3-848e-bcdba0c921c5",
      "dependsOn" : [ ]
    },
    {
      "ref" : "31a02e5b-6c79-4b76-8d8b-0532214195a0",
      "dependsOn" : [ ]
    },
    {
      "ref" : "c936461d-0687-41b7-bfcd-34e1879d7e57",
      "dependsOn" : [ ]
    },
    {
      "ref" : "cfae13b9-f36e-4649-9e7f-6fb2e90b25f2",
      "dependsOn" : [ ]
    },
    {
      "ref" : "4ea22144-9a50-45d7-9523-d7de7ccf0d01",
      "dependsOn" : [ ]
    },
    {
      "ref" : "42e4485e-30ca-4b5a-a97d-c03fb17b686d",
      "dependsOn" : [ ]
    },
    {
      "ref" : "8e2182e8-81f8-45bc-99d4-92bded886815",
      "dependsOn" : [ ]
    },
    {
      "ref" : "4a098ecf-0660-4678-8595-3d4d101506e1",
      "dependsOn" : [ ]
    },
    {
      "ref" : "d0e00466-162b-46b1-bd27-110bfe0d4198",
      "dependsOn" : [ ]
    },
    {
      "ref" : "b470c81d-dadb-4097-87ea-fd253b5d06c3",
      "dependsOn" : [ ]
    },
    {
      "ref" : "2fef94ac-d67f-4d0e-a720-7d111749ce87",
      "dependsOn" : [ ]
    },
    {
      "ref" : "d34fdce4-5e19-46d5-a73c-59b67bb42ff2",
      "dependsOn" : [ ]
    },
    {
      "ref" : "c2e45cd5-41f1-4c93-a2eb-0bfbc328d6bf",
      "dependsOn" : [ ]
    },
    {
      "ref" : "5dde1e93-923d-418a-ba30-c40ebd5dd153",
      "dependsOn" : [ ]
    },
    {
      "ref" : "7e82956a-e132-44c8-a967-ba8cc0a6d71c",
      "dependsOn" : [ ]
    },
    {
      "ref" : "103780d2-671f-45f4-95b1-8ce2ac80f8fa",
      "dependsOn" : [ ]
    },
    {
      "ref" : "1a0526f2-0d19-4108-a9ca-5cd14cfc5c46",
      "dependsOn" : [ ]
    },
    {
      "ref" : "934ce51b-b09f-4d66-af9c-baeb3fb31bc6",
      "dependsOn" : [ ]
    },
    {
      "ref" : "ee92d7f3-79f9-4af4-a877-44bbb224b3ec",
      "dependsOn" : [ ]
    },
    {
      "ref" : "e1e53372-d6d9-4b19-b6a2-f5bce1bafc08",
      "dependsOn" : [ ]
    },
    {
      "ref" : "9e3b2097-1de8-436d-9a40-fd826409c0e2",
      "dependsOn" : [ ]
    },
    {
      "ref" : "caaa7e40-a606-4387-a4c7-ba5642cc255c",
      "dependsOn" : [ ]
    },
    {
      "ref" : "8a4f7306-5c1e-459a-b7bc-c6405d068c84",
      "dependsOn" : [ ]
    },
    {
      "ref" : "5d89eb58-4e02-414e-9ce0-25fe3624cd20",
      "dependsOn" : [ ]
    },
    {
      "ref" : "b920e0c2-3379-4164-954f-82d6f389a23a",
      "dependsOn" : [ ]
    },
    {
      "ref" : "742ba35d-8e79-4dd7-bfd9-5731d0abec92",
      "dependsOn" : [ ]
    },
    {
      "ref" : "4f31132d-9c74-4b47-a402-1ccf35c21ccc",
      "dependsOn" : [ ]
    },
    {
      "ref" : "83701d11-5ecc-4d5e-9330-8746c227850e",
      "dependsOn" : [ ]
    },
    {
      "ref" : "6d71c22c-611b-4c62-aca7-a8e9f719834f",
      "dependsOn" : [ ]
    },
    {
      "ref" : "28828205-86ea-462e-b050-d07edd2b0bfb",
      "dependsOn" : [ ]
    },
    {
      "ref" : "591d3648-c231-4dc8-b2de-2fbd5b32cb6a",
      "dependsOn" : [ ]
    },
    {
      "ref" : "eb279a67-1a52-4a4d-9f9b-01322368c348",
      "dependsOn" : [ ]
    },
    {
      "ref" : "0497eee5-289a-404f-8529-02ff2fddc638",
      "dependsOn" : [ ]
    },
    {
      "ref" : "a3b84881-575a-4619-97f4-1b82f35d5b03",
      "dependsOn" : [ ]
    },
    {
      "ref" : "fdf70c14-c109-46e3-90c9-7db633c2ac90",
      "dependsOn" : [ ]
    },
    {
      "ref" : "9fbcc6c4-38d6-41d4-bcea-a0880466141e",
      "dependsOn" : [ ]
    },
    {
      "ref" : "da6c686a-ada6-4bc9-9592-9a8800b12c46",
      "dependsOn" : [ ]
    },
    {
      "ref" : "bb230ac1-c592-4c93-b39b-c34b5f6d631d",
      "dependsOn" : [ ]
    },
    {
      "ref" : "ca6dc7ff-03e9-4114-afc1-1dcc460afa22",
      "dependsOn" : [ ]
    }
  ],
  "vulnerabilities" : [
    {
      "bom-ref" : "d6f0791d-125a-47b4-a594-c30d94743f28",
      "id" : "CVE-2018-20225",
      "source" : {
        "name" : "NVD",
        "url" : "https://nvd.nist.gov/"
      },
      "ratings" : [
        {
          "source" : {
            "name" : "NVD",
            "url" : "https://nvd.nist.gov/"
          },
          "score" : 6.8,
          "severity" : "medium",
          "method" : "CVSSv2",
          "vector" : "(AV:N/AC:M/Au:N/C:P/I:P/A:P)"
        },
        {
          "source" : {
            "name" : "NVD",
            "url" : "https://nvd.nist.gov/"
          },
          "score" : 7.8,
          "severity" : "high",
          "method" : "CVSSv3",
          "vector" : "CVSS:3.0/AV:L/AC:L/PR:N/UI:R/S:U/C:H/I:H/A:H"
        }
      ],
      "cwes" : [
        20
      ],
      "description" : "** DISPUTED ** An issue was discovered in pip (all versions) because it installs the version with the highest version number, even if the user had intended to obtain a private package from a private index. This only affects use of the --extra-index-url option, and exploitation requires that the package does not already exist in the public index (and thus the attacker can put the package there with an arbitrary version number). NOTE: it has been reported that this is intended functionality and the user is responsible for using --extra-index-url securely.",
      "published" : "2020-05-08T18:15:00Z",
      "updated" : "2020-06-01T17:15:00Z",
      "affects" : [
        {
          "ref" : "28828205-86ea-462e-b050-d07edd2b0bfb"
        }
      ]
    },
    {
      "bom-ref" : "8ed4b082-2c41-462c-b739-7841c02fa888",
      "id" : "CVE-2022-40897",
      "source" : {
        "name" : "NVD",
        "url" : "https://nvd.nist.gov/"
      },
      "ratings" : [
        {
          "source" : {
            "name" : "NVD",
            "url" : "https://nvd.nist.gov/"
          },
          "score" : 5.9,
          "severity" : "medium",
          "method" : "CVSSv3",
          "vector" : "CVSS:3.0/AV:N/AC:H/PR:N/UI:N/S:U/C:N/I:N/A:H"
        }
      ],
      "description" : "Python Packaging Authority (PyPA) setuptools before 65.5.1 allows remote attackers to cause a denial of service via HTML in a crafted package or custom PackageIndex page. There is a Regular Expression Denial of Service (ReDoS) in package_index.py.",
      "published" : "2022-12-23T00:15:00Z",
      "updated" : "2023-05-01T06:15:00Z",
      "affects" : [
        {
          "ref" : "0497eee5-289a-404f-8529-02ff2fddc638"
        }
      ]
    }
  ]
}