{
  "bomFormat" : "CycloneDX",
  "specVersion" : "1.4",
  "serialNumber" : "urn:uuid:a01c4d37-4b13-4e3b-bfc1-1015295a689e",
  "version" : 1,
  "metadata" : {
    "timestamp" : "2023-07-03T15:05:47Z",
    "tools" : [
      {
        "vendor" : "OWASP",
        "name" : "Dependency-Track",
        "version" : "4.8.2"
      }
    ],
    "component" : {
      "name" : "orientdb-3.1",
      "version" : "SNAPSHOT",
      "type" : "application",
      "bom-ref" : "698f3e15-9947-47d4-96cc-a5c3787e484d"
    }
  },
  "components" : [
    {
      "name" : "adduser",
      "version" : "3.118ubuntu5",
      "purl" : "pkg:deb/ubuntu/adduser@3.118ubuntu5?distro=ubuntu-22.04",
      "type" : "library",
      "bom-ref" : "1c6e323c-872f-42c7-bcba-4c4e394ae3ce"
    },
    {
      "name" : "apt",
      "version" : "2.4.8",
      "purl" : "pkg:deb/ubuntu/apt@2.4.8?distro=ubuntu-22.04",
      "type" : "library",
      "bom-ref" : "99c40ea6-6c00-45b0-b55b-0f99f3706c2c"
    },
    {
      "name" : "base-files",
      "version" : "12ubuntu4.3",
      "purl" : "pkg:deb/ubuntu/base-files@12ubuntu4.3?distro=ubuntu-22.04",
      "type" : "library",
      "bom-ref" : "37726db2-696a-4084-a3e4-6ebd627098a8"
    },
    {
      "name" : "base-passwd",
      "version" : "3.5.52build1",
      "purl" : "pkg:deb/ubuntu/base-passwd@3.5.52build1?distro=ubuntu-22.04",
      "type" : "library",
      "bom-ref" : "1a97d799-0450-4ec6-aac7-1ca53daf06c6"
    },
    {
      "name" : "bash",
      "version" : "5.1-6ubuntu1",
      "purl" : "pkg:deb/ubuntu/bash@5.1-6ubuntu1?distro=ubuntu-22.04",
      "type" : "library",
      "bom-ref" : "8f2a7241-aa6a-4e73-bdc8-7657e968d87b"
    },
    {
      "name" : "bsdutils",
      "version" : "1:2.37.2-4ubuntu3",
      "purl" : "pkg:deb/ubuntu/bsdutils@1%3A2.37.2-4ubuntu3?distro=ubuntu-22.04",
      "type" : "library",
      "bom-ref" : "6ac664dd-a371-48e2-bb27-1bda978d35a0"
    },
    {
      "name" : "ca-certificates",
      "version" : "20211016ubuntu0.22.04.1",
      "purl" : "pkg:deb/ubuntu/ca-certificates@20211016ubuntu0.22.04.1?distro=ubuntu-22.04",
      "type" : "library",
      "bom-ref" : "2ede25ff-db3d-4d16-945f-4a839d7a199d"
    },
    {
      "name" : "com.carrotsearch:hppc",
      "version" : "0.8.2",
      "purl" : "pkg:maven/com.carrotsearch/hppc@0.8.2",
      "type" : "library",
      "bom-ref" : "3947f64a-3739-4989-93fe-ca12ee126f8b"
    },
    {
      "name" : "com.fasterxml.jackson.core:jackson-core",
      "version" : "2.9.7",
      "purl" : "pkg:maven/com.fasterxml.jackson.core/jackson-core@2.9.7",
      "type" : "library",
      "bom-ref" : "78d16b16-7142-4a33-87f1-1af57d23a08a"
    },
    {
      "name" : "com.github.jnr:jffi",
      "version" : "1.3.9",
      "purl" : "pkg:maven/com.github.jnr/jffi@1.3.9",
      "type" : "library",
      "bom-ref" : "cc4522b3-fd08-4726-91c9-bea896af1455"
    },
    {
      "name" : "com.github.jnr:jffi",
      "version" : "1.3.9",
      "purl" : "pkg:maven/com.github.jnr/jffi@1.3.9",
      "type" : "library",
      "bom-ref" : "895754ab-6aa8-4ec5-bbf3-9ee867d83ad7"
    },
    {
      "name" : "com.github.jnr:jnr-a64asm",
      "version" : "1.0.0",
      "purl" : "pkg:maven/com.github.jnr/jnr-a64asm@1.0.0",
      "type" : "library",
      "bom-ref" : "621e544d-a99f-4c8b-b6c1-07ce9d7de3c9"
    },
    {
      "name" : "com.github.jnr:jnr-constants",
      "version" : "0.10.3",
      "purl" : "pkg:maven/com.github.jnr/jnr-constants@0.10.3",
      "type" : "library",
      "bom-ref" : "86957b93-e1d5-4e40-a73c-05ec0ee5529b"
    },
    {
      "name" : "com.github.jnr:jnr-ffi",
      "version" : "2.2.11",
      "purl" : "pkg:maven/com.github.jnr/jnr-ffi@2.2.11",
      "type" : "library",
      "bom-ref" : "73252a41-d3b4-418c-8928-2c81a8aaba09"
    },
    {
      "name" : "com.github.jnr:jnr-posix",
      "version" : "3.1.15",
      "purl" : "pkg:maven/com.github.jnr/jnr-posix@3.1.15",
      "type" : "library",
      "bom-ref" : "22395098-a6c5-4751-993d-cdbdd12ba535"
    },
    {
      "name" : "com.github.jnr:jnr-x86asm",
      "version" : "1.0.2",
      "purl" : "pkg:maven/com.github.jnr/jnr-x86asm@1.0.2",
      "type" : "library",
      "bom-ref" : "64db9f7b-37e1-4451-a38f-569c6b226a58"
    },
    {
      "name" : "com.googlecode.concurrentlinkedhashmap:concurrentlinkedhashmap-lru",
      "version" : "1.4.2",
      "purl" : "pkg:maven/com.googlecode.concurrentlinkedhashmap/concurrentlinkedhashmap-lru@1.4.2",
      "type" : "library",
      "bom-ref" : "c427c648-638e-4edb-b3ef-d4be47379e4d"
    },
    {
      "name" : "com.hazelcast:hazelcast",
      "version" : "3.12.8",
      "purl" : "pkg:maven/com.hazelcast/hazelcast@3.12.8",
      "type" : "library",
      "bom-ref" : "677de65f-ea1d-4158-bdcb-aeef75ff2eeb"
    },
    {
      "name" : "com.hazelcast:hazelcast-client-protocol",
      "version" : "1.8.0",
      "purl" : "pkg:maven/com.hazelcast/hazelcast-client-protocol@1.8.0",
      "type" : "library",
      "bom-ref" : "b10d5c05-102a-4bf0-9357-1bdb6a59ab40"
    },
    {
      "name" : "com.hazelcast:hazelcast-kubernetes",
      "version" : "1.5.3",
      "purl" : "pkg:maven/com.hazelcast/hazelcast-kubernetes@1.5.3",
      "type" : "library",
      "bom-ref" : "d5e11c1e-ecaf-4d2a-9049-b2f74d56b7e1"
    },
    {
      "name" : "com.ibm.icu:icu4j",
      "version" : "65.1",
      "purl" : "pkg:maven/com.ibm.icu/icu4j@65.1",
      "type" : "library",
      "bom-ref" : "ec21ec6b-07d2-4a4b-9fe1-12c3ea462ad5"
    },
    {
      "name" : "com.orientechnologies:orientdb-client",
      "version" : "3.1.20",
      "purl" : "pkg:maven/com.orientechnologies/orientdb-client@3.1.20",
      "type" : "library",
      "bom-ref" : "b47fd8bf-9c1c-4b4d-9b4d-35f7a367d514"
    },
    {
      "name" : "com.orientechnologies:orientdb-community",
      "version" : "3.1.20",
      "purl" : "pkg:maven/com.orientechnologies/orientdb-community@3.1.20",
      "type" : "library",
      "bom-ref" : "f5a8cfe8-1522-42d2-87ec-75650dc1bf22"
    },
    {
      "name" : "com.orientechnologies:orientdb-core",
      "version" : "3.1.20",
      "purl" : "pkg:maven/com.orientechnologies/orientdb-core@3.1.20",
      "type" : "library",
      "bom-ref" : "f36d9b65-eba6-49c5-9a72-54ccad5b352a"
    },
    {
      "name" : "com.orientechnologies:orientdb-distributed",
      "version" : "3.1.20",
      "purl" : "pkg:maven/com.orientechnologies/orientdb-distributed@3.1.20",
      "type" : "library",
      "bom-ref" : "998e8168-702e-48f0-89c2-58326e816d5c"
    },
    {
      "name" : "com.orientechnologies:orientdb-etl",
      "version" : "3.1.20",
      "purl" : "pkg:maven/com.orientechnologies/orientdb-etl@3.1.20",
      "type" : "library",
      "bom-ref" : "49618292-2eba-4cb8-b895-d41bea67276a"
    },
    {
      "name" : "com.orientechnologies:orientdb-jdbc",
      "version" : "3.1.20",
      "purl" : "pkg:maven/com.orientechnologies/orientdb-jdbc@3.1.20",
      "type" : "library",
      "bom-ref" : "35b05c23-9884-4856-9921-7fb61db79ef6"
    },
    {
      "name" : "com.orientechnologies:orientdb-lucene",
      "version" : "3.1.20",
      "purl" : "pkg:maven/com.orientechnologies/orientdb-lucene@3.1.20",
      "type" : "library",
      "bom-ref" : "3e68a6dd-39e2-4756-8af6-e690b8536524"
    },
    {
      "name" : "com.orientechnologies:orientdb-object",
      "version" : "3.1.20",
      "purl" : "pkg:maven/com.orientechnologies/orientdb-object@3.1.20",
      "type" : "library",
      "bom-ref" : "f431cded-b35e-4dee-a808-03b0cbe8dcaf"
    },
    {
      "name" : "com.orientechnologies:orientdb-server",
      "version" : "3.1.20",
      "purl" : "pkg:maven/com.orientechnologies/orientdb-server@3.1.20",
      "type" : "library",
      "bom-ref" : "b29e1dff-0075-4d6e-9b84-d080d0db853b"
    },
    {
      "name" : "com.orientechnologies:orientdb-tools",
      "version" : "3.1.20",
      "purl" : "pkg:maven/com.orientechnologies/orientdb-tools@3.1.20",
      "type" : "library",
      "bom-ref" : "c48fc5a4-01e3-4d97-9b2f-e19b9b233578"
    },
    {
      "name" : "com.sun.istack:istack-commons-runtime",
      "version" : "3.0.5",
      "purl" : "pkg:maven/com.sun.istack/istack-commons-runtime@3.0.5",
      "type" : "library",
      "bom-ref" : "be37c58a-3368-4b6e-b504-917eeaa44e0b"
    },
    {
      "name" : "com.sun.xml.bind:jaxb-core",
      "version" : "2.3.0.1",
      "purl" : "pkg:maven/com.sun.xml.bind/jaxb-core@2.3.0.1",
      "type" : "library",
      "bom-ref" : "7a2092ad-745e-4d1b-b385-78329beb6cb0"
    },
    {
      "name" : "com.sun.xml.bind:jaxb-impl",
      "version" : "2.3.0.1",
      "purl" : "pkg:maven/com.sun.xml.bind/jaxb-impl@2.3.0.1",
      "type" : "library",
      "bom-ref" : "10260d91-bf75-43c3-a0fe-0b5339dd5f02"
    },
    {
      "name" : "commons-lang:commons-lang",
      "version" : "2.6",
      "purl" : "pkg:maven/commons-lang/commons-lang@2.6",
      "type" : "library",
      "bom-ref" : "31b87c98-fb09-4780-84f4-430513687f77"
    },
    {
      "name" : "coreutils",
      "version" : "8.32-4.1ubuntu1",
      "purl" : "pkg:deb/ubuntu/coreutils@8.32-4.1ubuntu1?distro=ubuntu-22.04",
      "type" : "library",
      "bom-ref" : "55899540-82c5-4f91-ac9c-9e7005dc0c5d"
    },
    {
      "name" : "curl",
      "version" : "7.81.0-1ubuntu1.8",
      "purl" : "pkg:deb/ubuntu/curl@7.81.0-1ubuntu1.8?distro=ubuntu-22.04",
      "type" : "library",
      "bom-ref" : "2e02e34e-6740-4076-b903-9b5fbb06c9ed"
    },
    {
      "name" : "dash",
      "version" : "0.5.11+git20210903+057cd650a4ed-3build1",
      "purl" : "pkg:deb/ubuntu/dash@0.5.11%20git20210903%20057cd650a4ed-3build1?distro=ubuntu-22.04",
      "type" : "library",
      "bom-ref" : "c1b9b438-e046-4e38-90f6-818f75c137ce"
    },
    {
      "name" : "debconf",
      "version" : "1.5.79ubuntu1",
      "purl" : "pkg:deb/ubuntu/debconf@1.5.79ubuntu1?distro=ubuntu-22.04",
      "type" : "library",
      "bom-ref" : "0af3c39a-8326-4277-a3b9-65a29cfc7afb"
    },
    {
      "name" : "debianutils",
      "version" : "5.5-1ubuntu2",
      "purl" : "pkg:deb/ubuntu/debianutils@5.5-1ubuntu2?distro=ubuntu-22.04",
      "type" : "library",
      "bom-ref" : "71b0b5ef-d99d-46ed-8417-d86dcc9baff6"
    },
    {
      "name" : "diffutils",
      "version" : "1:3.8-0ubuntu2",
      "purl" : "pkg:deb/ubuntu/diffutils@1%3A3.8-0ubuntu2?distro=ubuntu-22.04",
      "type" : "library",
      "bom-ref" : "8571de2e-9b59-4719-858d-99b57445258f"
    },
    {
      "name" : "dpkg",
      "version" : "1.21.1ubuntu2.1",
      "purl" : "pkg:deb/ubuntu/dpkg@1.21.1ubuntu2.1?distro=ubuntu-22.04",
      "type" : "library",
      "bom-ref" : "93d7e3d1-78ac-4051-b219-4051492877bd"
    },
    {
      "name" : "e2fsprogs",
      "version" : "1.46.5-2ubuntu1.1",
      "purl" : "pkg:deb/ubuntu/e2fsprogs@1.46.5-2ubuntu1.1?distro=ubuntu-22.04",
      "type" : "library",
      "bom-ref" : "d344098c-6f32-4848-8547-f20a02915028"
    },
    {
      "name" : "findutils",
      "version" : "4.8.0-1ubuntu3",
      "purl" : "pkg:deb/ubuntu/findutils@4.8.0-1ubuntu3?distro=ubuntu-22.04",
      "type" : "library",
      "bom-ref" : "e42167b1-6900-4df0-8ff1-4286622c5d66"
    },
    {
      "name" : "fontconfig",
      "version" : "2.13.1-4.2ubuntu5",
      "purl" : "pkg:deb/ubuntu/fontconfig@2.13.1-4.2ubuntu5?distro=ubuntu-22.04",
      "type" : "library",
      "bom-ref" : "ba472b29-6729-4213-b3a8-97652c407964"
    },
    {
      "name" : "fontconfig-config",
      "version" : "2.13.1-4.2ubuntu5",
      "purl" : "pkg:deb/ubuntu/fontconfig-config@2.13.1-4.2ubuntu5?distro=ubuntu-22.04",
      "type" : "library",
      "bom-ref" : "2b728ead-845d-49fd-b9bc-7e1f78a0066f"
    },
    {
      "name" : "fonts-dejavu-core",
      "version" : "2.37-2build1",
      "purl" : "pkg:deb/ubuntu/fonts-dejavu-core@2.37-2build1?distro=ubuntu-22.04",
      "type" : "library",
      "bom-ref" : "c3d789c7-3a68-4ed7-a741-e1c87ac75483"
    },
    {
      "name" : "gcc-12-base",
      "version" : "12.1.0-2ubuntu1~22.04",
      "purl" : "pkg:deb/ubuntu/gcc-12-base@12.1.0-2ubuntu1~22.04?distro=ubuntu-22.04",
      "type" : "library",
      "bom-ref" : "d3f3a934-aa92-4690-a301-4870748b77d6"
    },
    {
      "name" : "gpgv",
      "version" : "2.2.27-3ubuntu2.1",
      "purl" : "pkg:deb/ubuntu/gpgv@2.2.27-3ubuntu2.1?distro=ubuntu-22.04",
      "type" : "library",
      "bom-ref" : "a653598f-759d-4ccc-ab28-1faa835bbcd6"
    },
    {
      "name" : "grep",
      "version" : "3.7-1build1",
      "purl" : "pkg:deb/ubuntu/grep@3.7-1build1?distro=ubuntu-22.04",
      "type" : "library",
      "bom-ref" : "3261fea7-4dc5-493d-b8c1-0a8c579a4c47"
    },
    {
      "name" : "gzip",
      "version" : "1.10-4ubuntu4.1",
      "purl" : "pkg:deb/ubuntu/gzip@1.10-4ubuntu4.1?distro=ubuntu-22.04",
      "type" : "library",
      "bom-ref" : "4bb3707a-edc4-4251-a861-7cd156088904"
    },
    {
      "name" : "hostname",
      "version" : "3.23ubuntu2",
      "purl" : "pkg:deb/ubuntu/hostname@3.23ubuntu2?distro=ubuntu-22.04",
      "type" : "library",
      "bom-ref" : "fa8245a9-0aca-4705-ac35-070ffe17178e"
    },
    {
      "name" : "init-system-helpers",
      "version" : "1.62",
      "purl" : "pkg:deb/ubuntu/init-system-helpers@1.62?distro=ubuntu-22.04",
      "type" : "library",
      "bom-ref" : "aa1095b4-e1a8-45cf-b330-f966703a9d25"
    },
    {
      "name" : "io.sgr:s2-geometry-library-java",
      "version" : "1.0.0",
      "purl" : "pkg:maven/io.sgr/s2-geometry-library-java@1.0.0",
      "type" : "library",
      "bom-ref" : "9c8a7d30-50b9-434a-8b94-41c908b056ff"
    },
    {
      "name" : "javax.activation:javax.activation-api",
      "version" : "1.2.0",
      "purl" : "pkg:maven/javax.activation/javax.activation-api@1.2.0",
      "type" : "library",
      "bom-ref" : "e9eb826e-ac43-4ea5-958b-1776fe38961f"
    },
    {
      "name" : "javax.xml.bind:jaxb-api",
      "version" : "2.3.0",
      "purl" : "pkg:maven/javax.xml.bind/jaxb-api@2.3.0",
      "type" : "library",
      "bom-ref" : "c12475dd-8a4f-44b8-b023-5d660757e4ea"
    },
    {
      "name" : "libacl1",
      "version" : "2.3.1-1",
      "purl" : "pkg:deb/ubuntu/libacl1@2.3.1-1?distro=ubuntu-22.04",
      "type" : "library",
      "bom-ref" : "3fd6a75d-817b-4215-8f30-463a6009f70b"
    },
    {
      "name" : "libapt-pkg6.0",
      "version" : "2.4.8",
      "purl" : "pkg:deb/ubuntu/libapt-pkg6.0@2.4.8?distro=ubuntu-22.04",
      "type" : "library",
      "bom-ref" : "95398d39-865d-42cc-be2f-2d0793d16768"
    },
    {
      "name" : "libattr1",
      "version" : "1:2.5.1-1build1",
      "purl" : "pkg:deb/ubuntu/libattr1@1%3A2.5.1-1build1?distro=ubuntu-22.04",
      "type" : "library",
      "bom-ref" : "22ddd865-fcbc-4b5a-8cd3-ce7aebf2a9d1"
    },
    {
      "name" : "libaudit-common",
      "version" : "1:3.0.7-1build1",
      "purl" : "pkg:deb/ubuntu/libaudit-common@1%3A3.0.7-1build1?distro=ubuntu-22.04",
      "type" : "library",
      "bom-ref" : "e07bbc61-2123-43c7-a503-8797230bd4c6"
    },
    {
      "name" : "libaudit1",
      "version" : "1:3.0.7-1build1",
      "purl" : "pkg:deb/ubuntu/libaudit1@1%3A3.0.7-1build1?distro=ubuntu-22.04",
      "type" : "library",
      "bom-ref" : "29b5b315-7c15-4dba-a00e-201df2ddf6b9"
    },
    {
      "name" : "libblkid1",
      "version" : "2.37.2-4ubuntu3",
      "purl" : "pkg:deb/ubuntu/libblkid1@2.37.2-4ubuntu3?distro=ubuntu-22.04",
      "type" : "library",
      "bom-ref" : "f67946ca-05a7-4268-a7f8-55d6859c50f5"
    },
    {
      "name" : "libbrotli1",
      "version" : "1.0.9-2build6",
      "purl" : "pkg:deb/ubuntu/libbrotli1@1.0.9-2build6?distro=ubuntu-22.04",
      "type" : "library",
      "bom-ref" : "149a4448-6dd8-4af5-9fb0-6bead7d6fca4"
    },
    {
      "name" : "libbz2-1.0",
      "version" : "1.0.8-5build1",
      "purl" : "pkg:deb/ubuntu/libbz2-1.0@1.0.8-5build1?distro=ubuntu-22.04",
      "type" : "library",
      "bom-ref" : "f612e2ea-272f-47b4-8f42-625a4801b48c"
    },
    {
      "name" : "libc-bin",
      "version" : "2.35-0ubuntu3.1",
      "purl" : "pkg:deb/ubuntu/libc-bin@2.35-0ubuntu3.1?distro=ubuntu-22.04",
      "type" : "library",
      "bom-ref" : "5eec1ed6-b0b2-4671-b08a-35071b917c28"
    },
    {
      "name" : "libc6",
      "version" : "2.35-0ubuntu3.1",
      "purl" : "pkg:deb/ubuntu/libc6@2.35-0ubuntu3.1?distro=ubuntu-22.04",
      "type" : "library",
      "bom-ref" : "4753cfaa-aab5-4550-b1fb-c18763ff28ff"
    },
    {
      "name" : "libcap-ng0",
      "version" : "0.7.9-2.2build3",
      "purl" : "pkg:deb/ubuntu/libcap-ng0@0.7.9-2.2build3?distro=ubuntu-22.04",
      "type" : "library",
      "bom-ref" : "69ed3cb4-b6b5-4f50-a394-03c1fd34deca"
    },
    {
      "name" : "libcap2",
      "version" : "1:2.44-1build3",
      "purl" : "pkg:deb/ubuntu/libcap2@1%3A2.44-1build3?distro=ubuntu-22.04",
      "type" : "library",
      "bom-ref" : "dc63d808-d8b2-46d5-b1aa-914ea1ab9b85"
    },
    {
      "name" : "libcom-err2",
      "version" : "1.46.5-2ubuntu1.1",
      "purl" : "pkg:deb/ubuntu/libcom-err2@1.46.5-2ubuntu1.1?distro=ubuntu-22.04",
      "type" : "library",
      "bom-ref" : "a561b648-cbea-44a0-959f-ba7050816b23"
    },
    {
      "name" : "libcrypt1",
      "version" : "1:4.4.27-1",
      "purl" : "pkg:deb/ubuntu/libcrypt1@1%3A4.4.27-1?distro=ubuntu-22.04",
      "type" : "library",
      "bom-ref" : "66df4e2c-fb5a-46bd-9363-e4cc80e97eac"
    },
    {
      "name" : "libcurl4",
      "version" : "7.81.0-1ubuntu1.8",
      "purl" : "pkg:deb/ubuntu/libcurl4@7.81.0-1ubuntu1.8?distro=ubuntu-22.04",
      "type" : "library",
      "bom-ref" : "3d52e69d-a1d1-4d05-9665-39e7d846faa4"
    },
    {
      "name" : "libdb5.3",
      "version" : "5.3.28+dfsg1-0.8ubuntu3",
      "purl" : "pkg:deb/ubuntu/libdb5.3@5.3.28%20dfsg1-0.8ubuntu3?distro=ubuntu-22.04",
      "type" : "library",
      "bom-ref" : "047de68e-f12a-471e-8177-dfb08c780b86"
    },
    {
      "name" : "libdebconfclient0",
      "version" : "0.261ubuntu1",
      "purl" : "pkg:deb/ubuntu/libdebconfclient0@0.261ubuntu1?distro=ubuntu-22.04",
      "type" : "library",
      "bom-ref" : "4d48cfb9-cafe-422e-9c34-4269c7b06257"
    },
    {
      "name" : "libexpat1",
      "version" : "2.4.7-1ubuntu0.2",
      "purl" : "pkg:deb/ubuntu/libexpat1@2.4.7-1ubuntu0.2?distro=ubuntu-22.04",
      "type" : "library",
      "bom-ref" : "052a31f1-c78d-43bd-8a00-cc2d1eb48f75"
    },
    {
      "name" : "libext2fs2",
      "version" : "1.46.5-2ubuntu1.1",
      "purl" : "pkg:deb/ubuntu/libext2fs2@1.46.5-2ubuntu1.1?distro=ubuntu-22.04",
      "type" : "library",
      "bom-ref" : "460b2de1-519e-47d7-bda8-00b352956d6c"
    },
    {
      "name" : "libffi8",
      "version" : "3.4.2-4",
      "purl" : "pkg:deb/ubuntu/libffi8@3.4.2-4?distro=ubuntu-22.04",
      "type" : "library",
      "bom-ref" : "76efd421-0930-47b6-9b2d-63392a645ff2"
    },
    {
      "name" : "libfontconfig1",
      "version" : "2.13.1-4.2ubuntu5",
      "purl" : "pkg:deb/ubuntu/libfontconfig1@2.13.1-4.2ubuntu5?distro=ubuntu-22.04",
      "type" : "library",
      "bom-ref" : "72993581-8c0f-4ad4-8028-0ec7abf0d46f"
    },
    {
      "name" : "libfreetype6",
      "version" : "2.11.1+dfsg-1ubuntu0.1",
      "purl" : "pkg:deb/ubuntu/libfreetype6@2.11.1%20dfsg-1ubuntu0.1?distro=ubuntu-22.04",
      "type" : "library",
      "bom-ref" : "a2e32ef8-1ea7-43f1-be55-4b384857fb6a"
    },
    {
      "name" : "libgcc-s1",
      "version" : "12.1.0-2ubuntu1~22.04",
      "purl" : "pkg:deb/ubuntu/libgcc-s1@12.1.0-2ubuntu1~22.04?distro=ubuntu-22.04",
      "type" : "library",
      "bom-ref" : "0e728df7-fe28-430d-8a36-e84e75e73cd5"
    },
    {
      "name" : "libgcrypt20",
      "version" : "1.9.4-3ubuntu3",
      "purl" : "pkg:deb/ubuntu/libgcrypt20@1.9.4-3ubuntu3?distro=ubuntu-22.04",
      "type" : "library",
      "bom-ref" : "994ac0f0-bf2f-45d6-8312-9d6bd1bd4de9"
    },
    {
      "name" : "libgmp10",
      "version" : "2:6.2.1+dfsg-3ubuntu1",
      "purl" : "pkg:deb/ubuntu/libgmp10@2%3A6.2.1%20dfsg-3ubuntu1?distro=ubuntu-22.04",
      "type" : "library",
      "bom-ref" : "26152c39-a37c-4469-9795-2c2b576f9ab3"
    },
    {
      "name" : "libgnutls30",
      "version" : "3.7.3-4ubuntu1.2",
      "purl" : "pkg:deb/ubuntu/libgnutls30@3.7.3-4ubuntu1.2?distro=ubuntu-22.04",
      "type" : "library",
      "bom-ref" : "2ea6fbe2-4ea7-468c-b536-65526669a919"
    },
    {
      "name" : "libgpg-error0",
      "version" : "1.43-3",
      "purl" : "pkg:deb/ubuntu/libgpg-error0@1.43-3?distro=ubuntu-22.04",
      "type" : "library",
      "bom-ref" : "7ff319ba-306a-45c6-be2d-3236fd037ab1"
    },
    {
      "name" : "libgssapi-krb5-2",
      "version" : "1.19.2-2ubuntu0.1",
      "purl" : "pkg:deb/ubuntu/libgssapi-krb5-2@1.19.2-2ubuntu0.1?distro=ubuntu-22.04",
      "type" : "library",
      "bom-ref" : "7d760468-125e-441d-b581-36544bb7fdd2"
    },
    {
      "name" : "libhogweed6",
      "version" : "3.7.3-1build2",
      "purl" : "pkg:deb/ubuntu/libhogweed6@3.7.3-1build2?distro=ubuntu-22.04",
      "type" : "library",
      "bom-ref" : "8f303ea8-ad69-4cc5-9264-de5f5221eef6"
    },
    {
      "name" : "libidn2-0",
      "version" : "2.3.2-2build1",
      "purl" : "pkg:deb/ubuntu/libidn2-0@2.3.2-2build1?distro=ubuntu-22.04",
      "type" : "library",
      "bom-ref" : "2dfc6395-c8c9-4279-a055-025a540b5c2c"
    },
    {
      "name" : "libk5crypto3",
      "version" : "1.19.2-2ubuntu0.1",
      "purl" : "pkg:deb/ubuntu/libk5crypto3@1.19.2-2ubuntu0.1?distro=ubuntu-22.04",
      "type" : "library",
      "bom-ref" : "dada0849-af07-481f-9c38-8a17c1478d63"
    },
    {
      "name" : "libkeyutils1",
      "version" : "1.6.1-2ubuntu3",
      "purl" : "pkg:deb/ubuntu/libkeyutils1@1.6.1-2ubuntu3?distro=ubuntu-22.04",
      "type" : "library",
      "bom-ref" : "bf600d11-0837-4025-9244-fbb5c1e31c74"
    },
    {
      "name" : "libkrb5-3",
      "version" : "1.19.2-2ubuntu0.1",
      "purl" : "pkg:deb/ubuntu/libkrb5-3@1.19.2-2ubuntu0.1?distro=ubuntu-22.04",
      "type" : "library",
      "bom-ref" : "d1585aec-b9b4-47f8-866a-3dce03a2b000"
    },
    {
      "name" : "libkrb5support0",
      "version" : "1.19.2-2ubuntu0.1",
      "purl" : "pkg:deb/ubuntu/libkrb5support0@1.19.2-2ubuntu0.1?distro=ubuntu-22.04",
      "type" : "library",
      "bom-ref" : "f908290d-5b20-46f3-8de4-f1c6c8c92b04"
    },
    {
      "name" : "libldap-2.5-0",
      "version" : "2.5.13+dfsg-0ubuntu0.22.04.1",
      "purl" : "pkg:deb/ubuntu/libldap-2.5-0@2.5.13%20dfsg-0ubuntu0.22.04.1?distro=ubuntu-22.04",
      "type" : "library",
      "bom-ref" : "90145476-1067-4b29-9314-22e1408a7fb6"
    },
    {
      "name" : "liblz4-1",
      "version" : "1.9.3-2build2",
      "purl" : "pkg:deb/ubuntu/liblz4-1@1.9.3-2build2?distro=ubuntu-22.04",
      "type" : "library",
      "bom-ref" : "9e7945e4-0039-4d35-b6b3-2bc122ef8f78"
    },
    {
      "name" : "liblzma5",
      "version" : "5.2.5-2ubuntu1",
      "purl" : "pkg:deb/ubuntu/liblzma5@5.2.5-2ubuntu1?distro=ubuntu-22.04",
      "type" : "library",
      "bom-ref" : "141b5e9f-deb0-4933-aaf0-b12171887015"
    },
    {
      "name" : "libmount1",
      "version" : "2.37.2-4ubuntu3",
      "purl" : "pkg:deb/ubuntu/libmount1@2.37.2-4ubuntu3?distro=ubuntu-22.04",
      "type" : "library",
      "bom-ref" : "52ef05e2-a3ed-4a36-a357-48b465c97be9"
    },
    {
      "name" : "libncurses6",
      "version" : "6.3-2",
      "purl" : "pkg:deb/ubuntu/libncurses6@6.3-2?distro=ubuntu-22.04",
      "type" : "library",
      "bom-ref" : "f23b9771-f252-4d1d-852a-37d13b813d6a"
    },
    {
      "name" : "libncursesw6",
      "version" : "6.3-2",
      "purl" : "pkg:deb/ubuntu/libncursesw6@6.3-2?distro=ubuntu-22.04",
      "type" : "library",
      "bom-ref" : "61c5b160-3111-4539-9bbe-bb8ba8072211"
    },
    {
      "name" : "libnettle8",
      "version" : "3.7.3-1build2",
      "purl" : "pkg:deb/ubuntu/libnettle8@3.7.3-1build2?distro=ubuntu-22.04",
      "type" : "library",
      "bom-ref" : "8374763d-30f5-40f5-b47a-956793b27dd9"
    },
    {
      "name" : "libnghttp2-14",
      "version" : "1.43.0-1build3",
      "purl" : "pkg:deb/ubuntu/libnghttp2-14@1.43.0-1build3?distro=ubuntu-22.04",
      "type" : "library",
      "bom-ref" : "e226320b-2881-44b1-987e-b91963474158"
    },
    {
      "name" : "libnsl2",
      "version" : "1.3.0-2build2",
      "purl" : "pkg:deb/ubuntu/libnsl2@1.3.0-2build2?distro=ubuntu-22.04",
      "type" : "library",
      "bom-ref" : "9c60969b-97b8-442a-8963-0255364179da"
    },
    {
      "name" : "libp11-kit0",
      "version" : "0.24.0-6build1",
      "purl" : "pkg:deb/ubuntu/libp11-kit0@0.24.0-6build1?distro=ubuntu-22.04",
      "type" : "library",
      "bom-ref" : "c20619eb-e51a-4929-b46f-11c68bbc061f"
    },
    {
      "name" : "libpam-modules",
      "version" : "1.4.0-11ubuntu2.3",
      "purl" : "pkg:deb/ubuntu/libpam-modules@1.4.0-11ubuntu2.3?distro=ubuntu-22.04",
      "type" : "library",
      "bom-ref" : "9aad2a32-432c-4a74-821e-111d3b72108a"
    },
    {
      "name" : "libpam-modules-bin",
      "version" : "1.4.0-11ubuntu2.3",
      "purl" : "pkg:deb/ubuntu/libpam-modules-bin@1.4.0-11ubuntu2.3?distro=ubuntu-22.04",
      "type" : "library",
      "bom-ref" : "ca638a04-51c1-437f-b3d1-3d437aabb4a5"
    },
    {
      "name" : "libpam-runtime",
      "version" : "1.4.0-11ubuntu2.3",
      "purl" : "pkg:deb/ubuntu/libpam-runtime@1.4.0-11ubuntu2.3?distro=ubuntu-22.04",
      "type" : "library",
      "bom-ref" : "a2a02806-6973-45f0-8946-ee6e17f60c35"
    },
    {
      "name" : "libpam0g",
      "version" : "1.4.0-11ubuntu2.3",
      "purl" : "pkg:deb/ubuntu/libpam0g@1.4.0-11ubuntu2.3?distro=ubuntu-22.04",
      "type" : "library",
      "bom-ref" : "732d89b4-55ed-4f3e-9cf5-6acee9da5cf5"
    },
    {
      "name" : "libpcre2-8-0",
      "version" : "10.39-3ubuntu0.1",
      "purl" : "pkg:deb/ubuntu/libpcre2-8-0@10.39-3ubuntu0.1?distro=ubuntu-22.04",
      "type" : "library",
      "bom-ref" : "eeadbcb7-521b-43c8-9c23-7d25e895fa4d"
    },
    {
      "name" : "libpcre3",
      "version" : "2:8.39-13ubuntu0.22.04.1",
      "purl" : "pkg:deb/ubuntu/libpcre3@2%3A8.39-13ubuntu0.22.04.1?distro=ubuntu-22.04",
      "type" : "library",
      "bom-ref" : "34568c89-a4f6-4535-a52c-567f93b6bb2b"
    },
    {
      "name" : "libpng16-16",
      "version" : "1.6.37-3build5",
      "purl" : "pkg:deb/ubuntu/libpng16-16@1.6.37-3build5?distro=ubuntu-22.04",
      "type" : "library",
      "bom-ref" : "3a3a6810-9169-4250-bfde-88509a0e5545"
    },
    {
      "name" : "libprocps8",
      "version" : "2:3.3.17-6ubuntu2",
      "purl" : "pkg:deb/ubuntu/libprocps8@2%3A3.3.17-6ubuntu2?distro=ubuntu-22.04",
      "type" : "library",
      "bom-ref" : "0e38fb0d-7316-44a5-b344-c920bcdd5497"
    },
    {
      "name" : "libpsl5",
      "version" : "0.21.0-1.2build2",
      "purl" : "pkg:deb/ubuntu/libpsl5@0.21.0-1.2build2?distro=ubuntu-22.04",
      "type" : "library",
      "bom-ref" : "bdb7fab1-9840-4d49-ae0b-d11e4d4285c0"
    },
    {
      "name" : "librtmp1",
      "version" : "2.4+20151223.gitfa8646d.1-2build4",
      "purl" : "pkg:deb/ubuntu/librtmp1@2.4%2020151223.gitfa8646d.1-2build4?distro=ubuntu-22.04",
      "type" : "library",
      "bom-ref" : "466ba8d8-fbd6-4b21-805e-7db98441d3e7"
    },
    {
      "name" : "libsasl2-2",
      "version" : "2.1.27+dfsg2-3ubuntu1.2",
      "purl" : "pkg:deb/ubuntu/libsasl2-2@2.1.27%20dfsg2-3ubuntu1.2?distro=ubuntu-22.04",
      "type" : "library",
      "bom-ref" : "5e71ae92-9fc2-4088-826b-bcf42b9843ab"
    },
    {
      "name" : "libsasl2-modules-db",
      "version" : "2.1.27+dfsg2-3ubuntu1.2",
      "purl" : "pkg:deb/ubuntu/libsasl2-modules-db@2.1.27%20dfsg2-3ubuntu1.2?distro=ubuntu-22.04",
      "type" : "library",
      "bom-ref" : "519c5176-423f-4959-91bd-93595e85fe8d"
    },
    {
      "name" : "libseccomp2",
      "version" : "2.5.3-2ubuntu2",
      "purl" : "pkg:deb/ubuntu/libseccomp2@2.5.3-2ubuntu2?distro=ubuntu-22.04",
      "type" : "library",
      "bom-ref" : "3794fd4c-9c72-4ea5-b753-a6e3e8fb1c59"
    },
    {
      "name" : "libselinux1",
      "version" : "3.3-1build2",
      "purl" : "pkg:deb/ubuntu/libselinux1@3.3-1build2?distro=ubuntu-22.04",
      "type" : "library",
      "bom-ref" : "9c683f66-8ed7-4261-ae2a-3e6b5bcaa016"
    },
    {
      "name" : "libsemanage-common",
      "version" : "3.3-1build2",
      "purl" : "pkg:deb/ubuntu/libsemanage-common@3.3-1build2?distro=ubuntu-22.04",
      "type" : "library",
      "bom-ref" : "558a516d-2fe8-427f-80b9-becec76e9b40"
    },
    {
      "name" : "libsemanage2",
      "version" : "3.3-1build2",
      "purl" : "pkg:deb/ubuntu/libsemanage2@3.3-1build2?distro=ubuntu-22.04",
      "type" : "library",
      "bom-ref" : "de03d22d-8de1-416a-99dc-91697d03df5a"
    },
    {
      "name" : "libsepol2",
      "version" : "3.3-1build1",
      "purl" : "pkg:deb/ubuntu/libsepol2@3.3-1build1?distro=ubuntu-22.04",
      "type" : "library",
      "bom-ref" : "1e81b34e-571e-4ef7-ad5e-e5da7232768c"
    },
    {
      "name" : "libsmartcols1",
      "version" : "2.37.2-4ubuntu3",
      "purl" : "pkg:deb/ubuntu/libsmartcols1@2.37.2-4ubuntu3?distro=ubuntu-22.04",
      "type" : "library",
      "bom-ref" : "000c39b1-4b5b-487a-8feb-d18dd25ed4b7"
    },
    {
      "name" : "libss2",
      "version" : "1.46.5-2ubuntu1.1",
      "purl" : "pkg:deb/ubuntu/libss2@1.46.5-2ubuntu1.1?distro=ubuntu-22.04",
      "type" : "library",
      "bom-ref" : "55322541-bdac-457c-9321-12614597e07d"
    },
    {
      "name" : "libssh-4",
      "version" : "0.9.6-2build1",
      "purl" : "pkg:deb/ubuntu/libssh-4@0.9.6-2build1?distro=ubuntu-22.04",
      "type" : "library",
      "bom-ref" : "e4305203-f95b-44af-8a5b-7af520b6dc5b"
    },
    {
      "name" : "libssl3",
      "version" : "3.0.2-0ubuntu1.8",
      "purl" : "pkg:deb/ubuntu/libssl3@3.0.2-0ubuntu1.8?distro=ubuntu-22.04",
      "type" : "library",
      "bom-ref" : "bfe55f1a-e744-443d-b8b5-5c4467029c1f"
    },
    {
      "name" : "libstdc++6",
      "version" : "12.1.0-2ubuntu1~22.04",
      "purl" : "pkg:deb/ubuntu/libstdc%20%206@12.1.0-2ubuntu1~22.04?distro=ubuntu-22.04",
      "type" : "library",
      "bom-ref" : "947e1a8f-3510-4f5f-bd14-d75df3ec812e"
    },
    {
      "name" : "libsystemd0",
      "version" : "249.11-0ubuntu3.6",
      "purl" : "pkg:deb/ubuntu/libsystemd0@249.11-0ubuntu3.6?distro=ubuntu-22.04",
      "type" : "library",
      "bom-ref" : "377f7e2c-7e6f-4d60-a8e6-0e42022ab3dd"
    },
    {
      "name" : "libtasn1-6",
      "version" : "4.18.0-4build1",
      "purl" : "pkg:deb/ubuntu/libtasn1-6@4.18.0-4build1?distro=ubuntu-22.04",
      "type" : "library",
      "bom-ref" : "a493f227-410c-4d09-918f-7666787a6d2d"
    },
    {
      "name" : "libtinfo6",
      "version" : "6.3-2",
      "purl" : "pkg:deb/ubuntu/libtinfo6@6.3-2?distro=ubuntu-22.04",
      "type" : "library",
      "bom-ref" : "4a61afe5-def8-408c-92de-29c9c7f68e31"
    },
    {
      "name" : "libtirpc-common",
      "version" : "1.3.2-2ubuntu0.1",
      "purl" : "pkg:deb/ubuntu/libtirpc-common@1.3.2-2ubuntu0.1?distro=ubuntu-22.04",
      "type" : "library",
      "bom-ref" : "6e3ed86d-d41b-443f-9984-c6a94d70cc12"
    },
    {
      "name" : "libtirpc3",
      "version" : "1.3.2-2ubuntu0.1",
      "purl" : "pkg:deb/ubuntu/libtirpc3@1.3.2-2ubuntu0.1?distro=ubuntu-22.04",
      "type" : "library",
      "bom-ref" : "aa33274f-99f2-4ad5-b4ea-5ba92cf53c22"
    },
    {
      "name" : "libudev1",
      "version" : "249.11-0ubuntu3.6",
      "purl" : "pkg:deb/ubuntu/libudev1@249.11-0ubuntu3.6?distro=ubuntu-22.04",
      "type" : "library",
      "bom-ref" : "f5a2bfc3-6691-4c86-9c6d-a2d4110bc901"
    },
    {
      "name" : "libunistring2",
      "version" : "1.0-1",
      "purl" : "pkg:deb/ubuntu/libunistring2@1.0-1?distro=ubuntu-22.04",
      "type" : "library",
      "bom-ref" : "95b27750-b121-469c-8aa7-25ea6b81a998"
    },
    {
      "name" : "libuuid1",
      "version" : "2.37.2-4ubuntu3",
      "purl" : "pkg:deb/ubuntu/libuuid1@2.37.2-4ubuntu3?distro=ubuntu-22.04",
      "type" : "library",
      "bom-ref" : "6927de3d-aa20-4b36-b0e1-285c70ebc5b5"
    },
    {
      "name" : "libxxhash0",
      "version" : "0.8.1-1",
      "purl" : "pkg:deb/ubuntu/libxxhash0@0.8.1-1?distro=ubuntu-22.04",
      "type" : "library",
      "bom-ref" : "31e35053-848a-47ce-bf93-9b15500d660f"
    },
    {
      "name" : "libzstd1",
      "version" : "1.4.8+dfsg-3build1",
      "purl" : "pkg:deb/ubuntu/libzstd1@1.4.8%20dfsg-3build1?distro=ubuntu-22.04",
      "type" : "library",
      "bom-ref" : "32c1b411-fdb5-4c6f-82c5-160759721364"
    },
    {
      "name" : "locales",
      "version" : "2.35-0ubuntu3.1",
      "purl" : "pkg:deb/ubuntu/locales@2.35-0ubuntu3.1?distro=ubuntu-22.04",
      "type" : "library",
      "bom-ref" : "16da32fd-bc59-4984-a5ae-c849ed77bb44"
    },
    {
      "name" : "login",
      "version" : "1:4.8.1-2ubuntu2.1",
      "purl" : "pkg:deb/ubuntu/login@1%3A4.8.1-2ubuntu2.1?distro=ubuntu-22.04",
      "type" : "library",
      "bom-ref" : "8f4011ac-33c5-45cd-8f80-957000fb2214"
    },
    {
      "name" : "logsave",
      "version" : "1.46.5-2ubuntu1.1",
      "purl" : "pkg:deb/ubuntu/logsave@1.46.5-2ubuntu1.1?distro=ubuntu-22.04",
      "type" : "library",
      "bom-ref" : "9cc81e68-d2a4-4128-9a9e-2cb98da3ab5e"
    },
    {
      "name" : "lsb-base",
      "version" : "11.1.0ubuntu4",
      "purl" : "pkg:deb/ubuntu/lsb-base@11.1.0ubuntu4?distro=ubuntu-22.04",
      "type" : "library",
      "bom-ref" : "bbc67f86-4ab2-4859-a785-cecef9edcf47"
    },
    {
      "name" : "mawk",
      "version" : "1.3.4.20200120-3",
      "purl" : "pkg:deb/ubuntu/mawk@1.3.4.20200120-3?distro=ubuntu-22.04",
      "type" : "library",
      "bom-ref" : "681d5c56-299a-4cf3-b694-84510ada4ab3"
    },
    {
      "name" : "mount",
      "version" : "2.37.2-4ubuntu3",
      "purl" : "pkg:deb/ubuntu/mount@2.37.2-4ubuntu3?distro=ubuntu-22.04",
      "type" : "library",
      "bom-ref" : "97853268-a4a5-4aac-b1e6-f4db72ec9c0e"
    },
    {
      "name" : "ncurses-base",
      "version" : "6.3-2",
      "purl" : "pkg:deb/ubuntu/ncurses-base@6.3-2?distro=ubuntu-22.04",
      "type" : "library",
      "bom-ref" : "e5f6224b-9458-4e95-81b6-61e4d928b3f3"
    },
    {
      "name" : "ncurses-bin",
      "version" : "6.3-2",
      "purl" : "pkg:deb/ubuntu/ncurses-bin@6.3-2?distro=ubuntu-22.04",
      "type" : "library",
      "bom-ref" : "cce9a080-de2c-4c21-9ccc-ce371987b550"
    },
    {
      "name" : "openssl",
      "version" : "3.0.2-0ubuntu1.8",
      "purl" : "pkg:deb/ubuntu/openssl@3.0.2-0ubuntu1.8?distro=ubuntu-22.04",
      "type" : "library",
      "bom-ref" : "29b12d82-52b5-4772-ad0d-d02d03be5c2d"
    },
    {
      "name" : "org.apache.commons:commons-csv",
      "version" : "1.4",
      "purl" : "pkg:maven/org.apache.commons/commons-csv@1.4",
      "type" : "library",
      "bom-ref" : "95f29b91-3610-4465-8236-4acc8e314f8f"
    },
    {
      "name" : "org.apache.commons:commons-csv",
      "version" : "1.4",
      "purl" : "pkg:maven/org.apache.commons/commons-csv@1.4",
      "type" : "library",
      "bom-ref" : "f31d19be-db18-4942-a464-1e9484ae9edc"
    },
    {
      "name" : "org.apache.lucene:lucene-analyzers-common",
      "version" : "7.3.0",
      "purl" : "pkg:maven/org.apache.lucene/lucene-analyzers-common@7.3.0",
      "type" : "library",
      "bom-ref" : "cffa3745-8c7b-4296-802b-24014fec6491"
    },
    {
      "name" : "org.apache.lucene:lucene-backward-codecs",
      "version" : "7.3.0",
      "purl" : "pkg:maven/org.apache.lucene/lucene-backward-codecs@7.3.0",
      "type" : "library",
      "bom-ref" : "11c55860-d408-493a-a726-fe019d899534"
    },
    {
      "name" : "org.apache.lucene:lucene-codecs",
      "version" : "7.3.0",
      "purl" : "pkg:maven/org.apache.lucene/lucene-codecs@7.3.0",
      "type" : "library",
      "bom-ref" : "a97383d2-7b5c-49e4-b7ba-2e36a5b2c7bf"
    },
    {
      "name" : "org.apache.lucene:lucene-core",
      "version" : "7.3.0",
      "purl" : "pkg:maven/org.apache.lucene/lucene-core@7.3.0",
      "type" : "library",
      "bom-ref" : "c03f20e6-fa96-4621-89bf-d98f528f2571"
    },
    {
      "name" : "org.apache.lucene:lucene-facet",
      "version" : "7.3.0",
      "purl" : "pkg:maven/org.apache.lucene/lucene-facet@7.3.0",
      "type" : "library",
      "bom-ref" : "8074e6de-3a77-4a8f-8162-6fe203645b88"
    },
    {
      "name" : "org.apache.lucene:lucene-highlighter",
      "version" : "7.3.0",
      "purl" : "pkg:maven/org.apache.lucene/lucene-highlighter@7.3.0",
      "type" : "library",
      "bom-ref" : "f459a7e3-fc75-4668-9d7c-31172ebf16d0"
    },
    {
      "name" : "org.apache.lucene:lucene-join",
      "version" : "7.3.0",
      "purl" : "pkg:maven/org.apache.lucene/lucene-join@7.3.0",
      "type" : "library",
      "bom-ref" : "2d506561-128d-4e6f-827c-674bc154c155"
    },
    {
      "name" : "org.apache.lucene:lucene-memory",
      "version" : "7.3.0",
      "purl" : "pkg:maven/org.apache.lucene/lucene-memory@7.3.0",
      "type" : "library",
      "bom-ref" : "6563594c-22f6-418f-98f3-e95a12aefca5"
    },
    {
      "name" : "org.apache.lucene:lucene-misc",
      "version" : "7.3.0",
      "purl" : "pkg:maven/org.apache.lucene/lucene-misc@7.3.0",
      "type" : "library",
      "bom-ref" : "66c4c55a-ac5b-45bf-87f6-a68a0750cf28"
    },
    {
      "name" : "org.apache.lucene:lucene-queries",
      "version" : "7.3.0",
      "purl" : "pkg:maven/org.apache.lucene/lucene-queries@7.3.0",
      "type" : "library",
      "bom-ref" : "2008fd2c-8e4c-4b44-872e-d256f766e094"
    },
    {
      "name" : "org.apache.lucene:lucene-queryparser",
      "version" : "7.3.0",
      "purl" : "pkg:maven/org.apache.lucene/lucene-queryparser@7.3.0",
      "type" : "library",
      "bom-ref" : "d217a733-2ac7-449c-a2f9-93c7edd0fb8f"
    },
    {
      "name" : "org.apache.lucene:lucene-sandbox",
      "version" : "7.3.0",
      "purl" : "pkg:maven/org.apache.lucene/lucene-sandbox@7.3.0",
      "type" : "library",
      "bom-ref" : "9be5b2cf-b34d-4053-a0a7-425ae9bde6eb"
    },
    {
      "name" : "org.apache.lucene:lucene-spatial",
      "version" : "7.3.0",
      "purl" : "pkg:maven/org.apache.lucene/lucene-spatial@7.3.0",
      "type" : "library",
      "bom-ref" : "dcc23029-b08e-41f3-b5f8-a7d3830d2c7b"
    },
    {
      "name" : "org.apache.lucene:lucene-spatial-extras",
      "version" : "7.3.0",
      "purl" : "pkg:maven/org.apache.lucene/lucene-spatial-extras@7.3.0",
      "type" : "library",
      "bom-ref" : "79173e74-9793-4001-8d95-1c8011d83088"
    },
    {
      "name" : "org.apache.lucene:lucene-spatial3d",
      "version" : "7.3.0",
      "purl" : "pkg:maven/org.apache.lucene/lucene-spatial3d@7.3.0",
      "type" : "library",
      "bom-ref" : "63996f2a-53e5-4951-bc6d-8725026f3ff4"
    },
    {
      "name" : "org.glassfish.jaxb:jaxb-core",
      "version" : "2.3.0.1",
      "purl" : "pkg:maven/org.glassfish.jaxb/jaxb-core@2.3.0.1",
      "type" : "library",
      "bom-ref" : "9e85e605-a7a7-4728-8522-f066c3009c03"
    },
    {
      "name" : "org.glassfish.jaxb:jaxb-runtime",
      "version" : "2.3.0.1",
      "purl" : "pkg:maven/org.glassfish.jaxb/jaxb-runtime@2.3.0.1",
      "type" : "library",
      "bom-ref" : "0a2c335d-d171-4e47-8440-397c5b13f0ef"
    },
    {
      "name" : "org.glassfish.jaxb:txw2",
      "version" : "2.3.0.1",
      "purl" : "pkg:maven/org.glassfish.jaxb/txw2@2.3.0.1",
      "type" : "library",
      "bom-ref" : "b17699a4-b531-47ff-bb21-d2e7a0fe5c3f"
    },
    {
      "name" : "org.hibernate.javax.persistence:hibernate-jpa-2.0-api",
      "version" : "1.0.1.Final",
      "purl" : "pkg:maven/org.hibernate.javax.persistence/hibernate-jpa-2.0-api@1.0.1.Final",
      "type" : "library",
      "bom-ref" : "b32ce353-e0d0-4a26-9ad8-676ac6bf5ca3"
    },
    {
      "name" : "org.javassist:javassist",
      "version" : "3.23.1-GA",
      "purl" : "pkg:maven/org.javassist/javassist@3.23.1-GA",
      "type" : "library",
      "bom-ref" : "e9cbcc49-c11a-4df2-8144-262952076ab2"
    },
    {
      "name" : "org.locationtech.jts:jts-core",
      "version" : "1.15.0",
      "purl" : "pkg:maven/org.locationtech.jts/jts-core@1.15.0",
      "type" : "library",
      "bom-ref" : "281780d6-f6cf-4d97-aaaa-7a2ad0f2d23d"
    },
    {
      "name" : "org.locationtech.spatial4j:spatial4j",
      "version" : "0.7",
      "purl" : "pkg:maven/org.locationtech.spatial4j/spatial4j@0.7",
      "type" : "library",
      "bom-ref" : "cae7bea9-a811-480e-a7ae-a7d3c8d926cc"
    },
    {
      "name" : "org.lz4:lz4-java",
      "version" : "1.4.0",
      "purl" : "pkg:maven/org.lz4/lz4-java@1.4.0",
      "type" : "library",
      "bom-ref" : "9a94c470-664a-402f-be47-f9c975e51ce4"
    },
    {
      "name" : "org.noggit:noggit",
      "version" : "0.8",
      "purl" : "pkg:maven/org.noggit/noggit@0.8",
      "type" : "library",
      "bom-ref" : "7f901383-f079-4122-9761-945562ebd13a"
    },
    {
      "name" : "org.ow2.asm:asm",
      "version" : "9.2",
      "purl" : "pkg:maven/org.ow2.asm/asm@9.2",
      "type" : "library",
      "bom-ref" : "8828ef8c-4d35-43a7-8a12-09c70c022f2c"
    },
    {
      "name" : "org.ow2.asm:asm-analysis",
      "version" : "9.2",
      "purl" : "pkg:maven/org.ow2.asm/asm-analysis@9.2",
      "type" : "library",
      "bom-ref" : "a64b259d-42de-4233-855d-e62891db9e9b"
    },
    {
      "name" : "org.ow2.asm:asm-commons",
      "version" : "9.2",
      "purl" : "pkg:maven/org.ow2.asm/asm-commons@9.2",
      "type" : "library",
      "bom-ref" : "2196e1f1-ecbc-4b4f-8346-ff354a32511d"
    },
    {
      "name" : "org.ow2.asm:asm-tree",
      "version" : "9.2",
      "purl" : "pkg:maven/org.ow2.asm/asm-tree@9.2",
      "type" : "library",
      "bom-ref" : "91cbc16e-90b7-4c7b-a272-0bcf0e248f77"
    },
    {
      "name" : "org.ow2.asm:asm-util",
      "version" : "9.2",
      "purl" : "pkg:maven/org.ow2.asm/asm-util@9.2",
      "type" : "library",
      "bom-ref" : "4cc1d20e-0981-4a38-bdef-6267df371bbc"
    },
    {
      "name" : "org.snakeyaml:snakeyaml-engine",
      "version" : "1.0",
      "purl" : "pkg:maven/org.snakeyaml/snakeyaml-engine@1.0",
      "type" : "library",
      "bom-ref" : "b79fd75e-2142-49a1-afc4-762c64a1e92e"
    },
    {
      "name" : "passwd",
      "version" : "1:4.8.1-2ubuntu2.1",
      "purl" : "pkg:deb/ubuntu/passwd@1%3A4.8.1-2ubuntu2.1?distro=ubuntu-22.04",
      "type" : "library",
      "bom-ref" : "d39988ea-0594-4068-9e89-c78bac1bee63"
    },
    {
      "name" : "perl-base",
      "version" : "5.34.0-3ubuntu1.1",
      "purl" : "pkg:deb/ubuntu/perl-base@5.34.0-3ubuntu1.1?distro=ubuntu-22.04",
      "type" : "library",
      "bom-ref" : "53a348b8-60b7-4cd4-b70b-640d329d6d25"
    },
    {
      "name" : "procps",
      "version" : "2:3.3.17-6ubuntu2",
      "purl" : "pkg:deb/ubuntu/procps@2%3A3.3.17-6ubuntu2?distro=ubuntu-22.04",
      "type" : "library",
      "bom-ref" : "2e3bebbb-5a7c-4af6-8dea-9794565b0f76"
    },
    {
      "name" : "sed",
      "version" : "4.8-1ubuntu2",
      "purl" : "pkg:deb/ubuntu/sed@4.8-1ubuntu2?distro=ubuntu-22.04",
      "type" : "library",
      "bom-ref" : "b8e029e1-4032-4c43-854e-e69e82eaae84"
    },
    {
      "name" : "sensible-utils",
      "version" : "0.0.17",
      "purl" : "pkg:deb/ubuntu/sensible-utils@0.0.17?distro=ubuntu-22.04",
      "type" : "library",
      "bom-ref" : "5c5b80b6-0d76-4efc-a122-b6685577d319"
    },
    {
      "name" : "sysvinit-utils",
      "version" : "3.01-1ubuntu1",
      "purl" : "pkg:deb/ubuntu/sysvinit-utils@3.01-1ubuntu1?distro=ubuntu-22.04",
      "type" : "library",
      "bom-ref" : "b644502d-1e63-4bf6-8465-f682ededa211"
    },
    {
      "name" : "tar",
      "version" : "1.34+dfsg-1ubuntu0.1.22.04.1",
      "purl" : "pkg:deb/ubuntu/tar@1.34%20dfsg-1ubuntu0.1.22.04.1?distro=ubuntu-22.04",
      "type" : "library",
      "bom-ref" : "fc6ddf82-4181-4531-bb20-b517da826454"
    },
    {
      "name" : "tzdata",
      "version" : "2022g-0ubuntu0.22.04.1",
      "purl" : "pkg:deb/ubuntu/tzdata@2022g-0ubuntu0.22.04.1?distro=ubuntu-22.04",
      "type" : "library",
      "bom-ref" : "7af2c3ee-55db-4fe9-814b-597d8aa7cffd"
    },
    {
      "name" : "ubuntu",
      "version" : "22.04",
      "type" : "operating-system",
      "bom-ref" : "1c4c9155-3a95-4f75-9ca4-e477b9f8b92f"
    },
    {
      "name" : "ubuntu-keyring",
      "version" : "2021.03.26",
      "purl" : "pkg:deb/ubuntu/ubuntu-keyring@2021.03.26?distro=ubuntu-22.04",
      "type" : "library",
      "bom-ref" : "a1a655b4-bba5-419c-97ba-7392e2e373f5"
    },
    {
      "name" : "ucf",
      "version" : "3.0043",
      "purl" : "pkg:deb/ubuntu/ucf@3.0043?distro=ubuntu-22.04",
      "type" : "library",
      "bom-ref" : "06fdd1de-48aa-4dfd-8d7b-bdf78aee0f39"
    },
    {
      "name" : "usrmerge",
      "version" : "25ubuntu2",
      "purl" : "pkg:deb/ubuntu/usrmerge@25ubuntu2?distro=ubuntu-22.04",
      "type" : "library",
      "bom-ref" : "23bfae65-8967-48b9-ba4d-7a747f6bb05b"
    },
    {
      "name" : "util-linux",
      "version" : "2.37.2-4ubuntu3",
      "purl" : "pkg:deb/ubuntu/util-linux@2.37.2-4ubuntu3?distro=ubuntu-22.04",
      "type" : "library",
      "bom-ref" : "7249797e-6f10-40e4-a403-1283b8754ab8"
    },
    {
      "name" : "wget",
      "version" : "1.21.2-2ubuntu1",
      "purl" : "pkg:deb/ubuntu/wget@1.21.2-2ubuntu1?distro=ubuntu-22.04",
      "type" : "library",
      "bom-ref" : "1c3b92ee-9f9e-4cf2-9c9f-41988d50a190"
    },
    {
      "name" : "zlib1g",
      "version" : "1:1.2.11.dfsg-2ubuntu9.2",
      "purl" : "pkg:deb/ubuntu/zlib1g@1%3A1.2.11.dfsg-2ubuntu9.2?distro=ubuntu-22.04",
      "type" : "library",
      "bom-ref" : "be4a34c6-5b19-46f7-8dea-c1c38fb5ca3c"
    }
  ],
  "dependencies" : [
    {
      "ref" : "698f3e15-9947-47d4-96cc-a5c3787e484d",
      "dependsOn" : [
        "1c4c9155-3a95-4f75-9ca4-e477b9f8b92f",
        "c12475dd-8a4f-44b8-b023-5d660757e4ea",
        "9a94c470-664a-402f-be47-f9c975e51ce4",
        "7f901383-f079-4122-9761-945562ebd13a",
        "2008fd2c-8e4c-4b44-872e-d256f766e094",
        "d217a733-2ac7-449c-a2f9-93c7edd0fb8f",
        "9be5b2cf-b34d-4053-a0a7-425ae9bde6eb",
        "79173e74-9793-4001-8d95-1c8011d83088",
        "cae7bea9-a811-480e-a7ae-a7d3c8d926cc",
        "c427c648-638e-4edb-b3ef-d4be47379e4d",
        "78d16b16-7142-4a33-87f1-1af57d23a08a",
        "677de65f-ea1d-4158-bdcb-aeef75ff2eeb",
        "b10d5c05-102a-4bf0-9357-1bdb6a59ab40",
        "b79fd75e-2142-49a1-afc4-762c64a1e92e",
        "d5e11c1e-ecaf-4d2a-9049-b2f74d56b7e1",
        "cc4522b3-fd08-4726-91c9-bea896af1455",
        "66c4c55a-ac5b-45bf-87f6-a68a0750cf28",
        "998e8168-702e-48f0-89c2-58326e816d5c",
        "10260d91-bf75-43c3-a0fe-0b5339dd5f02",
        "0a2c335d-d171-4e47-8440-397c5b13f0ef",
        "31b87c98-fb09-4780-84f4-430513687f77",
        "f459a7e3-fc75-4668-9d7c-31172ebf16d0",
        "73252a41-d3b4-418c-8928-2c81a8aaba09",
        "64db9f7b-37e1-4451-a38f-569c6b226a58",
        "a97383d2-7b5c-49e4-b7ba-2e36a5b2c7bf",
        "dcc23029-b08e-41f3-b5f8-a7d3830d2c7b",
        "a64b259d-42de-4233-855d-e62891db9e9b",
        "c48fc5a4-01e3-4d97-9b2f-e19b9b233578",
        "3947f64a-3739-4989-93fe-ca12ee126f8b",
        "281780d6-f6cf-4d97-aaaa-7a2ad0f2d23d",
        "be37c58a-3368-4b6e-b504-917eeaa44e0b",
        "7a2092ad-745e-4d1b-b385-78329beb6cb0",
        "9e85e605-a7a7-4728-8522-f066c3009c03",
        "b17699a4-b531-47ff-bb21-d2e7a0fe5c3f",
        "95f29b91-3610-4465-8236-4acc8e314f8f",
        "8828ef8c-4d35-43a7-8a12-09c70c022f2c",
        "ec21ec6b-07d2-4a4b-9fe1-12c3ea462ad5",
        "e9cbcc49-c11a-4df2-8144-262952076ab2",
        "22395098-a6c5-4751-993d-cdbdd12ba535",
        "35b05c23-9884-4856-9921-7fb61db79ef6",
        "9c8a7d30-50b9-434a-8b94-41c908b056ff",
        "2196e1f1-ecbc-4b4f-8346-ff354a32511d",
        "4cc1d20e-0981-4a38-bdef-6267df371bbc",
        "86957b93-e1d5-4e40-a73c-05ec0ee5529b",
        "8074e6de-3a77-4a8f-8162-6fe203645b88",
        "b47fd8bf-9c1c-4b4d-9b4d-35f7a367d514",
        "f36d9b65-eba6-49c5-9a72-54ccad5b352a",
        "f431cded-b35e-4dee-a808-03b0cbe8dcaf",
        "11c55860-d408-493a-a726-fe019d899534",
        "b32ce353-e0d0-4a26-9ad8-676ac6bf5ca3",
        "e9eb826e-ac43-4ea5-958b-1776fe38961f",
        "895754ab-6aa8-4ec5-bbf3-9ee867d83ad7",
        "621e544d-a99f-4c8b-b6c1-07ce9d7de3c9",
        "cffa3745-8c7b-4296-802b-24014fec6491",
        "2d506561-128d-4e6f-827c-674bc154c155",
        "3e68a6dd-39e2-4756-8af6-e690b8536524",
        "91cbc16e-90b7-4c7b-a272-0bcf0e248f77",
        "c03f20e6-fa96-4621-89bf-d98f528f2571",
        "6563594c-22f6-418f-98f3-e95a12aefca5",
        "63996f2a-53e5-4951-bc6d-8725026f3ff4",
        "f5a8cfe8-1522-42d2-87ec-75650dc1bf22",
        "b29e1dff-0075-4d6e-9b84-d080d0db853b",
        "49618292-2eba-4cb8-b895-d41bea67276a",
        "f31d19be-db18-4942-a464-1e9484ae9edc"
      ]
    },
    {
      "ref" : "1c6e323c-872f-42c7-bcba-4c4e394ae3ce",
      "dependsOn" : [ ]
    },
    {
      "ref" : "99c40ea6-6c00-45b0-b55b-0f99f3706c2c",
      "dependsOn" : [ ]
    },
    {
      "ref" : "37726db2-696a-4084-a3e4-6ebd627098a8",
      "dependsOn" : [ ]
    },
    {
      "ref" : "1a97d799-0450-4ec6-aac7-1ca53daf06c6",
      "dependsOn" : [ ]
    },
    {
      "ref" : "8f2a7241-aa6a-4e73-bdc8-7657e968d87b",
      "dependsOn" : [ ]
    },
    {
      "ref" : "6ac664dd-a371-48e2-bb27-1bda978d35a0",
      "dependsOn" : [ ]
    },
    {
      "ref" : "2ede25ff-db3d-4d16-945f-4a839d7a199d",
      "dependsOn" : [ ]
    },
    {
      "ref" : "3947f64a-3739-4989-93fe-ca12ee126f8b",
      "dependsOn" : [ ]
    },
    {
      "ref" : "78d16b16-7142-4a33-87f1-1af57d23a08a",
      "dependsOn" : [ ]
    },
    {
      "ref" : "cc4522b3-fd08-4726-91c9-bea896af1455",
      "dependsOn" : [ ]
    },
    {
      "ref" : "895754ab-6aa8-4ec5-bbf3-9ee867d83ad7",
      "dependsOn" : [ ]
    },
    {
      "ref" : "621e544d-a99f-4c8b-b6c1-07ce9d7de3c9",
      "dependsOn" : [ ]
    },
    {
      "ref" : "86957b93-e1d5-4e40-a73c-05ec0ee5529b",
      "dependsOn" : [ ]
    },
    {
      "ref" : "73252a41-d3b4-418c-8928-2c81a8aaba09",
      "dependsOn" : [ ]
    },
    {
      "ref" : "22395098-a6c5-4751-993d-cdbdd12ba535",
      "dependsOn" : [ ]
    },
    {
      "ref" : "64db9f7b-37e1-4451-a38f-569c6b226a58",
      "dependsOn" : [ ]
    },
    {
      "ref" : "c427c648-638e-4edb-b3ef-d4be47379e4d",
      "dependsOn" : [ ]
    },
    {
      "ref" : "677de65f-ea1d-4158-bdcb-aeef75ff2eeb",
      "dependsOn" : [ ]
    },
    {
      "ref" : "b10d5c05-102a-4bf0-9357-1bdb6a59ab40",
      "dependsOn" : [ ]
    },
    {
      "ref" : "d5e11c1e-ecaf-4d2a-9049-b2f74d56b7e1",
      "dependsOn" : [ ]
    },
    {
      "ref" : "ec21ec6b-07d2-4a4b-9fe1-12c3ea462ad5",
      "dependsOn" : [ ]
    },
    {
      "ref" : "b47fd8bf-9c1c-4b4d-9b4d-35f7a367d514",
      "dependsOn" : [ ]
    },
    {
      "ref" : "f5a8cfe8-1522-42d2-87ec-75650dc1bf22",
      "dependsOn" : [ ]
    },
    {
      "ref" : "f36d9b65-eba6-49c5-9a72-54ccad5b352a",
      "dependsOn" : [ ]
    },
    {
      "ref" : "998e8168-702e-48f0-89c2-58326e816d5c",
      "dependsOn" : [ ]
    },
    {
      "ref" : "49618292-2eba-4cb8-b895-d41bea67276a",
      "dependsOn" : [ ]
    },
    {
      "ref" : "35b05c23-9884-4856-9921-7fb61db79ef6",
      "dependsOn" : [ ]
    },
    {
      "ref" : "3e68a6dd-39e2-4756-8af6-e690b8536524",
      "dependsOn" : [ ]
    },
    {
      "ref" : "f431cded-b35e-4dee-a808-03b0cbe8dcaf",
      "dependsOn" : [ ]
    },
    {
      "ref" : "b29e1dff-0075-4d6e-9b84-d080d0db853b",
      "dependsOn" : [ ]
    },
    {
      "ref" : "c48fc5a4-01e3-4d97-9b2f-e19b9b233578",
      "dependsOn" : [ ]
    },
    {
      "ref" : "be37c58a-3368-4b6e-b504-917eeaa44e0b",
      "dependsOn" : [ ]
    },
    {
      "ref" : "7a2092ad-745e-4d1b-b385-78329beb6cb0",
      "dependsOn" : [ ]
    },
    {
      "ref" : "10260d91-bf75-43c3-a0fe-0b5339dd5f02",
      "dependsOn" : [ ]
    },
    {
      "ref" : "31b87c98-fb09-4780-84f4-430513687f77",
      "dependsOn" : [ ]
    },
    {
      "ref" : "55899540-82c5-4f91-ac9c-9e7005dc0c5d",
      "dependsOn" : [ ]
    },
    {
      "ref" : "2e02e34e-6740-4076-b903-9b5fbb06c9ed",
      "dependsOn" : [ ]
    },
    {
      "ref" : "c1b9b438-e046-4e38-90f6-818f75c137ce",
      "dependsOn" : [ ]
    },
    {
      "ref" : "0af3c39a-8326-4277-a3b9-65a29cfc7afb",
      "dependsOn" : [ ]
    },
    {
      "ref" : "71b0b5ef-d99d-46ed-8417-d86dcc9baff6",
      "dependsOn" : [ ]
    },
    {
      "ref" : "8571de2e-9b59-4719-858d-99b57445258f",
      "dependsOn" : [ ]
    },
    {
      "ref" : "93d7e3d1-78ac-4051-b219-4051492877bd",
      "dependsOn" : [ ]
    },
    {
      "ref" : "d344098c-6f32-4848-8547-f20a02915028",
      "dependsOn" : [ ]
    },
    {
      "ref" : "e42167b1-6900-4df0-8ff1-4286622c5d66",
      "dependsOn" : [ ]
    },
    {
      "ref" : "ba472b29-6729-4213-b3a8-97652c407964",
      "dependsOn" : [ ]
    },
    {
      "ref" : "2b728ead-845d-49fd-b9bc-7e1f78a0066f",
      "dependsOn" : [ ]
    },
    {
      "ref" : "c3d789c7-3a68-4ed7-a741-e1c87ac75483",
      "dependsOn" : [ ]
    },
    {
      "ref" : "d3f3a934-aa92-4690-a301-4870748b77d6",
      "dependsOn" : [ ]
    },
    {
      "ref" : "a653598f-759d-4ccc-ab28-1faa835bbcd6",
      "dependsOn" : [ ]
    },
    {
      "ref" : "3261fea7-4dc5-493d-b8c1-0a8c579a4c47",
      "dependsOn" : [ ]
    },
    {
      "ref" : "4bb3707a-edc4-4251-a861-7cd156088904",
      "dependsOn" : [ ]
    },
    {
      "ref" : "fa8245a9-0aca-4705-ac35-070ffe17178e",
      "dependsOn" : [ ]
    },
    {
      "ref" : "aa1095b4-e1a8-45cf-b330-f966703a9d25",
      "dependsOn" : [ ]
    },
    {
      "ref" : "9c8a7d30-50b9-434a-8b94-41c908b056ff",
      "dependsOn" : [ ]
    },
    {
      "ref" : "e9eb826e-ac43-4ea5-958b-1776fe38961f",
      "dependsOn" : [ ]
    },
    {
      "ref" : "c12475dd-8a4f-44b8-b023-5d660757e4ea",
      "dependsOn" : [ ]
    },
    {
      "ref" : "3fd6a75d-817b-4215-8f30-463a6009f70b",
      "dependsOn" : [ ]
    },
    {
      "ref" : "95398d39-865d-42cc-be2f-2d0793d16768",
      "dependsOn" : [ ]
    },
    {
      "ref" : "22ddd865-fcbc-4b5a-8cd3-ce7aebf2a9d1",
      "dependsOn" : [ ]
    },
    {
      "ref" : "e07bbc61-2123-43c7-a503-8797230bd4c6",
      "dependsOn" : [ ]
    },
    {
      "ref" : "29b5b315-7c15-4dba-a00e-201df2ddf6b9",
      "dependsOn" : [ ]
    },
    {
      "ref" : "f67946ca-05a7-4268-a7f8-55d6859c50f5",
      "dependsOn" : [ ]
    },
    {
      "ref" : "149a4448-6dd8-4af5-9fb0-6bead7d6fca4",
      "dependsOn" : [ ]
    },
    {
      "ref" : "f612e2ea-272f-47b4-8f42-625a4801b48c",
      "dependsOn" : [ ]
    },
    {
      "ref" : "5eec1ed6-b0b2-4671-b08a-35071b917c28",
      "dependsOn" : [ ]
    },
    {
      "ref" : "4753cfaa-aab5-4550-b1fb-c18763ff28ff",
      "dependsOn" : [ ]
    },
    {
      "ref" : "69ed3cb4-b6b5-4f50-a394-03c1fd34deca",
      "dependsOn" : [ ]
    },
    {
      "ref" : "dc63d808-d8b2-46d5-b1aa-914ea1ab9b85",
      "dependsOn" : [ ]
    },
    {
      "ref" : "a561b648-cbea-44a0-959f-ba7050816b23",
      "dependsOn" : [ ]
    },
    {
      "ref" : "66df4e2c-fb5a-46bd-9363-e4cc80e97eac",
      "dependsOn" : [ ]
    },
    {
      "ref" : "3d52e69d-a1d1-4d05-9665-39e7d846faa4",
      "dependsOn" : [ ]
    },
    {
      "ref" : "047de68e-f12a-471e-8177-dfb08c780b86",
      "dependsOn" : [ ]
    },
    {
      "ref" : "4d48cfb9-cafe-422e-9c34-4269c7b06257",
      "dependsOn" : [ ]
    },
    {
      "ref" : "052a31f1-c78d-43bd-8a00-cc2d1eb48f75",
      "dependsOn" : [ ]
    },
    {
      "ref" : "460b2de1-519e-47d7-bda8-00b352956d6c",
      "dependsOn" : [ ]
    },
    {
      "ref" : "76efd421-0930-47b6-9b2d-63392a645ff2",
      "dependsOn" : [ ]
    },
    {
      "ref" : "72993581-8c0f-4ad4-8028-0ec7abf0d46f",
      "dependsOn" : [ ]
    },
    {
      "ref" : "a2e32ef8-1ea7-43f1-be55-4b384857fb6a",
      "dependsOn" : [ ]
    },
    {
      "ref" : "0e728df7-fe28-430d-8a36-e84e75e73cd5",
      "dependsOn" : [ ]
    },
    {
      "ref" : "994ac0f0-bf2f-45d6-8312-9d6bd1bd4de9",
      "dependsOn" : [ ]
    },
    {
      "ref" : "26152c39-a37c-4469-9795-2c2b576f9ab3",
      "dependsOn" : [ ]
    },
    {
      "ref" : "2ea6fbe2-4ea7-468c-b536-65526669a919",
      "dependsOn" : [ ]
    },
    {
      "ref" : "7ff319ba-306a-45c6-be2d-3236fd037ab1",
      "dependsOn" : [ ]
    },
    {
      "ref" : "7d760468-125e-441d-b581-36544bb7fdd2",
      "dependsOn" : [ ]
    },
    {
      "ref" : "8f303ea8-ad69-4cc5-9264-de5f5221eef6",
      "dependsOn" : [ ]
    },
    {
      "ref" : "2dfc6395-c8c9-4279-a055-025a540b5c2c",
      "dependsOn" : [ ]
    },
    {
      "ref" : "dada0849-af07-481f-9c38-8a17c1478d63",
      "dependsOn" : [ ]
    },
    {
      "ref" : "bf600d11-0837-4025-9244-fbb5c1e31c74",
      "dependsOn" : [ ]
    },
    {
      "ref" : "d1585aec-b9b4-47f8-866a-3dce03a2b000",
      "dependsOn" : [ ]
    },
    {
      "ref" : "f908290d-5b20-46f3-8de4-f1c6c8c92b04",
      "dependsOn" : [ ]
    },
    {
      "ref" : "90145476-1067-4b29-9314-22e1408a7fb6",
      "dependsOn" : [ ]
    },
    {
      "ref" : "9e7945e4-0039-4d35-b6b3-2bc122ef8f78",
      "dependsOn" : [ ]
    },
    {
      "ref" : "141b5e9f-deb0-4933-aaf0-b12171887015",
      "dependsOn" : [ ]
    },
    {
      "ref" : "52ef05e2-a3ed-4a36-a357-48b465c97be9",
      "dependsOn" : [ ]
    },
    {
      "ref" : "f23b9771-f252-4d1d-852a-37d13b813d6a",
      "dependsOn" : [ ]
    },
    {
      "ref" : "61c5b160-3111-4539-9bbe-bb8ba8072211",
      "dependsOn" : [ ]
    },
    {
      "ref" : "8374763d-30f5-40f5-b47a-956793b27dd9",
      "dependsOn" : [ ]
    },
    {
      "ref" : "e226320b-2881-44b1-987e-b91963474158",
      "dependsOn" : [ ]
    },
    {
      "ref" : "9c60969b-97b8-442a-8963-0255364179da",
      "dependsOn" : [ ]
    },
    {
      "ref" : "c20619eb-e51a-4929-b46f-11c68bbc061f",
      "dependsOn" : [ ]
    },
    {
      "ref" : "9aad2a32-432c-4a74-821e-111d3b72108a",
      "dependsOn" : [ ]
    },
    {
      "ref" : "ca638a04-51c1-437f-b3d1-3d437aabb4a5",
      "dependsOn" : [ ]
    },
    {
      "ref" : "a2a02806-6973-45f0-8946-ee6e17f60c35",
      "dependsOn" : [ ]
    },
    {
      "ref" : "732d89b4-55ed-4f3e-9cf5-6acee9da5cf5",
      "dependsOn" : [ ]
    },
    {
      "ref" : "eeadbcb7-521b-43c8-9c23-7d25e895fa4d",
      "dependsOn" : [ ]
    },
    {
      "ref" : "34568c89-a4f6-4535-a52c-567f93b6bb2b",
      "dependsOn" : [ ]
    },
    {
      "ref" : "3a3a6810-9169-4250-bfde-88509a0e5545",
      "dependsOn" : [ ]
    },
    {
      "ref" : "0e38fb0d-7316-44a5-b344-c920bcdd5497",
      "dependsOn" : [ ]
    },
    {
      "ref" : "bdb7fab1-9840-4d49-ae0b-d11e4d4285c0",
      "dependsOn" : [ ]
    },
    {
      "ref" : "466ba8d8-fbd6-4b21-805e-7db98441d3e7",
      "dependsOn" : [ ]
    },
    {
      "ref" : "5e71ae92-9fc2-4088-826b-bcf42b9843ab",
      "dependsOn" : [ ]
    },
    {
      "ref" : "519c5176-423f-4959-91bd-93595e85fe8d",
      "dependsOn" : [ ]
    },
    {
      "ref" : "3794fd4c-9c72-4ea5-b753-a6e3e8fb1c59",
      "dependsOn" : [ ]
    },
    {
      "ref" : "9c683f66-8ed7-4261-ae2a-3e6b5bcaa016",
      "dependsOn" : [ ]
    },
    {
      "ref" : "558a516d-2fe8-427f-80b9-becec76e9b40",
      "dependsOn" : [ ]
    },
    {
      "ref" : "de03d22d-8de1-416a-99dc-91697d03df5a",
      "dependsOn" : [ ]
    },
    {
      "ref" : "1e81b34e-571e-4ef7-ad5e-e5da7232768c",
      "dependsOn" : [ ]
    },
    {
      "ref" : "000c39b1-4b5b-487a-8feb-d18dd25ed4b7",
      "dependsOn" : [ ]
    },
    {
      "ref" : "55322541-bdac-457c-9321-12614597e07d",
      "dependsOn" : [ ]
    },
    {
      "ref" : "e4305203-f95b-44af-8a5b-7af520b6dc5b",
      "dependsOn" : [ ]
    },
    {
      "ref" : "bfe55f1a-e744-443d-b8b5-5c4467029c1f",
      "dependsOn" : [ ]
    },
    {
      "ref" : "947e1a8f-3510-4f5f-bd14-d75df3ec812e",
      "dependsOn" : [ ]
    },
    {
      "ref" : "377f7e2c-7e6f-4d60-a8e6-0e42022ab3dd",
      "dependsOn" : [ ]
    },
    {
      "ref" : "a493f227-410c-4d09-918f-7666787a6d2d",
      "dependsOn" : [ ]
    },
    {
      "ref" : "4a61afe5-def8-408c-92de-29c9c7f68e31",
      "dependsOn" : [ ]
    },
    {
      "ref" : "6e3ed86d-d41b-443f-9984-c6a94d70cc12",
      "dependsOn" : [ ]
    },
    {
      "ref" : "aa33274f-99f2-4ad5-b4ea-5ba92cf53c22",
      "dependsOn" : [ ]
    },
    {
      "ref" : "f5a2bfc3-6691-4c86-9c6d-a2d4110bc901",
      "dependsOn" : [ ]
    },
    {
      "ref" : "95b27750-b121-469c-8aa7-25ea6b81a998",
      "dependsOn" : [ ]
    },
    {
      "ref" : "6927de3d-aa20-4b36-b0e1-285c70ebc5b5",
      "dependsOn" : [ ]
    },
    {
      "ref" : "31e35053-848a-47ce-bf93-9b15500d660f",
      "dependsOn" : [ ]
    },
    {
      "ref" : "32c1b411-fdb5-4c6f-82c5-160759721364",
      "dependsOn" : [ ]
    },
    {
      "ref" : "16da32fd-bc59-4984-a5ae-c849ed77bb44",
      "dependsOn" : [ ]
    },
    {
      "ref" : "8f4011ac-33c5-45cd-8f80-957000fb2214",
      "dependsOn" : [ ]
    },
    {
      "ref" : "9cc81e68-d2a4-4128-9a9e-2cb98da3ab5e",
      "dependsOn" : [ ]
    },
    {
      "ref" : "bbc67f86-4ab2-4859-a785-cecef9edcf47",
      "dependsOn" : [ ]
    },
    {
      "ref" : "681d5c56-299a-4cf3-b694-84510ada4ab3",
      "dependsOn" : [ ]
    },
    {
      "ref" : "97853268-a4a5-4aac-b1e6-f4db72ec9c0e",
      "dependsOn" : [ ]
    },
    {
      "ref" : "e5f6224b-9458-4e95-81b6-61e4d928b3f3",
      "dependsOn" : [ ]
    },
    {
      "ref" : "cce9a080-de2c-4c21-9ccc-ce371987b550",
      "dependsOn" : [ ]
    },
    {
      "ref" : "29b12d82-52b5-4772-ad0d-d02d03be5c2d",
      "dependsOn" : [ ]
    },
    {
      "ref" : "95f29b91-3610-4465-8236-4acc8e314f8f",
      "dependsOn" : [ ]
    },
    {
      "ref" : "f31d19be-db18-4942-a464-1e9484ae9edc",
      "dependsOn" : [ ]
    },
    {
      "ref" : "cffa3745-8c7b-4296-802b-24014fec6491",
      "dependsOn" : [ ]
    },
    {
      "ref" : "11c55860-d408-493a-a726-fe019d899534",
      "dependsOn" : [ ]
    },
    {
      "ref" : "a97383d2-7b5c-49e4-b7ba-2e36a5b2c7bf",
      "dependsOn" : [ ]
    },
    {
      "ref" : "c03f20e6-fa96-4621-89bf-d98f528f2571",
      "dependsOn" : [ ]
    },
    {
      "ref" : "8074e6de-3a77-4a8f-8162-6fe203645b88",
      "dependsOn" : [ ]
    },
    {
      "ref" : "f459a7e3-fc75-4668-9d7c-31172ebf16d0",
      "dependsOn" : [ ]
    },
    {
      "ref" : "2d506561-128d-4e6f-827c-674bc154c155",
      "dependsOn" : [ ]
    },
    {
      "ref" : "6563594c-22f6-418f-98f3-e95a12aefca5",
      "dependsOn" : [ ]
    },
    {
      "ref" : "66c4c55a-ac5b-45bf-87f6-a68a0750cf28",
      "dependsOn" : [ ]
    },
    {
      "ref" : "2008fd2c-8e4c-4b44-872e-d256f766e094",
      "dependsOn" : [ ]
    },
    {
      "ref" : "d217a733-2ac7-449c-a2f9-93c7edd0fb8f",
      "dependsOn" : [ ]
    },
    {
      "ref" : "9be5b2cf-b34d-4053-a0a7-425ae9bde6eb",
      "dependsOn" : [ ]
    },
    {
      "ref" : "dcc23029-b08e-41f3-b5f8-a7d3830d2c7b",
      "dependsOn" : [ ]
    },
    {
      "ref" : "79173e74-9793-4001-8d95-1c8011d83088",
      "dependsOn" : [ ]
    },
    {
      "ref" : "63996f2a-53e5-4951-bc6d-8725026f3ff4",
      "dependsOn" : [ ]
    },
    {
      "ref" : "9e85e605-a7a7-4728-8522-f066c3009c03",
      "dependsOn" : [ ]
    },
    {
      "ref" : "0a2c335d-d171-4e47-8440-397c5b13f0ef",
      "dependsOn" : [ ]
    },
    {
      "ref" : "b17699a4-b531-47ff-bb21-d2e7a0fe5c3f",
      "dependsOn" : [ ]
    },
    {
      "ref" : "b32ce353-e0d0-4a26-9ad8-676ac6bf5ca3",
      "dependsOn" : [ ]
    },
    {
      "ref" : "e9cbcc49-c11a-4df2-8144-262952076ab2",
      "dependsOn" : [ ]
    },
    {
      "ref" : "281780d6-f6cf-4d97-aaaa-7a2ad0f2d23d",
      "dependsOn" : [ ]
    },
    {
      "ref" : "cae7bea9-a811-480e-a7ae-a7d3c8d926cc",
      "dependsOn" : [ ]
    },
    {
      "ref" : "9a94c470-664a-402f-be47-f9c975e51ce4",
      "dependsOn" : [ ]
    },
    {
      "ref" : "7f901383-f079-4122-9761-945562ebd13a",
      "dependsOn" : [ ]
    },
    {
      "ref" : "8828ef8c-4d35-43a7-8a12-09c70c022f2c",
      "dependsOn" : [ ]
    },
    {
      "ref" : "a64b259d-42de-4233-855d-e62891db9e9b",
      "dependsOn" : [ ]
    },
    {
      "ref" : "2196e1f1-ecbc-4b4f-8346-ff354a32511d",
      "dependsOn" : [ ]
    },
    {
      "ref" : "91cbc16e-90b7-4c7b-a272-0bcf0e248f77",
      "dependsOn" : [ ]
    },
    {
      "ref" : "4cc1d20e-0981-4a38-bdef-6267df371bbc",
      "dependsOn" : [ ]
    },
    {
      "ref" : "b79fd75e-2142-49a1-afc4-762c64a1e92e",
      "dependsOn" : [ ]
    },
    {
      "ref" : "d39988ea-0594-4068-9e89-c78bac1bee63",
      "dependsOn" : [ ]
    },
    {
      "ref" : "53a348b8-60b7-4cd4-b70b-640d329d6d25",
      "dependsOn" : [ ]
    },
    {
      "ref" : "2e3bebbb-5a7c-4af6-8dea-9794565b0f76",
      "dependsOn" : [ ]
    },
    {
      "ref" : "b8e029e1-4032-4c43-854e-e69e82eaae84",
      "dependsOn" : [ ]
    },
    {
      "ref" : "5c5b80b6-0d76-4efc-a122-b6685577d319",
      "dependsOn" : [ ]
    },
    {
      "ref" : "b644502d-1e63-4bf6-8465-f682ededa211",
      "dependsOn" : [ ]
    },
    {
      "ref" : "fc6ddf82-4181-4531-bb20-b517da826454",
      "dependsOn" : [ ]
    },
    {
      "ref" : "7af2c3ee-55db-4fe9-814b-597d8aa7cffd",
      "dependsOn" : [ ]
    },
    {
      "ref" : "1c4c9155-3a95-4f75-9ca4-e477b9f8b92f",
      "dependsOn" : [
        "1c6e323c-872f-42c7-bcba-4c4e394ae3ce",
        "99c40ea6-6c00-45b0-b55b-0f99f3706c2c",
        "37726db2-696a-4084-a3e4-6ebd627098a8",
        "1a97d799-0450-4ec6-aac7-1ca53daf06c6",
        "8f2a7241-aa6a-4e73-bdc8-7657e968d87b",
        "6ac664dd-a371-48e2-bb27-1bda978d35a0",
        "2ede25ff-db3d-4d16-945f-4a839d7a199d",
        "55899540-82c5-4f91-ac9c-9e7005dc0c5d",
        "2e02e34e-6740-4076-b903-9b5fbb06c9ed",
        "c1b9b438-e046-4e38-90f6-818f75c137ce",
        "0af3c39a-8326-4277-a3b9-65a29cfc7afb",
        "71b0b5ef-d99d-46ed-8417-d86dcc9baff6",
        "8571de2e-9b59-4719-858d-99b57445258f",
        "93d7e3d1-78ac-4051-b219-4051492877bd",
        "d344098c-6f32-4848-8547-f20a02915028",
        "e42167b1-6900-4df0-8ff1-4286622c5d66",
        "ba472b29-6729-4213-b3a8-97652c407964",
        "2b728ead-845d-49fd-b9bc-7e1f78a0066f",
        "c3d789c7-3a68-4ed7-a741-e1c87ac75483",
        "d3f3a934-aa92-4690-a301-4870748b77d6",
        "a653598f-759d-4ccc-ab28-1faa835bbcd6",
        "3261fea7-4dc5-493d-b8c1-0a8c579a4c47",
        "4bb3707a-edc4-4251-a861-7cd156088904",
        "fa8245a9-0aca-4705-ac35-070ffe17178e",
        "aa1095b4-e1a8-45cf-b330-f966703a9d25",
        "3fd6a75d-817b-4215-8f30-463a6009f70b",
        "95398d39-865d-42cc-be2f-2d0793d16768",
        "22ddd865-fcbc-4b5a-8cd3-ce7aebf2a9d1",
        "e07bbc61-2123-43c7-a503-8797230bd4c6",
        "29b5b315-7c15-4dba-a00e-201df2ddf6b9",
        "f67946ca-05a7-4268-a7f8-55d6859c50f5",
        "149a4448-6dd8-4af5-9fb0-6bead7d6fca4",
        "f612e2ea-272f-47b4-8f42-625a4801b48c",
        "5eec1ed6-b0b2-4671-b08a-35071b917c28",
        "4753cfaa-aab5-4550-b1fb-c18763ff28ff",
        "69ed3cb4-b6b5-4f50-a394-03c1fd34deca",
        "dc63d808-d8b2-46d5-b1aa-914ea1ab9b85",
        "a561b648-cbea-44a0-959f-ba7050816b23",
        "66df4e2c-fb5a-46bd-9363-e4cc80e97eac",
        "3d52e69d-a1d1-4d05-9665-39e7d846faa4",
        "047de68e-f12a-471e-8177-dfb08c780b86",
        "4d48cfb9-cafe-422e-9c34-4269c7b06257",
        "052a31f1-c78d-43bd-8a00-cc2d1eb48f75",
        "460b2de1-519e-47d7-bda8-00b352956d6c",
        "76efd421-0930-47b6-9b2d-63392a645ff2",
        "72993581-8c0f-4ad4-8028-0ec7abf0d46f",
        "a2e32ef8-1ea7-43f1-be55-4b384857fb6a",
        "0e728df7-fe28-430d-8a36-e84e75e73cd5",
        "994ac0f0-bf2f-45d6-8312-9d6bd1bd4de9",
        "26152c39-a37c-4469-9795-2c2b576f9ab3",
        "2ea6fbe2-4ea7-468c-b536-65526669a919",
        "7ff319ba-306a-45c6-be2d-3236fd037ab1",
        "7d760468-125e-441d-b581-36544bb7fdd2",
        "8f303ea8-ad69-4cc5-9264-de5f5221eef6",
        "2dfc6395-c8c9-4279-a055-025a540b5c2c",
        "dada0849-af07-481f-9c38-8a17c1478d63",
        "bf600d11-0837-4025-9244-fbb5c1e31c74",
        "d1585aec-b9b4-47f8-866a-3dce03a2b000",
        "f908290d-5b20-46f3-8de4-f1c6c8c92b04",
        "90145476-1067-4b29-9314-22e1408a7fb6",
        "9e7945e4-0039-4d35-b6b3-2bc122ef8f78",
        "141b5e9f-deb0-4933-aaf0-b12171887015",
        "52ef05e2-a3ed-4a36-a357-48b465c97be9",
        "f23b9771-f252-4d1d-852a-37d13b813d6a",
        "61c5b160-3111-4539-9bbe-bb8ba8072211",
        "8374763d-30f5-40f5-b47a-956793b27dd9",
        "e226320b-2881-44b1-987e-b91963474158",
        "9c60969b-97b8-442a-8963-0255364179da",
        "c20619eb-e51a-4929-b46f-11c68bbc061f",
        "9aad2a32-432c-4a74-821e-111d3b72108a",
        "ca638a04-51c1-437f-b3d1-3d437aabb4a5",
        "a2a02806-6973-45f0-8946-ee6e17f60c35",
        "732d89b4-55ed-4f3e-9cf5-6acee9da5cf5",
        "eeadbcb7-521b-43c8-9c23-7d25e895fa4d",
        "34568c89-a4f6-4535-a52c-567f93b6bb2b",
        "3a3a6810-9169-4250-bfde-88509a0e5545",
        "0e38fb0d-7316-44a5-b344-c920bcdd5497",
        "bdb7fab1-9840-4d49-ae0b-d11e4d4285c0",
        "466ba8d8-fbd6-4b21-805e-7db98441d3e7",
        "5e71ae92-9fc2-4088-826b-bcf42b9843ab",
        "519c5176-423f-4959-91bd-93595e85fe8d",
        "3794fd4c-9c72-4ea5-b753-a6e3e8fb1c59",
        "9c683f66-8ed7-4261-ae2a-3e6b5bcaa016",
        "558a516d-2fe8-427f-80b9-becec76e9b40",
        "de03d22d-8de1-416a-99dc-91697d03df5a",
        "1e81b34e-571e-4ef7-ad5e-e5da7232768c",
        "000c39b1-4b5b-487a-8feb-d18dd25ed4b7",
        "55322541-bdac-457c-9321-12614597e07d",
        "e4305203-f95b-44af-8a5b-7af520b6dc5b",
        "bfe55f1a-e744-443d-b8b5-5c4467029c1f",
        "947e1a8f-3510-4f5f-bd14-d75df3ec812e",
        "377f7e2c-7e6f-4d60-a8e6-0e42022ab3dd",
        "a493f227-410c-4d09-918f-7666787a6d2d",
        "4a61afe5-def8-408c-92de-29c9c7f68e31",
        "6e3ed86d-d41b-443f-9984-c6a94d70cc12",
        "aa33274f-99f2-4ad5-b4ea-5ba92cf53c22",
        "f5a2bfc3-6691-4c86-9c6d-a2d4110bc901",
        "95b27750-b121-469c-8aa7-25ea6b81a998",
        "6927de3d-aa20-4b36-b0e1-285c70ebc5b5",
        "31e35053-848a-47ce-bf93-9b15500d660f",
        "32c1b411-fdb5-4c6f-82c5-160759721364",
        "16da32fd-bc59-4984-a5ae-c849ed77bb44",
        "8f4011ac-33c5-45cd-8f80-957000fb2214",
        "9cc81e68-d2a4-4128-9a9e-2cb98da3ab5e",
        "bbc67f86-4ab2-4859-a785-cecef9edcf47",
        "681d5c56-299a-4cf3-b694-84510ada4ab3",
        "97853268-a4a5-4aac-b1e6-f4db72ec9c0e",
        "e5f6224b-9458-4e95-81b6-61e4d928b3f3",
        "cce9a080-de2c-4c21-9ccc-ce371987b550",
        "29b12d82-52b5-4772-ad0d-d02d03be5c2d",
        "d39988ea-0594-4068-9e89-c78bac1bee63",
        "53a348b8-60b7-4cd4-b70b-640d329d6d25",
        "2e3bebbb-5a7c-4af6-8dea-9794565b0f76",
        "b8e029e1-4032-4c43-854e-e69e82eaae84",
        "5c5b80b6-0d76-4efc-a122-b6685577d319",
        "b644502d-1e63-4bf6-8465-f682ededa211",
        "fc6ddf82-4181-4531-bb20-b517da826454",
        "7af2c3ee-55db-4fe9-814b-597d8aa7cffd",
        "a1a655b4-bba5-419c-97ba-7392e2e373f5",
        "06fdd1de-48aa-4dfd-8d7b-bdf78aee0f39",
        "23bfae65-8967-48b9-ba4d-7a747f6bb05b",
        "7249797e-6f10-40e4-a403-1283b8754ab8",
        "1c3b92ee-9f9e-4cf2-9c9f-41988d50a190",
        "be4a34c6-5b19-46f7-8dea-c1c38fb5ca3c"
      ]
    },
    {
      "ref" : "a1a655b4-bba5-419c-97ba-7392e2e373f5",
      "dependsOn" : [ ]
    },
    {
      "ref" : "06fdd1de-48aa-4dfd-8d7b-bdf78aee0f39",
      "dependsOn" : [ ]
    },
    {
      "ref" : "23bfae65-8967-48b9-ba4d-7a747f6bb05b",
      "dependsOn" : [ ]
    },
    {
      "ref" : "7249797e-6f10-40e4-a403-1283b8754ab8",
      "dependsOn" : [ ]
    },
    {
      "ref" : "1c3b92ee-9f9e-4cf2-9c9f-41988d50a190",
      "dependsOn" : [ ]
    },
    {
      "ref" : "be4a34c6-5b19-46f7-8dea-c1c38fb5ca3c",
      "dependsOn" : [ ]
    }
  ],
  "vulnerabilities" : [
    {
      "bom-ref" : "9b92cb1c-87d4-4a72-a02a-004ef32fe928",
      "id" : "CVE-2022-36437",
      "source" : {
        "name" : "NVD",
        "url" : "https://nvd.nist.gov/"
      },
      "ratings" : [
        {
          "source" : {
            "name" : "NVD",
            "url" : "https://nvd.nist.gov/"
          },
          "score" : 9.1,
          "severity" : "critical",
          "method" : "CVSSv3",
          "vector" : "CVSS:3.0/AV:N/AC:L/PR:N/UI:N/S:U/C:H/I:H/A:N"
        }
      ],
      "cwes" : [
        384
      ],
      "description" : "The Connection handler in Hazelcast and Hazelcast Jet allows a remote unauthenticated attacker to access and manipulate data in the cluster with the identity of another already authenticated connection. The affected Hazelcast versions are through 4.0.6, 4.1.9, 4.2.5, 5.0.3, and 5.1.2. The affected Hazelcast Jet versions are through 4.5.3.",
      "published" : "2022-12-29T23:15:00Z",
      "updated" : "2023-01-09T18:33:00Z",
      "affects" : [
        {
          "ref" : "677de65f-ea1d-4158-bdcb-aeef75ff2eeb"
        }
      ]
    },
    {
      "bom-ref" : "828d04cc-3d1c-4e8b-b4d3-4aaec6dcbe5d",
      "id" : "CVE-2015-2918",
      "source" : {
        "name" : "NVD",
        "url" : "https://nvd.nist.gov/"
      },
      "ratings" : [
        {
          "source" : {
            "name" : "NVD",
            "url" : "https://nvd.nist.gov/"
          },
          "score" : 4.3,
          "severity" : "medium",
          "method" : "CVSSv2",
          "vector" : "(AV:N/AC:M/Au:N/C:N/I:P/A:N)"
        },
        {
          "source" : {
            "name" : "NVD",
            "url" : "https://nvd.nist.gov/"
          },
          "score" : 6.1,
          "severity" : "medium",
          "method" : "CVSSv3",
          "vector" : "CVSS:3.0/AV:N/AC:L/PR:N/UI:R/S:C/C:L/I:L/A:N"
        }
      ],
      "cwes" : [
        20
      ],
      "description" : "The Studio component in OrientDB Server Community Edition before 2.0.15 and 2.1.x before 2.1.1 does not properly restrict use of FRAME elements, which makes it easier for remote attackers to conduct clickjacking attacks via a crafted web site.",
      "published" : "2015-12-31T05:59:00Z",
      "updated" : "2015-12-31T20:41:00Z",
      "affects" : [
        {
          "ref" : "f5a8cfe8-1522-42d2-87ec-75650dc1bf22"
        }
      ]
    }
  ]
}