{
  "bomFormat" : "CycloneDX",
  "specVersion" : "1.4",
  "serialNumber" : "urn:uuid:d5cd039d-a15c-4b39-8035-47f10b126dff",
  "version" : 1,
  "metadata" : {
    "timestamp" : "2023-07-03T14:44:55Z",
    "tools" : [
      {
        "vendor" : "OWASP",
        "name" : "Dependency-Track",
        "version" : "4.8.2"
      }
    ],
    "component" : {
      "name" : "piwik-3.6.0-apache",
      "version" : "SNAPSHOT",
      "type" : "application",
      "bom-ref" : "b8e6672e-5df0-417b-b00b-e8874fc09127"
    }
  },
  "components" : [
    {
      "name" : "Mousetrap",
      "version" : "1.4.6",
      "purl" : "pkg:npm/mousetrap@1.4.6",
      "type" : "library",
      "bom-ref" : "dfc59ea9-9591-4320-956b-959fa517cbb1"
    },
    {
      "name" : "adduser",
      "version" : "3.115",
      "purl" : "pkg:deb/debian/adduser@3.115?distro=debian-9.5",
      "type" : "library",
      "bom-ref" : "ce94b4fa-7bfa-43fa-9a38-b1b1ee240e6f"
    },
    {
      "name" : "angular",
      "version" : "1.6.5",
      "purl" : "pkg:npm/angular@1.6.5",
      "type" : "library",
      "bom-ref" : "69bc6619-0fd7-4d8c-9492-d34f456cc716"
    },
    {
      "name" : "angular-animate",
      "version" : "1.6.5",
      "purl" : "pkg:npm/angular-animate@1.6.5",
      "type" : "library",
      "bom-ref" : "4f59641c-88bb-4ba7-a808-6b09c198a8d9"
    },
    {
      "name" : "angular-cookies",
      "version" : "1.6.5",
      "purl" : "pkg:npm/angular-cookies@1.6.5",
      "type" : "library",
      "bom-ref" : "988fe52a-b106-4491-b155-1faf39bda37a"
    },
    {
      "name" : "angular-mocks",
      "version" : "1.6.5",
      "purl" : "pkg:npm/angular-mocks@1.6.5",
      "type" : "library",
      "bom-ref" : "5e26a2f9-709e-4c57-a4b5-75682aca8d73"
    },
    {
      "name" : "angular-sanitize",
      "version" : "1.6.5",
      "purl" : "pkg:npm/angular-sanitize@1.6.5",
      "type" : "library",
      "bom-ref" : "486569f4-78fc-48fb-81e6-b0ef0fc56b63"
    },
    {
      "name" : "apache2",
      "version" : "2.4.25-3+deb9u5",
      "purl" : "pkg:deb/debian/apache2@2.4.25-3%20deb9u5?distro=debian-9.5",
      "type" : "library",
      "bom-ref" : "7372d31c-e079-432a-8ff2-8ace8d333346"
    },
    {
      "name" : "apache2-bin",
      "version" : "2.4.25-3+deb9u5",
      "purl" : "pkg:deb/debian/apache2-bin@2.4.25-3%20deb9u5?distro=debian-9.5",
      "type" : "library",
      "bom-ref" : "d1c01239-fbda-469c-af33-b88bb1863513"
    },
    {
      "name" : "apache2-data",
      "version" : "2.4.25-3+deb9u5",
      "purl" : "pkg:deb/debian/apache2-data@2.4.25-3%20deb9u5?distro=debian-9.5",
      "type" : "library",
      "bom-ref" : "d8b984fa-318b-4180-a419-2d6388e1ed81"
    },
    {
      "name" : "apache2-utils",
      "version" : "2.4.25-3+deb9u5",
      "purl" : "pkg:deb/debian/apache2-utils@2.4.25-3%20deb9u5?distro=debian-9.5",
      "type" : "library",
      "bom-ref" : "40beb43f-0bf6-4285-b24e-2cebf2ca32cb"
    },
    {
      "name" : "apt",
      "version" : "1.4.8",
      "purl" : "pkg:deb/debian/apt@1.4.8?distro=debian-9.5",
      "type" : "library",
      "bom-ref" : "62aaf276-22f3-447b-b488-c518f6862be7"
    },
    {
      "name" : "autoconf",
      "version" : "2.69-10",
      "purl" : "pkg:deb/debian/autoconf@2.69-10?distro=debian-9.5",
      "type" : "library",
      "bom-ref" : "7ce8135d-ed16-4ed1-8dd8-92e963d0361e"
    },
    {
      "name" : "base-files",
      "version" : "9.9+deb9u5",
      "purl" : "pkg:deb/debian/base-files@9.9%20deb9u5?distro=debian-9.5",
      "type" : "library",
      "bom-ref" : "dc2b83f4-f188-4643-ae3e-95e6b8dae836"
    },
    {
      "name" : "base-passwd",
      "version" : "3.5.43",
      "purl" : "pkg:deb/debian/base-passwd@3.5.43?distro=debian-9.5",
      "type" : "library",
      "bom-ref" : "722458c2-545d-4d13-a7ac-b071f19e8c81"
    },
    {
      "name" : "bash",
      "version" : "4.4-5",
      "purl" : "pkg:deb/debian/bash@4.4-5?distro=debian-9.5",
      "type" : "library",
      "bom-ref" : "395ca372-1fd0-4022-8ccb-cf6a76d53ca9"
    },
    {
      "name" : "binutils",
      "version" : "2.28-5",
      "purl" : "pkg:deb/debian/binutils@2.28-5?distro=debian-9.5",
      "type" : "library",
      "bom-ref" : "05eb18f0-b2db-4367-a93e-c1f63944af0b"
    },
    {
      "name" : "bsdutils",
      "version" : "1:2.29.2-1+deb9u1",
      "purl" : "pkg:deb/debian/bsdutils@1%3A2.29.2-1%20deb9u1?distro=debian-9.5",
      "type" : "library",
      "bom-ref" : "d87fc9de-53db-4c22-8816-f126741644dc"
    },
    {
      "name" : "bzip2",
      "version" : "1.0.6-8.1",
      "purl" : "pkg:deb/debian/bzip2@1.0.6-8.1?distro=debian-9.5",
      "type" : "library",
      "bom-ref" : "b887a863-4640-4e69-965d-b661586de208"
    },
    {
      "name" : "ca-certificates",
      "version" : "20161130+nmu1+deb9u1",
      "purl" : "pkg:deb/debian/ca-certificates@20161130%20nmu1%20deb9u1?distro=debian-9.5",
      "type" : "library",
      "bom-ref" : "6d5e7924-1b1d-4dd9-9e58-f07805dcc6a4"
    },
    {
      "name" : "chroma-js",
      "version" : "0.6.1",
      "purl" : "pkg:npm/chroma-js@0.6.1",
      "type" : "library",
      "bom-ref" : "65fdffc7-b191-4214-9717-5601daedceab"
    },
    {
      "name" : "composer/ca-bundle",
      "version" : "1.1.1",
      "purl" : "pkg:composer/composer/ca-bundle@1.1.1",
      "type" : "library",
      "bom-ref" : "caf9fbf3-719b-49bb-a847-fdb056df5fc6"
    },
    {
      "name" : "composer/semver",
      "version" : "1.3.0",
      "purl" : "pkg:composer/composer/semver@1.3.0",
      "type" : "library",
      "bom-ref" : "60d00483-1110-4841-8d41-1630f13e61f9"
    },
    {
      "name" : "container-interop/container-interop",
      "version" : "1.2.0",
      "purl" : "pkg:composer/container-interop/container-interop@1.2.0",
      "type" : "library",
      "bom-ref" : "04ba3c43-7c5e-4749-bccb-cd21d9f0e1ab"
    },
    {
      "name" : "coreutils",
      "version" : "8.26-3",
      "purl" : "pkg:deb/debian/coreutils@8.26-3?distro=debian-9.5",
      "type" : "library",
      "bom-ref" : "b7cd4a0f-df0c-4a23-b068-8156107f7552"
    },
    {
      "name" : "cpp",
      "version" : "4:6.3.0-4",
      "purl" : "pkg:deb/debian/cpp@4%3A6.3.0-4?distro=debian-9.5",
      "type" : "library",
      "bom-ref" : "cd15bb3a-12e2-45d5-9f30-a177a2e2862d"
    },
    {
      "name" : "cpp-6",
      "version" : "6.3.0-18+deb9u1",
      "purl" : "pkg:deb/debian/cpp-6@6.3.0-18%20deb9u1?distro=debian-9.5",
      "type" : "library",
      "bom-ref" : "8ee2782e-b8fa-475c-be92-edea346792da"
    },
    {
      "name" : "curl",
      "version" : "7.52.1-5+deb9u7",
      "purl" : "pkg:deb/debian/curl@7.52.1-5%20deb9u7?distro=debian-9.5",
      "type" : "library",
      "bom-ref" : "e436e245-bda2-4102-a903-dacc9cbe94cf"
    },
    {
      "name" : "dash",
      "version" : "0.5.8-2.4",
      "purl" : "pkg:deb/debian/dash@0.5.8-2.4?distro=debian-9.5",
      "type" : "library",
      "bom-ref" : "2e785254-e74e-4355-ba83-33893f549de5"
    },
    {
      "name" : "davaxi/sparkline",
      "version" : "1.1.2",
      "purl" : "pkg:composer/davaxi/sparkline@1.1.2",
      "type" : "library",
      "bom-ref" : "71938a98-cdb3-4498-9f76-fd0760f7276f"
    },
    {
      "name" : "debconf",
      "version" : "1.5.61",
      "purl" : "pkg:deb/debian/debconf@1.5.61?distro=debian-9.5",
      "type" : "library",
      "bom-ref" : "71a05658-fb31-4f06-ba15-d4ea71356228"
    },
    {
      "name" : "debian",
      "version" : "9.5",
      "type" : "operating-system",
      "bom-ref" : "9296a37b-2fe6-464a-979f-860377ad54ed"
    },
    {
      "name" : "debian-archive-keyring",
      "version" : "2017.5",
      "purl" : "pkg:deb/debian/debian-archive-keyring@2017.5?distro=debian-9.5",
      "type" : "library",
      "bom-ref" : "573d0e46-a9c5-42e6-bfd0-2a08c0cd4a21"
    },
    {
      "name" : "debianutils",
      "version" : "4.8.1.1",
      "purl" : "pkg:deb/debian/debianutils@4.8.1.1?distro=debian-9.5",
      "type" : "library",
      "bom-ref" : "6f6f8a28-7d6a-4cca-bd43-f40a9be292eb"
    },
    {
      "name" : "diffutils",
      "version" : "1:3.5-3",
      "purl" : "pkg:deb/debian/diffutils@1%3A3.5-3?distro=debian-9.5",
      "type" : "library",
      "bom-ref" : "a8f620d3-3f79-4b5c-aaed-37f637746455"
    },
    {
      "name" : "doctrine/cache",
      "version" : "v1.6.1",
      "purl" : "pkg:composer/doctrine/cache@v1.6.1",
      "type" : "library",
      "bom-ref" : "16e7c39e-a8d8-49d1-8e51-c197b44a41d3"
    },
    {
      "name" : "dpkg",
      "version" : "1.18.25",
      "purl" : "pkg:deb/debian/dpkg@1.18.25?distro=debian-9.5",
      "type" : "library",
      "bom-ref" : "c5ccc5a7-c682-4863-8a07-4ba77bd79362"
    },
    {
      "name" : "dpkg-dev",
      "version" : "1.18.25",
      "purl" : "pkg:deb/debian/dpkg-dev@1.18.25?distro=debian-9.5",
      "type" : "library",
      "bom-ref" : "1e5d76c3-a197-4d02-9985-6fdfc3794697"
    },
    {
      "name" : "e2fslibs",
      "version" : "1.43.4-2",
      "purl" : "pkg:deb/debian/e2fslibs@1.43.4-2?distro=debian-9.5",
      "type" : "library",
      "bom-ref" : "6ec710e1-792f-4598-8eae-6d901ce1c9e8"
    },
    {
      "name" : "e2fsprogs",
      "version" : "1.43.4-2",
      "purl" : "pkg:deb/debian/e2fsprogs@1.43.4-2?distro=debian-9.5",
      "type" : "library",
      "bom-ref" : "91ab7d83-c933-4f91-8236-7d4c4718e05c"
    },
    {
      "name" : "file",
      "version" : "1:5.30-1+deb9u2",
      "purl" : "pkg:deb/debian/file@1%3A5.30-1%20deb9u2?distro=debian-9.5",
      "type" : "library",
      "bom-ref" : "64e722e2-c19b-4e90-a0eb-9eedb430b06a"
    },
    {
      "name" : "findutils",
      "version" : "4.6.0+git+20161106-2",
      "purl" : "pkg:deb/debian/findutils@4.6.0%20git%2020161106-2?distro=debian-9.5",
      "type" : "library",
      "bom-ref" : "abe11678-9616-47e8-a798-f56915b70b57"
    },
    {
      "name" : "g++",
      "version" : "4:6.3.0-4",
      "purl" : "pkg:deb/debian/g%20%20@4%3A6.3.0-4?distro=debian-9.5",
      "type" : "library",
      "bom-ref" : "e7837b43-3a3a-40ff-96cb-2b24a2305745"
    },
    {
      "name" : "g++-6",
      "version" : "6.3.0-18+deb9u1",
      "purl" : "pkg:deb/debian/g%20%20-6@6.3.0-18%20deb9u1?distro=debian-9.5",
      "type" : "library",
      "bom-ref" : "43fbdcdc-a4c7-4c92-8dba-d03cc7ef54ba"
    },
    {
      "name" : "gcc",
      "version" : "4:6.3.0-4",
      "purl" : "pkg:deb/debian/gcc@4%3A6.3.0-4?distro=debian-9.5",
      "type" : "library",
      "bom-ref" : "624fdcd2-c8db-4f4e-baff-1b4032f966df"
    },
    {
      "name" : "gcc-6",
      "version" : "6.3.0-18+deb9u1",
      "purl" : "pkg:deb/debian/gcc-6@6.3.0-18%20deb9u1?distro=debian-9.5",
      "type" : "library",
      "bom-ref" : "05f298cf-f9ef-4c40-ba67-a068f12db398"
    },
    {
      "name" : "gcc-6-base",
      "version" : "6.3.0-18+deb9u1",
      "purl" : "pkg:deb/debian/gcc-6-base@6.3.0-18%20deb9u1?distro=debian-9.5",
      "type" : "library",
      "bom-ref" : "9b7e0323-1cdd-4f05-a81b-b8d7e9793095"
    },
    {
      "name" : "geoip2/geoip2",
      "version" : "v2.8.0",
      "purl" : "pkg:composer/geoip2/geoip2@v2.8.0",
      "type" : "library",
      "bom-ref" : "0f011bf3-8bfe-4f06-9588-538fe381259c"
    },
    {
      "name" : "gpgv",
      "version" : "2.1.18-8~deb9u2",
      "purl" : "pkg:deb/debian/gpgv@2.1.18-8~deb9u2?distro=debian-9.5",
      "type" : "library",
      "bom-ref" : "0b88fdc3-0989-452b-b4f5-41a88d99ef33"
    },
    {
      "name" : "grep",
      "version" : "2.27-2",
      "purl" : "pkg:deb/debian/grep@2.27-2?distro=debian-9.5",
      "type" : "library",
      "bom-ref" : "4853dafa-5b5e-4654-875f-1a2afdd76278"
    },
    {
      "name" : "gzip",
      "version" : "1.6-5+b1",
      "purl" : "pkg:deb/debian/gzip@1.6-5%20b1?distro=debian-9.5",
      "type" : "library",
      "bom-ref" : "f78d59d3-4ac6-4481-b432-b0cc64e9cc35"
    },
    {
      "name" : "hostname",
      "version" : "3.18+b1",
      "purl" : "pkg:deb/debian/hostname@3.18%20b1?distro=debian-9.5",
      "type" : "library",
      "bom-ref" : "4f397868-1b53-4d63-b367-fc8f6dafc796"
    },
    {
      "name" : "html5shiv",
      "version" : "3.7.3",
      "purl" : "pkg:npm/html5shiv@3.7.3",
      "type" : "library",
      "bom-ref" : "babcca28-1740-448f-80b4-f21dd6e9d1d7"
    },
    {
      "name" : "init-system-helpers",
      "version" : "1.48",
      "purl" : "pkg:deb/debian/init-system-helpers@1.48?distro=debian-9.5",
      "type" : "library",
      "bom-ref" : "5ab1a30c-fd43-4e3a-afb4-9edb2fa45a26"
    },
    {
      "name" : "jScrollPane-build",
      "version" : "0.1.0",
      "purl" : "pkg:npm/jscrollpane-build@0.1.0",
      "type" : "library",
      "bom-ref" : "0237c00c-81b2-45db-91ef-8bee6a75df82"
    },
    {
      "name" : "jquery-ui",
      "version" : "1.10.4",
      "purl" : "pkg:npm/jquery-ui@1.10.4",
      "type" : "library",
      "bom-ref" : "58801376-7676-4471-9c92-0e8e3c32fdef"
    },
    {
      "name" : "jquery.scrollto",
      "version" : "1.4.14",
      "purl" : "pkg:npm/jquery.scrollto@1.4.14",
      "type" : "library",
      "bom-ref" : "1222d5b6-e7fd-46ac-b17d-e23e0af7b00f"
    },
    {
      "name" : "leafo/lessphp",
      "version" : "v0.5.0",
      "purl" : "pkg:composer/leafo/lessphp@v0.5.0",
      "type" : "library",
      "bom-ref" : "61637cc5-b00c-46e7-9b0e-0944a32e7426"
    },
    {
      "name" : "libacl1",
      "version" : "2.2.52-3+b1",
      "purl" : "pkg:deb/debian/libacl1@2.2.52-3%20b1?distro=debian-9.5",
      "type" : "library",
      "bom-ref" : "facac7c8-c746-4265-8e7c-e39ea777ca44"
    },
    {
      "name" : "libapr1",
      "version" : "1.5.2-5",
      "purl" : "pkg:deb/debian/libapr1@1.5.2-5?distro=debian-9.5",
      "type" : "library",
      "bom-ref" : "dd6aadb6-9014-4aea-860b-6e437886787d"
    },
    {
      "name" : "libaprutil1",
      "version" : "1.5.4-3",
      "purl" : "pkg:deb/debian/libaprutil1@1.5.4-3?distro=debian-9.5",
      "type" : "library",
      "bom-ref" : "e81fd569-02ac-4bc0-8478-d6963e3b36ad"
    },
    {
      "name" : "libaprutil1-dbd-sqlite3",
      "version" : "1.5.4-3",
      "purl" : "pkg:deb/debian/libaprutil1-dbd-sqlite3@1.5.4-3?distro=debian-9.5",
      "type" : "library",
      "bom-ref" : "2cdee0b6-6bbf-4a45-99a4-b39ac1781c23"
    },
    {
      "name" : "libaprutil1-ldap",
      "version" : "1.5.4-3",
      "purl" : "pkg:deb/debian/libaprutil1-ldap@1.5.4-3?distro=debian-9.5",
      "type" : "library",
      "bom-ref" : "730fe2bc-1324-4e20-b8d9-bad9a9eeb8a1"
    },
    {
      "name" : "libapt-pkg5.0",
      "version" : "1.4.8",
      "purl" : "pkg:deb/debian/libapt-pkg5.0@1.4.8?distro=debian-9.5",
      "type" : "library",
      "bom-ref" : "1d0429e1-766b-4069-809f-eaaf7e1363c8"
    },
    {
      "name" : "libasan3",
      "version" : "6.3.0-18+deb9u1",
      "purl" : "pkg:deb/debian/libasan3@6.3.0-18%20deb9u1?distro=debian-9.5",
      "type" : "library",
      "bom-ref" : "153f780c-3c95-45a1-b5e8-858abed281f5"
    },
    {
      "name" : "libatomic1",
      "version" : "6.3.0-18+deb9u1",
      "purl" : "pkg:deb/debian/libatomic1@6.3.0-18%20deb9u1?distro=debian-9.5",
      "type" : "library",
      "bom-ref" : "2c1d54b0-1b57-414e-9934-85b89a9cd817"
    },
    {
      "name" : "libattr1",
      "version" : "1:2.4.47-2+b2",
      "purl" : "pkg:deb/debian/libattr1@1%3A2.4.47-2%20b2?distro=debian-9.5",
      "type" : "library",
      "bom-ref" : "78274aa5-8dd1-4e10-a8d9-8fb9dd8f975a"
    },
    {
      "name" : "libaudit-common",
      "version" : "1:2.6.7-2",
      "purl" : "pkg:deb/debian/libaudit-common@1%3A2.6.7-2?distro=debian-9.5",
      "type" : "library",
      "bom-ref" : "5d72a9c3-7384-455e-995c-89f7c8284315"
    },
    {
      "name" : "libaudit1",
      "version" : "1:2.6.7-2",
      "purl" : "pkg:deb/debian/libaudit1@1%3A2.6.7-2?distro=debian-9.5",
      "type" : "library",
      "bom-ref" : "61e9592b-70df-4d08-990a-3ca3fbaeaeaa"
    },
    {
      "name" : "libblkid1",
      "version" : "2.29.2-1+deb9u1",
      "purl" : "pkg:deb/debian/libblkid1@2.29.2-1%20deb9u1?distro=debian-9.5",
      "type" : "library",
      "bom-ref" : "01c84d8e-7d8a-4c14-8cec-90770ac8e173"
    },
    {
      "name" : "libbsd0",
      "version" : "0.8.3-1",
      "purl" : "pkg:deb/debian/libbsd0@0.8.3-1?distro=debian-9.5",
      "type" : "library",
      "bom-ref" : "c0914881-0de8-466c-a0fb-0d6de5f9f053"
    },
    {
      "name" : "libbz2-1.0",
      "version" : "1.0.6-8.1",
      "purl" : "pkg:deb/debian/libbz2-1.0@1.0.6-8.1?distro=debian-9.5",
      "type" : "library",
      "bom-ref" : "c8c52c13-10a2-4889-8f19-9eea2efd971a"
    },
    {
      "name" : "libc-bin",
      "version" : "2.24-11+deb9u3",
      "purl" : "pkg:deb/debian/libc-bin@2.24-11%20deb9u3?distro=debian-9.5",
      "type" : "library",
      "bom-ref" : "8fc5c123-4639-4ead-9d1e-a64f46c85a0c"
    },
    {
      "name" : "libc-dev-bin",
      "version" : "2.24-11+deb9u3",
      "purl" : "pkg:deb/debian/libc-dev-bin@2.24-11%20deb9u3?distro=debian-9.5",
      "type" : "library",
      "bom-ref" : "fa974957-7c55-4ee2-89a4-fac623f3541a"
    },
    {
      "name" : "libc6",
      "version" : "2.24-11+deb9u3",
      "purl" : "pkg:deb/debian/libc6@2.24-11%20deb9u3?distro=debian-9.5",
      "type" : "library",
      "bom-ref" : "c672d574-7572-443d-b72d-6ac0c646501e"
    },
    {
      "name" : "libc6-dev",
      "version" : "2.24-11+deb9u3",
      "purl" : "pkg:deb/debian/libc6-dev@2.24-11%20deb9u3?distro=debian-9.5",
      "type" : "library",
      "bom-ref" : "3e86c12f-cced-40ec-bd6d-3c41f9a80bd1"
    },
    {
      "name" : "libcap-ng0",
      "version" : "0.7.7-3+b1",
      "purl" : "pkg:deb/debian/libcap-ng0@0.7.7-3%20b1?distro=debian-9.5",
      "type" : "library",
      "bom-ref" : "6cd6e03c-8d01-446b-b32f-5b1233d0f81a"
    },
    {
      "name" : "libcc1-0",
      "version" : "6.3.0-18+deb9u1",
      "purl" : "pkg:deb/debian/libcc1-0@6.3.0-18%20deb9u1?distro=debian-9.5",
      "type" : "library",
      "bom-ref" : "75c58c0e-9094-4958-bcf7-9f474c60a47c"
    },
    {
      "name" : "libcilkrts5",
      "version" : "6.3.0-18+deb9u1",
      "purl" : "pkg:deb/debian/libcilkrts5@6.3.0-18%20deb9u1?distro=debian-9.5",
      "type" : "library",
      "bom-ref" : "5dc0cf5a-eb38-4245-8af8-6dd5a613fb01"
    },
    {
      "name" : "libcomerr2",
      "version" : "1.43.4-2",
      "purl" : "pkg:deb/debian/libcomerr2@1.43.4-2?distro=debian-9.5",
      "type" : "library",
      "bom-ref" : "bca4fe72-577f-4a08-a426-c535aab3cada"
    },
    {
      "name" : "libcurl3",
      "version" : "7.52.1-5+deb9u7",
      "purl" : "pkg:deb/debian/libcurl3@7.52.1-5%20deb9u7?distro=debian-9.5",
      "type" : "library",
      "bom-ref" : "d6ab8a17-384e-4cd8-8c26-69ace9e6971e"
    },
    {
      "name" : "libdb5.3",
      "version" : "5.3.28-12+deb9u1",
      "purl" : "pkg:deb/debian/libdb5.3@5.3.28-12%20deb9u1?distro=debian-9.5",
      "type" : "library",
      "bom-ref" : "06d25c3f-4cf1-499b-944e-ff4c67a8662b"
    },
    {
      "name" : "libdebconfclient0",
      "version" : "0.227",
      "purl" : "pkg:deb/debian/libdebconfclient0@0.227?distro=debian-9.5",
      "type" : "library",
      "bom-ref" : "3966947a-a5a0-47ea-94f9-e4a604c6756d"
    },
    {
      "name" : "libdpkg-perl",
      "version" : "1.18.25",
      "purl" : "pkg:deb/debian/libdpkg-perl@1.18.25?distro=debian-9.5",
      "type" : "library",
      "bom-ref" : "c2492aac-2b6f-4361-9a37-df42abef2169"
    },
    {
      "name" : "libedit2",
      "version" : "3.1-20160903-3",
      "purl" : "pkg:deb/debian/libedit2@3.1-20160903-3?distro=debian-9.5",
      "type" : "library",
      "bom-ref" : "a01bc298-f824-4fce-86fb-3b3aedfd67fd"
    },
    {
      "name" : "libexpat1",
      "version" : "2.2.0-2+deb9u1",
      "purl" : "pkg:deb/debian/libexpat1@2.2.0-2%20deb9u1?distro=debian-9.5",
      "type" : "library",
      "bom-ref" : "a4aea24c-09ab-4bf7-8271-f29ddd41d94f"
    },
    {
      "name" : "libfdisk1",
      "version" : "2.29.2-1+deb9u1",
      "purl" : "pkg:deb/debian/libfdisk1@2.29.2-1%20deb9u1?distro=debian-9.5",
      "type" : "library",
      "bom-ref" : "0b4c370d-547e-4cec-a2da-4490c7d2f10f"
    },
    {
      "name" : "libffi6",
      "version" : "3.2.1-6",
      "purl" : "pkg:deb/debian/libffi6@3.2.1-6?distro=debian-9.5",
      "type" : "library",
      "bom-ref" : "d3a6a135-d628-47cf-9ae1-37847f6d46ae"
    },
    {
      "name" : "libfreetype6",
      "version" : "2.6.3-3.2",
      "purl" : "pkg:deb/debian/libfreetype6@2.6.3-3.2?distro=debian-9.5",
      "type" : "library",
      "bom-ref" : "60341204-ed0d-4e57-b28f-ba2414c93eda"
    },
    {
      "name" : "libgcc-6-dev",
      "version" : "6.3.0-18+deb9u1",
      "purl" : "pkg:deb/debian/libgcc-6-dev@6.3.0-18%20deb9u1?distro=debian-9.5",
      "type" : "library",
      "bom-ref" : "b863ee9a-1815-475e-ab6a-a592c7bf03d1"
    },
    {
      "name" : "libgcc1",
      "version" : "1:6.3.0-18+deb9u1",
      "purl" : "pkg:deb/debian/libgcc1@1%3A6.3.0-18%20deb9u1?distro=debian-9.5",
      "type" : "library",
      "bom-ref" : "ab4b9940-e1e1-4036-ad8c-cb6320ead345"
    },
    {
      "name" : "libgcrypt20",
      "version" : "1.7.6-2+deb9u3",
      "purl" : "pkg:deb/debian/libgcrypt20@1.7.6-2%20deb9u3?distro=debian-9.5",
      "type" : "library",
      "bom-ref" : "132e3a66-c63f-486d-9fd6-e48fc4c47480"
    },
    {
      "name" : "libgdbm3",
      "version" : "1.8.3-14",
      "purl" : "pkg:deb/debian/libgdbm3@1.8.3-14?distro=debian-9.5",
      "type" : "library",
      "bom-ref" : "4245e0bb-3e6f-4105-90ed-d24039f9b1e9"
    },
    {
      "name" : "libgeoip1",
      "version" : "1.6.9-4",
      "purl" : "pkg:deb/debian/libgeoip1@1.6.9-4?distro=debian-9.5",
      "type" : "library",
      "bom-ref" : "83474550-9ac2-4695-b43c-21e40abfa3eb"
    },
    {
      "name" : "libglib2.0-0",
      "version" : "2.50.3-2",
      "purl" : "pkg:deb/debian/libglib2.0-0@2.50.3-2?distro=debian-9.5",
      "type" : "library",
      "bom-ref" : "1eac7e4f-a441-4df4-9c8a-9c2c21964f59"
    },
    {
      "name" : "libgmp10",
      "version" : "2:6.1.2+dfsg-1",
      "purl" : "pkg:deb/debian/libgmp10@2%3A6.1.2%20dfsg-1?distro=debian-9.5",
      "type" : "library",
      "bom-ref" : "9d953f62-8a01-42ec-94fe-c8af02334212"
    },
    {
      "name" : "libgnutls30",
      "version" : "3.5.8-5+deb9u3",
      "purl" : "pkg:deb/debian/libgnutls30@3.5.8-5%20deb9u3?distro=debian-9.5",
      "type" : "library",
      "bom-ref" : "efe01475-9114-4507-92a2-809f3c4d7d24"
    },
    {
      "name" : "libgomp1",
      "version" : "6.3.0-18+deb9u1",
      "purl" : "pkg:deb/debian/libgomp1@6.3.0-18%20deb9u1?distro=debian-9.5",
      "type" : "library",
      "bom-ref" : "84f594c6-bf34-4ee3-a577-dd3a7b7c0561"
    },
    {
      "name" : "libgpg-error0",
      "version" : "1.26-2",
      "purl" : "pkg:deb/debian/libgpg-error0@1.26-2?distro=debian-9.5",
      "type" : "library",
      "bom-ref" : "c89ba7b7-095d-471d-bbbd-469c67787127"
    },
    {
      "name" : "libgssapi-krb5-2",
      "version" : "1.15-1+deb9u1",
      "purl" : "pkg:deb/debian/libgssapi-krb5-2@1.15-1%20deb9u1?distro=debian-9.5",
      "type" : "library",
      "bom-ref" : "da2ee193-5393-4418-9b1d-69ac26263379"
    },
    {
      "name" : "libhogweed4",
      "version" : "3.3-1+b2",
      "purl" : "pkg:deb/debian/libhogweed4@3.3-1%20b2?distro=debian-9.5",
      "type" : "library",
      "bom-ref" : "f1bba336-7d60-43ad-964d-4cd6189db363"
    },
    {
      "name" : "libicu57",
      "version" : "57.1-6+deb9u2",
      "purl" : "pkg:deb/debian/libicu57@57.1-6%20deb9u2?distro=debian-9.5",
      "type" : "library",
      "bom-ref" : "be0fe55e-c0d5-4aba-8ef3-41694593f262"
    },
    {
      "name" : "libidn11",
      "version" : "1.33-1",
      "purl" : "pkg:deb/debian/libidn11@1.33-1?distro=debian-9.5",
      "type" : "library",
      "bom-ref" : "70a6e745-9c25-40b7-8d45-f432c9d583a3"
    },
    {
      "name" : "libidn2-0",
      "version" : "0.16-1+deb9u1",
      "purl" : "pkg:deb/debian/libidn2-0@0.16-1%20deb9u1?distro=debian-9.5",
      "type" : "library",
      "bom-ref" : "563d0021-8ae8-4b26-9cb5-7aa31be640d5"
    },
    {
      "name" : "libisl15",
      "version" : "0.18-1",
      "purl" : "pkg:deb/debian/libisl15@0.18-1?distro=debian-9.5",
      "type" : "library",
      "bom-ref" : "69cd3025-4a7b-4ae5-a495-4b224bb707a8"
    },
    {
      "name" : "libitm1",
      "version" : "6.3.0-18+deb9u1",
      "purl" : "pkg:deb/debian/libitm1@6.3.0-18%20deb9u1?distro=debian-9.5",
      "type" : "library",
      "bom-ref" : "cc43a795-2704-427f-883a-7910e12afea8"
    },
    {
      "name" : "libjpeg62-turbo",
      "version" : "1:1.5.1-2",
      "purl" : "pkg:deb/debian/libjpeg62-turbo@1%3A1.5.1-2?distro=debian-9.5",
      "type" : "library",
      "bom-ref" : "dac207bc-aa3e-4822-ab87-4c8210599b90"
    },
    {
      "name" : "libk5crypto3",
      "version" : "1.15-1+deb9u1",
      "purl" : "pkg:deb/debian/libk5crypto3@1.15-1%20deb9u1?distro=debian-9.5",
      "type" : "library",
      "bom-ref" : "bb1519a1-2bb1-477b-a671-f74cbc695b8f"
    },
    {
      "name" : "libkeyutils1",
      "version" : "1.5.9-9",
      "purl" : "pkg:deb/debian/libkeyutils1@1.5.9-9?distro=debian-9.5",
      "type" : "library",
      "bom-ref" : "601e2018-d37f-4c3e-948b-4608c164f801"
    },
    {
      "name" : "libkrb5-3",
      "version" : "1.15-1+deb9u1",
      "purl" : "pkg:deb/debian/libkrb5-3@1.15-1%20deb9u1?distro=debian-9.5",
      "type" : "library",
      "bom-ref" : "4cc2103c-5204-49dd-aab2-c8826ad8517a"
    },
    {
      "name" : "libkrb5support0",
      "version" : "1.15-1+deb9u1",
      "purl" : "pkg:deb/debian/libkrb5support0@1.15-1%20deb9u1?distro=debian-9.5",
      "type" : "library",
      "bom-ref" : "2bb21abf-a036-4a5a-a373-20bc9106a0dc"
    },
    {
      "name" : "libldap-2.4-2",
      "version" : "2.4.44+dfsg-5+deb9u2",
      "purl" : "pkg:deb/debian/libldap-2.4-2@2.4.44%20dfsg-5%20deb9u2?distro=debian-9.5",
      "type" : "library",
      "bom-ref" : "ea0996d3-9a2e-4aa0-a21f-8d11671ee327"
    },
    {
      "name" : "libldap-common",
      "version" : "2.4.44+dfsg-5+deb9u2",
      "purl" : "pkg:deb/debian/libldap-common@2.4.44%20dfsg-5%20deb9u2?distro=debian-9.5",
      "type" : "library",
      "bom-ref" : "c2c0f9a4-53ce-407a-b829-854c72bc32e1"
    },
    {
      "name" : "liblsan0",
      "version" : "6.3.0-18+deb9u1",
      "purl" : "pkg:deb/debian/liblsan0@6.3.0-18%20deb9u1?distro=debian-9.5",
      "type" : "library",
      "bom-ref" : "4afdbab8-676d-4434-aa41-9fcf82891535"
    },
    {
      "name" : "liblua5.2-0",
      "version" : "5.2.4-1.1+b2",
      "purl" : "pkg:deb/debian/liblua5.2-0@5.2.4-1.1%20b2?distro=debian-9.5",
      "type" : "library",
      "bom-ref" : "bf6bb282-bef9-4c8f-b7bb-91b7ba31a4b0"
    },
    {
      "name" : "liblz4-1",
      "version" : "0.0~r131-2+b1",
      "purl" : "pkg:deb/debian/liblz4-1@0.0~r131-2%20b1?distro=debian-9.5",
      "type" : "library",
      "bom-ref" : "a882b9bf-aa86-46b0-866c-c4cf30abe17a"
    },
    {
      "name" : "liblzma5",
      "version" : "5.2.2-1.2+b1",
      "purl" : "pkg:deb/debian/liblzma5@5.2.2-1.2%20b1?distro=debian-9.5",
      "type" : "library",
      "bom-ref" : "7dc3fa8d-c23e-469b-a1ae-4079070b5d5d"
    },
    {
      "name" : "libmagic-mgc",
      "version" : "1:5.30-1+deb9u2",
      "purl" : "pkg:deb/debian/libmagic-mgc@1%3A5.30-1%20deb9u2?distro=debian-9.5",
      "type" : "library",
      "bom-ref" : "1ea36886-f4ca-4087-abeb-7168a0d49f5f"
    },
    {
      "name" : "libmagic1",
      "version" : "1:5.30-1+deb9u2",
      "purl" : "pkg:deb/debian/libmagic1@1%3A5.30-1%20deb9u2?distro=debian-9.5",
      "type" : "library",
      "bom-ref" : "5cb8fdd1-ee9c-4f67-99e1-00be07147a23"
    },
    {
      "name" : "libmount1",
      "version" : "2.29.2-1+deb9u1",
      "purl" : "pkg:deb/debian/libmount1@2.29.2-1%20deb9u1?distro=debian-9.5",
      "type" : "library",
      "bom-ref" : "f02b1a54-f8d6-412b-b79c-a73e69d48b6b"
    },
    {
      "name" : "libmpc3",
      "version" : "1.0.3-1+b2",
      "purl" : "pkg:deb/debian/libmpc3@1.0.3-1%20b2?distro=debian-9.5",
      "type" : "library",
      "bom-ref" : "117a7caf-61c3-437e-858d-d870d5f9ab4d"
    },
    {
      "name" : "libmpfr4",
      "version" : "3.1.5-1",
      "purl" : "pkg:deb/debian/libmpfr4@3.1.5-1?distro=debian-9.5",
      "type" : "library",
      "bom-ref" : "c8d5fcee-8273-4aff-8077-89fae0f26b67"
    },
    {
      "name" : "libmpx2",
      "version" : "6.3.0-18+deb9u1",
      "purl" : "pkg:deb/debian/libmpx2@6.3.0-18%20deb9u1?distro=debian-9.5",
      "type" : "library",
      "bom-ref" : "8698e57e-b7a1-4edb-a511-264138747fc3"
    },
    {
      "name" : "libncurses5",
      "version" : "6.0+20161126-1+deb9u2",
      "purl" : "pkg:deb/debian/libncurses5@6.0%2020161126-1%20deb9u2?distro=debian-9.5",
      "type" : "library",
      "bom-ref" : "b7202df8-ff36-4555-aa41-21daf88d8383"
    },
    {
      "name" : "libncursesw5",
      "version" : "6.0+20161126-1+deb9u2",
      "purl" : "pkg:deb/debian/libncursesw5@6.0%2020161126-1%20deb9u2?distro=debian-9.5",
      "type" : "library",
      "bom-ref" : "fbb82dee-ff90-419b-8224-c9328fc34be8"
    },
    {
      "name" : "libnettle6",
      "version" : "3.3-1+b2",
      "purl" : "pkg:deb/debian/libnettle6@3.3-1%20b2?distro=debian-9.5",
      "type" : "library",
      "bom-ref" : "74c54099-7325-4258-83ad-7a99e8b5afed"
    },
    {
      "name" : "libnghttp2-14",
      "version" : "1.18.1-1",
      "purl" : "pkg:deb/debian/libnghttp2-14@1.18.1-1?distro=debian-9.5",
      "type" : "library",
      "bom-ref" : "1dead8a6-bf19-4b95-9e28-eb361c06e9ee"
    },
    {
      "name" : "libp11-kit0",
      "version" : "0.23.3-2",
      "purl" : "pkg:deb/debian/libp11-kit0@0.23.3-2?distro=debian-9.5",
      "type" : "library",
      "bom-ref" : "02b945dd-5f12-4974-8c67-1d1e4a873624"
    },
    {
      "name" : "libpam-modules",
      "version" : "1.1.8-3.6",
      "purl" : "pkg:deb/debian/libpam-modules@1.1.8-3.6?distro=debian-9.5",
      "type" : "library",
      "bom-ref" : "82eef58b-8290-424c-a110-f0a43ea119e5"
    },
    {
      "name" : "libpam-modules-bin",
      "version" : "1.1.8-3.6",
      "purl" : "pkg:deb/debian/libpam-modules-bin@1.1.8-3.6?distro=debian-9.5",
      "type" : "library",
      "bom-ref" : "9dac22e3-7fae-464b-a870-2ee2365db756"
    },
    {
      "name" : "libpam-runtime",
      "version" : "1.1.8-3.6",
      "purl" : "pkg:deb/debian/libpam-runtime@1.1.8-3.6?distro=debian-9.5",
      "type" : "library",
      "bom-ref" : "def56fed-0284-4942-ae1c-c3eda27e203b"
    },
    {
      "name" : "libpam0g",
      "version" : "1.1.8-3.6",
      "purl" : "pkg:deb/debian/libpam0g@1.1.8-3.6?distro=debian-9.5",
      "type" : "library",
      "bom-ref" : "a2a42c08-d5f0-4c6b-9f68-3991bec2b417"
    },
    {
      "name" : "libpcre3",
      "version" : "2:8.39-3",
      "purl" : "pkg:deb/debian/libpcre3@2%3A8.39-3?distro=debian-9.5",
      "type" : "library",
      "bom-ref" : "c6ae449a-cb13-4b92-ae3e-b280264ccc98"
    },
    {
      "name" : "libperl5.24",
      "version" : "5.24.1-3+deb9u4",
      "purl" : "pkg:deb/debian/libperl5.24@5.24.1-3%20deb9u4?distro=debian-9.5",
      "type" : "library",
      "bom-ref" : "fb9115d6-071e-4ab4-b182-93fb599fa465"
    },
    {
      "name" : "libpng16-16",
      "version" : "1.6.28-1",
      "purl" : "pkg:deb/debian/libpng16-16@1.6.28-1?distro=debian-9.5",
      "type" : "library",
      "bom-ref" : "e2c66f90-9b76-4e82-bf98-a8282d7cf026"
    },
    {
      "name" : "libprocps6",
      "version" : "2:3.3.12-3+deb9u1",
      "purl" : "pkg:deb/debian/libprocps6@2%3A3.3.12-3%20deb9u1?distro=debian-9.5",
      "type" : "library",
      "bom-ref" : "e100d79f-7ceb-43f2-9593-7fcc57135917"
    },
    {
      "name" : "libpsl5",
      "version" : "0.17.0-3",
      "purl" : "pkg:deb/debian/libpsl5@0.17.0-3?distro=debian-9.5",
      "type" : "library",
      "bom-ref" : "a33a2c1e-658c-44fb-b3f0-329ed7f1dd1f"
    },
    {
      "name" : "libquadmath0",
      "version" : "6.3.0-18+deb9u1",
      "purl" : "pkg:deb/debian/libquadmath0@6.3.0-18%20deb9u1?distro=debian-9.5",
      "type" : "library",
      "bom-ref" : "6e493d71-2a3a-4a21-926d-f4e96d734891"
    },
    {
      "name" : "librtmp1",
      "version" : "2.4+20151223.gitfa8646d.1-1+b1",
      "purl" : "pkg:deb/debian/librtmp1@2.4%2020151223.gitfa8646d.1-1%20b1?distro=debian-9.5",
      "type" : "library",
      "bom-ref" : "88326bb9-73db-47fc-8979-67956042ccf8"
    },
    {
      "name" : "libsasl2-2",
      "version" : "2.1.27~101-g0780600+dfsg-3",
      "purl" : "pkg:deb/debian/libsasl2-2@2.1.27~101-g0780600%20dfsg-3?distro=debian-9.5",
      "type" : "library",
      "bom-ref" : "931e4743-d810-407d-9de1-6d1bef268ad3"
    },
    {
      "name" : "libsasl2-modules-db",
      "version" : "2.1.27~101-g0780600+dfsg-3",
      "purl" : "pkg:deb/debian/libsasl2-modules-db@2.1.27~101-g0780600%20dfsg-3?distro=debian-9.5",
      "type" : "library",
      "bom-ref" : "ddf8e461-a3cf-459f-b6f8-ea4f65a8fd6e"
    },
    {
      "name" : "libselinux1",
      "version" : "2.6-3+b3",
      "purl" : "pkg:deb/debian/libselinux1@2.6-3%20b3?distro=debian-9.5",
      "type" : "library",
      "bom-ref" : "1b373a93-91bd-4558-8f45-42911c9ed18d"
    },
    {
      "name" : "libsemanage-common",
      "version" : "2.6-2",
      "purl" : "pkg:deb/debian/libsemanage-common@2.6-2?distro=debian-9.5",
      "type" : "library",
      "bom-ref" : "3753a236-1fd7-4016-8a03-6034c0146a9d"
    },
    {
      "name" : "libsemanage1",
      "version" : "2.6-2",
      "purl" : "pkg:deb/debian/libsemanage1@2.6-2?distro=debian-9.5",
      "type" : "library",
      "bom-ref" : "a2619e9d-4c14-4476-b927-84737d05d35f"
    },
    {
      "name" : "libsepol1",
      "version" : "2.6-2",
      "purl" : "pkg:deb/debian/libsepol1@2.6-2?distro=debian-9.5",
      "type" : "library",
      "bom-ref" : "38beda39-9f65-4008-a90e-f12bb41f49fd"
    },
    {
      "name" : "libsigsegv2",
      "version" : "2.10-5",
      "purl" : "pkg:deb/debian/libsigsegv2@2.10-5?distro=debian-9.5",
      "type" : "library",
      "bom-ref" : "c7859365-d148-4a3b-8636-383bc1fcbe86"
    },
    {
      "name" : "libsmartcols1",
      "version" : "2.29.2-1+deb9u1",
      "purl" : "pkg:deb/debian/libsmartcols1@2.29.2-1%20deb9u1?distro=debian-9.5",
      "type" : "library",
      "bom-ref" : "9841050f-fbef-48c5-a3ca-4bdb331a5160"
    },
    {
      "name" : "libsqlite3-0",
      "version" : "3.16.2-5+deb9u1",
      "purl" : "pkg:deb/debian/libsqlite3-0@3.16.2-5%20deb9u1?distro=debian-9.5",
      "type" : "library",
      "bom-ref" : "03524a30-4ae7-4b0c-a727-c4721e57f189"
    },
    {
      "name" : "libss2",
      "version" : "1.43.4-2",
      "purl" : "pkg:deb/debian/libss2@1.43.4-2?distro=debian-9.5",
      "type" : "library",
      "bom-ref" : "015bc20c-7097-4e9c-8303-7b27aff058e1"
    },
    {
      "name" : "libssh2-1",
      "version" : "1.7.0-1",
      "purl" : "pkg:deb/debian/libssh2-1@1.7.0-1?distro=debian-9.5",
      "type" : "library",
      "bom-ref" : "b3348c21-095d-4935-a95a-70f528a8df79"
    },
    {
      "name" : "libssl1.0.2",
      "version" : "1.0.2l-2+deb9u3",
      "purl" : "pkg:deb/debian/libssl1.0.2@1.0.2l-2%20deb9u3?distro=debian-9.5",
      "type" : "library",
      "bom-ref" : "8ae52cf6-7266-4eab-9609-a50c1d1a6137"
    },
    {
      "name" : "libssl1.1",
      "version" : "1.1.0f-3+deb9u2",
      "purl" : "pkg:deb/debian/libssl1.1@1.1.0f-3%20deb9u2?distro=debian-9.5",
      "type" : "library",
      "bom-ref" : "72f3d679-0fe2-4f94-b749-e827f7446dc2"
    },
    {
      "name" : "libstdc++-6-dev",
      "version" : "6.3.0-18+deb9u1",
      "purl" : "pkg:deb/debian/libstdc%20%20-6-dev@6.3.0-18%20deb9u1?distro=debian-9.5",
      "type" : "library",
      "bom-ref" : "ea660f2b-3014-48f9-8a24-3254f812795e"
    },
    {
      "name" : "libstdc++6",
      "version" : "6.3.0-18+deb9u1",
      "purl" : "pkg:deb/debian/libstdc%20%206@6.3.0-18%20deb9u1?distro=debian-9.5",
      "type" : "library",
      "bom-ref" : "7b0b27f5-98de-4218-b7c1-c11981009910"
    },
    {
      "name" : "libsystemd0",
      "version" : "232-25+deb9u4",
      "purl" : "pkg:deb/debian/libsystemd0@232-25%20deb9u4?distro=debian-9.5",
      "type" : "library",
      "bom-ref" : "e1c8c498-26ba-49af-99bc-7bba233f7194"
    },
    {
      "name" : "libtasn1-6",
      "version" : "4.10-1.1+deb9u1",
      "purl" : "pkg:deb/debian/libtasn1-6@4.10-1.1%20deb9u1?distro=debian-9.5",
      "type" : "library",
      "bom-ref" : "de439938-4941-430f-8cdf-eebbea964eeb"
    },
    {
      "name" : "libtinfo5",
      "version" : "6.0+20161126-1+deb9u2",
      "purl" : "pkg:deb/debian/libtinfo5@6.0%2020161126-1%20deb9u2?distro=debian-9.5",
      "type" : "library",
      "bom-ref" : "9e16403d-5801-4f6a-9d4d-6817d61c9249"
    },
    {
      "name" : "libtsan0",
      "version" : "6.3.0-18+deb9u1",
      "purl" : "pkg:deb/debian/libtsan0@6.3.0-18%20deb9u1?distro=debian-9.5",
      "type" : "library",
      "bom-ref" : "4f20d903-eb46-4413-bb3b-99e26786e39a"
    },
    {
      "name" : "libubsan0",
      "version" : "6.3.0-18+deb9u1",
      "purl" : "pkg:deb/debian/libubsan0@6.3.0-18%20deb9u1?distro=debian-9.5",
      "type" : "library",
      "bom-ref" : "d52e2f75-ffaf-4a94-b198-dbd963f439ae"
    },
    {
      "name" : "libudev1",
      "version" : "232-25+deb9u4",
      "purl" : "pkg:deb/debian/libudev1@232-25%20deb9u4?distro=debian-9.5",
      "type" : "library",
      "bom-ref" : "9966e96e-db7e-4743-ba0d-adc8c527210e"
    },
    {
      "name" : "libunistring0",
      "version" : "0.9.6+really0.9.3-0.1",
      "purl" : "pkg:deb/debian/libunistring0@0.9.6%20really0.9.3-0.1?distro=debian-9.5",
      "type" : "library",
      "bom-ref" : "fae79fe5-ec3f-4d9e-be45-c9304d4fd1a5"
    },
    {
      "name" : "libustr-1.0-1",
      "version" : "1.0.4-6",
      "purl" : "pkg:deb/debian/libustr-1.0-1@1.0.4-6?distro=debian-9.5",
      "type" : "library",
      "bom-ref" : "c622a6fe-7d3c-42ad-af9d-6684884ec521"
    },
    {
      "name" : "libuuid1",
      "version" : "2.29.2-1+deb9u1",
      "purl" : "pkg:deb/debian/libuuid1@2.29.2-1%20deb9u1?distro=debian-9.5",
      "type" : "library",
      "bom-ref" : "0c9c9cbe-189e-426e-84a6-081743741f8d"
    },
    {
      "name" : "libxml2",
      "version" : "2.9.4+dfsg1-2.2+deb9u2",
      "purl" : "pkg:deb/debian/libxml2@2.9.4%20dfsg1-2.2%20deb9u2?distro=debian-9.5",
      "type" : "library",
      "bom-ref" : "ca5882c1-9ce0-4de3-ab5a-08890160b095"
    },
    {
      "name" : "linux-libc-dev",
      "version" : "4.9.110-3+deb9u4",
      "purl" : "pkg:deb/debian/linux-libc-dev@4.9.110-3%20deb9u4?distro=debian-9.5",
      "type" : "library",
      "bom-ref" : "72d777b4-9ed6-40f3-8b70-daa2b4b85255"
    },
    {
      "name" : "login",
      "version" : "1:4.4-4.1",
      "purl" : "pkg:deb/debian/login@1%3A4.4-4.1?distro=debian-9.5",
      "type" : "library",
      "bom-ref" : "ad1e9431-da01-48c3-b01b-c9fdad7da3a9"
    },
    {
      "name" : "lsb-base",
      "version" : "9.20161125",
      "purl" : "pkg:deb/debian/lsb-base@9.20161125?distro=debian-9.5",
      "type" : "library",
      "bom-ref" : "c91970dc-0490-4ce8-9240-0627d07af5c3"
    },
    {
      "name" : "m4",
      "version" : "1.4.18-1",
      "purl" : "pkg:deb/debian/m4@1.4.18-1?distro=debian-9.5",
      "type" : "library",
      "bom-ref" : "eef68aef-2609-4b16-b65d-45b69d7e5ff3"
    },
    {
      "name" : "make",
      "version" : "4.1-9.1",
      "purl" : "pkg:deb/debian/make@4.1-9.1?distro=debian-9.5",
      "type" : "library",
      "bom-ref" : "e13dae01-e993-4c82-97f5-516af1a11f27"
    },
    {
      "name" : "matomo/referrer-spam-blacklist",
      "version" : "1.1.1",
      "purl" : "pkg:composer/matomo/referrer-spam-blacklist@1.1.1",
      "type" : "library",
      "bom-ref" : "15949e65-cadd-44e1-8292-624ebd16fdcc"
    },
    {
      "name" : "matomo/searchengine-and-social-list",
      "version" : "1.4.3",
      "purl" : "pkg:composer/matomo/searchengine-and-social-list@1.4.3",
      "type" : "library",
      "bom-ref" : "45f0dd85-7f48-478d-bfb3-4199f1c23dcb"
    },
    {
      "name" : "mawk",
      "version" : "1.3.3-17+b3",
      "purl" : "pkg:deb/debian/mawk@1.3.3-17%20b3?distro=debian-9.5",
      "type" : "library",
      "bom-ref" : "8a0f0218-7834-44c0-9877-abf0a4a9aeca"
    },
    {
      "name" : "maxmind-db/reader",
      "version" : "v1.3.0",
      "purl" : "pkg:composer/maxmind-db/reader@v1.3.0",
      "type" : "library",
      "bom-ref" : "75af097e-6576-476a-8658-b4534a6b4e35"
    },
    {
      "name" : "maxmind/web-service-common",
      "version" : "v0.5.0",
      "purl" : "pkg:composer/maxmind/web-service-common@v0.5.0",
      "type" : "library",
      "bom-ref" : "87c14aa1-d243-46cc-b6a8-8d7cda247e64"
    },
    {
      "name" : "mime-support",
      "version" : "3.60",
      "purl" : "pkg:deb/debian/mime-support@3.60?distro=debian-9.5",
      "type" : "library",
      "bom-ref" : "7890fed5-32c1-496e-99cb-42cadd602d53"
    },
    {
      "name" : "monolog/monolog",
      "version" : "1.22.1",
      "purl" : "pkg:composer/monolog/monolog@1.22.1",
      "type" : "library",
      "bom-ref" : "5fd957cb-160f-45fc-90ad-7d3fe992a565"
    },
    {
      "name" : "mount",
      "version" : "2.29.2-1+deb9u1",
      "purl" : "pkg:deb/debian/mount@2.29.2-1%20deb9u1?distro=debian-9.5",
      "type" : "library",
      "bom-ref" : "8fff5767-3986-4c9c-9282-f9e6f8768383"
    },
    {
      "name" : "multiarch-support",
      "version" : "2.24-11+deb9u3",
      "purl" : "pkg:deb/debian/multiarch-support@2.24-11%20deb9u3?distro=debian-9.5",
      "type" : "library",
      "bom-ref" : "6483207a-382c-49fa-bbbd-40c33807f98f"
    },
    {
      "name" : "mustangostang/spyc",
      "version" : "0.5.1",
      "purl" : "pkg:composer/mustangostang/spyc@0.5.1",
      "type" : "library",
      "bom-ref" : "cb2d9870-43f7-44af-99e6-2edfe83365c9"
    },
    {
      "name" : "ncurses-base",
      "version" : "6.0+20161126-1+deb9u2",
      "purl" : "pkg:deb/debian/ncurses-base@6.0%2020161126-1%20deb9u2?distro=debian-9.5",
      "type" : "library",
      "bom-ref" : "7c873320-fddd-44d4-9688-338450ae12bb"
    },
    {
      "name" : "ncurses-bin",
      "version" : "6.0+20161126-1+deb9u2",
      "purl" : "pkg:deb/debian/ncurses-bin@6.0%2020161126-1%20deb9u2?distro=debian-9.5",
      "type" : "library",
      "bom-ref" : "99070fdb-2ddb-4756-b490-71ef9def9d38"
    },
    {
      "name" : "ng-dialog",
      "version" : "1.3.0",
      "purl" : "pkg:npm/ng-dialog@1.3.0",
      "type" : "library",
      "bom-ref" : "e9cecb62-f610-4bf6-b768-6f606e591bad"
    },
    {
      "name" : "openssl",
      "version" : "1.1.0f-3+deb9u2",
      "purl" : "pkg:deb/debian/openssl@1.1.0f-3%20deb9u2?distro=debian-9.5",
      "type" : "library",
      "bom-ref" : "16a2b3e4-9d20-4c40-bbf3-87a1feff702c"
    },
    {
      "name" : "passwd",
      "version" : "1:4.4-4.1",
      "purl" : "pkg:deb/debian/passwd@1%3A4.4-4.1?distro=debian-9.5",
      "type" : "library",
      "bom-ref" : "ef686328-7cf0-40ef-995e-7ae3b10d7d74"
    },
    {
      "name" : "patch",
      "version" : "2.7.5-1+deb9u1",
      "purl" : "pkg:deb/debian/patch@2.7.5-1%20deb9u1?distro=debian-9.5",
      "type" : "library",
      "bom-ref" : "1be5488c-8b9b-4ebc-ab46-7eae05ea3db2"
    },
    {
      "name" : "pear/archive_tar",
      "version" : "1.4.3",
      "purl" : "pkg:composer/pear/archive_tar@1.4.3",
      "type" : "library",
      "bom-ref" : "6ec1b664-4e77-4a31-ac84-525ac5a81f6b"
    },
    {
      "name" : "pear/console_getopt",
      "version" : "v1.4.1",
      "purl" : "pkg:composer/pear/console_getopt@v1.4.1",
      "type" : "library",
      "bom-ref" : "e42a6b59-7650-4fcc-9eb7-1713f82e38d2"
    },
    {
      "name" : "pear/pear-core-minimal",
      "version" : "v1.10.3",
      "purl" : "pkg:composer/pear/pear-core-minimal@v1.10.3",
      "type" : "library",
      "bom-ref" : "ebc1878f-09a0-4f1b-9adc-2d170b91780a"
    },
    {
      "name" : "pear/pear_exception",
      "version" : "v1.0.0",
      "purl" : "pkg:composer/pear/pear_exception@v1.0.0",
      "type" : "library",
      "bom-ref" : "7f58a03b-a2c2-4941-bdcd-f553b4d6f37c"
    },
    {
      "name" : "perl",
      "version" : "5.24.1-3+deb9u4",
      "purl" : "pkg:deb/debian/perl@5.24.1-3%20deb9u4?distro=debian-9.5",
      "type" : "library",
      "bom-ref" : "26e6dbd5-90a5-43f4-997c-a52226913b9d"
    },
    {
      "name" : "perl-base",
      "version" : "5.24.1-3+deb9u4",
      "purl" : "pkg:deb/debian/perl-base@5.24.1-3%20deb9u4?distro=debian-9.5",
      "type" : "library",
      "bom-ref" : "fbb1a3d2-7a22-4df9-b1d8-c647e0301e88"
    },
    {
      "name" : "perl-modules-5.24",
      "version" : "5.24.1-3+deb9u4",
      "purl" : "pkg:deb/debian/perl-modules-5.24@5.24.1-3%20deb9u4?distro=debian-9.5",
      "type" : "library",
      "bom-ref" : "af5511ea-268b-4e7c-82dc-5fed393b5cdb"
    },
    {
      "name" : "php-di/invoker",
      "version" : "1.3.3",
      "purl" : "pkg:composer/php-di/invoker@1.3.3",
      "type" : "library",
      "bom-ref" : "8b70151a-8d1f-4944-a765-ffcd05cc6826"
    },
    {
      "name" : "php-di/php-di",
      "version" : "5.4.6",
      "purl" : "pkg:composer/php-di/php-di@5.4.6",
      "type" : "library",
      "bom-ref" : "fbc35d37-6b7a-439e-89eb-4b32f6fefa79"
    },
    {
      "name" : "php-di/phpdoc-reader",
      "version" : "2.0.1",
      "purl" : "pkg:composer/php-di/phpdoc-reader@2.0.1",
      "type" : "library",
      "bom-ref" : "a96b9db5-e71f-4753-be7a-48aba2577186"
    },
    {
      "name" : "piwik/cache",
      "version" : "1.0.2",
      "purl" : "pkg:composer/piwik/cache@1.0.2",
      "type" : "library",
      "bom-ref" : "c7260909-193b-4621-90f2-ba100de789f5"
    },
    {
      "name" : "piwik/decompress",
      "version" : "1.2.2",
      "purl" : "pkg:composer/piwik/decompress@1.2.2",
      "type" : "library",
      "bom-ref" : "32c6591f-f337-46a8-9540-69ecb12300e4"
    },
    {
      "name" : "piwik/device-detector",
      "version" : "3.11.1",
      "purl" : "pkg:composer/piwik/device-detector@3.11.1",
      "type" : "library",
      "bom-ref" : "795785e3-071d-4ae3-bad6-ae39b8b8c367"
    },
    {
      "name" : "piwik/ini",
      "version" : "1.0.6",
      "purl" : "pkg:composer/piwik/ini@1.0.6",
      "type" : "library",
      "bom-ref" : "71a80b2e-f8ae-4148-b768-09e2cddee95a"
    },
    {
      "name" : "piwik/network",
      "version" : "0.2.0",
      "purl" : "pkg:composer/piwik/network@0.2.0",
      "type" : "library",
      "bom-ref" : "385140e7-140b-4a93-a098-6457f9dbb4c0"
    },
    {
      "name" : "piwik/piwik-php-tracker",
      "version" : "1.4.0",
      "purl" : "pkg:composer/piwik/piwik-php-tracker@1.4.0",
      "type" : "library",
      "bom-ref" : "b0e4aea5-1b8d-452d-b586-094e617cc4a6"
    },
    {
      "name" : "pkg-config",
      "version" : "0.29-4+b1",
      "purl" : "pkg:deb/debian/pkg-config@0.29-4%20b1?distro=debian-9.5",
      "type" : "library",
      "bom-ref" : "3139fd4e-9b6b-4a90-a1f0-e90f6539a997"
    },
    {
      "name" : "procps",
      "version" : "2:3.3.12-3+deb9u1",
      "purl" : "pkg:deb/debian/procps@2%3A3.3.12-3%20deb9u1?distro=debian-9.5",
      "type" : "library",
      "bom-ref" : "740c80a0-1ad3-4e0d-bad9-176e6aea2c42"
    },
    {
      "name" : "psr/container",
      "version" : "1.0.0",
      "purl" : "pkg:composer/psr/container@1.0.0",
      "type" : "library",
      "bom-ref" : "2927a528-50ca-4ac4-bc9c-1df6bfbf0181"
    },
    {
      "name" : "psr/log",
      "version" : "1.0.2",
      "purl" : "pkg:composer/psr/log@1.0.2",
      "type" : "library",
      "bom-ref" : "2b1850b2-1393-43f7-acb1-414cbee276d9"
    },
    {
      "name" : "re2c",
      "version" : "0.16-2",
      "purl" : "pkg:deb/debian/re2c@0.16-2?distro=debian-9.5",
      "type" : "library",
      "bom-ref" : "f68c2516-892e-4b7e-ac90-92ee337ab513"
    },
    {
      "name" : "searchengine-and-social-list",
      "version" : "1.4.1",
      "purl" : "pkg:npm/searchengine-and-social-list@1.4.1",
      "type" : "library",
      "bom-ref" : "8a618c83-ec29-4f81-b7b9-d83ee18a1904"
    },
    {
      "name" : "sed",
      "version" : "4.4-1",
      "purl" : "pkg:deb/debian/sed@4.4-1?distro=debian-9.5",
      "type" : "library",
      "bom-ref" : "148b4a19-a137-4810-8265-f0a6ad7b95d6"
    },
    {
      "name" : "sensible-utils",
      "version" : "0.0.9+deb9u1",
      "purl" : "pkg:deb/debian/sensible-utils@0.0.9%20deb9u1?distro=debian-9.5",
      "type" : "library",
      "bom-ref" : "502951de-009b-438c-994a-bfdfd4615057"
    },
    {
      "name" : "sprintf-js",
      "version" : "1.0.3",
      "purl" : "pkg:npm/sprintf-js@1.0.3",
      "type" : "library",
      "bom-ref" : "cef10506-28f1-4ca7-b5a5-a84e72048daa"
    },
    {
      "name" : "symfony/console",
      "version" : "v2.6.13",
      "purl" : "pkg:composer/symfony/console@v2.6.13",
      "type" : "library",
      "bom-ref" : "eb51ec80-71ca-4d88-8ea0-7af5ab6e210f"
    },
    {
      "name" : "symfony/event-dispatcher",
      "version" : "v2.6.13",
      "purl" : "pkg:composer/symfony/event-dispatcher@v2.6.13",
      "type" : "library",
      "bom-ref" : "3b5bb08e-563d-43a5-9503-87006e02c943"
    },
    {
      "name" : "symfony/monolog-bridge",
      "version" : "v2.6.13",
      "purl" : "pkg:composer/symfony/monolog-bridge@v2.6.13",
      "type" : "library",
      "bom-ref" : "074a0d16-53b4-4b80-bca7-28a35385e53e"
    },
    {
      "name" : "sysvinit-utils",
      "version" : "2.88dsf-59.9",
      "purl" : "pkg:deb/debian/sysvinit-utils@2.88dsf-59.9?distro=debian-9.5",
      "type" : "library",
      "bom-ref" : "476c7464-c2dd-420c-9618-c3f65293066a"
    },
    {
      "name" : "szymach/c-pchart",
      "version" : "2.0.6",
      "purl" : "pkg:composer/szymach/c-pchart@2.0.6",
      "type" : "library",
      "bom-ref" : "1527fa31-affc-4151-b859-2c381b81a05d"
    },
    {
      "name" : "tar",
      "version" : "1.29b-1.1",
      "purl" : "pkg:deb/debian/tar@1.29b-1.1?distro=debian-9.5",
      "type" : "library",
      "bom-ref" : "897042ab-8192-4999-a655-e66739039f36"
    },
    {
      "name" : "tecnickcom/tcpdf",
      "version" : "6.2.12",
      "purl" : "pkg:composer/tecnickcom/tcpdf@6.2.12",
      "type" : "library",
      "bom-ref" : "fc2b4122-23d8-4e6b-86a0-3fa47f13a665"
    },
    {
      "name" : "tedivm/jshrink",
      "version" : "v0.5.2",
      "purl" : "pkg:composer/tedivm/jshrink@v0.5.2",
      "type" : "library",
      "bom-ref" : "142a38e9-3758-4a0f-9bf3-042d14f6f885"
    },
    {
      "name" : "twig/twig",
      "version" : "v1.34.3",
      "purl" : "pkg:composer/twig/twig@v1.34.3",
      "type" : "library",
      "bom-ref" : "17fdc072-da5b-4e71-9b9d-4f604792dd02"
    },
    {
      "name" : "tzdata",
      "version" : "2018e-0+deb9u1",
      "purl" : "pkg:deb/debian/tzdata@2018e-0%20deb9u1?distro=debian-9.5",
      "type" : "library",
      "bom-ref" : "21993b7d-0b66-4c17-a816-0d64068c88a5"
    },
    {
      "name" : "usr/src/piwik/composer.lock",
      "type" : "application",
      "bom-ref" : "94b9b230-80bb-45df-8c57-43de5cafc582"
    },
    {
      "name" : "util-linux",
      "version" : "2.29.2-1+deb9u1",
      "purl" : "pkg:deb/debian/util-linux@2.29.2-1%20deb9u1?distro=debian-9.5",
      "type" : "library",
      "bom-ref" : "c4227f78-cf9d-46eb-9efd-b21765728ac0"
    },
    {
      "name" : "xz-utils",
      "version" : "5.2.2-1.2+b1",
      "purl" : "pkg:deb/debian/xz-utils@5.2.2-1.2%20b1?distro=debian-9.5",
      "type" : "library",
      "bom-ref" : "20dcaeeb-eef8-4520-863b-77911c1e0a6b"
    },
    {
      "name" : "zlib1g",
      "version" : "1:1.2.8.dfsg-5",
      "purl" : "pkg:deb/debian/zlib1g@1%3A1.2.8.dfsg-5?distro=debian-9.5",
      "type" : "library",
      "bom-ref" : "a7b8e4d2-f12e-48e4-b046-a13aca07b011"
    }
  ],
  "dependencies" : [
    {
      "ref" : "b8e6672e-5df0-417b-b00b-e8874fc09127",
      "dependsOn" : [
        "9296a37b-2fe6-464a-979f-860377ad54ed",
        "94b9b230-80bb-45df-8c57-43de5cafc582",
        "5e26a2f9-709e-4c57-a4b5-75682aca8d73",
        "69bc6619-0fd7-4d8c-9492-d34f456cc716",
        "babcca28-1740-448f-80b4-f21dd6e9d1d7",
        "0237c00c-81b2-45db-91ef-8bee6a75df82",
        "58801376-7676-4471-9c92-0e8e3c32fdef",
        "e9cecb62-f610-4bf6-b768-6f606e591bad",
        "cef10506-28f1-4ca7-b5a5-a84e72048daa",
        "988fe52a-b106-4491-b155-1faf39bda37a",
        "486569f4-78fc-48fb-81e6-b0ef0fc56b63",
        "65fdffc7-b191-4214-9717-5601daedceab",
        "1222d5b6-e7fd-46ac-b17d-e23e0af7b00f",
        "dfc59ea9-9591-4320-956b-959fa517cbb1",
        "4f59641c-88bb-4ba7-a808-6b09c198a8d9",
        "8a618c83-ec29-4f81-b7b9-d83ee18a1904"
      ]
    },
    {
      "ref" : "dfc59ea9-9591-4320-956b-959fa517cbb1",
      "dependsOn" : [ ]
    },
    {
      "ref" : "ce94b4fa-7bfa-43fa-9a38-b1b1ee240e6f",
      "dependsOn" : [ ]
    },
    {
      "ref" : "69bc6619-0fd7-4d8c-9492-d34f456cc716",
      "dependsOn" : [ ]
    },
    {
      "ref" : "4f59641c-88bb-4ba7-a808-6b09c198a8d9",
      "dependsOn" : [ ]
    },
    {
      "ref" : "988fe52a-b106-4491-b155-1faf39bda37a",
      "dependsOn" : [ ]
    },
    {
      "ref" : "5e26a2f9-709e-4c57-a4b5-75682aca8d73",
      "dependsOn" : [ ]
    },
    {
      "ref" : "486569f4-78fc-48fb-81e6-b0ef0fc56b63",
      "dependsOn" : [ ]
    },
    {
      "ref" : "7372d31c-e079-432a-8ff2-8ace8d333346",
      "dependsOn" : [ ]
    },
    {
      "ref" : "d1c01239-fbda-469c-af33-b88bb1863513",
      "dependsOn" : [ ]
    },
    {
      "ref" : "d8b984fa-318b-4180-a419-2d6388e1ed81",
      "dependsOn" : [ ]
    },
    {
      "ref" : "40beb43f-0bf6-4285-b24e-2cebf2ca32cb",
      "dependsOn" : [ ]
    },
    {
      "ref" : "62aaf276-22f3-447b-b488-c518f6862be7",
      "dependsOn" : [ ]
    },
    {
      "ref" : "7ce8135d-ed16-4ed1-8dd8-92e963d0361e",
      "dependsOn" : [ ]
    },
    {
      "ref" : "dc2b83f4-f188-4643-ae3e-95e6b8dae836",
      "dependsOn" : [ ]
    },
    {
      "ref" : "722458c2-545d-4d13-a7ac-b071f19e8c81",
      "dependsOn" : [ ]
    },
    {
      "ref" : "395ca372-1fd0-4022-8ccb-cf6a76d53ca9",
      "dependsOn" : [ ]
    },
    {
      "ref" : "05eb18f0-b2db-4367-a93e-c1f63944af0b",
      "dependsOn" : [ ]
    },
    {
      "ref" : "d87fc9de-53db-4c22-8816-f126741644dc",
      "dependsOn" : [ ]
    },
    {
      "ref" : "b887a863-4640-4e69-965d-b661586de208",
      "dependsOn" : [ ]
    },
    {
      "ref" : "6d5e7924-1b1d-4dd9-9e58-f07805dcc6a4",
      "dependsOn" : [ ]
    },
    {
      "ref" : "65fdffc7-b191-4214-9717-5601daedceab",
      "dependsOn" : [ ]
    },
    {
      "ref" : "caf9fbf3-719b-49bb-a847-fdb056df5fc6",
      "dependsOn" : [ ]
    },
    {
      "ref" : "60d00483-1110-4841-8d41-1630f13e61f9",
      "dependsOn" : [ ]
    },
    {
      "ref" : "04ba3c43-7c5e-4749-bccb-cd21d9f0e1ab",
      "dependsOn" : [ ]
    },
    {
      "ref" : "b7cd4a0f-df0c-4a23-b068-8156107f7552",
      "dependsOn" : [ ]
    },
    {
      "ref" : "cd15bb3a-12e2-45d5-9f30-a177a2e2862d",
      "dependsOn" : [ ]
    },
    {
      "ref" : "8ee2782e-b8fa-475c-be92-edea346792da",
      "dependsOn" : [ ]
    },
    {
      "ref" : "e436e245-bda2-4102-a903-dacc9cbe94cf",
      "dependsOn" : [ ]
    },
    {
      "ref" : "2e785254-e74e-4355-ba83-33893f549de5",
      "dependsOn" : [ ]
    },
    {
      "ref" : "71938a98-cdb3-4498-9f76-fd0760f7276f",
      "dependsOn" : [ ]
    },
    {
      "ref" : "71a05658-fb31-4f06-ba15-d4ea71356228",
      "dependsOn" : [ ]
    },
    {
      "ref" : "9296a37b-2fe6-464a-979f-860377ad54ed",
      "dependsOn" : [
        "ce94b4fa-7bfa-43fa-9a38-b1b1ee240e6f",
        "7372d31c-e079-432a-8ff2-8ace8d333346",
        "d1c01239-fbda-469c-af33-b88bb1863513",
        "d8b984fa-318b-4180-a419-2d6388e1ed81",
        "40beb43f-0bf6-4285-b24e-2cebf2ca32cb",
        "62aaf276-22f3-447b-b488-c518f6862be7",
        "7ce8135d-ed16-4ed1-8dd8-92e963d0361e",
        "dc2b83f4-f188-4643-ae3e-95e6b8dae836",
        "722458c2-545d-4d13-a7ac-b071f19e8c81",
        "395ca372-1fd0-4022-8ccb-cf6a76d53ca9",
        "05eb18f0-b2db-4367-a93e-c1f63944af0b",
        "d87fc9de-53db-4c22-8816-f126741644dc",
        "b887a863-4640-4e69-965d-b661586de208",
        "6d5e7924-1b1d-4dd9-9e58-f07805dcc6a4",
        "b7cd4a0f-df0c-4a23-b068-8156107f7552",
        "cd15bb3a-12e2-45d5-9f30-a177a2e2862d",
        "8ee2782e-b8fa-475c-be92-edea346792da",
        "e436e245-bda2-4102-a903-dacc9cbe94cf",
        "2e785254-e74e-4355-ba83-33893f549de5",
        "71a05658-fb31-4f06-ba15-d4ea71356228",
        "573d0e46-a9c5-42e6-bfd0-2a08c0cd4a21",
        "6f6f8a28-7d6a-4cca-bd43-f40a9be292eb",
        "a8f620d3-3f79-4b5c-aaed-37f637746455",
        "c5ccc5a7-c682-4863-8a07-4ba77bd79362",
        "1e5d76c3-a197-4d02-9985-6fdfc3794697",
        "6ec710e1-792f-4598-8eae-6d901ce1c9e8",
        "91ab7d83-c933-4f91-8236-7d4c4718e05c",
        "64e722e2-c19b-4e90-a0eb-9eedb430b06a",
        "abe11678-9616-47e8-a798-f56915b70b57",
        "e7837b43-3a3a-40ff-96cb-2b24a2305745",
        "43fbdcdc-a4c7-4c92-8dba-d03cc7ef54ba",
        "624fdcd2-c8db-4f4e-baff-1b4032f966df",
        "05f298cf-f9ef-4c40-ba67-a068f12db398",
        "9b7e0323-1cdd-4f05-a81b-b8d7e9793095",
        "0b88fdc3-0989-452b-b4f5-41a88d99ef33",
        "4853dafa-5b5e-4654-875f-1a2afdd76278",
        "f78d59d3-4ac6-4481-b432-b0cc64e9cc35",
        "4f397868-1b53-4d63-b367-fc8f6dafc796",
        "5ab1a30c-fd43-4e3a-afb4-9edb2fa45a26",
        "facac7c8-c746-4265-8e7c-e39ea777ca44",
        "dd6aadb6-9014-4aea-860b-6e437886787d",
        "e81fd569-02ac-4bc0-8478-d6963e3b36ad",
        "2cdee0b6-6bbf-4a45-99a4-b39ac1781c23",
        "730fe2bc-1324-4e20-b8d9-bad9a9eeb8a1",
        "1d0429e1-766b-4069-809f-eaaf7e1363c8",
        "153f780c-3c95-45a1-b5e8-858abed281f5",
        "2c1d54b0-1b57-414e-9934-85b89a9cd817",
        "78274aa5-8dd1-4e10-a8d9-8fb9dd8f975a",
        "5d72a9c3-7384-455e-995c-89f7c8284315",
        "61e9592b-70df-4d08-990a-3ca3fbaeaeaa",
        "01c84d8e-7d8a-4c14-8cec-90770ac8e173",
        "c0914881-0de8-466c-a0fb-0d6de5f9f053",
        "c8c52c13-10a2-4889-8f19-9eea2efd971a",
        "8fc5c123-4639-4ead-9d1e-a64f46c85a0c",
        "fa974957-7c55-4ee2-89a4-fac623f3541a",
        "c672d574-7572-443d-b72d-6ac0c646501e",
        "3e86c12f-cced-40ec-bd6d-3c41f9a80bd1",
        "6cd6e03c-8d01-446b-b32f-5b1233d0f81a",
        "75c58c0e-9094-4958-bcf7-9f474c60a47c",
        "5dc0cf5a-eb38-4245-8af8-6dd5a613fb01",
        "bca4fe72-577f-4a08-a426-c535aab3cada",
        "d6ab8a17-384e-4cd8-8c26-69ace9e6971e",
        "06d25c3f-4cf1-499b-944e-ff4c67a8662b",
        "3966947a-a5a0-47ea-94f9-e4a604c6756d",
        "c2492aac-2b6f-4361-9a37-df42abef2169",
        "a01bc298-f824-4fce-86fb-3b3aedfd67fd",
        "a4aea24c-09ab-4bf7-8271-f29ddd41d94f",
        "0b4c370d-547e-4cec-a2da-4490c7d2f10f",
        "d3a6a135-d628-47cf-9ae1-37847f6d46ae",
        "60341204-ed0d-4e57-b28f-ba2414c93eda",
        "b863ee9a-1815-475e-ab6a-a592c7bf03d1",
        "ab4b9940-e1e1-4036-ad8c-cb6320ead345",
        "132e3a66-c63f-486d-9fd6-e48fc4c47480",
        "4245e0bb-3e6f-4105-90ed-d24039f9b1e9",
        "83474550-9ac2-4695-b43c-21e40abfa3eb",
        "1eac7e4f-a441-4df4-9c8a-9c2c21964f59",
        "9d953f62-8a01-42ec-94fe-c8af02334212",
        "efe01475-9114-4507-92a2-809f3c4d7d24",
        "84f594c6-bf34-4ee3-a577-dd3a7b7c0561",
        "c89ba7b7-095d-471d-bbbd-469c67787127",
        "da2ee193-5393-4418-9b1d-69ac26263379",
        "f1bba336-7d60-43ad-964d-4cd6189db363",
        "be0fe55e-c0d5-4aba-8ef3-41694593f262",
        "70a6e745-9c25-40b7-8d45-f432c9d583a3",
        "563d0021-8ae8-4b26-9cb5-7aa31be640d5",
        "69cd3025-4a7b-4ae5-a495-4b224bb707a8",
        "cc43a795-2704-427f-883a-7910e12afea8",
        "dac207bc-aa3e-4822-ab87-4c8210599b90",
        "bb1519a1-2bb1-477b-a671-f74cbc695b8f",
        "601e2018-d37f-4c3e-948b-4608c164f801",
        "4cc2103c-5204-49dd-aab2-c8826ad8517a",
        "2bb21abf-a036-4a5a-a373-20bc9106a0dc",
        "ea0996d3-9a2e-4aa0-a21f-8d11671ee327",
        "c2c0f9a4-53ce-407a-b829-854c72bc32e1",
        "4afdbab8-676d-4434-aa41-9fcf82891535",
        "bf6bb282-bef9-4c8f-b7bb-91b7ba31a4b0",
        "a882b9bf-aa86-46b0-866c-c4cf30abe17a",
        "7dc3fa8d-c23e-469b-a1ae-4079070b5d5d",
        "1ea36886-f4ca-4087-abeb-7168a0d49f5f",
        "5cb8fdd1-ee9c-4f67-99e1-00be07147a23",
        "f02b1a54-f8d6-412b-b79c-a73e69d48b6b",
        "117a7caf-61c3-437e-858d-d870d5f9ab4d",
        "c8d5fcee-8273-4aff-8077-89fae0f26b67",
        "8698e57e-b7a1-4edb-a511-264138747fc3",
        "b7202df8-ff36-4555-aa41-21daf88d8383",
        "fbb82dee-ff90-419b-8224-c9328fc34be8",
        "74c54099-7325-4258-83ad-7a99e8b5afed",
        "1dead8a6-bf19-4b95-9e28-eb361c06e9ee",
        "02b945dd-5f12-4974-8c67-1d1e4a873624",
        "82eef58b-8290-424c-a110-f0a43ea119e5",
        "9dac22e3-7fae-464b-a870-2ee2365db756",
        "def56fed-0284-4942-ae1c-c3eda27e203b",
        "a2a42c08-d5f0-4c6b-9f68-3991bec2b417",
        "c6ae449a-cb13-4b92-ae3e-b280264ccc98",
        "fb9115d6-071e-4ab4-b182-93fb599fa465",
        "e2c66f90-9b76-4e82-bf98-a8282d7cf026",
        "e100d79f-7ceb-43f2-9593-7fcc57135917",
        "a33a2c1e-658c-44fb-b3f0-329ed7f1dd1f",
        "6e493d71-2a3a-4a21-926d-f4e96d734891",
        "88326bb9-73db-47fc-8979-67956042ccf8",
        "931e4743-d810-407d-9de1-6d1bef268ad3",
        "ddf8e461-a3cf-459f-b6f8-ea4f65a8fd6e",
        "1b373a93-91bd-4558-8f45-42911c9ed18d",
        "3753a236-1fd7-4016-8a03-6034c0146a9d",
        "a2619e9d-4c14-4476-b927-84737d05d35f",
        "38beda39-9f65-4008-a90e-f12bb41f49fd",
        "c7859365-d148-4a3b-8636-383bc1fcbe86",
        "9841050f-fbef-48c5-a3ca-4bdb331a5160",
        "03524a30-4ae7-4b0c-a727-c4721e57f189",
        "015bc20c-7097-4e9c-8303-7b27aff058e1",
        "b3348c21-095d-4935-a95a-70f528a8df79",
        "8ae52cf6-7266-4eab-9609-a50c1d1a6137",
        "72f3d679-0fe2-4f94-b749-e827f7446dc2",
        "ea660f2b-3014-48f9-8a24-3254f812795e",
        "7b0b27f5-98de-4218-b7c1-c11981009910",
        "e1c8c498-26ba-49af-99bc-7bba233f7194",
        "de439938-4941-430f-8cdf-eebbea964eeb",
        "9e16403d-5801-4f6a-9d4d-6817d61c9249",
        "4f20d903-eb46-4413-bb3b-99e26786e39a",
        "d52e2f75-ffaf-4a94-b198-dbd963f439ae",
        "9966e96e-db7e-4743-ba0d-adc8c527210e",
        "fae79fe5-ec3f-4d9e-be45-c9304d4fd1a5",
        "c622a6fe-7d3c-42ad-af9d-6684884ec521",
        "0c9c9cbe-189e-426e-84a6-081743741f8d",
        "ca5882c1-9ce0-4de3-ab5a-08890160b095",
        "72d777b4-9ed6-40f3-8b70-daa2b4b85255",
        "ad1e9431-da01-48c3-b01b-c9fdad7da3a9",
        "c91970dc-0490-4ce8-9240-0627d07af5c3",
        "eef68aef-2609-4b16-b65d-45b69d7e5ff3",
        "e13dae01-e993-4c82-97f5-516af1a11f27",
        "8a0f0218-7834-44c0-9877-abf0a4a9aeca",
        "7890fed5-32c1-496e-99cb-42cadd602d53",
        "8fff5767-3986-4c9c-9282-f9e6f8768383",
        "6483207a-382c-49fa-bbbd-40c33807f98f",
        "7c873320-fddd-44d4-9688-338450ae12bb",
        "99070fdb-2ddb-4756-b490-71ef9def9d38",
        "16a2b3e4-9d20-4c40-bbf3-87a1feff702c",
        "ef686328-7cf0-40ef-995e-7ae3b10d7d74",
        "1be5488c-8b9b-4ebc-ab46-7eae05ea3db2",
        "26e6dbd5-90a5-43f4-997c-a52226913b9d",
        "fbb1a3d2-7a22-4df9-b1d8-c647e0301e88",
        "af5511ea-268b-4e7c-82dc-5fed393b5cdb",
        "3139fd4e-9b6b-4a90-a1f0-e90f6539a997",
        "740c80a0-1ad3-4e0d-bad9-176e6aea2c42",
        "f68c2516-892e-4b7e-ac90-92ee337ab513",
        "148b4a19-a137-4810-8265-f0a6ad7b95d6",
        "502951de-009b-438c-994a-bfdfd4615057",
        "476c7464-c2dd-420c-9618-c3f65293066a",
        "897042ab-8192-4999-a655-e66739039f36",
        "21993b7d-0b66-4c17-a816-0d64068c88a5",
        "c4227f78-cf9d-46eb-9efd-b21765728ac0",
        "20dcaeeb-eef8-4520-863b-77911c1e0a6b",
        "a7b8e4d2-f12e-48e4-b046-a13aca07b011"
      ]
    },
    {
      "ref" : "573d0e46-a9c5-42e6-bfd0-2a08c0cd4a21",
      "dependsOn" : [ ]
    },
    {
      "ref" : "6f6f8a28-7d6a-4cca-bd43-f40a9be292eb",
      "dependsOn" : [ ]
    },
    {
      "ref" : "a8f620d3-3f79-4b5c-aaed-37f637746455",
      "dependsOn" : [ ]
    },
    {
      "ref" : "16e7c39e-a8d8-49d1-8e51-c197b44a41d3",
      "dependsOn" : [ ]
    },
    {
      "ref" : "c5ccc5a7-c682-4863-8a07-4ba77bd79362",
      "dependsOn" : [ ]
    },
    {
      "ref" : "1e5d76c3-a197-4d02-9985-6fdfc3794697",
      "dependsOn" : [ ]
    },
    {
      "ref" : "6ec710e1-792f-4598-8eae-6d901ce1c9e8",
      "dependsOn" : [ ]
    },
    {
      "ref" : "91ab7d83-c933-4f91-8236-7d4c4718e05c",
      "dependsOn" : [ ]
    },
    {
      "ref" : "64e722e2-c19b-4e90-a0eb-9eedb430b06a",
      "dependsOn" : [ ]
    },
    {
      "ref" : "abe11678-9616-47e8-a798-f56915b70b57",
      "dependsOn" : [ ]
    },
    {
      "ref" : "e7837b43-3a3a-40ff-96cb-2b24a2305745",
      "dependsOn" : [ ]
    },
    {
      "ref" : "43fbdcdc-a4c7-4c92-8dba-d03cc7ef54ba",
      "dependsOn" : [ ]
    },
    {
      "ref" : "624fdcd2-c8db-4f4e-baff-1b4032f966df",
      "dependsOn" : [ ]
    },
    {
      "ref" : "05f298cf-f9ef-4c40-ba67-a068f12db398",
      "dependsOn" : [ ]
    },
    {
      "ref" : "9b7e0323-1cdd-4f05-a81b-b8d7e9793095",
      "dependsOn" : [ ]
    },
    {
      "ref" : "0f011bf3-8bfe-4f06-9588-538fe381259c",
      "dependsOn" : [ ]
    },
    {
      "ref" : "0b88fdc3-0989-452b-b4f5-41a88d99ef33",
      "dependsOn" : [ ]
    },
    {
      "ref" : "4853dafa-5b5e-4654-875f-1a2afdd76278",
      "dependsOn" : [ ]
    },
    {
      "ref" : "f78d59d3-4ac6-4481-b432-b0cc64e9cc35",
      "dependsOn" : [ ]
    },
    {
      "ref" : "4f397868-1b53-4d63-b367-fc8f6dafc796",
      "dependsOn" : [ ]
    },
    {
      "ref" : "babcca28-1740-448f-80b4-f21dd6e9d1d7",
      "dependsOn" : [ ]
    },
    {
      "ref" : "5ab1a30c-fd43-4e3a-afb4-9edb2fa45a26",
      "dependsOn" : [ ]
    },
    {
      "ref" : "0237c00c-81b2-45db-91ef-8bee6a75df82",
      "dependsOn" : [ ]
    },
    {
      "ref" : "58801376-7676-4471-9c92-0e8e3c32fdef",
      "dependsOn" : [ ]
    },
    {
      "ref" : "1222d5b6-e7fd-46ac-b17d-e23e0af7b00f",
      "dependsOn" : [ ]
    },
    {
      "ref" : "61637cc5-b00c-46e7-9b0e-0944a32e7426",
      "dependsOn" : [ ]
    },
    {
      "ref" : "facac7c8-c746-4265-8e7c-e39ea777ca44",
      "dependsOn" : [ ]
    },
    {
      "ref" : "dd6aadb6-9014-4aea-860b-6e437886787d",
      "dependsOn" : [ ]
    },
    {
      "ref" : "e81fd569-02ac-4bc0-8478-d6963e3b36ad",
      "dependsOn" : [ ]
    },
    {
      "ref" : "2cdee0b6-6bbf-4a45-99a4-b39ac1781c23",
      "dependsOn" : [ ]
    },
    {
      "ref" : "730fe2bc-1324-4e20-b8d9-bad9a9eeb8a1",
      "dependsOn" : [ ]
    },
    {
      "ref" : "1d0429e1-766b-4069-809f-eaaf7e1363c8",
      "dependsOn" : [ ]
    },
    {
      "ref" : "153f780c-3c95-45a1-b5e8-858abed281f5",
      "dependsOn" : [ ]
    },
    {
      "ref" : "2c1d54b0-1b57-414e-9934-85b89a9cd817",
      "dependsOn" : [ ]
    },
    {
      "ref" : "78274aa5-8dd1-4e10-a8d9-8fb9dd8f975a",
      "dependsOn" : [ ]
    },
    {
      "ref" : "5d72a9c3-7384-455e-995c-89f7c8284315",
      "dependsOn" : [ ]
    },
    {
      "ref" : "61e9592b-70df-4d08-990a-3ca3fbaeaeaa",
      "dependsOn" : [ ]
    },
    {
      "ref" : "01c84d8e-7d8a-4c14-8cec-90770ac8e173",
      "dependsOn" : [ ]
    },
    {
      "ref" : "c0914881-0de8-466c-a0fb-0d6de5f9f053",
      "dependsOn" : [ ]
    },
    {
      "ref" : "c8c52c13-10a2-4889-8f19-9eea2efd971a",
      "dependsOn" : [ ]
    },
    {
      "ref" : "8fc5c123-4639-4ead-9d1e-a64f46c85a0c",
      "dependsOn" : [ ]
    },
    {
      "ref" : "fa974957-7c55-4ee2-89a4-fac623f3541a",
      "dependsOn" : [ ]
    },
    {
      "ref" : "c672d574-7572-443d-b72d-6ac0c646501e",
      "dependsOn" : [ ]
    },
    {
      "ref" : "3e86c12f-cced-40ec-bd6d-3c41f9a80bd1",
      "dependsOn" : [ ]
    },
    {
      "ref" : "6cd6e03c-8d01-446b-b32f-5b1233d0f81a",
      "dependsOn" : [ ]
    },
    {
      "ref" : "75c58c0e-9094-4958-bcf7-9f474c60a47c",
      "dependsOn" : [ ]
    },
    {
      "ref" : "5dc0cf5a-eb38-4245-8af8-6dd5a613fb01",
      "dependsOn" : [ ]
    },
    {
      "ref" : "bca4fe72-577f-4a08-a426-c535aab3cada",
      "dependsOn" : [ ]
    },
    {
      "ref" : "d6ab8a17-384e-4cd8-8c26-69ace9e6971e",
      "dependsOn" : [ ]
    },
    {
      "ref" : "06d25c3f-4cf1-499b-944e-ff4c67a8662b",
      "dependsOn" : [ ]
    },
    {
      "ref" : "3966947a-a5a0-47ea-94f9-e4a604c6756d",
      "dependsOn" : [ ]
    },
    {
      "ref" : "c2492aac-2b6f-4361-9a37-df42abef2169",
      "dependsOn" : [ ]
    },
    {
      "ref" : "a01bc298-f824-4fce-86fb-3b3aedfd67fd",
      "dependsOn" : [ ]
    },
    {
      "ref" : "a4aea24c-09ab-4bf7-8271-f29ddd41d94f",
      "dependsOn" : [ ]
    },
    {
      "ref" : "0b4c370d-547e-4cec-a2da-4490c7d2f10f",
      "dependsOn" : [ ]
    },
    {
      "ref" : "d3a6a135-d628-47cf-9ae1-37847f6d46ae",
      "dependsOn" : [ ]
    },
    {
      "ref" : "60341204-ed0d-4e57-b28f-ba2414c93eda",
      "dependsOn" : [ ]
    },
    {
      "ref" : "b863ee9a-1815-475e-ab6a-a592c7bf03d1",
      "dependsOn" : [ ]
    },
    {
      "ref" : "ab4b9940-e1e1-4036-ad8c-cb6320ead345",
      "dependsOn" : [ ]
    },
    {
      "ref" : "132e3a66-c63f-486d-9fd6-e48fc4c47480",
      "dependsOn" : [ ]
    },
    {
      "ref" : "4245e0bb-3e6f-4105-90ed-d24039f9b1e9",
      "dependsOn" : [ ]
    },
    {
      "ref" : "83474550-9ac2-4695-b43c-21e40abfa3eb",
      "dependsOn" : [ ]
    },
    {
      "ref" : "1eac7e4f-a441-4df4-9c8a-9c2c21964f59",
      "dependsOn" : [ ]
    },
    {
      "ref" : "9d953f62-8a01-42ec-94fe-c8af02334212",
      "dependsOn" : [ ]
    },
    {
      "ref" : "efe01475-9114-4507-92a2-809f3c4d7d24",
      "dependsOn" : [ ]
    },
    {
      "ref" : "84f594c6-bf34-4ee3-a577-dd3a7b7c0561",
      "dependsOn" : [ ]
    },
    {
      "ref" : "c89ba7b7-095d-471d-bbbd-469c67787127",
      "dependsOn" : [ ]
    },
    {
      "ref" : "da2ee193-5393-4418-9b1d-69ac26263379",
      "dependsOn" : [ ]
    },
    {
      "ref" : "f1bba336-7d60-43ad-964d-4cd6189db363",
      "dependsOn" : [ ]
    },
    {
      "ref" : "be0fe55e-c0d5-4aba-8ef3-41694593f262",
      "dependsOn" : [ ]
    },
    {
      "ref" : "70a6e745-9c25-40b7-8d45-f432c9d583a3",
      "dependsOn" : [ ]
    },
    {
      "ref" : "563d0021-8ae8-4b26-9cb5-7aa31be640d5",
      "dependsOn" : [ ]
    },
    {
      "ref" : "69cd3025-4a7b-4ae5-a495-4b224bb707a8",
      "dependsOn" : [ ]
    },
    {
      "ref" : "cc43a795-2704-427f-883a-7910e12afea8",
      "dependsOn" : [ ]
    },
    {
      "ref" : "dac207bc-aa3e-4822-ab87-4c8210599b90",
      "dependsOn" : [ ]
    },
    {
      "ref" : "bb1519a1-2bb1-477b-a671-f74cbc695b8f",
      "dependsOn" : [ ]
    },
    {
      "ref" : "601e2018-d37f-4c3e-948b-4608c164f801",
      "dependsOn" : [ ]
    },
    {
      "ref" : "4cc2103c-5204-49dd-aab2-c8826ad8517a",
      "dependsOn" : [ ]
    },
    {
      "ref" : "2bb21abf-a036-4a5a-a373-20bc9106a0dc",
      "dependsOn" : [ ]
    },
    {
      "ref" : "ea0996d3-9a2e-4aa0-a21f-8d11671ee327",
      "dependsOn" : [ ]
    },
    {
      "ref" : "c2c0f9a4-53ce-407a-b829-854c72bc32e1",
      "dependsOn" : [ ]
    },
    {
      "ref" : "4afdbab8-676d-4434-aa41-9fcf82891535",
      "dependsOn" : [ ]
    },
    {
      "ref" : "bf6bb282-bef9-4c8f-b7bb-91b7ba31a4b0",
      "dependsOn" : [ ]
    },
    {
      "ref" : "a882b9bf-aa86-46b0-866c-c4cf30abe17a",
      "dependsOn" : [ ]
    },
    {
      "ref" : "7dc3fa8d-c23e-469b-a1ae-4079070b5d5d",
      "dependsOn" : [ ]
    },
    {
      "ref" : "1ea36886-f4ca-4087-abeb-7168a0d49f5f",
      "dependsOn" : [ ]
    },
    {
      "ref" : "5cb8fdd1-ee9c-4f67-99e1-00be07147a23",
      "dependsOn" : [ ]
    },
    {
      "ref" : "f02b1a54-f8d6-412b-b79c-a73e69d48b6b",
      "dependsOn" : [ ]
    },
    {
      "ref" : "117a7caf-61c3-437e-858d-d870d5f9ab4d",
      "dependsOn" : [ ]
    },
    {
      "ref" : "c8d5fcee-8273-4aff-8077-89fae0f26b67",
      "dependsOn" : [ ]
    },
    {
      "ref" : "8698e57e-b7a1-4edb-a511-264138747fc3",
      "dependsOn" : [ ]
    },
    {
      "ref" : "b7202df8-ff36-4555-aa41-21daf88d8383",
      "dependsOn" : [ ]
    },
    {
      "ref" : "fbb82dee-ff90-419b-8224-c9328fc34be8",
      "dependsOn" : [ ]
    },
    {
      "ref" : "74c54099-7325-4258-83ad-7a99e8b5afed",
      "dependsOn" : [ ]
    },
    {
      "ref" : "1dead8a6-bf19-4b95-9e28-eb361c06e9ee",
      "dependsOn" : [ ]
    },
    {
      "ref" : "02b945dd-5f12-4974-8c67-1d1e4a873624",
      "dependsOn" : [ ]
    },
    {
      "ref" : "82eef58b-8290-424c-a110-f0a43ea119e5",
      "dependsOn" : [ ]
    },
    {
      "ref" : "9dac22e3-7fae-464b-a870-2ee2365db756",
      "dependsOn" : [ ]
    },
    {
      "ref" : "def56fed-0284-4942-ae1c-c3eda27e203b",
      "dependsOn" : [ ]
    },
    {
      "ref" : "a2a42c08-d5f0-4c6b-9f68-3991bec2b417",
      "dependsOn" : [ ]
    },
    {
      "ref" : "c6ae449a-cb13-4b92-ae3e-b280264ccc98",
      "dependsOn" : [ ]
    },
    {
      "ref" : "fb9115d6-071e-4ab4-b182-93fb599fa465",
      "dependsOn" : [ ]
    },
    {
      "ref" : "e2c66f90-9b76-4e82-bf98-a8282d7cf026",
      "dependsOn" : [ ]
    },
    {
      "ref" : "e100d79f-7ceb-43f2-9593-7fcc57135917",
      "dependsOn" : [ ]
    },
    {
      "ref" : "a33a2c1e-658c-44fb-b3f0-329ed7f1dd1f",
      "dependsOn" : [ ]
    },
    {
      "ref" : "6e493d71-2a3a-4a21-926d-f4e96d734891",
      "dependsOn" : [ ]
    },
    {
      "ref" : "88326bb9-73db-47fc-8979-67956042ccf8",
      "dependsOn" : [ ]
    },
    {
      "ref" : "931e4743-d810-407d-9de1-6d1bef268ad3",
      "dependsOn" : [ ]
    },
    {
      "ref" : "ddf8e461-a3cf-459f-b6f8-ea4f65a8fd6e",
      "dependsOn" : [ ]
    },
    {
      "ref" : "1b373a93-91bd-4558-8f45-42911c9ed18d",
      "dependsOn" : [ ]
    },
    {
      "ref" : "3753a236-1fd7-4016-8a03-6034c0146a9d",
      "dependsOn" : [ ]
    },
    {
      "ref" : "a2619e9d-4c14-4476-b927-84737d05d35f",
      "dependsOn" : [ ]
    },
    {
      "ref" : "38beda39-9f65-4008-a90e-f12bb41f49fd",
      "dependsOn" : [ ]
    },
    {
      "ref" : "c7859365-d148-4a3b-8636-383bc1fcbe86",
      "dependsOn" : [ ]
    },
    {
      "ref" : "9841050f-fbef-48c5-a3ca-4bdb331a5160",
      "dependsOn" : [ ]
    },
    {
      "ref" : "03524a30-4ae7-4b0c-a727-c4721e57f189",
      "dependsOn" : [ ]
    },
    {
      "ref" : "015bc20c-7097-4e9c-8303-7b27aff058e1",
      "dependsOn" : [ ]
    },
    {
      "ref" : "b3348c21-095d-4935-a95a-70f528a8df79",
      "dependsOn" : [ ]
    },
    {
      "ref" : "8ae52cf6-7266-4eab-9609-a50c1d1a6137",
      "dependsOn" : [ ]
    },
    {
      "ref" : "72f3d679-0fe2-4f94-b749-e827f7446dc2",
      "dependsOn" : [ ]
    },
    {
      "ref" : "ea660f2b-3014-48f9-8a24-3254f812795e",
      "dependsOn" : [ ]
    },
    {
      "ref" : "7b0b27f5-98de-4218-b7c1-c11981009910",
      "dependsOn" : [ ]
    },
    {
      "ref" : "e1c8c498-26ba-49af-99bc-7bba233f7194",
      "dependsOn" : [ ]
    },
    {
      "ref" : "de439938-4941-430f-8cdf-eebbea964eeb",
      "dependsOn" : [ ]
    },
    {
      "ref" : "9e16403d-5801-4f6a-9d4d-6817d61c9249",
      "dependsOn" : [ ]
    },
    {
      "ref" : "4f20d903-eb46-4413-bb3b-99e26786e39a",
      "dependsOn" : [ ]
    },
    {
      "ref" : "d52e2f75-ffaf-4a94-b198-dbd963f439ae",
      "dependsOn" : [ ]
    },
    {
      "ref" : "9966e96e-db7e-4743-ba0d-adc8c527210e",
      "dependsOn" : [ ]
    },
    {
      "ref" : "fae79fe5-ec3f-4d9e-be45-c9304d4fd1a5",
      "dependsOn" : [ ]
    },
    {
      "ref" : "c622a6fe-7d3c-42ad-af9d-6684884ec521",
      "dependsOn" : [ ]
    },
    {
      "ref" : "0c9c9cbe-189e-426e-84a6-081743741f8d",
      "dependsOn" : [ ]
    },
    {
      "ref" : "ca5882c1-9ce0-4de3-ab5a-08890160b095",
      "dependsOn" : [ ]
    },
    {
      "ref" : "72d777b4-9ed6-40f3-8b70-daa2b4b85255",
      "dependsOn" : [ ]
    },
    {
      "ref" : "ad1e9431-da01-48c3-b01b-c9fdad7da3a9",
      "dependsOn" : [ ]
    },
    {
      "ref" : "c91970dc-0490-4ce8-9240-0627d07af5c3",
      "dependsOn" : [ ]
    },
    {
      "ref" : "eef68aef-2609-4b16-b65d-45b69d7e5ff3",
      "dependsOn" : [ ]
    },
    {
      "ref" : "e13dae01-e993-4c82-97f5-516af1a11f27",
      "dependsOn" : [ ]
    },
    {
      "ref" : "15949e65-cadd-44e1-8292-624ebd16fdcc",
      "dependsOn" : [ ]
    },
    {
      "ref" : "45f0dd85-7f48-478d-bfb3-4199f1c23dcb",
      "dependsOn" : [ ]
    },
    {
      "ref" : "8a0f0218-7834-44c0-9877-abf0a4a9aeca",
      "dependsOn" : [ ]
    },
    {
      "ref" : "75af097e-6576-476a-8658-b4534a6b4e35",
      "dependsOn" : [ ]
    },
    {
      "ref" : "87c14aa1-d243-46cc-b6a8-8d7cda247e64",
      "dependsOn" : [ ]
    },
    {
      "ref" : "7890fed5-32c1-496e-99cb-42cadd602d53",
      "dependsOn" : [ ]
    },
    {
      "ref" : "5fd957cb-160f-45fc-90ad-7d3fe992a565",
      "dependsOn" : [ ]
    },
    {
      "ref" : "8fff5767-3986-4c9c-9282-f9e6f8768383",
      "dependsOn" : [ ]
    },
    {
      "ref" : "6483207a-382c-49fa-bbbd-40c33807f98f",
      "dependsOn" : [ ]
    },
    {
      "ref" : "cb2d9870-43f7-44af-99e6-2edfe83365c9",
      "dependsOn" : [ ]
    },
    {
      "ref" : "7c873320-fddd-44d4-9688-338450ae12bb",
      "dependsOn" : [ ]
    },
    {
      "ref" : "99070fdb-2ddb-4756-b490-71ef9def9d38",
      "dependsOn" : [ ]
    },
    {
      "ref" : "e9cecb62-f610-4bf6-b768-6f606e591bad",
      "dependsOn" : [ ]
    },
    {
      "ref" : "16a2b3e4-9d20-4c40-bbf3-87a1feff702c",
      "dependsOn" : [ ]
    },
    {
      "ref" : "ef686328-7cf0-40ef-995e-7ae3b10d7d74",
      "dependsOn" : [ ]
    },
    {
      "ref" : "1be5488c-8b9b-4ebc-ab46-7eae05ea3db2",
      "dependsOn" : [ ]
    },
    {
      "ref" : "6ec1b664-4e77-4a31-ac84-525ac5a81f6b",
      "dependsOn" : [ ]
    },
    {
      "ref" : "e42a6b59-7650-4fcc-9eb7-1713f82e38d2",
      "dependsOn" : [ ]
    },
    {
      "ref" : "ebc1878f-09a0-4f1b-9adc-2d170b91780a",
      "dependsOn" : [ ]
    },
    {
      "ref" : "7f58a03b-a2c2-4941-bdcd-f553b4d6f37c",
      "dependsOn" : [ ]
    },
    {
      "ref" : "26e6dbd5-90a5-43f4-997c-a52226913b9d",
      "dependsOn" : [ ]
    },
    {
      "ref" : "fbb1a3d2-7a22-4df9-b1d8-c647e0301e88",
      "dependsOn" : [ ]
    },
    {
      "ref" : "af5511ea-268b-4e7c-82dc-5fed393b5cdb",
      "dependsOn" : [ ]
    },
    {
      "ref" : "8b70151a-8d1f-4944-a765-ffcd05cc6826",
      "dependsOn" : [ ]
    },
    {
      "ref" : "fbc35d37-6b7a-439e-89eb-4b32f6fefa79",
      "dependsOn" : [ ]
    },
    {
      "ref" : "a96b9db5-e71f-4753-be7a-48aba2577186",
      "dependsOn" : [ ]
    },
    {
      "ref" : "c7260909-193b-4621-90f2-ba100de789f5",
      "dependsOn" : [ ]
    },
    {
      "ref" : "32c6591f-f337-46a8-9540-69ecb12300e4",
      "dependsOn" : [ ]
    },
    {
      "ref" : "795785e3-071d-4ae3-bad6-ae39b8b8c367",
      "dependsOn" : [ ]
    },
    {
      "ref" : "71a80b2e-f8ae-4148-b768-09e2cddee95a",
      "dependsOn" : [ ]
    },
    {
      "ref" : "385140e7-140b-4a93-a098-6457f9dbb4c0",
      "dependsOn" : [ ]
    },
    {
      "ref" : "b0e4aea5-1b8d-452d-b586-094e617cc4a6",
      "dependsOn" : [ ]
    },
    {
      "ref" : "3139fd4e-9b6b-4a90-a1f0-e90f6539a997",
      "dependsOn" : [ ]
    },
    {
      "ref" : "740c80a0-1ad3-4e0d-bad9-176e6aea2c42",
      "dependsOn" : [ ]
    },
    {
      "ref" : "2927a528-50ca-4ac4-bc9c-1df6bfbf0181",
      "dependsOn" : [ ]
    },
    {
      "ref" : "2b1850b2-1393-43f7-acb1-414cbee276d9",
      "dependsOn" : [ ]
    },
    {
      "ref" : "f68c2516-892e-4b7e-ac90-92ee337ab513",
      "dependsOn" : [ ]
    },
    {
      "ref" : "8a618c83-ec29-4f81-b7b9-d83ee18a1904",
      "dependsOn" : [ ]
    },
    {
      "ref" : "148b4a19-a137-4810-8265-f0a6ad7b95d6",
      "dependsOn" : [ ]
    },
    {
      "ref" : "502951de-009b-438c-994a-bfdfd4615057",
      "dependsOn" : [ ]
    },
    {
      "ref" : "cef10506-28f1-4ca7-b5a5-a84e72048daa",
      "dependsOn" : [ ]
    },
    {
      "ref" : "eb51ec80-71ca-4d88-8ea0-7af5ab6e210f",
      "dependsOn" : [ ]
    },
    {
      "ref" : "3b5bb08e-563d-43a5-9503-87006e02c943",
      "dependsOn" : [ ]
    },
    {
      "ref" : "074a0d16-53b4-4b80-bca7-28a35385e53e",
      "dependsOn" : [ ]
    },
    {
      "ref" : "476c7464-c2dd-420c-9618-c3f65293066a",
      "dependsOn" : [ ]
    },
    {
      "ref" : "1527fa31-affc-4151-b859-2c381b81a05d",
      "dependsOn" : [ ]
    },
    {
      "ref" : "897042ab-8192-4999-a655-e66739039f36",
      "dependsOn" : [ ]
    },
    {
      "ref" : "fc2b4122-23d8-4e6b-86a0-3fa47f13a665",
      "dependsOn" : [ ]
    },
    {
      "ref" : "142a38e9-3758-4a0f-9bf3-042d14f6f885",
      "dependsOn" : [ ]
    },
    {
      "ref" : "17fdc072-da5b-4e71-9b9d-4f604792dd02",
      "dependsOn" : [ ]
    },
    {
      "ref" : "21993b7d-0b66-4c17-a816-0d64068c88a5",
      "dependsOn" : [ ]
    },
    {
      "ref" : "94b9b230-80bb-45df-8c57-43de5cafc582",
      "dependsOn" : [
        "caf9fbf3-719b-49bb-a847-fdb056df5fc6",
        "60d00483-1110-4841-8d41-1630f13e61f9",
        "04ba3c43-7c5e-4749-bccb-cd21d9f0e1ab",
        "71938a98-cdb3-4498-9f76-fd0760f7276f",
        "16e7c39e-a8d8-49d1-8e51-c197b44a41d3",
        "0f011bf3-8bfe-4f06-9588-538fe381259c",
        "61637cc5-b00c-46e7-9b0e-0944a32e7426",
        "15949e65-cadd-44e1-8292-624ebd16fdcc",
        "45f0dd85-7f48-478d-bfb3-4199f1c23dcb",
        "75af097e-6576-476a-8658-b4534a6b4e35",
        "87c14aa1-d243-46cc-b6a8-8d7cda247e64",
        "5fd957cb-160f-45fc-90ad-7d3fe992a565",
        "cb2d9870-43f7-44af-99e6-2edfe83365c9",
        "6ec1b664-4e77-4a31-ac84-525ac5a81f6b",
        "e42a6b59-7650-4fcc-9eb7-1713f82e38d2",
        "ebc1878f-09a0-4f1b-9adc-2d170b91780a",
        "7f58a03b-a2c2-4941-bdcd-f553b4d6f37c",
        "8b70151a-8d1f-4944-a765-ffcd05cc6826",
        "fbc35d37-6b7a-439e-89eb-4b32f6fefa79",
        "a96b9db5-e71f-4753-be7a-48aba2577186",
        "c7260909-193b-4621-90f2-ba100de789f5",
        "32c6591f-f337-46a8-9540-69ecb12300e4",
        "795785e3-071d-4ae3-bad6-ae39b8b8c367",
        "71a80b2e-f8ae-4148-b768-09e2cddee95a",
        "385140e7-140b-4a93-a098-6457f9dbb4c0",
        "b0e4aea5-1b8d-452d-b586-094e617cc4a6",
        "2927a528-50ca-4ac4-bc9c-1df6bfbf0181",
        "2b1850b2-1393-43f7-acb1-414cbee276d9",
        "eb51ec80-71ca-4d88-8ea0-7af5ab6e210f",
        "3b5bb08e-563d-43a5-9503-87006e02c943",
        "074a0d16-53b4-4b80-bca7-28a35385e53e",
        "1527fa31-affc-4151-b859-2c381b81a05d",
        "fc2b4122-23d8-4e6b-86a0-3fa47f13a665",
        "142a38e9-3758-4a0f-9bf3-042d14f6f885",
        "17fdc072-da5b-4e71-9b9d-4f604792dd02"
      ]
    },
    {
      "ref" : "c4227f78-cf9d-46eb-9efd-b21765728ac0",
      "dependsOn" : [ ]
    },
    {
      "ref" : "20dcaeeb-eef8-4520-863b-77911c1e0a6b",
      "dependsOn" : [ ]
    },
    {
      "ref" : "a7b8e4d2-f12e-48e4-b046-a13aca07b011",
      "dependsOn" : [ ]
    }
  ],
  "vulnerabilities" : [
    {
      "bom-ref" : "d6c5947b-3c29-4df8-ba4e-f53c17f72167",
      "id" : "CVE-2018-1000888",
      "source" : {
        "name" : "NVD",
        "url" : "https://nvd.nist.gov/"
      },
      "ratings" : [
        {
          "source" : {
            "name" : "NVD",
            "url" : "https://nvd.nist.gov/"
          },
          "score" : 6.8,
          "severity" : "medium",
          "method" : "CVSSv2",
          "vector" : "(AV:N/AC:M/Au:N/C:P/I:P/A:P)"
        },
        {
          "source" : {
            "name" : "NVD",
            "url" : "https://nvd.nist.gov/"
          },
          "score" : 8.8,
          "severity" : "high",
          "method" : "CVSSv3",
          "vector" : "CVSS:3.0/AV:N/AC:L/PR:N/UI:R/S:U/C:H/I:H/A:H"
        }
      ],
      "cwes" : [
        502
      ],
      "description" : "PEAR Archive_Tar version 1.4.3 and earlier contains a CWE-502, CWE-915 vulnerability in the Archive_Tar class. There are several file operations with `$v_header['filename']` as parameter (such as file_exists, is_file, is_dir, etc). When extract is called without a specific prefix path, we can trigger unserialization by crafting a tar file with `phar://[path_to_malicious_phar_file]` as path. Object injection can be used to trigger destruct in the loaded PHP classes, e.g. the Archive_Tar class itself. With Archive_Tar object injection, arbitrary file deletion can occur because `@unlink($this->_temp_tarname)` is called. If another class with useful gadget is loaded, it may possible to cause remote code execution that can result in files being deleted or possibly modified. This vulnerability appears to have been fixed in 1.4.4.",
      "published" : "2018-12-28T16:29:00Z",
      "updated" : "2020-06-15T18:15:00Z",
      "affects" : [
        {
          "ref" : "6ec1b664-4e77-4a31-ac84-525ac5a81f6b"
        }
      ]
    },
    {
      "bom-ref" : "4953c3f8-c95a-4d32-8675-034a7d3445c1",
      "id" : "CVE-2021-32610",
      "source" : {
        "name" : "NVD",
        "url" : "https://nvd.nist.gov/"
      },
      "ratings" : [
        {
          "source" : {
            "name" : "NVD",
            "url" : "https://nvd.nist.gov/"
          },
          "score" : 3.6,
          "severity" : "low",
          "method" : "CVSSv2",
          "vector" : "(AV:L/AC:L/Au:N/C:P/I:P/A:N)"
        },
        {
          "source" : {
            "name" : "NVD",
            "url" : "https://nvd.nist.gov/"
          },
          "score" : 7.1,
          "severity" : "high",
          "method" : "CVSSv3",
          "vector" : "CVSS:3.0/AV:L/AC:L/PR:L/UI:N/S:U/C:H/I:H/A:N"
        }
      ],
      "cwes" : [
        59
      ],
      "description" : "In Archive_Tar before 1.4.14, symlinks can refer to targets outside of the extracted archive, a different vulnerability than CVE-2020-36193.",
      "published" : "2021-07-30T14:15:00Z",
      "updated" : "2022-01-01T17:55:00Z",
      "affects" : [
        {
          "ref" : "6ec1b664-4e77-4a31-ac84-525ac5a81f6b"
        }
      ]
    },
    {
      "bom-ref" : "75ed9359-98ac-491a-8162-cf5ae8081912",
      "id" : "CVE-2018-17057",
      "source" : {
        "name" : "NVD",
        "url" : "https://nvd.nist.gov/"
      },
      "ratings" : [
        {
          "source" : {
            "name" : "NVD",
            "url" : "https://nvd.nist.gov/"
          },
          "score" : 7.5,
          "severity" : "high",
          "method" : "CVSSv2",
          "vector" : "(AV:N/AC:L/Au:N/C:P/I:P/A:P)"
        },
        {
          "source" : {
            "name" : "NVD",
            "url" : "https://nvd.nist.gov/"
          },
          "score" : 9.8,
          "severity" : "critical",
          "method" : "CVSSv3",
          "vector" : "CVSS:3.0/AV:N/AC:L/PR:N/UI:N/S:U/C:H/I:H/A:H"
        }
      ],
      "cwes" : [
        502
      ],
      "description" : "An issue was discovered in TCPDF before 6.2.22. Attackers can trigger deserialization of arbitrary data via the phar:// wrapper.",
      "published" : "2018-09-14T20:29:00Z",
      "updated" : "2019-04-26T16:38:00Z",
      "affects" : [
        {
          "ref" : "fc2b4122-23d8-4e6b-86a0-3fa47f13a665"
        }
      ]
    },
    {
      "bom-ref" : "f5e86a8b-5623-4361-970c-786793d4447f",
      "id" : "CVE-2019-10768",
      "source" : {
        "name" : "NVD",
        "url" : "https://nvd.nist.gov/"
      },
      "ratings" : [
        {
          "source" : {
            "name" : "NVD",
            "url" : "https://nvd.nist.gov/"
          },
          "score" : 5.0,
          "severity" : "medium",
          "method" : "CVSSv2",
          "vector" : "(AV:N/AC:L/Au:N/C:N/I:P/A:N)"
        },
        {
          "source" : {
            "name" : "NVD",
            "url" : "https://nvd.nist.gov/"
          },
          "score" : 7.5,
          "severity" : "high",
          "method" : "CVSSv3",
          "vector" : "CVSS:3.0/AV:N/AC:L/PR:N/UI:N/S:U/C:N/I:H/A:N"
        }
      ],
      "cwes" : [
        1321
      ],
      "description" : "In AngularJS before 1.7.9 the function `merge()` could be tricked into adding or modifying properties of `Object.prototype` using a `__proto__` payload.",
      "published" : "2019-11-19T21:15:00Z",
      "updated" : "2022-12-02T19:31:00Z",
      "affects" : [
        {
          "ref" : "69bc6619-0fd7-4d8c-9492-d34f456cc716"
        }
      ]
    },
    {
      "bom-ref" : "674074da-f0c9-4210-866a-044fd01ebbdd",
      "id" : "CVE-2022-25869",
      "source" : {
        "name" : "NVD",
        "url" : "https://nvd.nist.gov/"
      },
      "ratings" : [
        {
          "source" : {
            "name" : "NVD",
            "url" : "https://nvd.nist.gov/"
          },
          "score" : 6.1,
          "severity" : "medium",
          "method" : "CVSSv3",
          "vector" : "CVSS:3.0/AV:N/AC:L/PR:N/UI:R/S:C/C:L/I:L/A:N"
        }
      ],
      "cwes" : [
        79
      ],
      "description" : "All versions of package angular are vulnerable to Cross-site Scripting (XSS) due to insecure page caching in the Internet Explorer browser, which allows interpolation of <textarea> elements.",
      "published" : "2022-07-15T20:15:00Z",
      "updated" : "2022-07-21T14:32:00Z",
      "affects" : [
        {
          "ref" : "69bc6619-0fd7-4d8c-9492-d34f456cc716"
        }
      ]
    },
    {
      "bom-ref" : "9a12107d-7aea-4037-809c-d12cac60632f",
      "id" : "CVE-2023-26116",
      "source" : {
        "name" : "NVD",
        "url" : "https://nvd.nist.gov/"
      },
      "ratings" : [
        {
          "source" : {
            "name" : "NVD",
            "url" : "https://nvd.nist.gov/"
          },
          "score" : 5.3,
          "severity" : "medium",
          "method" : "CVSSv3",
          "vector" : "CVSS:3.0/AV:N/AC:L/PR:N/UI:N/S:U/C:N/I:N/A:L"
        }
      ],
      "cwes" : [
        1333
      ],
      "description" : "Versions of the package angular from 1.2.21 are vulnerable to Regular Expression Denial of Service (ReDoS) via the angular.copy() utility function due to the usage of an insecure regular expression. Exploiting this vulnerability is possible by a large carefully-crafted input, which can result in catastrophic backtracking.",
      "published" : "2023-03-30T05:15:00Z",
      "updated" : "2023-05-30T17:18:00Z",
      "affects" : [
        {
          "ref" : "69bc6619-0fd7-4d8c-9492-d34f456cc716"
        }
      ]
    },
    {
      "bom-ref" : "5e5c340e-fe25-4d5d-ba8a-a36d54fff84d",
      "id" : "CVE-2023-26118",
      "source" : {
        "name" : "NVD",
        "url" : "https://nvd.nist.gov/"
      },
      "ratings" : [
        {
          "source" : {
            "name" : "NVD",
            "url" : "https://nvd.nist.gov/"
          },
          "score" : 5.3,
          "severity" : "medium",
          "method" : "CVSSv3",
          "vector" : "CVSS:3.0/AV:N/AC:L/PR:N/UI:N/S:U/C:N/I:N/A:L"
        }
      ],
      "cwes" : [
        1333
      ],
      "description" : "Versions of the package angular from 1.4.9 are vulnerable to Regular Expression Denial of Service (ReDoS) via the <input type=\"url\"> element due to the usage of an insecure regular expression in the input[url] functionality. Exploiting this vulnerability is possible by a large carefully-crafted input, which can result in catastrophic backtracking.",
      "published" : "2023-03-30T05:15:00Z",
      "updated" : "2023-05-30T17:20:00Z",
      "affects" : [
        {
          "ref" : "69bc6619-0fd7-4d8c-9492-d34f456cc716"
        }
      ]
    },
    {
      "bom-ref" : "27418bb9-5144-4055-a4b7-bf6a03140292",
      "id" : "CVE-2020-7676",
      "source" : {
        "name" : "NVD",
        "url" : "https://nvd.nist.gov/"
      },
      "ratings" : [
        {
          "source" : {
            "name" : "NVD",
            "url" : "https://nvd.nist.gov/"
          },
          "score" : 3.5,
          "severity" : "low",
          "method" : "CVSSv2",
          "vector" : "(AV:N/AC:M/Au:S/C:N/I:P/A:N)"
        },
        {
          "source" : {
            "name" : "NVD",
            "url" : "https://nvd.nist.gov/"
          },
          "score" : 5.4,
          "severity" : "medium",
          "method" : "CVSSv3",
          "vector" : "CVSS:3.0/AV:N/AC:L/PR:L/UI:R/S:C/C:L/I:L/A:N"
        }
      ],
      "cwes" : [
        79
      ],
      "description" : "angular.js prior to 1.8.0 allows cross site scripting. The regex-based input HTML replacement may turn sanitized code into unsanitized one. Wrapping \"<option>\" elements in \"<select>\" ones changes parsing behavior, leading to possibly unsanitizing code.",
      "published" : "2020-06-08T14:15:00Z",
      "updated" : "2020-10-09T16:15:00Z",
      "affects" : [
        {
          "ref" : "69bc6619-0fd7-4d8c-9492-d34f456cc716"
        }
      ]
    },
    {
      "bom-ref" : "6193858d-18c2-41e1-b80d-c71dfd4e6b63",
      "id" : "CVE-2021-41182",
      "source" : {
        "name" : "NVD",
        "url" : "https://nvd.nist.gov/"
      },
      "ratings" : [
        {
          "source" : {
            "name" : "NVD",
            "url" : "https://nvd.nist.gov/"
          },
          "score" : 4.3,
          "severity" : "medium",
          "method" : "CVSSv2",
          "vector" : "(AV:N/AC:M/Au:N/C:N/I:P/A:N)"
        },
        {
          "source" : {
            "name" : "NVD",
            "url" : "https://nvd.nist.gov/"
          },
          "score" : 6.1,
          "severity" : "medium",
          "method" : "CVSSv3",
          "vector" : "CVSS:3.0/AV:N/AC:L/PR:N/UI:R/S:C/C:L/I:L/A:N"
        }
      ],
      "cwes" : [
        79
      ],
      "description" : "jQuery-UI is the official jQuery user interface library. Prior to version 1.13.0, accepting the value of the `altField` option of the Datepicker widget from untrusted sources may execute untrusted code. The issue is fixed in jQuery UI 1.13.0. Any string value passed to the `altField` option is now treated as a CSS selector. A workaround is to not accept the value of the `altField` option from untrusted sources.",
      "published" : "2021-10-26T15:15:00Z",
      "updated" : "2023-06-21T18:26:00Z",
      "affects" : [
        {
          "ref" : "58801376-7676-4471-9c92-0e8e3c32fdef"
        }
      ]
    },
    {
      "bom-ref" : "2578d302-11f7-4ee5-ac0b-8a18195f79c3",
      "id" : "CVE-2021-41183",
      "source" : {
        "name" : "NVD",
        "url" : "https://nvd.nist.gov/"
      },
      "ratings" : [
        {
          "source" : {
            "name" : "NVD",
            "url" : "https://nvd.nist.gov/"
          },
          "score" : 4.3,
          "severity" : "medium",
          "method" : "CVSSv2",
          "vector" : "(AV:N/AC:M/Au:N/C:N/I:P/A:N)"
        },
        {
          "source" : {
            "name" : "NVD",
            "url" : "https://nvd.nist.gov/"
          },
          "score" : 6.1,
          "severity" : "medium",
          "method" : "CVSSv3",
          "vector" : "CVSS:3.0/AV:N/AC:L/PR:N/UI:R/S:C/C:L/I:L/A:N"
        }
      ],
      "cwes" : [
        79
      ],
      "description" : "jQuery-UI is the official jQuery user interface library. Prior to version 1.13.0, accepting the value of various `*Text` options of the Datepicker widget from untrusted sources may execute untrusted code. The issue is fixed in jQuery UI 1.13.0. The values passed to various `*Text` options are now always treated as pure text, not HTML. A workaround is to not accept the value of the `*Text` options from untrusted sources.",
      "published" : "2021-10-26T15:15:00Z",
      "updated" : "2023-06-21T18:23:00Z",
      "affects" : [
        {
          "ref" : "58801376-7676-4471-9c92-0e8e3c32fdef"
        }
      ]
    },
    {
      "bom-ref" : "fca13c3b-5feb-4e86-9ed6-d1147b1e397a",
      "id" : "CVE-2021-41184",
      "source" : {
        "name" : "NVD",
        "url" : "https://nvd.nist.gov/"
      },
      "ratings" : [
        {
          "source" : {
            "name" : "NVD",
            "url" : "https://nvd.nist.gov/"
          },
          "score" : 4.3,
          "severity" : "medium",
          "method" : "CVSSv2",
          "vector" : "(AV:N/AC:M/Au:N/C:N/I:P/A:N)"
        },
        {
          "source" : {
            "name" : "NVD",
            "url" : "https://nvd.nist.gov/"
          },
          "score" : 6.1,
          "severity" : "medium",
          "method" : "CVSSv3",
          "vector" : "CVSS:3.0/AV:N/AC:L/PR:N/UI:R/S:C/C:L/I:L/A:N"
        }
      ],
      "cwes" : [
        79
      ],
      "description" : "jQuery-UI is the official jQuery user interface library. Prior to version 1.13.0, accepting the value of the `of` option of the `.position()` util from untrusted sources may execute untrusted code. The issue is fixed in jQuery UI 1.13.0. Any string value passed to the `of` option is now treated as a CSS selector. A workaround is to not accept the value of the `of` option from untrusted sources.",
      "published" : "2021-10-26T15:15:00Z",
      "updated" : "2023-06-21T18:26:00Z",
      "affects" : [
        {
          "ref" : "58801376-7676-4471-9c92-0e8e3c32fdef"
        }
      ]
    },
    {
      "bom-ref" : "7a113b6c-ea9e-4944-a9e3-f34387c0a2c2",
      "id" : "CVE-2016-7103",
      "source" : {
        "name" : "NVD",
        "url" : "https://nvd.nist.gov/"
      },
      "ratings" : [
        {
          "source" : {
            "name" : "NVD",
            "url" : "https://nvd.nist.gov/"
          },
          "score" : 4.3,
          "severity" : "medium",
          "method" : "CVSSv2",
          "vector" : "(AV:N/AC:M/Au:N/C:N/I:P/A:N)"
        },
        {
          "source" : {
            "name" : "NVD",
            "url" : "https://nvd.nist.gov/"
          },
          "score" : 6.1,
          "severity" : "medium",
          "method" : "CVSSv3",
          "vector" : "CVSS:3.0/AV:N/AC:L/PR:N/UI:R/S:C/C:L/I:L/A:N"
        }
      ],
      "cwes" : [
        79
      ],
      "description" : "Cross-site scripting (XSS) vulnerability in jQuery UI before 1.12.0 might allow remote attackers to inject arbitrary web script or HTML via the closeText parameter of the dialog function.",
      "published" : "2017-03-15T16:59:00Z",
      "updated" : "2023-06-21T17:50:00Z",
      "affects" : [
        {
          "ref" : "58801376-7676-4471-9c92-0e8e3c32fdef"
        }
      ]
    }
  ]
}